<?xml version="1.0" encoding="UTF-8" standalone="no"?>
<svg
   xmlns:dc="http://purl.org/dc/elements/1.1/"
   xmlns:cc="http://creativecommons.org/ns#"
   xmlns:rdf="http://www.w3.org/1999/02/22-rdf-syntax-ns#"
   xmlns:svg="http://www.w3.org/2000/svg"
   xmlns="http://www.w3.org/2000/svg"
   xmlns:xlink="http://www.w3.org/1999/xlink"
   xmlns:sodipodi="http://sodipodi.sourceforge.net/DTD/sodipodi-0.dtd"
   xmlns:inkscape="http://www.inkscape.org/namespaces/inkscape"
   id="svg2"
   version="1.1"
   inkscape:version="1.0.2-2 (e86c870879, 2021-01-15)"
   width="2481"
   height="3503"
   sodipodi:docname="E34P05.svg">
  <metadata
     id="metadata8">
    <rdf:RDF>
      <cc:Work
         rdf:about="">
        <dc:format>image/svg+xml</dc:format>
        <dc:type
           rdf:resource="http://purl.org/dc/dcmitype/StillImage" />
        <dc:title />
      </cc:Work>
    </rdf:RDF>
  </metadata>
  <defs
     id="defs6">
    <filter
       style="color-interpolation-filters:sRGB"
       id="filter4375-4-1-1-1-9-5-8-8-5-5-3-3"
       inkscape:label="soundFX1">
      <feFlood
         id="feFlood4377-7-9-0-8-1-7-3-1-2-7-6-6"
         flood-opacity="1"
         flood-color="rgb(52,52,52)"
         result="flood" />
      <feComposite
         id="feComposite4379-3-8-8-2-77-4-1-0-6-4-7-7"
         in2="SourceGraphic"
         in="flood"
         operator="in"
         result="composite1"
         baseFrequency="0.053999999999999999 0.053999999999999999" />
      <feMorphology
         id="feMorphology4393-1-0-49-8-9-3-0-1-9-9-5-5"
         operator="dilate"
         radius="4.0330969769021738"
         result="result3" />
      <feComposite
         id="feComposite4385-9-5-7-0-8-8-7-5-4-9-3-3"
         in2="result3"
         in="SourceGraphic"
         operator="over"
         result="fbSourceGraphic" />
      <feColorMatrix
         result="fbSourceGraphicAlpha"
         in="fbSourceGraphic"
         values="0 0 0 -1 0 0 0 0 -1 0 0 0 0 -1 0 0 0 0 1 0"
         id="feColorMatrix4544-9-4-4-5-5" />
      <feTurbulence
         id="feTurbulence4546-3-6-5-6-6"
         type="fractalNoise"
         numOctaves="4"
         seed="147"
         baseFrequency="0.053999999999999999 0.054054054054054057"
         result="turbulence" />
      <feDisplacementMap
         id="feDisplacementMap4548-8-0-9-2-2"
         in2="turbulence"
         in="fbSourceGraphic"
         scale="10.561763"
         yChannelSelector="G"
         xChannelSelector="R"
         result="fbSourceGraphic" />
      <feColorMatrix
         result="fbSourceGraphicAlpha"
         in="fbSourceGraphic"
         values="0 0 0 -1 0 0 0 0 -1 0 0 0 0 -1 0 0 0 0 1 0"
         id="feColorMatrix4670-7-7-3-9-9" />
      <feFlood
         id="feFlood4672-4-4-5-1-1"
         flood-opacity="1"
         flood-color="rgb(28,28,28)"
         result="flood"
         in="fbSourceGraphic" />
      <feComposite
         id="feComposite4674-8-3-7-2-2"
         in2="fbSourceGraphic"
         in="flood"
         operator="in"
         result="composite1" />
      <feGaussianBlur
         id="feGaussianBlur4676-3-7-08-7-7"
         in="composite1"
         stdDeviation="0"
         result="blur" />
      <feOffset
         id="feOffset4678-6-9-1-0-0"
         dx="-10.48377497279229"
         dy="0.39217365321829334"
         result="offset" />
      <feComposite
         id="feComposite4680-4-0-9-9-9"
         in2="offset"
         in="fbSourceGraphic"
         operator="over"
         result="composite2" />
    </filter>
    <filter
       inkscape:collect="always"
       style="color-interpolation-filters:sRGB"
       id="filter1624"
       x="-0.066465521"
       width="1.132931"
       y="-0.12921093"
       height="1.2584219">
      <feGaussianBlur
         inkscape:collect="always"
         stdDeviation="4.7367523"
         id="feGaussianBlur1626" />
    </filter>
    <filter
       inkscape:collect="always"
       style="color-interpolation-filters:sRGB"
       id="filter1624-1"
       x="-0.066465519"
       width="1.132931"
       y="-0.12921093"
       height="1.2584219">
      <feGaussianBlur
         inkscape:collect="always"
         stdDeviation="4.7367523"
         id="feGaussianBlur1626-9" />
    </filter>
    <filter
       inkscape:collect="always"
       style="color-interpolation-filters:sRGB"
       id="filter1624-1-7"
       x="-0.066465519"
       width="1.132931"
       y="-0.12921093"
       height="1.2584219">
      <feGaussianBlur
         inkscape:collect="always"
         stdDeviation="4.7367523"
         id="feGaussianBlur1626-9-8" />
    </filter>
  </defs>
  <sodipodi:namedview
     pagecolor="#ffffff"
     bordercolor="#666666"
     borderopacity="1"
     objecttolerance="10"
     gridtolerance="10"
     guidetolerance="10"
     inkscape:pageopacity="0"
     inkscape:pageshadow="2"
     inkscape:window-width="1366"
     inkscape:window-height="745"
     id="namedview4"
     showgrid="false"
     inkscape:zoom="0.52900004"
     inkscape:cx="1464.2511"
     inkscape:cy="2290.849"
     inkscape:window-x="-8"
     inkscape:window-y="-8"
     inkscape:window-maximized="1"
     inkscape:current-layer="layer1"
     inkscape:document-rotation="0"
     inkscape:snap-global="false"
     borderlayer="true" />
  <g
     inkscape:groupmode="layer"
     id="layer2"
     inkscape:label="artwork"
     sodipodi:insensitive="true">
    <image
       sodipodi:absref="C:\Users\quentinlipeck\Downloads\webcomics-master-ec7d62e6553c2c63bb1cf2e799ee31f9cb9ce5e2\webcomics-master-ec7d62e6553c2c63bb1cf2e799ee31f9cb9ce5e2\ep34_The-Knighting-of-Shichimi\lang\gfx_Pepper-and-Carrot_by-David-Revoy_E34P05.png"
       xlink:href="../gfx_Pepper-and-Carrot_by-David-Revoy_E34P05.png"
       y="0"
       x="0"
       id="image10"
       height="3503"
       width="2481" />
  </g>
  <g
     inkscape:groupmode="layer"
     id="layer3"
     inkscape:label="speechbubbles"
     style="display:inline">
    <path
       style="display:inline;fill:#ffffff;fill-rule:evenodd;stroke:none;stroke-width:1.02883px;stroke-linecap:butt;stroke-linejoin:miter;stroke-opacity:1"
       d="m 2151.0717,845.6283 c -28.3337,0.0348 -56.6365,1.36322 -84.823,3.48151 -15.0032,0.89253 -29.4755,4.30772 -43.7344,7.74302 -13.3358,3.40039 -26.6512,7.06364 -39.0476,12.13708 -16.0523,6.76945 -30.4331,16.73364 -37.6825,29.68896 -6.0888,10.38379 -9.6692,21.49368 -12.4608,32.6113 -4.1793,21.53855 2.7926,44.63257 21.2414,61.63055 21.0653,19.82908 54.3711,31.51588 87.9324,32.00258 70.7979,4.9555 142.4983,6.9014 213.1066,-0.6644 23.6549,-2.595 47.4905,-8.1054 66.4668,-19.4275 20.7839,-12.58037 31.9255,-32.84937 31.7617,-52.72853 0.1017,-18.85429 -10.1202,-37.17294 -25.8984,-51.60299 -18.7816,-17.60095 -44.7428,-30.12888 -72.3128,-38.54191 -26.7721,-8.4888 -55.1388,-14.62654 -84.2451,-15.91932 -6.7572,-0.34572 -13.5325,-0.467 -20.3043,-0.41035 z"
       id="path1076"
       inkscape:connector-curvature="0" />
    <path
       style="color:#000000;display:inline;overflow:visible;visibility:visible;fill:#ffffff;fill-opacity:1;fill-rule:nonzero;stroke:none;stroke-width:1.24777px;marker:none;enable-background:accumulate"
       d="m 1423.6104,65.118914 c -16.7521,0.718328 -32.5416,7.837254 -49.5693,5.816062 -13.0309,-1.081429 -27.5135,-1.063364 -38.5246,5.383365 -9.7767,6.066499 -14.8515,15.677624 -17.4902,25.050669 -2.6488,10.52906 -2.6793,21.31979 -3.5825,31.99695 -2.221,42.23585 3.4752,84.3633 5.5924,126.52449 1.0749,17.50071 2.1051,35.24942 8.293,52.17154 2.5492,4.9626 8.1115,8.48524 13.4236,11.5689 9.5735,5.04063 20.3477,8.37885 30.7753,12.11287 32.233,10.40605 67.1194,13.78242 101.4869,16.52351 45.7238,2.87619 91.2428,-3.10504 136.6784,-6.2489 26.1055,-2.14381 53.0072,-4.73661 76.5467,-14.59873 22.5665,-10.17151 37.974,-27.81799 48.5281,-46.21028 15.1741,-26.00608 21.5354,-55.95666 13.2173,-84.12473 -6.8965,-25.33449 -18.4194,-50.73 -40.1658,-70.52937 -14.3133,-12.85653 -33.5018,-21.95459 -54.1124,-26.92113 -21.5953,-5.8754 -43.6093,-10.801228 -64.8247,-17.534866 -24.4179,-7.108823 -49.7459,-12.573852 -75.7113,-14.476544 -21.9125,-1.918349 -43.8949,-3.329336 -65.7677,-5.526614 -8.2394,-0.627904 -16.5124,-1.043419 -24.7932,-0.977192 z"
       id="path4546-6-5-5"
       inkscape:connector-curvature="0"
       sodipodi:nodetypes="cssssccccccccccccc" />
    <path
       style="color:#000000;display:inline;overflow:visible;visibility:visible;fill:#ffffff;fill-opacity:1;fill-rule:nonzero;stroke:none;stroke-width:0.600991px;marker:none;enable-background:accumulate"
       d="m 670.35742,769.71094 c -12.2973,0.9647 -24.88043,3.61674 -35.31645,10.49777 -8.26937,6.01073 -15.67977,13.16759 -22.32417,20.92215 -6.62645,7.92618 -12.45435,16.68654 -16.1348,26.37998 -3.14551,10.49958 -1.35181,21.73717 1.78536,32.01289 2.82779,8.96948 7.68064,17.87175 15.78303,23.07197 6.94429,4.14841 15.32919,4.36127 23.18225,3.9754 9.46419,-0.29273 19.23433,0.27025 28.00976,4.15103 9.04638,3.43181 18.21763,7.73729 28.11679,7.43852 13.77277,-0.35998 26.75813,-6.06737 38.3739,-13.09874 14.74173,-9.08988 26.7992,-23.24144 31.53588,-40.07628 2.84106,-10.03042 2.47383,-20.87049 -0.8408,-30.74109 -3.01302,-9.29937 -7.98249,-18.10356 -15.00292,-24.96219 -5.74301,-5.42623 -13.1915,-8.71524 -20.86833,-10.30244 -10.75987,-2.41067 -21.91535,-2.58388 -32.57378,-5.52158 -7.80876,-1.66324 -15.63484,-4.45051 -23.72572,-3.74739 z"
       id="path4040-41"
       inkscape:connector-curvature="0"
       sodipodi:nodetypes="zssssz" />
    <path
       style="color:#000000;display:inline;overflow:visible;visibility:visible;fill:#ffffff;fill-opacity:1;fill-rule:nonzero;stroke:none;stroke-width:1.01471px;marker:none;enable-background:accumulate"
       d="m 566.35019,294.92188 c -35.61019,0.52894 -71.58606,1.20542 -106.4408,10.07138 -10.24957,2.5029 -20.25952,7.05158 -28.25296,14.64504 -7.61793,6.92199 -13.79819,16.57887 -14.68222,27.62133 -0.98118,10.00446 0.55861,20.03515 2.0505,29.88295 2.01202,10.72435 6.47529,21.50126 14.76451,28.10742 10.26419,8.67822 22.84081,12.92409 34.85454,17.75407 24.50749,8.97683 50.59525,10.74304 76.26126,10.72165 40.13249,0.24417 80.32853,-2.07645 120.0938,-8.12962 18.19168,-3.52183 35.30776,-15.03886 45.34485,-32.15893 6.08475,-10.8684 8.38323,-24.51234 4.97218,-36.83872 -5.97707,-25.29193 -25.83958,-45.27497 -48.7198,-51.78308 -15.0356,-4.49459 -30.6464,-5.75471 -46.07622,-7.66458 -18.00694,-1.76751 -36.09629,-2.30343 -54.16964,-2.22891 z"
       id="path4040-4-5-3-6"
       inkscape:connector-curvature="0"
       sodipodi:nodetypes="zssssz" />
    <path
       style="fill:#ffffff;fill-rule:evenodd;stroke:none;stroke-width:0.964266px;stroke-linecap:butt;stroke-linejoin:miter;stroke-opacity:1"
       d="m 576.00663,142.33947 c -26.51859,0.0517 -52.95642,2.42567 -79.46208,2.95318 -24.96124,0.72823 -50.04943,1.16457 -74.74701,5.09163 -18.00412,2.70332 -35.58158,9.33643 -50.02399,20.22899 -7.16083,5.36699 -13.07355,12.07447 -18.99348,18.66276 -5.87017,6.85455 -11.41936,14.18465 -14.82207,22.52312 -5.26183,13.71066 -5.29343,28.96386 -1.71869,43.06611 3.18682,11.63041 10.55621,22.07845 20.52658,29.22676 11.30197,8.33101 24.86994,13.20721 38.52779,16.51825 20.71066,4.68509 42.09532,4.66727 63.22172,5.69376 65.34856,2.40595 130.75617,0.25128 196.05919,-2.38505 29.93838,-1.89197 60.15749,-4.08765 89.13556,-12.09527 13.57666,-5.97769 24.29082,-16.80661 32.27293,-28.82207 6.97844,-12.1394 8.13625,-26.5575 6.68948,-40.15396 -1.5446,-17.82495 -10.27523,-35.18526 -24.64265,-46.55286 -18.72769,-16.27426 -43.12371,-25.56866 -67.909,-28.4824 -17.81667,-2.48936 -35.75445,-4.38981 -53.75631,-4.87903 -17.54508,-0.0135 -35.0854,-0.43473 -52.62875,-0.58909 -2.57637,-0.0197 -5.1528,-0.006 -7.72922,-0.005 z"
       id="path1299"
       inkscape:connector-curvature="0" />
    <path
       style="color:#000000;display:inline;overflow:visible;visibility:visible;fill:#ffffff;fill-opacity:1;fill-rule:nonzero;stroke:none;stroke-width:1px;marker:none;enable-background:accumulate"
       d="m 601.64274,401.13421 c -14.17455,40.88456 44.77094,72.82978 100.67006,54.05497 -23.16137,8.79652 -79.7912,49.66875 -144.52484,-46.85819 -30.03766,-44.79037 28.99451,-4.6799 28.99451,-4.6799 z"
       id="path4035-4"
       inkscape:connector-curvature="0"
       sodipodi:nodetypes="ccscc" />
    <path
       style="color:#000000;display:inline;overflow:visible;visibility:visible;fill:#ffffff;fill-opacity:1;fill-rule:nonzero;stroke:none;stroke-width:0.65663px;marker:none;enable-background:accumulate"
       d="m 611.41244,701.29174 c 17.11413,0.19349 18.72502,1.92575 19.18724,12.28702 0.46185,10.36191 -1.67076,26.02679 10.09463,35.89667 11.76506,9.87056 19.1963,13.36617 25.49665,11.79439 -5.19491,13.1306 -2.83584,31.62853 -10.75775,36.51466 -7.9219,4.88611 26.05967,-2.07377 26.05967,-2.07377 0,0 9.21399,-27.86213 6.82755,-44.34007 -2.3864,-16.4779 -28.23087,-11.38908 -37.42309,-16.46871 -9.19219,-5.07958 -7.20814,-26.722 -13.49221,-32.72081 -6.28377,-5.99953 -17.59228,-2.98484 -25.99269,-0.88938 z"
       id="path4538-7"
       inkscape:connector-curvature="0"
       sodipodi:nodetypes="ccscccsscc" />
    <path
       style="color:#000000;display:inline;overflow:visible;visibility:visible;fill:#ffffff;fill-opacity:1;fill-rule:nonzero;stroke:none;stroke-width:1.01366px;marker:none;enable-background:accumulate"
       d="m 1598.5835,496.86203 c 14.1467,-11.40413 29.0076,-23.09483 38.4486,-39.96949 2.5984,-4.85383 4.9981,-10.05752 6.0756,-15.49957 0.016,-5.8546 -3.8969,-10.34151 -8.4908,-12.17778 -6.4361,-3.18874 -14.5628,-3.42982 -19.4026,-9.63069 -3.4195,-4.61758 -1.8272,-11.14779 -0.9156,-16.72114 2.5699,-14.17326 6.8395,-28.1699 7.4104,-42.5769 1.5793,-16.24635 2.1988,-33.38893 -3.7408,-48.10801 -2.4394,-5.7727 -5.7341,-11.37091 -10.8601,-14.41865 -12.7918,-8.51566 -30.6307,-8.53627 -43.8564,1.70558 -7.9407,7.39354 -10.3193,22.05002 -3.5557,30.23691 3.5085,4.38614 9.2515,5.18736 14.4155,4.19228 9.6748,0.1491 18.2991,6.65319 22.6959,15.89335 3.7428,7.54995 5.2552,16.51182 4.6927,25.40135 2.0644,12.09608 -3.5504,23.92983 -6.6517,35.52848 -1.3509,5.3164 -2.467,11.0518 -1.4466,16.34944 3.0779,7.03972 10.5313,8.927 17.0498,9.68941 6.6944,0.98385 14.6099,1.26357 18.9566,7.63463 3.5752,3.9219 -0.1424,9.62907 -1.3852,14.17636 -5.6681,14.18394 -15.0865,26.49538 -26.0468,36.02362 -1.0987,0.82439 -2.2436,1.54861 -3.3927,2.27078 z"
       id="path4496-9"
       inkscape:connector-curvature="0"
       inkscape:transform-center-x="21.004464"
       inkscape:transform-center-y="-25.902749" />
    <path
       style="color:#000000;display:inline;overflow:visible;visibility:visible;fill:#ffffff;fill-opacity:1;fill-rule:nonzero;stroke:none;stroke-width:1.03729px;marker:none;enable-background:accumulate"
       d="m 2109.2559,751.99134 c -20.4103,6.10083 -40.0468,16.85113 -53.8,33.41265 -10.7709,14.46078 -16.5835,31.98514 -19.9326,49.53175 -1.4068,8.93082 -2.2092,18.35818 0.5,27.10829 3.2554,6.18918 11.8987,8.09797 17.7559,4.53442 7.5966,-3.5917 11.8306,-12.98928 9.3278,-21.03888 -1.6093,-16.53808 1.3652,-33.26989 6.7533,-48.89003 5.7833,-15.14652 16.5635,-28.06938 29.7192,-37.41611 3.7487,-2.79439 7.6932,-5.31046 11.6413,-7.81045 -0.655,0.18946 -1.3099,0.37891 -1.9649,0.56836 z"
       id="path5010-4"
       inkscape:connector-curvature="0"
       sodipodi:nodetypes="ccsc" />
    <path
       style="fill:#ffffff;stroke:none;stroke-width:1.00962"
       d="m 1694.6966,1472.3525 c -45.2399,1.9207 -89.88,23.5759 -116.9189,59.5519 -10.3545,14.1662 -14.9862,31.5853 -16.061,48.8011 -2.6607,26.1893 -2.2577,52.5488 -2.6945,78.8283 0.848,18.42 7.3076,37.3301 21.215,50.2307 17.3346,17.5119 41.5517,26.7038 65.7103,30.6406 38.0695,7.059 77.0071,5.6894 115.5163,4.3047 30.2772,-1.6408 61.4003,-8.243 86.5428,-25.6654 20.7623,-14.2178 35.9747,-36.832 38.7768,-61.7555 3.0873,-23.3392 -0.8243,-46.7948 -3.8998,-69.9242 -3.7,-23.9268 -10.133,-48.3988 -25.3614,-67.9404 -18.9343,-24.1142 -48.5635,-38.5823 -78.9201,-42.8707 -27.7199,-4.3314 -55.9144,-4.3212 -83.9055,-4.2011 z"
       id="path3280-10"
       inkscape:connector-curvature="0"
       sodipodi:nodetypes="csssc" />
    <path
       style="color:#000000;display:inline;overflow:visible;visibility:visible;fill:#ffffff;fill-opacity:1;fill-rule:nonzero;stroke:none;stroke-width:0.753652px;marker:none;enable-background:accumulate"
       d="m 1693.2457,1182.3633 c -25.0904,0.4972 -50.4917,8.2194 -69.6627,23.7485 -17.9609,15.2472 -22.7325,42.7399 -9.9849,62.2553 7.8378,12.546 21.8333,20.6735 36.4773,24.5048 23.4634,8.2236 48.6824,10.6274 73.5477,11.348 23.2065,0.47 46.999,-1.001 68.8114,-9.0519 14.609,-5.6802 27.7079,-16.1754 33.496,-30.2834 6.5751,-15.1026 4.9607,-33.4624 -5.4793,-46.703 -10.0212,-13.4338 -25.841,-21.9676 -42.1881,-26.8896 -25.2665,-7.8332 -52.15,-8.7336 -78.5259,-8.9512 -2.1639,-7e-4 -4.3278,-0.013 -6.4915,0.023 z"
       id="path4546-6-89"
       inkscape:connector-curvature="0"
       sodipodi:nodetypes="cssssc" />
    <path
       style="fill:#ffffff;fill-rule:evenodd;stroke:none;stroke-width:0.479277px;stroke-linecap:butt;stroke-linejoin:miter;stroke-opacity:1"
       d="m 893.13501,1534.7305 c 27.51836,-11.7764 54.23289,-20.9661 71.61477,-23.4902 -3.55561,10.1642 -5.56972,16.3128 -14.89804,25.0191 24.30441,1.9047 70.63976,-18.9809 95.44776,-31.1705 -33.9587,5.7956 -60.1404,12.1497 -70.78238,13.5607 4.97656,-8.3585 6.96879,-14.5328 9.86224,-23.8449 -15.1281,3.6171 -70.65358,12.0504 -83.85269,9.4593 -13.19922,-2.5913 -7.39166,30.4665 -7.39166,30.4665 z"
       id="path1305"
       inkscape:connector-curvature="0"
       sodipodi:nodetypes="ccccccsc" />
    <path
       style="fill:#ffffff;fill-opacity:1;fill-rule:evenodd;stroke:none;stroke-width:1.07431px;stroke-linecap:butt;stroke-linejoin:miter;stroke-opacity:1"
       d="m 465.74707,1569.9179 c 28.87183,-10.521 24.32313,29.0854 7.08566,87.6907 19.83535,-42.7253 58.62076,-54.5706 24.69692,26.6768 53.33209,-60.6901 91.37058,-85.7432 83.00707,-2.6705 70.72385,-79.5477 74.65488,-42.486 69.66817,10.1446 28.08575,-75.6211 54.57913,-83.9057 79.14209,-10.5586 -6.93201,-78.0763 30.95517,-75.972 111.70601,2.8146 -36.07719,-82.423 8.61948,-53.0558 53.75735,-23.0779 -37.94547,-70.5513 14.27698,-31.4196 34.75897,-30.8979 -76.36992,-108.9326 -11.22818,-67.7368 29.89142,-52.0259 -39.46749,-30.7464 -58.64539,-59.0586 9.88191,-68.7458 -60.75668,-12.0507 -35.2302,-38.0924 24.24399,-68.2115 -32.45545,5.098 -94.63626,-15.3443 12.21427,-45.3995 -41.56582,5.4023 -82.33845,-12.8563 -34.95925,-34.29 -15.60965,4.7236 -101.52369,-3.5691 -31.53248,-30.5201 -43.29633,5.5599 -58.96456,3.015 38.1249,-32.6078 -150.7151,30.9765 -41.25336,-16.6513 -14.86102,-39.1823 -62.25583,18.1964 -167.4658,76.6905 -78.41792,-47.06 -124.10967,123.4237 -109.53608,49.4763 -102.58613,-13.6214 -42.77091,98.984 -57.68546,85.536 -61.35602,26.7059 -19.97379,37.9213 -22.58532,10.5965 -24.77223,-18.3239 -19.92787,54.5096 -39.28645,83.9303 -55.98572,-3.8445 -9.18339,101.4459 -41.61144,81.7174 -79.15518,35.321 6.77104,35.8651 -14.43617,19.1419 -45.11533,-15.3849 25.30032,91.5621 -23.64469,69.919 -40.67727,45.1678 13.49987,35.08 19.42837,57.2941 -2.44747,32.2608 13.27872,48.4683 14.69227,78.266 -8.1228,69.9386 26.82013,39.3443 18.18516,35.3206 7.96165,29.3537 10.06784,18.8013 7.71873,39.4912 -10.5109,50.1391 9.5137,17.2849 27.87758,31.8693 3.88482,59.3783 20.75982,-3.5137 22.61196,2.6462 1.12563,20.7466 29.51571,-21.1225 16.91582,6.6004 -0.65111,40.084 z"
       id="path1798"
       sodipodi:nodetypes="cccccccccccccccccccccccccccccccc" />
    <path
       style="fill:#ffffff;fill-rule:evenodd;stroke:none;stroke-width:0.960637px;stroke-linecap:butt;stroke-linejoin:miter;stroke-opacity:1"
       d="m 1778.0933,1289.0282 c 0,0 -3.9407,28.9212 8.0996,38.6226 12.0408,9.7023 15.4867,13.5023 36.0798,21.9048 -30.1647,-5.7228 -44.5902,-13.4046 -52.5226,-23.226 -7.9325,-9.8214 -20.0355,-30.3233 -22.8091,-36.2438 -2.7736,-5.9205 31.1523,-1.0576 31.1523,-1.0576 z"
       id="path1359"
       inkscape:connector-curvature="0" />
    <path
       style="fill:#ffffff;fill-rule:evenodd;stroke:none;stroke-width:1.51642px;stroke-linecap:butt;stroke-linejoin:miter;stroke-opacity:1"
       d="m 1879.5739,1605.0433 c 0,0 29.1528,33.6868 52.9454,28.1474 23.7942,-5.5388 31.7815,-6.1077 63.0487,-23.7148 -38.2213,32.3304 -62.191,42.8809 -81.8135,43.1241 -19.6227,0.2433 -55.9116,-4.864 -65.6341,-7.2483 -9.7228,-2.3842 31.4535,-40.3084 31.4535,-40.3084 z"
       id="path1359-6"
       inkscape:connector-curvature="0" />
    <path
       style="fill:#ffffff;fill-rule:evenodd;stroke:none;stroke-width:1.04628px;stroke-linecap:butt;stroke-linejoin:miter;stroke-opacity:1;filter:url(#filter1624-1-7)"
       d="m 304.54727,1936.8855 c 5.39109,-32.111 32.34599,-42.814 51.75368,-46.025 19.40768,-3.211 83.0216,-3.211 100.27283,9.633 17.25112,12.844 22.6421,36.392 16.17294,43.884 -6.46926,7.493 -15.09476,29.97 -38.81515,31.04 -23.7206,1.071 -74.39599,5.352 -94.88185,-6.422 -20.48586,-11.774 -36.6588,-14.985 -34.50245,-32.11 z"
       id="path1285-4-4"
       inkscape:connector-curvature="0"
       transform="matrix(1.2257744,0,0,1.060297,78.802093,-33.662704)" />
    <path
       style="fill:#ffffff;fill-rule:evenodd;stroke:none;stroke-width:1.04628px;stroke-linecap:butt;stroke-linejoin:miter;stroke-opacity:1;filter:url(#filter1624-1)"
       d="m 304.54727,1936.8855 c 5.39109,-32.111 32.34599,-42.814 51.75368,-46.025 19.40768,-3.211 83.0216,-3.211 100.27283,9.633 17.25112,12.844 22.6421,36.392 16.17294,43.884 -6.46926,7.493 -15.09476,29.97 -38.81515,31.04 -23.7206,1.071 -74.39599,5.352 -94.88185,-6.422 -20.48586,-11.774 -36.6588,-14.985 -34.50245,-32.11 z"
       id="path1285-4"
       inkscape:connector-curvature="0"
       transform="matrix(1.733655,0,0,1.0676097,-290.6087,-126.67074)" />
    <path
       style="fill:#ffffff;fill-rule:evenodd;stroke:none;stroke-width:1.04628px;stroke-linecap:butt;stroke-linejoin:miter;stroke-opacity:1;filter:url(#filter1624)"
       d="m 115.7959,1883.6103 c 5.39109,-32.111 32.34599,-42.814 51.75368,-46.025 19.40768,-3.211 83.0216,-3.211 100.27283,9.633 17.25112,12.844 22.6421,36.392 16.17294,43.884 -6.46926,7.493 -15.09476,29.97 -38.81515,31.04 -23.7206,1.071 -74.39599,5.352 -94.88185,-6.422 -20.48586,-11.774 -36.6588,-14.985 -34.50245,-32.11 z"
       id="path1285"
       inkscape:connector-curvature="0"
       transform="matrix(1.52098,0,0,0.94731265,-72.70727,99.041283)" />
    <path
       style="color:#000000;display:inline;overflow:visible;visibility:visible;fill:#ffffff;fill-opacity:1;fill-rule:nonzero;stroke:none;stroke-width:0.921112px;marker:none;enable-background:accumulate"
       d="m 1241.0664,2352.3233 c -36.2286,-32.2998 -77.602,-59.113 -107.8532,-97.7871 l 6.9677,43.9112 c -17.7743,-7.7018 -29.1706,-25.5756 -42.7328,-39.995 l -0.057,27.888 c -41.735,-18.7232 -69.4761,-51.7603 -103.98103,-77.8792 l 3.66035,48.6148 c 37.88508,22.0665 78.75808,37.3542 113.28208,67.0437 l 2.7503,-27.2332 c 13.303,8.4793 26.3021,17.5344 37.9439,29.1641 l 0.5073,-34.5085 z"
       id="path4032-8"
       inkscape:connector-curvature="0"
       sodipodi:nodetypes="cccccccccccc" />
    <path
       style="opacity:1;fill:#ffffff;fill-rule:evenodd;stroke:none;stroke-width:1.0434px;stroke-linecap:butt;stroke-linejoin:miter;stroke-opacity:1"
       d="m 654.35692,2153.9416 c 58.75546,-3.71 58.93977,-22.4352 17.98812,-51.7058 29.67774,0.1363 19.587,-18.1251 -1.42914,-41.4407 78.40021,28.7105 92.10169,-20.5013 69.95898,-77.5544 63.12499,67.1697 63.87012,28.4005 86.86865,-53.0521 13.12316,29.9734 30.48835,122.8095 104.08337,42.4068 -12.68932,66.9216 27.08594,20.6134 58.87117,-2.719 5.70058,9.6409 -51.54682,65.2732 31.79223,-3.6887 -60.14507,91.4191 32.7607,16.1788 61.5631,-9.148 -29.9323,43.2369 -95.65406,108.039 -7.5152,83.1286 -64.0952,50.0208 -7.4255,31.1958 21.1188,28.9061 -36.2016,20.7975 -37.6304,41.3996 -0.7248,33.0705 -53.8054,38.9217 -11.9257,42.1844 13.9993,43.3438 -20.163,2.9798 -69.8172,20.0724 -5.759,23.576 -44.27,12.4278 -31.2704,45.5628 -24.9359,59.1169 -48.9698,-4.7181 -14.2117,40.6656 4.0329,69.9104 -33.814,-12.5236 -86.53643,-44.8665 -49.2651,12.2481 -82.91478,-34.1395 -50.22703,0.6718 -31.7479,42.03 -60.85869,-34.6571 -70.19272,-51.5284 -88.8576,-22.8562 -20.58022,-24.1043 -24.23786,-2.9812 -30.56964,22.5971 -12.68254,-51.6999 -34.24748,-20.2628 -57.16184,11.0334 -11.87335,-53.8683 -35.26901,-31.2483 -57.18718,-16.6774 0.0876,-61.8923 -29.47285,-46.8638 -89.21765,-0.897 46.91643,-43.2544 72.60415,-86.0991 -5.21276,-60.8009 24.99531,-12.5883 48.31613,-50.4679 15.0138,-36.7051 14.86771,-9.5615 28.85321,-31.2999 -15.28328,-25.1166 41.09288,-13.261 36.16457,-23.9727 -8.47396,-32.4844 76.85045,-11.8787 42.48856,-24.677 -11.94947,-36.5214 z"
       id="path523"
       sodipodi:nodetypes="cccccccccccccccccccccccccccc" />
  </g>
  <g
     inkscape:groupmode="layer"
     id="layer1"
     inkscape:label="txt">
    <text
       xml:space="preserve"
       style="font-style:normal;font-variant:normal;font-weight:normal;font-stretch:normal;font-size:45px;line-height:1.25;font-family:Lavi;-inkscape-font-specification:Lavi;text-align:center;letter-spacing:0px;word-spacing:0px;text-anchor:middle;fill:#000000;fill-opacity:1;stroke:none"
       x="568.5365"
       y="215.91747"
       id="text4246-3-2-2-6-3-7-9-3"><tspan
         style="font-size:45px"
         sodipodi:role="line"
         x="568.5365"
         y="215.91747"
         id="tspan919">o kute, jan Pepa o, </tspan><tspan
         style="font-size:45px"
         sodipodi:role="line"
         x="568.5365"
         y="272.16748"
         id="tspan94">sina o tawa.</tspan></text>
    <text
       xml:space="preserve"
       style="font-style:normal;font-variant:normal;font-weight:normal;font-stretch:normal;font-size:45px;line-height:1.25;font-family:Lavi;-inkscape-font-specification:Lavi;text-align:center;letter-spacing:0px;word-spacing:0px;text-anchor:middle;fill:#000000;fill-opacity:1;stroke:none"
       x="568.95776"
       y="378.66003"
       id="text4246-3-2-2-6-3-7-9-3-3"><tspan
         style="font-size:45px"
         sodipodi:role="line"
         x="568.95776"
         y="378.66003"
         id="tspan27-7">lon tenpo ni.</tspan></text>
    <text
       xml:space="preserve"
       style="font-style:normal;font-variant:normal;font-weight:normal;font-stretch:normal;font-size:45px;line-height:1.25;font-family:Lavi;-inkscape-font-specification:Lavi;text-align:center;letter-spacing:0px;word-spacing:0px;text-anchor:middle;fill:#000000;fill-opacity:1;stroke:none"
       x="676.57495"
       y="846.57025"
       id="text4246-3-2-2-6-3-7-9-3-3-5"><tspan
         style="font-size:45px"
         sodipodi:role="line"
         x="676.57495"
         y="846.57025"
         id="tspan27-7-3">seme?</tspan></text>
    <text
       xml:space="preserve"
       style="font-style:normal;font-variant:normal;font-weight:normal;font-stretch:normal;font-size:45px;line-height:1.25;font-family:Lavi;-inkscape-font-specification:Lavi;text-align:center;letter-spacing:0px;word-spacing:0px;text-anchor:middle;fill:#000000;fill-opacity:1;stroke:none"
       x="1538.2219"
       y="183.04332"
       id="text4246-3-2-2-6-3-7-9-3-3-56"><tspan
         style="font-size:45px"
         sodipodi:role="line"
         x="1538.2219"
         y="183.04332"
         id="tspan923">o awen, o awen! </tspan><tspan
         style="font-size:45px"
         sodipodi:role="line"
         x="1538.2219"
         y="239.29332"
         id="tspan942"><tspan
           id="tspan158"
           style="font-size:45px">ken la, ni li </tspan></tspan><tspan
         style="font-size:45px"
         sodipodi:role="line"
         x="1538.2219"
         y="295.54333"
         rotate="0 0 0 0 0 0 0 0 0 0 0 0 0 0 0 0 0"
         id="tspan160"><tspan
   rotate="0 0 0 0 0 0 0 0 0 0 0 0 0 0 0 0 0"
   style="font-size:45px"
   id="tspan162">pakala lili taso</tspan>.</tspan></text>
    <text
       xml:space="preserve"
       style="font-style:normal;font-variant:normal;font-weight:normal;font-stretch:normal;font-size:45px;line-height:1.25;font-family:Lavi;-inkscape-font-specification:Lavi;text-align:center;letter-spacing:0px;word-spacing:0px;text-anchor:middle;fill:#000000;fill-opacity:1;stroke:none"
       x="2148.061"
       y="927.79041"
       id="text4246-3-2-2-6-3-7-9-3-3-56-9"><tspan
         style="font-size:45px"
         sodipodi:role="line"
         x="2148.061"
         y="927.79041"
         id="tspan119-9">jan Pepper o, </tspan><tspan
         style="font-size:45px"
         sodipodi:role="line"
         x="2148.061"
         y="984.04041"
         id="tspan946">ike pali ala e ni.</tspan></text>
    <text
       xml:space="preserve"
       style="font-style:normal;font-variant:normal;font-weight:normal;font-stretch:normal;font-size:45px;line-height:1.25;font-family:Lavi;-inkscape-font-specification:Lavi;text-align:center;letter-spacing:0px;word-spacing:0px;text-anchor:middle;fill:#000000;fill-opacity:1;stroke:none"
       x="705.56104"
       y="1351.6949"
       id="text4246-3-2-2-6-3-7-9-3-3-56-9-3"><tspan
         style="font-size:45px"
         sodipodi:role="line"
         x="705.56104"
         y="1351.6949"
         id="tspan109">sina o! sina lon </tspan><tspan
         style="font-size:45px"
         sodipodi:role="line"
         x="705.56104"
         y="1407.9449"
         id="tspan115">supa sewi o. mi ike </tspan><tspan
         style="font-size:45px"
         sodipodi:role="line"
         x="705.56104"
         y="1464.1949"
         id="tspan121">tawa sina la, o kama </tspan><tspan
         style="font-size:45px"
         sodipodi:role="line"
         x="705.56104"
         y="1520.4449"
         id="tspan125">tawa mi. sina taso o </tspan><tspan
         style="font-size:45px"
         sodipodi:role="line"
         x="705.56104"
         y="1576.6949"
         id="tspan127">toki e ni tawa mi!</tspan></text>
    <text
       xml:space="preserve"
       style="font-style:normal;font-variant:normal;font-weight:normal;font-stretch:normal;font-size:52.7307px;line-height:1.25;font-family:Lavi;-inkscape-font-specification:Lavi;text-align:center;letter-spacing:0px;word-spacing:0px;text-anchor:middle;fill:#000000;fill-opacity:1;stroke:none;stroke-width:1.17179"
       x="1726.7211"
       y="1258.5393"
       id="text4246-3-2-2-6-3-7-9-3-3-56-9-3-2"><tspan
         style="font-size:52.7307px;stroke-width:1.17179"
         sodipodi:role="line"
         x="1726.7211"
         y="1258.5393"
         id="tspan222-9">jaki a...</tspan></text>
    <text
       xml:space="preserve"
       style="font-style:normal;font-variant:normal;font-weight:normal;font-stretch:normal;font-size:45px;line-height:1.25;font-family:Lavi;-inkscape-font-specification:Lavi;text-align:center;letter-spacing:0px;word-spacing:0px;text-anchor:middle;fill:#000000;fill-opacity:1;stroke:none"
       x="1732.0173"
       y="1545.9558"
       id="text4246-3-2-2-6-3-7-9-3-3-56-9-3-20"><tspan
         style="font-size:45px"
         sodipodi:role="line"
         x="1732.0173"
         y="1545.9558"
         id="tspan134">jan Sisimi o, </tspan><tspan
         style="font-size:45px"
         sodipodi:role="line"
         x="1732.0173"
         y="1602.2058"
         id="tspan144">mi nanpa e </tspan><tspan
         style="font-size:45px"
         sodipodi:role="line"
         x="1732.0173"
         y="1658.4558"
         id="tspan148">tenpo </tspan><tspan
         style="font-size:45px"
         sodipodi:role="line"
         x="1732.0173"
         y="1714.7058"
         id="tspan150">luka luka...</tspan></text>
    <text
       xml:space="preserve"
       style="font-style:normal;font-variant:normal;font-weight:normal;font-stretch:normal;font-size:45px;line-height:1.25;font-family:Lavi;-inkscape-font-specification:Lavi;text-align:center;letter-spacing:0px;word-spacing:0px;text-anchor:middle;fill:#000000;fill-opacity:1;stroke:none"
       x="238.39514"
       y="1889.5347"
       id="text4246-3-2-2-6-3-7-9-3-3-56-9-3-20-2"><tspan
         style="font-size:45px"
         sodipodi:role="line"
         x="238.39514"
         y="1889.5347"
         id="tspan334-7">luka tu tu...</tspan></text>
    <text
       xml:space="preserve"
       style="font-style:normal;font-variant:normal;font-weight:normal;font-stretch:normal;font-size:45px;line-height:1.25;font-family:Lavi;-inkscape-font-specification:Lavi;text-align:center;letter-spacing:0px;word-spacing:0px;text-anchor:middle;fill:#000000;fill-opacity:1;stroke:none"
       x="399.80328"
       y="1954.1443"
       id="text4246-3-2-2-6-3-7-9-3-3-56-9-3-20-2-3"><tspan
         style="font-size:45px"
         sodipodi:role="line"
         x="399.80328"
         y="1954.1443"
         id="tspan334-7-6">luka tu wan...</tspan></text>
    <text
       xml:space="preserve"
       style="font-style:normal;font-variant:normal;font-weight:normal;font-stretch:normal;font-size:45px;line-height:1.25;font-family:Lavi;-inkscape-font-specification:Lavi;text-align:center;letter-spacing:0px;word-spacing:0px;text-anchor:middle;fill:#000000;fill-opacity:1;stroke:none"
       x="564.68182"
       y="2025.6428"
       id="text4246-3-2-2-6-3-7-9-3-3-56-9-3-20-2-3-1"><tspan
         style="font-size:45px"
         sodipodi:role="line"
         x="564.68182"
         y="2025.6428"
         id="tspan334-7-6-2">luka tu...</tspan></text>
    <text
       xml:space="preserve"
       style="font-style:normal;font-variant:normal;font-weight:normal;font-stretch:normal;font-size:55.953px;line-height:1.25;font-family:Lavi;-inkscape-font-specification:Lavi;text-align:center;letter-spacing:0px;word-spacing:0px;text-anchor:middle;fill:#000000;fill-opacity:1;stroke:none;stroke-width:0.902468"
       x="1073.8251"
       y="2109.1938"
       id="text4246-3-2-2-6-3-7-9-3-3-56-9-3-20-2-3-1-9"
       transform="skewX(-4.8400228)"><tspan
         style="font-style:normal;font-variant:normal;font-weight:bold;font-stretch:normal;font-size:55.953px;font-family:Lavi;-inkscape-font-specification:'Lavi Bold';stroke-width:0.902468"
         sodipodi:role="line"
         x="1073.8251"
         y="2109.1938"
         id="tspan451">O PINI, </tspan><tspan
         style="font-style:normal;font-variant:normal;font-weight:bold;font-stretch:normal;font-size:55.953px;font-family:Lavi;-inkscape-font-specification:'Lavi Bold';stroke-width:0.902468"
         sodipodi:role="line"
         x="1073.8251"
         y="2179.135"
         id="tspan457">JAN PEPA O!</tspan><tspan
         style="font-style:normal;font-variant:normal;font-weight:bold;font-stretch:normal;font-size:55.953px;font-family:Lavi;-inkscape-font-specification:'Lavi Bold';stroke-width:0.902468"
         sodipodi:role="line"
         x="1073.8251"
         y="2249.0764"
         id="tspan918">O WEKA!!!</tspan></text>
    <text
       xml:space="preserve"
       style="font-style:normal;font-variant:normal;font-weight:normal;font-stretch:normal;font-size:180px;line-height:1.25;font-family:Lavi;-inkscape-font-specification:Lavi;letter-spacing:0px;word-spacing:0px;fill:#ffffff;fill-opacity:1;stroke:#ffffff;stroke-width:0.74524;stroke-miterlimit:4;stroke-dasharray:none;stroke-opacity:1;filter:url(#filter4375-4-1-1-1-9-5-8-8-5-5-3-3)"
       id="text4580-6-0-0-0-9-3-3"
       transform="matrix(0.88341196,-0.53750677,0,1.1213027,-74.551071,722.92786)"
       x="418.61386"
       y="279.76691"><textPath
         xlink:href="#path974"
         id="textPath2837"
         style="font-size:180px;stroke-width:0.74524"><tspan
           style="font-size:180px;fill:#ffffff;fill-opacity:1;stroke:#ffffff;stroke-width:0.74524;stroke-miterlimit:4;stroke-dasharray:none;stroke-opacity:1"
           id="tspan876-6-6"
           rotate="325 325 325 325 325 325 325 325 325 0">SSSSUnno!</tspan></textPath></text>
    <path
       style="fill:none;fill-rule:evenodd;stroke:none;stroke-width:1.13654px;stroke-linecap:butt;stroke-linejoin:miter;stroke-opacity:1"
       d="m 2062.1793,2191.5476 c 235.3161,220.1206 417.0174,422.7368 620.7004,632.5297"
       id="path974"
       sodipodi:nodetypes="cc" />
  </g>
</svg>
