<?xml version="1.0" encoding="UTF-8" standalone="no"?>
<!-- Created with Inkscape (http://www.inkscape.org/) -->

<svg
   xmlns:dc="http://purl.org/dc/elements/1.1/"
   xmlns:cc="http://creativecommons.org/ns#"
   xmlns:rdf="http://www.w3.org/1999/02/22-rdf-syntax-ns#"
   xmlns:svg="http://www.w3.org/2000/svg"
   xmlns="http://www.w3.org/2000/svg"
   xmlns:xlink="http://www.w3.org/1999/xlink"
   xmlns:sodipodi="http://sodipodi.sourceforge.net/DTD/sodipodi-0.dtd"
   xmlns:inkscape="http://www.inkscape.org/namespaces/inkscape"
   id="svg2"
   version="1.1"
   inkscape:version="0.92.2 (5c3e80d, 2017-08-06)"
   width="2481"
   height="3503"
   sodipodi:docname="Pepper-and-Carrot_by-David-Revoy_E15P02.svg">
  <metadata
     id="metadata8">
    <rdf:RDF>
      <cc:Work
         rdf:about="">
        <dc:format>image/svg+xml</dc:format>
        <dc:type
           rdf:resource="http://purl.org/dc/dcmitype/StillImage" />
        <dc:title />
      </cc:Work>
    </rdf:RDF>
  </metadata>
  <defs
     id="defs6">
    <marker
       inkscape:stockid="Arrow1Send"
       orient="auto"
       refY="0.0"
       refX="0.0"
       id="marker1471"
       style="overflow:visible;"
       inkscape:isstock="true">
      <path
         id="path1469"
         d="M 0.0,0.0 L 5.0,-5.0 L -12.5,0.0 L 5.0,5.0 L 0.0,0.0 z "
         style="fill-rule:evenodd;stroke:#f4f4f4;stroke-width:1pt;stroke-opacity:1;fill:#f4f4f4;fill-opacity:1"
         transform="scale(0.2) rotate(180) translate(6,0)" />
    </marker>
    <marker
       inkscape:stockid="Arrow1Sstart"
       orient="auto"
       refY="0.0"
       refX="0.0"
       id="Arrow1Sstart"
       style="overflow:visible"
       inkscape:isstock="true">
      <path
         id="path853"
         d="M 0.0,0.0 L 5.0,-5.0 L -12.5,0.0 L 5.0,5.0 L 0.0,0.0 z "
         style="fill-rule:evenodd;stroke:#f4f4f4;stroke-width:1pt;stroke-opacity:1;fill:#f4f4f4;fill-opacity:1"
         transform="scale(0.2) translate(6,0)" />
    </marker>
    <marker
       inkscape:stockid="Arrow2Sstart"
       orient="auto"
       refY="0.0"
       refX="0.0"
       id="Arrow2Sstart"
       style="overflow:visible"
       inkscape:isstock="true">
      <path
         id="path871"
         style="fill-rule:evenodd;stroke-width:0.625;stroke-linejoin:round;stroke:#f4f4f4;stroke-opacity:1;fill:#f4f4f4;fill-opacity:1"
         d="M 8.7185878,4.0337352 L -2.2072895,0.016013256 L 8.7185884,-4.0017078 C 6.9730900,-1.6296469 6.9831476,1.6157441 8.7185878,4.0337352 z "
         transform="scale(0.3) translate(-2.3,0)" />
    </marker>
    <marker
       inkscape:stockid="Arrow1Mstart"
       orient="auto"
       refY="0.0"
       refX="0.0"
       id="Arrow1Mstart"
       style="overflow:visible"
       inkscape:isstock="true">
      <path
         id="path847"
         d="M 0.0,0.0 L 5.0,-5.0 L -12.5,0.0 L 5.0,5.0 L 0.0,0.0 z "
         style="fill-rule:evenodd;stroke:#f4f4f4;stroke-width:1pt;stroke-opacity:1;fill:#f4f4f4;fill-opacity:1"
         transform="scale(0.4) translate(10,0)" />
    </marker>
    <marker
       inkscape:stockid="Arrow1Send"
       orient="auto"
       refY="0.0"
       refX="0.0"
       id="Arrow1Send"
       style="overflow:visible;"
       inkscape:isstock="true">
      <path
         id="path856"
         d="M 0.0,0.0 L 5.0,-5.0 L -12.5,0.0 L 5.0,5.0 L 0.0,0.0 z "
         style="fill-rule:evenodd;stroke:#f4f4f4;stroke-width:1pt;stroke-opacity:1;fill:#f4f4f4;fill-opacity:1"
         transform="scale(0.2) rotate(180) translate(6,0)" />
    </marker>
    <marker
       inkscape:stockid="Arrow1Lend"
       orient="auto"
       refY="0.0"
       refX="0.0"
       id="marker1195"
       style="overflow:visible;"
       inkscape:isstock="true">
      <path
         id="path1193"
         d="M 0.0,0.0 L 5.0,-5.0 L -12.5,0.0 L 5.0,5.0 L 0.0,0.0 z "
         style="fill-rule:evenodd;stroke:#f4f4f4;stroke-width:1pt;stroke-opacity:1;fill:#f4f4f4;fill-opacity:1"
         transform="scale(0.8) rotate(180) translate(12.5,0)" />
    </marker>
    <marker
       inkscape:stockid="Arrow1Lend"
       orient="auto"
       refY="0.0"
       refX="0.0"
       id="Arrow1Lend"
       style="overflow:visible;"
       inkscape:isstock="true">
      <path
         id="path844"
         d="M 0.0,0.0 L 5.0,-5.0 L -12.5,0.0 L 5.0,5.0 L 0.0,0.0 z "
         style="fill-rule:evenodd;stroke:#f4f4f4;stroke-width:1pt;stroke-opacity:1;fill:#f4f4f4;fill-opacity:1"
         transform="scale(0.8) rotate(180) translate(12.5,0)" />
    </marker>
    <marker
       inkscape:stockid="Arrow2Lstart"
       orient="auto"
       refY="0.0"
       refX="0.0"
       id="Arrow2Lstart"
       style="overflow:visible"
       inkscape:isstock="true">
      <path
         id="path859"
         style="fill-rule:evenodd;stroke-width:0.625;stroke-linejoin:round;stroke:#f4f4f4;stroke-opacity:1;fill:#f4f4f4;fill-opacity:1"
         d="M 8.7185878,4.0337352 L -2.2072895,0.016013256 L 8.7185884,-4.0017078 C 6.9730900,-1.6296469 6.9831476,1.6157441 8.7185878,4.0337352 z "
         transform="scale(1.1) translate(1,0)" />
    </marker>
    <marker
       inkscape:stockid="Arrow1Lstart"
       orient="auto"
       refY="0.0"
       refX="0.0"
       id="Arrow1Lstart"
       style="overflow:visible"
       inkscape:isstock="true">
      <path
         id="path841"
         d="M 0.0,0.0 L 5.0,-5.0 L -12.5,0.0 L 5.0,5.0 L 0.0,0.0 z "
         style="fill-rule:evenodd;stroke:#f4f4f4;stroke-width:1pt;stroke-opacity:1;fill:#f4f4f4;fill-opacity:1"
         transform="scale(0.8) translate(12.5,0)" />
    </marker>
    <path
       style="fill:none;fill-rule:evenodd;stroke:none;stroke-width:1px;stroke-linecap:butt;stroke-linejoin:miter;stroke-opacity:1"
       d="m 1515.9155,1632.4892 c 0,0 120.6219,-53.7266 190.3537,-33.8891 69.7318,19.8375 174.9869,-38.8484 174.9869,-38.8484"
       id="path870"
       inkscape:connector-curvature="0" />
  </defs>
  <sodipodi:namedview
     pagecolor="#ffffff"
     bordercolor="#666666"
     borderopacity="1"
     objecttolerance="10"
     gridtolerance="10"
     guidetolerance="10"
     inkscape:pageopacity="0"
     inkscape:pageshadow="2"
     inkscape:window-width="1366"
     inkscape:window-height="705"
     id="namedview4"
     showgrid="false"
     inkscape:zoom="0.30074964"
     inkscape:cx="1533.7188"
     inkscape:cy="961.02065"
     inkscape:window-x="-8"
     inkscape:window-y="-8"
     inkscape:window-maximized="1"
     inkscape:current-layer="layer1" />
  <g
     inkscape:groupmode="layer"
     id="layer2"
     inkscape:label="artwork"
     sodipodi:insensitive="true">
    <image
       sodipodi:absref="E:\Users\jamesmichael\Downloads\Compressed\eps\peppercarrot_ep15_translation-master\peppercarrot_ep15_translation-master\ph\../gfx_Pepper-and-Carrot_by-David-Revoy_E15P02.png"
       xlink:href="../gfx_Pepper-and-Carrot_by-David-Revoy_E15P02.png"
       y="0"
       x="0"
       id="image10"
       height="3503"
       width="2481" />
  </g>
  <g
     inkscape:groupmode="layer"
     id="layer3"
     inkscape:label="speechbubbles" />
  <g
     inkscape:groupmode="layer"
     id="layer1"
     inkscape:label="txt">
    <text
       xml:space="preserve"
       style="font-style:normal;font-variant:normal;font-weight:normal;font-stretch:normal;font-size:59.43645859px;line-height:1.25;font-family:'Drukaatie burti';-inkscape-font-specification:'Drukaatie burti';letter-spacing:0px;word-spacing:0px;fill:#ffffff;fill-opacity:1;stroke:none;stroke-width:1.48591149"
       x="1598.0348"
       y="978.19537"
       id="text817"
       transform="matrix(0.97173697,-0.2360663,-0.18247824,1.0734149,0,0)"
       inkscape:transform-center-x="-33.464997"
       inkscape:transform-center-y="-10.139292"><tspan
         sodipodi:role="line"
         id="tspan815"
         x="1598.0348"
         y="978.19537"
         style="stroke-width:1.48591149">click!</tspan></text>
    <path
       style="fill:none;stroke:#f4f4f4;stroke-width:4;stroke-linecap:round;stroke-linejoin:miter;stroke-miterlimit:4;stroke-dasharray:none;stroke-opacity:1;marker-start:url(#Arrow2Sstart);marker-end:url(#Arrow1Send)"
       d="m 1254.0577,753.44094 c 0,0 64.7995,-45.25253 80.2329,14.10689 15.2824,58.7787 -10.1637,-23.84935 21.7481,-37.03057 31.9118,-13.18123 38.2924,6.63582 50.5272,24.81945 0.09,-18.99651 -12.7754,-75.79826 18.2439,-63.0256"
       id="path819"
       inkscape:connector-curvature="0"
       sodipodi:nodetypes="cszcc" />
    <path
       sodipodi:nodetypes="cszcc"
       inkscape:connector-curvature="0"
       id="path821"
       d="m 1440.5113,591.15784 c -3.0134,12.05364 -79.9602,26.43228 -40.8268,-38.07566 31.5002,-51.92524 -11.7167,23.12598 -42.3403,7.17915 -30.6236,-15.94683 -24.5469,-53.53247 -25.9812,-75.42953 -8.7808,22.12939 -37.3339,79.33291 -47.5157,47.36937"
       style="fill:none;stroke:#f4f4f4;stroke-width:4;stroke-linecap:square;stroke-linejoin:miter;stroke-miterlimit:4;stroke-dasharray:none;stroke-opacity:1;marker-start:url(#Arrow1Sstart);marker-end:url(#marker1471)" />
    <text
       y="-1738.5153"
       xml:space="preserve"
       style="font-style:normal;font-variant:normal;font-weight:normal;font-stretch:normal;font-size:13.08323574px;line-height:0.01%;font-family:Lavi;-inkscape-font-specification:Lavi;text-align:center;letter-spacing:2.99999976px;word-spacing:0.11999999px;text-anchor:middle;display:inline;opacity:0.6800001;fill:#ffffff;fill-opacity:1;stroke:#ffffff;stroke-width:4;stroke-miterlimit:4;stroke-dasharray:none;stroke-opacity:1"
       id="text876"
       x="-160.42793"
       transform="matrix(0.93013114,0.35014577,-0.88515032,0.74190437,1163.4092,-21.911601)"><textPath
         xlink:href="#path870"
         startOffset="50%"
         id="textPath878"
         style="letter-spacing:2.99999976px;word-spacing:0.11999999px;fill:#ffffff;fill-opacity:1;stroke:#ffffff;stroke-width:4;stroke-miterlimit:4;stroke-dasharray:none;stroke-opacity:1"><tspan
   id="tspan872"
   style="font-size:49.06213379px;line-height:1.25;text-align:center;letter-spacing:2.99999976px;word-spacing:0.11999999px;text-anchor:middle;fill:#ffffff;fill-opacity:1;stroke:#ffffff;stroke-width:4;stroke-miterlimit:4;stroke-dasharray:none;stroke-opacity:1"
   y="195.25185"
   x="2337.0793">WooOSH<tspan
   style="font-size:58.14771271px;letter-spacing:2.99999976px;word-spacing:0.11999999px;fill:#ffffff;fill-opacity:1;stroke:#ffffff;stroke-width:4;stroke-miterlimit:4;stroke-dasharray:none;stroke-opacity:1"
   id="tspan884">H</tspan><tspan
   id="tspan894"
   style="font-size:69.77725983px;letter-spacing:2.99999976px;word-spacing:0.11999999px;fill:#ffffff;fill-opacity:1;stroke:#ffffff;stroke-width:4;stroke-miterlimit:4;stroke-dasharray:none;stroke-opacity:1">H!!</tspan><tspan
   id="tspan898"
   style="font-size:93.03634644px;letter-spacing:2.99999976px;word-spacing:0.11999999px;fill:#ffffff;fill-opacity:1;stroke:#ffffff;stroke-width:4;stroke-miterlimit:4;stroke-dasharray:none;stroke-opacity:1">!</tspan></tspan></textPath></text>
    <text
       xml:space="preserve"
       style="font-style:normal;font-weight:normal;font-size:56.89526367px;line-height:1.25;font-family:'Drukaatie burti';letter-spacing:0px;word-spacing:0px;fill:#ffffff;fill-opacity:1;stroke:none;stroke-width:1.42238164;-inkscape-font-specification:'Drukaatie burti';font-stretch:normal;font-variant:normal;"
       x="1425.0594"
       y="2778.8467"
       id="text1535"><tspan
         sodipodi:role="line"
         id="tspan1533"
         x="1425.0594"
         y="2778.8467"
         style="stroke-width:1.42238164;fill:#ffffff;-inkscape-font-specification:'Drukaatie burti';font-family:'Drukaatie burti';font-weight:normal;font-style:normal;font-stretch:normal;font-variant:normal;">...</tspan></text>
    <text
       id="text1539"
       y="655.60059"
       x="3176.7651"
       style="font-style:normal;font-variant:normal;font-weight:normal;font-stretch:normal;font-size:103.16356659px;line-height:1.25;font-family:'Drukaatie burti';-inkscape-font-specification:'Drukaatie burti';letter-spacing:0px;word-spacing:0px;fill:#ffffff;fill-opacity:1;stroke:none;stroke-width:2.57908916"
       xml:space="preserve"
       transform="matrix(0.70757492,0.70663831,-0.3916969,1.0220995,0,0)"><tspan
         style="font-style:normal;font-variant:normal;font-weight:normal;font-stretch:normal;font-family:'Drukaatie burti';-inkscape-font-specification:'Drukaatie burti';fill:#ffffff;stroke-width:2.57908916"
         y="655.60059"
         x="3176.7651"
         id="tspan1537"
         sodipodi:role="line">!</tspan></text>
  </g>
</svg>
