<?xml version="1.0" encoding="UTF-8" standalone="no"?>
<svg
   xmlns:dc="http://purl.org/dc/elements/1.1/"
   xmlns:cc="http://creativecommons.org/ns#"
   xmlns:rdf="http://www.w3.org/1999/02/22-rdf-syntax-ns#"
   xmlns:svg="http://www.w3.org/2000/svg"
   xmlns="http://www.w3.org/2000/svg"
   xmlns:xlink="http://www.w3.org/1999/xlink"
   xmlns:sodipodi="http://sodipodi.sourceforge.net/DTD/sodipodi-0.dtd"
   xmlns:inkscape="http://www.inkscape.org/namespaces/inkscape"
   sodipodi:docname="E09P08.svg"
   height="3503"
   width="2481"
   inkscape:version="1.0 (4035a4fb49, 2020-05-01)"
   version="1.1"
   id="svg2">
  <metadata
     id="metadata8">
    <rdf:RDF>
      <cc:Work
         rdf:about="">
        <dc:format>image/svg+xml</dc:format>
        <dc:type
           rdf:resource="http://purl.org/dc/dcmitype/StillImage" />
        <dc:title />
      </cc:Work>
    </rdf:RDF>
  </metadata>
  <defs
     id="defs6" />
  <sodipodi:namedview
     inkscape:document-rotation="0"
     inkscape:guide-bbox="true"
     showguides="true"
     inkscape:object-nodes="true"
     inkscape:current-layer="layer2"
     inkscape:window-maximized="0"
     inkscape:window-y="44"
     inkscape:window-x="0"
     inkscape:cy="765.67004"
     inkscape:cx="1548.8934"
     inkscape:zoom="0.37019531"
     showgrid="false"
     id="namedview4"
     inkscape:window-height="1003"
     inkscape:window-width="1031"
     inkscape:pageshadow="2"
     inkscape:pageopacity="0"
     guidetolerance="10"
     gridtolerance="10"
     objecttolerance="10"
     borderopacity="1"
     bordercolor="#666666"
     pagecolor="#ffffff">
    <sodipodi:guide
       inkscape:locked="false"
       id="guide4214"
       orientation="0,1"
       position="327.75,3395.375" />
  </sodipodi:namedview>
  <g
     sodipodi:insensitive="true"
     transform="translate(0,1024)"
     style="display:inline"
     inkscape:label="artwork"
     id="layer1"
     inkscape:groupmode="layer">
    <image
       sodipodi:absref="/home/cherry/peppercarrot/webcomics/ep09_The-Remedy/lang/gfx_Pepper-and-Carrot_by-David-Revoy_E09P08.png"
       xlink:href="../gfx_Pepper-and-Carrot_by-David-Revoy_E09P08.png"
       y="-1023.3771"
       x="0.54707891"
       id="image4223"
       style="image-rendering:optimizeQuality"
       preserveAspectRatio="none"
       height="3504.5391"
       width="2481.4438" />
  </g>
  <g
     transform="translate(0,1024)"
     style="display:none"
     inkscape:label="speechbubbles"
     id="layer3"
     inkscape:groupmode="layer">
    <path
       inkscape:connector-curvature="0"
       id="path4279"
       d="m -2021.8885,646.19917 c 1.0628,-51.0158 26.5707,-103.09442 170.0526,-112.65988 143.4819,-9.56546 203.0004,48.89014 207.2517,90.34047 4.2513,41.45033 -82.9007,96.71744 -162.6129,97.78027 -79.7121,1.06282 -214.6914,-11.69112 -214.6914,-75.46086 z"
       style="fill:#ffffff;stroke:none" />
    <path
       sodipodi:nodetypes="csccc"
       inkscape:connector-curvature="0"
       id="path4281"
       d="m -1788.0661,898.08964 c 70.1467,-44.63882 88.2148,-124.35099 45.7016,-190.24639 -42.5132,-65.8954 -82.9007,-54.20428 -82.9007,-54.20428 l 35.0734,41.45033 c 0,0 97.7803,97.78027 2.1257,203.00034 z"
       style="fill:#ffffff;stroke:none" />
  </g>
  <g
     transform="translate(0,1024)"
     style="display:inline"
     inkscape:label="text"
     id="layer2"
     inkscape:groupmode="layer">
    <flowRoot
       transform="matrix(1.6253155,0,0,1.6935424,-991.79759,-1227.607)"
       style="font-style:normal;font-variant:normal;font-weight:normal;font-stretch:normal;line-height:0.01%;font-family:'Nanum Pen Script OTF';-inkscape-font-specification:'Nanum Pen Script OTF';text-align:center;letter-spacing:0px;word-spacing:0px;text-anchor:middle;display:inline;fill:#000000;fill-opacity:1;stroke:none"
       id="flowRoot3027"
       xml:space="preserve"><flowRegion
         id="flowRegion3029"><rect
           style="font-style:normal;font-variant:normal;font-weight:normal;font-stretch:normal;line-height:100%;font-family:'Nanum Pen Script OTF';-inkscape-font-specification:'Nanum Pen Script OTF';text-align:center;text-anchor:middle;stroke-width:1"
           y="219.33444"
           x="135.21135"
           height="241.27675"
           width="2475.8752"
           id="rect3031" /></flowRegion><flowPara
         id="flowPara3497"
         style="font-style:normal;font-variant:normal;font-weight:normal;font-stretch:normal;font-size:48px;line-height:100%;font-family:'Nanum Pen Script OTF';-inkscape-font-specification:'Nanum Pen Script OTF';text-align:center;text-anchor:middle">후추와 당근은 완전히 자유 오픈소스이고</flowPara><flowPara
         id="flowPara128"
         style="font-style:normal;font-variant:normal;font-weight:normal;font-stretch:normal;font-size:48px;line-height:100%;font-family:'Nanum Pen Script OTF';-inkscape-font-specification:'Nanum Pen Script OTF';text-align:center;text-anchor:middle">독자들의 후원을 받아 운영하고 있습니다.</flowPara><flowPara
         id="flowPara126"
         style="font-style:normal;font-variant:normal;font-weight:normal;font-stretch:normal;font-size:48px;line-height:100%;font-family:'Nanum Pen Script OTF';-inkscape-font-specification:'Nanum Pen Script OTF';text-align:center;text-anchor:middle">이번 화에 도움을 주신 406명의 후원자분께 감사의 말씀 드립니다:</flowPara><flowPara
         id="flowPara118"
         style="font-style:normal;font-variant:normal;font-weight:normal;font-stretch:normal;font-size:48px;line-height:100%;font-family:'Nanum Pen Script OTF';-inkscape-font-specification:'Nanum Pen Script OTF';text-align:center;text-anchor:middle" /><flowPara
         id="flowPara120"
         style="font-style:normal;font-variant:normal;font-weight:normal;font-stretch:normal;font-size:48px;line-height:100%;font-family:'Nanum Pen Script OTF';-inkscape-font-specification:'Nanum Pen Script OTF';text-align:center;text-anchor:middle" /><flowPara
         id="flowPara122"
         style="font-style:normal;font-variant:normal;font-weight:normal;font-stretch:normal;font-size:48px;line-height:100%;font-family:'Nanum Pen Script OTF';-inkscape-font-specification:'Nanum Pen Script OTF';text-align:center;text-anchor:middle" /><flowPara
         id="flowPara124"
         style="font-style:normal;font-variant:normal;font-weight:normal;font-stretch:normal;font-size:48px;line-height:100%;font-family:'Nanum Pen Script OTF';-inkscape-font-specification:'Nanum Pen Script OTF';text-align:center;text-anchor:middle" /></flowRoot>
    <flowRoot
       transform="matrix(1.3036937,0,0,1.345172,-392.89758,1669.3816)"
       style="font-style:normal;font-variant:normal;font-weight:normal;font-stretch:normal;line-height:0.01%;font-family:'Nanum Pen Script OTF';-inkscape-font-specification:'Nanum Pen Script OTF';text-align:center;letter-spacing:0px;word-spacing:0px;text-anchor:middle;display:inline;fill:#000000;fill-opacity:1;stroke:none"
       id="flowRoot3027-8-8-2"
       xml:space="preserve"><flowRegion
         id="flowRegion3029-9-3-5"><rect
           style="font-style:normal;font-variant:normal;font-weight:normal;font-stretch:normal;font-family:'Nanum Pen Script OTF';-inkscape-font-specification:'Nanum Pen Script OTF';text-align:center;text-anchor:middle"
           y="219.33444"
           x="135.21135"
           height="376.21677"
           width="2230.314"
           id="rect3031-9-1-6" /></flowRegion><flowPara
         id="flowPara3055"
         style="font-style:normal;font-variant:normal;font-weight:normal;font-stretch:normal;font-size:48px;line-height:1.25;font-family:'Nanum Pen Script OTF';-inkscape-font-specification:'Nanum Pen Script OTF';text-align:center;text-anchor:middle">여러분도 후추와 당근의 다음 화의 후원자가 될 수 있습니다 :</flowPara></flowRoot>
    <flowRoot
       transform="matrix(0.78840156,0,0,0.81820527,254.19922,1939.7566)"
       style="font-style:normal;font-variant:normal;font-weight:normal;font-stretch:normal;line-height:0.01%;font-family:Arial;-inkscape-font-specification:Arial;text-align:center;letter-spacing:0px;word-spacing:0px;text-anchor:middle;display:inline;fill:#000000;fill-opacity:1;stroke:none"
       id="flowRoot3027-8-8-2-8-6"
       xml:space="preserve"><flowRegion
         id="flowRegion3029-9-3-5-1-2"><rect
           style="text-align:center;text-anchor:middle"
           y="219.33444"
           x="135.21135"
           height="376.21677"
           width="2230.314"
           id="rect3031-9-1-6-8-7" /></flowRegion><flowPara
         style="font-size:12px;line-height:1.25"
         id="flowPara3033-3-0-2-4-3"> </flowPara><flowPara
         id="flowPara3233-6-14"
         style="font-style:normal;font-variant:normal;font-weight:normal;font-stretch:normal;font-size:48px;line-height:1.25;font-family:Lavi;-inkscape-font-specification:Lavi;text-align:center;text-anchor:middle"> </flowPara></flowRoot>
    <flowRoot
       transform="matrix(1.0546835,0,0,1.1150549,-80.814758,1889.4333)"
       style="font-style:normal;font-variant:normal;font-weight:normal;font-stretch:normal;line-height:0.01%;font-family:'Nanum Pen Script OTF';-inkscape-font-specification:'Nanum Pen Script OTF';text-align:center;letter-spacing:0px;word-spacing:0px;text-anchor:middle;display:inline;fill:#000000;fill-opacity:1;stroke:none"
       id="flowRoot3027-8-8-2-8-6-3"
       xml:space="preserve"><flowRegion
         id="flowRegion3029-9-3-5-1-2-8"><rect
           style="font-style:normal;font-variant:normal;font-weight:normal;font-stretch:normal;line-height:100%;font-family:'Nanum Pen Script OTF';-inkscape-font-specification:'Nanum Pen Script OTF';text-align:center;text-anchor:middle"
           y="219.33444"
           x="135.21135"
           height="376.21677"
           width="2230.314"
           id="rect3031-9-1-6-8-7-4" /></flowRegion><flowPara
         style="font-size:12px;line-height:1"
         id="flowPara3033-3-0-2-4-3-2"> </flowPara><flowPara
         id="flowPara3278-7"
         style="font-style:normal;font-variant:normal;font-weight:normal;font-stretch:normal;font-size:48px;line-height:100%;font-family:'Nanum Pen Script OTF';-inkscape-font-specification:'Nanum Pen Script OTF';text-align:center;text-anchor:middle">라이선스 : 크리에이티브 커먼즈 저작자표시 4.0</flowPara><flowPara
         id="flowPara3233-6-14-6"
         style="font-style:normal;font-variant:normal;font-weight:normal;font-stretch:normal;font-size:48px;line-height:100%;font-family:'Nanum Pen Script OTF';-inkscape-font-specification:'Nanum Pen Script OTF';text-align:center;text-anchor:middle">소스 : www.peppercarrot.com에서 볼 수 있음</flowPara><flowPara
         id="flowPara4904"
         style="font-style:normal;font-variant:normal;font-weight:normal;font-stretch:normal;font-size:48px;line-height:100%;font-family:'Nanum Pen Script OTF';-inkscape-font-specification:'Nanum Pen Script OTF';text-align:center;text-anchor:middle">소프트웨어 : 이번 화는 100% 자유 소프트웨어로 제작되었습니다</flowPara><flowPara
         id="flowPara4908"
         style="font-style:normal;font-variant:normal;font-weight:normal;font-stretch:normal;font-size:48px;line-height:100%;font-family:'Nanum Pen Script OTF';-inkscape-font-specification:'Nanum Pen Script OTF';text-align:center;text-anchor:middle">리눅스 민트 17에서 크리타 2.9.6 , 잉크스케이프 0.91 사용 </flowPara></flowRoot>
    <flowRoot
       transform="translate(0,-1024)"
       style="font-style:normal;font-variant:normal;font-weight:normal;font-stretch:normal;line-height:0.01%;font-family:Fondamento;-inkscape-font-specification:Fondamento;letter-spacing:0px;word-spacing:0px;fill:#000000;fill-opacity:1;stroke:none;stroke-width:1px;stroke-linecap:butt;stroke-linejoin:miter;stroke-opacity:1"
       id="flowRoot4307"
       xml:space="preserve"><flowRegion
         id="flowRegion4309"><rect
           style="font-style:normal;font-variant:normal;font-weight:normal;font-stretch:normal;font-family:Fondamento;-inkscape-font-specification:Fondamento"
           y="2419.3765"
           x="-836.48126"
           height="277.55969"
           width="680.59155"
           id="rect4311" /></flowRegion><flowPara
         style="font-size:12px;line-height:1.25"
         id="flowPara4313"> </flowPara></flowRoot>
    <flowRoot
       transform="matrix(1.2234224,0,0,1.2506407,-289.18541,1735.3446)"
       style="font-style:normal;font-variant:normal;font-weight:normal;font-stretch:normal;line-height:0.01%;font-family:Arial;-inkscape-font-specification:Arial;text-align:center;letter-spacing:0px;word-spacing:0px;text-anchor:middle;display:inline;fill:#a72f14;fill-opacity:1;stroke:none"
       id="flowRoot3027-8-8"
       xml:space="preserve"><flowRegion
         id="flowRegion3029-9-3"><rect
           style="text-align:center;text-anchor:middle;fill:#a72f14;fill-opacity:1"
           y="219.33444"
           x="135.21135"
           height="376.21677"
           width="2230.314"
           id="rect3031-9-1" /></flowRegion><flowPara
         style="font-size:12px;line-height:1.25"
         id="flowPara3033-3-0"> </flowPara><flowPara
         id="flowPara3067-4"
         style="font-style:normal;font-variant:normal;font-weight:normal;font-stretch:normal;font-size:48px;line-height:1.25;font-family:Lavi;-inkscape-font-specification:Lavi;text-align:center;text-anchor:middle;fill:#a72f14;fill-opacity:1">https://www.patreon.com/davidrevoy</flowPara></flowRoot>
    <flowRoot
       transform="matrix(0.67508769,0,0,0.69713023,300.71265,-170.38249)"
       style="font-style:normal;font-variant:normal;font-weight:normal;font-stretch:normal;line-height:0.01%;font-family:Arial;-inkscape-font-specification:Arial;text-align:center;letter-spacing:0px;word-spacing:0px;text-anchor:middle;display:inline;fill:#000000;fill-opacity:1;stroke:none"
       id="flowRoot2987-7"
       xml:space="preserve"><flowRegion
         style="text-align:center;text-anchor:middle"
         id="flowRegion2989-7"><rect
           style="text-align:center;text-anchor:middle"
           y="266.68515"
           x="-141.0901"
           height="1701.9563"
           width="3066.7446"
           id="rect2991-7" /></flowRegion><flowPara
         id="flowPara3113-6"
         style="font-style:normal;font-variant:normal;font-weight:normal;font-stretch:normal;font-size:44.7023px;line-height:120%;font-family:Lavi;-inkscape-font-specification:Lavi;text-align:center;writing-mode:lr-tb;text-anchor:middle">Глеб Бузало ★ 无名 ★ 獨孤欣 &amp; 獨弧悦 ★ Adam Mathena ★ Addison Lewis</flowPara><flowPara
         id="flowPara1081"
         style="font-style:normal;font-variant:normal;font-weight:normal;font-stretch:normal;font-size:44.7023px;line-height:120%;font-family:Lavi;-inkscape-font-specification:Lavi;text-align:center;writing-mode:lr-tb;text-anchor:middle">A Distinguished Robot ★ Aina Reich ★ Alan Hardman ★ Albert Westra ★ Alex ★ AlexanderKennedy</flowPara><flowPara
         id="flowPara1083"
         style="font-style:normal;font-variant:normal;font-weight:normal;font-stretch:normal;font-size:44.7023px;line-height:120%;font-family:Lavi;-inkscape-font-specification:Lavi;text-align:center;writing-mode:lr-tb;text-anchor:middle">Alexander Lust ★ Alexander Sopicki ★ Alexandra Jordan ★ Alex Lusco ★ Alex Silver ★ Alex V ★ Alfredo</flowPara><flowPara
         id="flowPara1085"
         style="font-style:normal;font-variant:normal;font-weight:normal;font-stretch:normal;font-size:44.7023px;line-height:120%;font-family:Lavi;-inkscape-font-specification:Lavi;text-align:center;writing-mode:lr-tb;text-anchor:middle">Alien Green ★ Allan Zieser ★ Alok Baikadi ★ Amic ★ Andreas Rieger ★ Andreas Ulmer ★ Andrej Kwadrin</flowPara><flowPara
         id="flowPara1087"
         style="font-style:normal;font-variant:normal;font-weight:normal;font-stretch:normal;font-size:44.7023px;line-height:120%;font-family:Lavi;-inkscape-font-specification:Lavi;text-align:center;writing-mode:lr-tb;text-anchor:middle">Andrew Godfrey ★ Andrey Alekseenko ★ Anna Orlova ★ Antan Karmola ★ Anthony Edlin ★ Ardash Crowfoot</flowPara><flowPara
         id="flowPara1089"
         style="font-style:normal;font-variant:normal;font-weight:normal;font-stretch:normal;font-size:44.7023px;line-height:120%;font-family:Lavi;-inkscape-font-specification:Lavi;text-align:center;writing-mode:lr-tb;text-anchor:middle">Arjun Chennu ★ Arnulf ★ Arturo J. Pérez ★ Austin Knowles ★ Axel Bordelon ★ Bastian Hougaard ★ Ben Evans</flowPara><flowPara
         id="flowPara1091"
         style="font-style:normal;font-variant:normal;font-weight:normal;font-stretch:normal;font-size:44.7023px;line-height:120%;font-family:Lavi;-inkscape-font-specification:Lavi;text-align:center;writing-mode:lr-tb;text-anchor:middle">blacksheep33512 ★ Boonsak Watanavisit ★ BoxBoy ★ Brett Smith ★ Brian Behnke ★ Bryan Butler ★ BS</flowPara><flowPara
         id="flowPara1093"
         style="font-style:normal;font-variant:normal;font-weight:normal;font-stretch:normal;font-size:44.7023px;line-height:120%;font-family:Lavi;-inkscape-font-specification:Lavi;text-align:center;writing-mode:lr-tb;text-anchor:middle">Bui Dang Hai Trieu ★ carlos levischi ★ carolin der keks ★ Cedric Wohlleber ★ Chance Millar ★ Charles★ Chaz Straney</flowPara><flowPara
         id="flowPara1095"
         style="font-style:normal;font-variant:normal;font-weight:normal;font-stretch:normal;font-size:44.7023px;line-height:120%;font-family:Lavi;-inkscape-font-specification:Lavi;text-align:center;writing-mode:lr-tb;text-anchor:middle">Chris ★ Chris Sakkas ★ Christian Howe ★ Christophe Carré ★ Christopher Bates ★ Christopher Rodriguez</flowPara><flowPara
         id="flowPara1097"
         style="font-style:normal;font-variant:normal;font-weight:normal;font-stretch:normal;font-size:44.7023px;line-height:120%;font-family:Lavi;-inkscape-font-specification:Lavi;text-align:center;writing-mode:lr-tb;text-anchor:middle">Christopher Vollick ★ Colby Driedger ★ Damien ★ Daniel ★ Daniel Lynn ★ Danijel ★ David Brennan</flowPara><flowPara
         id="flowPara1099"
         style="font-style:normal;font-variant:normal;font-weight:normal;font-stretch:normal;font-size:44.7023px;line-height:120%;font-family:Lavi;-inkscape-font-specification:Lavi;text-align:center;writing-mode:lr-tb;text-anchor:middle">David Kerdudo ★ David Tang ★ DecMoon ★ Derek Zan ★ Dio Fantasma ★ Dmitry ★ Doug Moen ★ douze12 ★ Drew Fisher</flowPara><flowPara
         id="flowPara1101"
         style="font-style:normal;font-variant:normal;font-weight:normal;font-stretch:normal;font-size:44.7023px;line-height:120%;font-family:Lavi;-inkscape-font-specification:Lavi;text-align:center;writing-mode:lr-tb;text-anchor:middle">Durand D’souza ★ Elijah Brown ★ Elisha Condon ★ -epsilon- ★ Eric Schulz ★ Faolan Grady ★ francisco dario aviltis</flowPara><flowPara
         id="flowPara1103"
         style="font-style:normal;font-variant:normal;font-weight:normal;font-stretch:normal;font-size:44.7023px;line-height:120%;font-family:Lavi;-inkscape-font-specification:Lavi;text-align:center;writing-mode:lr-tb;text-anchor:middle">Francois Schnell ★ Francou ★ Garret Patterson ★ Gary Thomas ★ Ginny Hendricks ★ GreenAngel5 ★ Grigory Petrov</flowPara><flowPara
         id="flowPara1105"
         style="font-style:normal;font-variant:normal;font-weight:normal;font-stretch:normal;font-size:44.7023px;line-height:120%;font-family:Lavi;-inkscape-font-specification:Lavi;text-align:center;writing-mode:lr-tb;text-anchor:middle">Grzegorz Wozniak ★ G. S. Davis ★ Guillaume ★ Gustav Strömbom ★ happy2ice ★ Happy Mimic ★ Helmar Suschka</flowPara><flowPara
         id="flowPara1107"
         style="font-style:normal;font-variant:normal;font-weight:normal;font-stretch:normal;font-size:44.7023px;line-height:120%;font-family:Lavi;-inkscape-font-specification:Lavi;text-align:center;writing-mode:lr-tb;text-anchor:middle">Henning Döscher ★ Henry Ståhle ★ HobbyThor ★ Ilyas ★ Irina Rempt ★ Jacob ★ James Frazier ★ Jamie Sutherland ★ Janusz</flowPara><flowPara
         id="flowPara1109"
         style="font-style:normal;font-variant:normal;font-weight:normal;font-stretch:normal;font-size:44.7023px;line-height:120%;font-family:Lavi;-inkscape-font-specification:Lavi;text-align:center;writing-mode:lr-tb;text-anchor:middle">Jason ★ Jeffrey Schneider ★ Jessey Wright ★ Jessica Gadling ★ Joao Luiz ★ John ★ John Gholson ★ John Urquhart Ferguson</flowPara><flowPara
         id="flowPara1111"
         style="font-style:normal;font-variant:normal;font-weight:normal;font-stretch:normal;font-size:44.7023px;line-height:120%;font-family:Lavi;-inkscape-font-specification:Lavi;text-align:center;writing-mode:lr-tb;text-anchor:middle">Jonas Peter ★ Jonathan Leroy ★ Jonathan Walsh ★ Justus Kat ★ Kailyce ★ Kai-Ting (Danil) Ko ★ Kari Lehto ★ Kathryn Wuerstl</flowPara><flowPara
         id="flowPara1113"
         style="font-style:normal;font-variant:normal;font-weight:normal;font-stretch:normal;font-size:44.7023px;line-height:120%;font-family:Lavi;-inkscape-font-specification:Lavi;text-align:center;writing-mode:lr-tb;text-anchor:middle">kazakirinyancat ★ Ken Mingyuan Xia ★ Kevin Estalella ★ Kevin Trévien ★ Kingsquee ★ Kurain ★ La Plume ★ Lenod ★ Liang</flowPara><flowPara
         id="flowPara1115"
         style="font-style:normal;font-variant:normal;font-weight:normal;font-stretch:normal;font-size:44.7023px;line-height:120%;font-family:Lavi;-inkscape-font-specification:Lavi;text-align:center;writing-mode:lr-tb;text-anchor:middle">Lise-Lotte Pesonen ★ Lloyd Ash Pyne ★ Lorentz Grip ★ Lorenzo Leonini ★ Magnus Kronnäs ★ Marc et Rick ★ Marco ★ marcus</flowPara><flowPara
         id="flowPara1117"
         style="font-style:normal;font-variant:normal;font-weight:normal;font-stretch:normal;font-size:44.7023px;line-height:120%;font-family:Lavi;-inkscape-font-specification:Lavi;text-align:center;writing-mode:lr-tb;text-anchor:middle">Matt Lichtenwalner ★ Michael F. Schönitzer ★ Michael Gill ★ Michael Polushkin ★ Mike Mosher ★ Mohamed El Banna ★ Nabispace</flowPara><flowPara
         id="flowPara1119"
         style="font-style:normal;font-variant:normal;font-weight:normal;font-stretch:normal;font-size:44.7023px;line-height:120%;font-family:Lavi;-inkscape-font-specification:Lavi;text-align:center;writing-mode:lr-tb;text-anchor:middle">Nazhif ★ Nicholas DeLateur ★ Nicola Angel ★ Oleg Schelykalnov ★ Olga Bikmullina ★ Olivier Amrein ★ Olivier Gavrois ★ Omar Willey</flowPara><flowPara
         id="flowPara1121"
         style="font-style:normal;font-variant:normal;font-weight:normal;font-stretch:normal;font-size:44.7023px;line-height:120%;font-family:Lavi;-inkscape-font-specification:Lavi;text-align:center;writing-mode:lr-tb;text-anchor:middle">Oscar Moreno ★ Pato Acevedo ★ Patrick Dezothez ★ Patrick Gamblin ★ Paul ★ Pavel Semenov ★ Peter Moonen ★ Petr Vlašic</flowPara><flowPara
         id="flowPara1123"
         style="font-style:normal;font-variant:normal;font-weight:normal;font-stretch:normal;font-size:44.7023px;line-height:120%;font-family:Lavi;-inkscape-font-specification:Lavi;text-align:center;writing-mode:lr-tb;text-anchor:middle">Pierre Vuillemin ★ Pranab Shenoy ★ Pummie ★ Raghavendra Kamath ★ Rajul Gupta ★ Ramel Hill ★ Ray Brown ★ Rebecca Morris</flowPara><flowPara
         id="flowPara1125"
         style="font-style:normal;font-variant:normal;font-weight:normal;font-stretch:normal;font-size:44.7023px;line-height:120%;font-family:Lavi;-inkscape-font-specification:Lavi;text-align:center;writing-mode:lr-tb;text-anchor:middle">ResidentEvilArtist ★ Reuben Tracey ★ Roberto Zaghis ★ Roman ★ Rumiko Hoshino ★ Rustin Simons ★ Ryan ★ Sally Bridgewater</flowPara><flowPara
         id="flowPara1127"
         style="font-style:normal;font-variant:normal;font-weight:normal;font-stretch:normal;font-size:44.7023px;line-height:120%;font-family:Lavi;-inkscape-font-specification:Lavi;text-align:center;writing-mode:lr-tb;text-anchor:middle">Sami T ★ Samuel Mitson ★ Scott Petrovic ★ Scott Smiesko ★ ShadowMist ★ shafak ★ Shawn Meyer ★ Soriac ★ Stanislav ★ Stephan Theelke</flowPara><flowPara
         id="flowPara1129"
         style="font-style:normal;font-variant:normal;font-weight:normal;font-stretch:normal;font-size:44.7023px;line-height:120%;font-family:Lavi;-inkscape-font-specification:Lavi;text-align:center;writing-mode:lr-tb;text-anchor:middle">Stephen Bates ★ Steven Bennett ★ Stuart Dickson ★ surt ★ Takao Yamada ★ TamaskanLEM ★ tar8156 ★ TheFaico ★ thibhul ★ Thomas Schwery</flowPara><flowPara
         id="flowPara1131"
         style="font-style:normal;font-variant:normal;font-weight:normal;font-stretch:normal;font-size:44.7023px;line-height:120%;font-family:Lavi;-inkscape-font-specification:Lavi;text-align:center;writing-mode:lr-tb;text-anchor:middle">T.H. Porter ★ Tim Burbank ★ Tim J. ★ Tom Savage ★ Travis Humble ★ Tristy ★ Tyson Tan ★ Venus ★ Vera Vukovic ★ Victoria ★ Victoria White</flowPara><flowPara
         id="flowPara1133"
         style="font-style:normal;font-variant:normal;font-weight:normal;font-stretch:normal;font-size:44.7023px;line-height:120%;font-family:Lavi;-inkscape-font-specification:Lavi;text-align:center;writing-mode:lr-tb;text-anchor:middle">WakoTabacco ★ Wei-Ching Shyu ★ Westen Curry ★ Xavier Claude ★ Yalyn Vinkindo ★ Yaroslav ★ Yasmin ★ Zeni Pong</flowPara></flowRoot>
    <flowRoot
       transform="matrix(0.7498186,0,0,0.77430121,198.02904,1001.6041)"
       style="font-style:normal;font-variant:normal;font-weight:normal;font-stretch:normal;line-height:0.01%;font-family:Arial;-inkscape-font-specification:Arial;text-align:justify;letter-spacing:0px;word-spacing:0px;text-anchor:start;display:inline;fill:#000000;fill-opacity:1;stroke:none"
       id="flowRoot2987-7-8"
       xml:space="preserve"><flowRegion
         id="flowRegion2989-7-8"><rect
           style="text-align:justify;text-anchor:start"
           y="266.68515"
           x="-141.0901"
           height="999.68927"
           width="3063.4749"
           id="rect2991-7-5" /></flowRegion><flowPara
         id="flowPara1364"
         style="font-style:normal;font-variant:normal;font-weight:normal;font-stretch:normal;font-size:36.7473px;line-height:120%;font-family:Lavi;-inkscape-font-specification:Lavi;text-align:center;writing-mode:lr-tb;text-anchor:middle">Adrian Lord ★ Ahmad Ali ★ al ★ Alandran ★ Alcide ★ Alexander Bülow Tomassen ★ Alexander Kashev ★ Alex Bradaric ★ Alex Cochrane ★ Alexey Golubev</flowPara><flowPara
         id="flowPara1954"
         style="font-style:normal;font-variant:normal;font-weight:normal;font-stretch:normal;font-size:36.7473px;line-height:120%;font-family:Lavi;-inkscape-font-specification:Lavi;text-align:center;writing-mode:lr-tb;text-anchor:middle">Ali Poulton (Aunty Pol) ★ Amy ★ Andrew ★ Andy Gelme ★ Angelica Beltran ★ anonymous ★ Antoine ★ Antonio Mendoza ★ Antonio Parisi ★ Axel Philipsenburg</flowPara><flowPara
         id="flowPara1956"
         style="font-style:normal;font-variant:normal;font-weight:normal;font-stretch:normal;font-size:36.7473px;line-height:120%;font-family:Lavi;-inkscape-font-specification:Lavi;text-align:center;writing-mode:lr-tb;text-anchor:middle">barbix ★ BataMoth ★ Bela Bargel ★ Bernd ★ Bernhard Saumweber ★ Betsy Luntao ★ Birger Tuer Thorvaldsen ★ blueswag ★ Boris Fauret ★ Brett</flowPara><flowPara
         id="flowPara1958"
         style="font-style:normal;font-variant:normal;font-weight:normal;font-stretch:normal;font-size:36.7473px;line-height:120%;font-family:Lavi;-inkscape-font-specification:Lavi;text-align:center;writing-mode:lr-tb;text-anchor:middle">Bryan Rosander ★ BXS ★ Chris Kastorff ★ Chris Radcliff ★ Christian Gruenwaldner ★ Clara Dexter ★ codl ★ Comics by Shoonyah Studio ★ Conway Scott Smith</flowPara><flowPara
         id="flowPara1960"
         style="font-style:normal;font-variant:normal;font-weight:normal;font-stretch:normal;font-size:36.7473px;line-height:120%;font-family:Lavi;-inkscape-font-specification:Lavi;text-align:center;writing-mode:lr-tb;text-anchor:middle">Coppin Olivier ★ Craig Bogun ★ Crystal Bollinger ★ Cuthbert Williams ★ Cyol ★ Cyrille Largillier ★ Cyril Paciullo ★ Daniel Björkman ★ Dan Norder</flowPara><flowPara
         id="flowPara1962"
         style="font-style:normal;font-variant:normal;font-weight:normal;font-stretch:normal;font-size:36.7473px;line-height:120%;font-family:Lavi;-inkscape-font-specification:Lavi;text-align:center;writing-mode:lr-tb;text-anchor:middle">Dan Stolyarov ★ David ★ Davi Na ★ Dawn Blair ★ Deanna ★ Denis Bolkovskis ★ Dezponia Veil ★ DiCola Jamn ★ Dmitriy Yakimov ★ Donald Hayward</flowPara><flowPara
         id="flowPara1964"
         style="font-style:normal;font-variant:normal;font-weight:normal;font-stretch:normal;font-size:36.7473px;line-height:120%;font-family:Lavi;-inkscape-font-specification:Lavi;text-align:center;writing-mode:lr-tb;text-anchor:middle">Douglas Oliveira Pessoa ★ Duke ★ Eitan Goldshtrom ★ Emery Schulz ★ Enrico Billich ★ Erik Moeller ★ Esteban Manchado Velázquez ★ Fen Yun Fat</flowPara><flowPara
         id="flowPara1966"
         style="font-style:normal;font-variant:normal;font-weight:normal;font-stretch:normal;font-size:36.7473px;line-height:120%;font-family:Lavi;-inkscape-font-specification:Lavi;text-align:center;writing-mode:lr-tb;text-anchor:middle">Fernando Nunes ★ ida nilsen ★ Igor ★ Ivan Korotkov ★ Jamie Hunter ★ Jason Baldus ★ Jazyl Homavazir ★ JDB ★ Jean-Baptiste Hebbrecht</flowPara><flowPara
         id="flowPara1968"
         style="font-style:normal;font-variant:normal;font-weight:normal;font-stretch:normal;font-size:36.7473px;line-height:120%;font-family:Lavi;-inkscape-font-specification:Lavi;text-align:center;writing-mode:lr-tb;text-anchor:middle">Jean-Gabriel LOQUET ★ Jhonny Rosa ★ Jim ★ Jim Street ★ Joerg Raidt ★ Joern Konopka ★ joe rutledge ★ John ★ Jon Brake ★ Jorge Bernal ★ Joseph Bowman</flowPara><flowPara
         id="flowPara1970"
         style="font-style:normal;font-variant:normal;font-weight:normal;font-stretch:normal;font-size:36.7473px;line-height:120%;font-family:Lavi;-inkscape-font-specification:Lavi;text-align:center;writing-mode:lr-tb;text-anchor:middle">Josh ★ Josh Cavalier ★ Juju Mendivil ★ Julian Dauner ★ Julia Velkova ★ Kate ★ Kroet ★ Lars Ivar Igesund ★ Liselle ★ Liska Myers ★ Louis Yung</flowPara><flowPara
         id="flowPara1972"
         style="font-style:normal;font-variant:normal;font-weight:normal;font-stretch:normal;font-size:36.7473px;line-height:120%;font-family:Lavi;-inkscape-font-specification:Lavi;text-align:center;writing-mode:lr-tb;text-anchor:middle">Luc Stepniewski ★ Luke Hochrein ★ Mahwiii ★ Mancy S ★ Manu Järvinen ★ Martin Owens ★ Mary Brownlee ★ Masked Admirer ★ Megan Sandiford ★ Michael</flowPara><flowPara
         id="flowPara1974"
         style="font-style:normal;font-variant:normal;font-weight:normal;font-stretch:normal;font-size:36.7473px;line-height:120%;font-family:Lavi;-inkscape-font-specification:Lavi;text-align:center;writing-mode:lr-tb;text-anchor:middle">Michael Pureka ★ Michelle Pereira Garcia ★ Miroslav ★ mjkj ★ Moonsia ★ Moritz Fuchs ★ Muriah Summer ★ Mylène Cassen ★ Nicholas Terranova</flowPara><flowPara
         id="flowPara1976"
         style="font-style:normal;font-variant:normal;font-weight:normal;font-stretch:normal;font-size:36.7473px;line-height:120%;font-family:Lavi;-inkscape-font-specification:Lavi;text-align:center;writing-mode:lr-tb;text-anchor:middle">Nicole Heersema ★ Nielas Sinclair ★ Nikita Stafeev ★ Noble Hays ★ Noelia Calles Marcos ★ Nora Czaykowski ★ No Reward ★ Nyx ★ Öykü Su Gürler</flowPara><flowPara
         id="flowPara1978"
         style="font-style:normal;font-variant:normal;font-weight:normal;font-stretch:normal;font-size:36.7473px;line-height:120%;font-family:Lavi;-inkscape-font-specification:Lavi;text-align:center;writing-mode:lr-tb;text-anchor:middle">Ozone S. ★ Pat David ★ Patrick Kennedy ★ Paul ★ Pet0r ★ Peter ★ Peter ★ Pierre Geier ★ Pyves &amp; Ran ★ Ray Cruz ★ Raymond Fullon ★ Ray Powell</flowPara><flowPara
         id="flowPara1980"
         style="font-style:normal;font-variant:normal;font-weight:normal;font-stretch:normal;font-size:36.7473px;line-height:120%;font-family:Lavi;-inkscape-font-specification:Lavi;text-align:center;writing-mode:lr-tb;text-anchor:middle">Rebecca ★ Rebekah Hopper ★ Rei ★ Reorx Meng ★ Ret Samys ★ rictic ★ Robin Moussu ★ Sean Adams ★ Sebastien ★ Sevag Bakalian ★ Shadefalcon</flowPara><flowPara
         id="flowPara1982"
         style="font-style:normal;font-variant:normal;font-weight:normal;font-stretch:normal;font-size:36.7473px;line-height:120%;font-family:Lavi;-inkscape-font-specification:Lavi;text-align:center;writing-mode:lr-tb;text-anchor:middle">Simon Isenberg ★ Simon Moffitt ★ Siora ★ Sonja Reimann-Klieber ★ Sonny W. ★ Stanislav German-Evtushenko ★ Stephen Smoogen ★ Surabhi Gaur</flowPara><flowPara
         id="flowPara1984"
         style="font-style:normal;font-variant:normal;font-weight:normal;font-stretch:normal;font-size:36.7473px;line-height:120%;font-family:Lavi;-inkscape-font-specification:Lavi;text-align:center;writing-mode:lr-tb;text-anchor:middle">Taedirk ★ Tas Kartas ★ Terry Hancock (Personal) ★ Thomas Citharel ★ Thomas Werner ★ Thor Galle ★ Thornae ★ Timothy Boersma ★ Tomas Hajek</flowPara><flowPara
         id="flowPara1986"
         style="font-style:normal;font-variant:normal;font-weight:normal;font-stretch:normal;font-size:36.7473px;line-height:120%;font-family:Lavi;-inkscape-font-specification:Lavi;text-align:center;writing-mode:lr-tb;text-anchor:middle">Tomáš Slapnička ★ Tom Dickson ★ tree ★ uglyheroes ★ Umbra Draconis ★ Vitaly Tokarenko ★ Vladislav Kurdyukov ★ Wander ★ Wilhelmine Faust</flowPara><flowPara
         id="flowPara1988"
         style="font-style:normal;font-variant:normal;font-weight:normal;font-stretch:normal;font-size:36.7473px;line-height:120%;font-family:Lavi;-inkscape-font-specification:Lavi;text-align:center;writing-mode:lr-tb;text-anchor:middle">William Crumpler ★ Źmicier Kušnaroŭ ★ zubr kabbi</flowPara></flowRoot>
    <flowRoot
       transform="matrix(0.61417137,0,0,0.63422492,711.92904,-518.3553)"
       style="font-style:normal;font-variant:normal;font-weight:normal;font-stretch:normal;line-height:0.01%;font-family:Arial;-inkscape-font-specification:Arial;text-align:justify;letter-spacing:0px;word-spacing:0px;text-anchor:start;display:inline;fill:#000000;fill-opacity:1;stroke:none"
       id="flowRoot2987-7-7"
       xml:space="preserve"><flowRegion
         id="flowRegion2989-7-9"><rect
           style="text-align:justify;text-anchor:start"
           y="266.68515"
           x="-141.0901"
           height="529.34503"
           width="2004.6675"
           id="rect2991-7-2" /></flowRegion><flowPara
         id="flowPara4208"
         style="font-style:normal;font-variant:normal;font-weight:normal;font-stretch:normal;font-size:57.6814px;line-height:120%;font-family:Lavi;-inkscape-font-specification:Lavi;text-align:center;writing-mode:lr-tb;text-anchor:middle">Arne Brix ★ Boudewijn Rempt ★ Brent Houghton ★ Casey Tatum</flowPara><flowPara
         id="flowPara143"
         style="font-style:normal;font-variant:normal;font-weight:normal;font-stretch:normal;font-size:57.6814px;line-height:120%;font-family:Lavi;-inkscape-font-specification:Lavi;text-align:center;writing-mode:lr-tb;text-anchor:middle">Davis Aites ★ Ejner Fergo ★ Enrique Lopez ★ Francois Didier</flowPara><flowPara
         id="flowPara145"
         style="font-style:normal;font-variant:normal;font-weight:normal;font-stretch:normal;font-size:57.6814px;line-height:120%;font-family:Lavi;-inkscape-font-specification:Lavi;text-align:center;writing-mode:lr-tb;text-anchor:middle">freecultureftw ★ Jonathan Ringstad ★ Julio Avila ★ Levi Kornelsen</flowPara><flowPara
         id="flowPara147"
         style="font-style:normal;font-variant:normal;font-weight:normal;font-stretch:normal;font-size:57.6814px;line-height:120%;font-family:Lavi;-inkscape-font-specification:Lavi;text-align:center;writing-mode:lr-tb;text-anchor:middle">Matthew Reynolds ★ Mefflin Ross Bullis-bates ★ Michael Oliveira</flowPara><flowPara
         id="flowPara149"
         style="font-style:normal;font-variant:normal;font-weight:normal;font-stretch:normal;font-size:57.6814px;line-height:120%;font-family:Lavi;-inkscape-font-specification:Lavi;text-align:center;writing-mode:lr-tb;text-anchor:middle">Nguyen Minh Trung ★ Nicki Aya ★ NinjaKnight Comics ★ Olivier Brun</flowPara><flowPara
         id="flowPara151"
         style="font-style:normal;font-variant:normal;font-weight:normal;font-stretch:normal;font-size:57.6814px;line-height:120%;font-family:Lavi;-inkscape-font-specification:Lavi;text-align:center;writing-mode:lr-tb;text-anchor:middle">Praveen Bhamidipati ★ Ricardo Muggli ★ RJ van der Weide</flowPara><flowPara
         id="flowPara153"
         style="font-style:normal;font-variant:normal;font-weight:normal;font-stretch:normal;font-size:57.6814px;line-height:120%;font-family:Lavi;-inkscape-font-specification:Lavi;text-align:center;writing-mode:lr-tb;text-anchor:middle">Roman Burdun ★ Urm</flowPara></flowRoot>
    <flowRoot
       transform="matrix(0.72857232,0,0,0.75236127,584.32456,-803.75769)"
       style="font-style:normal;font-variant:normal;font-weight:normal;font-stretch:normal;line-height:0.01%;font-family:Arial;-inkscape-font-specification:Arial;text-align:justify;letter-spacing:0px;word-spacing:0px;text-anchor:start;display:inline;fill:#000000;fill-opacity:1;stroke:none"
       id="flowRoot2987-7-7-3"
       xml:space="preserve"><flowRegion
         id="flowRegion2989-7-9-5"><rect
           style="text-align:justify;text-anchor:start"
           y="266.68515"
           x="-141.0901"
           height="180.51283"
           width="2084.9294"
           id="rect2991-7-2-5" /></flowRegion><flowPara
         id="flowPara4196"
         style="font-style:normal;font-variant:normal;font-weight:normal;font-stretch:normal;font-size:60.278px;line-height:120%;font-family:Lavi;-inkscape-font-specification:Lavi;text-align:center;writing-mode:lr-tb;text-anchor:middle">Jónatan Nilsson</flowPara><flowPara
         id="flowPara157"
         style="font-style:normal;font-variant:normal;font-weight:normal;font-stretch:normal;font-size:60.278px;line-height:120%;font-family:Lavi;-inkscape-font-specification:Lavi;text-align:center;writing-mode:lr-tb;text-anchor:middle">Alex Kotenko ★ Philippe Jean Edward Bateman</flowPara></flowRoot>
  </g>
</svg>
