<?xml version="1.0" encoding="UTF-8" standalone="no"?>
<svg
   xmlns:dc="http://purl.org/dc/elements/1.1/"
   xmlns:cc="http://creativecommons.org/ns#"
   xmlns:rdf="http://www.w3.org/1999/02/22-rdf-syntax-ns#"
   xmlns:svg="http://www.w3.org/2000/svg"
   xmlns="http://www.w3.org/2000/svg"
   xmlns:xlink="http://www.w3.org/1999/xlink"
   xmlns:sodipodi="http://sodipodi.sourceforge.net/DTD/sodipodi-0.dtd"
   xmlns:inkscape="http://www.inkscape.org/namespaces/inkscape"
   id="svg2"
   version="1.1"
   inkscape:version="1.0.2 (e86c870879, 2021-01-15, custom)"
   width="2481"
   height="3503"
   sodipodi:docname="E34P05.svg">
  <metadata
     id="metadata8">
    <rdf:RDF>
      <cc:Work
         rdf:about="">
        <dc:format>image/svg+xml</dc:format>
        <dc:type
           rdf:resource="http://purl.org/dc/dcmitype/StillImage" />
        <dc:title />
      </cc:Work>
    </rdf:RDF>
  </metadata>
  <defs
     id="defs6">
    <filter
       style="color-interpolation-filters:sRGB"
       id="filter4375-4-1-1-1-9-5-8-8-5-5-3-3"
       inkscape:label="soundFX1">
      <feFlood
         id="feFlood4377-7-9-0-8-1-7-3-1-2-7-6-6"
         flood-opacity="1"
         flood-color="rgb(52,52,52)"
         result="flood" />
      <feComposite
         id="feComposite4379-3-8-8-2-77-4-1-0-6-4-7-7"
         in2="SourceGraphic"
         in="flood"
         operator="in"
         result="composite1"
         baseFrequency="0.053999999999999999 0.053999999999999999" />
      <feMorphology
         id="feMorphology4393-1-0-49-8-9-3-0-1-9-9-5-5"
         operator="dilate"
         radius="4.0330969769021738"
         result="result3" />
      <feComposite
         id="feComposite4385-9-5-7-0-8-8-7-5-4-9-3-3"
         in2="result3"
         in="SourceGraphic"
         operator="over"
         result="fbSourceGraphic" />
      <feColorMatrix
         result="fbSourceGraphicAlpha"
         in="fbSourceGraphic"
         values="0 0 0 -1 0 0 0 0 -1 0 0 0 0 -1 0 0 0 0 1 0"
         id="feColorMatrix4544-9-4-4-5-5" />
      <feTurbulence
         id="feTurbulence4546-3-6-5-6-6"
         type="fractalNoise"
         numOctaves="4"
         seed="147"
         baseFrequency="0.053999999999999999 0.054054054054054057"
         result="turbulence" />
      <feDisplacementMap
         id="feDisplacementMap4548-8-0-9-2-2"
         in2="turbulence"
         in="fbSourceGraphic"
         scale="10.561763"
         yChannelSelector="G"
         xChannelSelector="R"
         result="fbSourceGraphic" />
      <feColorMatrix
         result="fbSourceGraphicAlpha"
         in="fbSourceGraphic"
         values="0 0 0 -1 0 0 0 0 -1 0 0 0 0 -1 0 0 0 0 1 0"
         id="feColorMatrix4670-7-7-3-9-9" />
      <feFlood
         id="feFlood4672-4-4-5-1-1"
         flood-opacity="1"
         flood-color="rgb(28,28,28)"
         result="flood"
         in="fbSourceGraphic" />
      <feComposite
         id="feComposite4674-8-3-7-2-2"
         in2="fbSourceGraphic"
         in="flood"
         operator="in"
         result="composite1" />
      <feGaussianBlur
         id="feGaussianBlur4676-3-7-08-7-7"
         in="composite1"
         stdDeviation="0"
         result="blur" />
      <feOffset
         id="feOffset4678-6-9-1-0-0"
         dx="-10.48377497279229"
         dy="0.39217365321829334"
         result="offset" />
      <feComposite
         id="feComposite4680-4-0-9-9-9"
         in2="offset"
         in="fbSourceGraphic"
         operator="over"
         result="composite2" />
    </filter>
    <filter
       inkscape:collect="always"
       style="color-interpolation-filters:sRGB"
       id="filter1624"
       x="-0.066465521"
       width="1.132931"
       y="-0.12921093"
       height="1.2584219">
      <feGaussianBlur
         inkscape:collect="always"
         stdDeviation="4.7367523"
         id="feGaussianBlur1626" />
    </filter>
    <filter
       inkscape:collect="always"
       style="color-interpolation-filters:sRGB"
       id="filter1624-1"
       x="-0.066465519"
       width="1.132931"
       y="-0.12921093"
       height="1.2584219">
      <feGaussianBlur
         inkscape:collect="always"
         stdDeviation="4.7367523"
         id="feGaussianBlur1626-9" />
    </filter>
    <filter
       inkscape:collect="always"
       style="color-interpolation-filters:sRGB"
       id="filter1624-1-7"
       x="-0.066465519"
       width="1.132931"
       y="-0.12921093"
       height="1.2584219">
      <feGaussianBlur
         inkscape:collect="always"
         stdDeviation="4.7367523"
         id="feGaussianBlur1626-9-8" />
    </filter>
  </defs>
  <sodipodi:namedview
     pagecolor="#ffffff"
     bordercolor="#666666"
     borderopacity="1"
     objecttolerance="10"
     gridtolerance="10"
     guidetolerance="10"
     inkscape:pageopacity="0"
     inkscape:pageshadow="2"
     inkscape:window-width="1920"
     inkscape:window-height="1017"
     id="namedview4"
     showgrid="false"
     inkscape:zoom="0.52900002"
     inkscape:cx="1215.8612"
     inkscape:cy="2445.5043"
     inkscape:window-x="-8"
     inkscape:window-y="-8"
     inkscape:window-maximized="1"
     inkscape:current-layer="layer1"
     inkscape:document-rotation="0"
     inkscape:snap-global="false"
     borderlayer="true" />
  <g
     inkscape:groupmode="layer"
     id="layer2"
     inkscape:label="artwork"
     sodipodi:insensitive="true">
    <image
       sodipodi:absref="C:\Users\Xan\Documents\git\peppercarrot\webcomics\ep34_The-Knighting-of-Shichimi\lang\gfx_Pepper-and-Carrot_by-David-Revoy_E34P05.png"
       xlink:href="../gfx_Pepper-and-Carrot_by-David-Revoy_E34P05.png"
       width="2481"
       height="3503"
       id="image10"
       x="0"
       y="0" />
  </g>
  <g
     inkscape:groupmode="layer"
     id="layer3"
     inkscape:label="speechbubbles"
     style="display:inline">
    <path
       style="display:inline;fill:#ffffff;fill-rule:evenodd;stroke:none;stroke-width:1.18926px;stroke-linecap:butt;stroke-linejoin:miter;stroke-opacity:1"
       d="m 2147.5788,843.63173 c -30.112,0.0437 -60.1911,1.71396 -90.1466,4.37725 -15.9448,1.12217 -31.3254,5.41603 -46.4792,9.73518 -14.1727,4.27526 -28.3238,8.88101 -41.4982,15.25976 -17.0598,8.51113 -32.3431,21.03894 -40.0475,37.32747 -6.4709,13.05538 -10.276,27.02366 -13.2428,41.00167 -4.4416,27.08009 2.9678,56.11584 22.5745,77.48714 22.3874,24.9308 57.7835,39.6244 93.4511,40.2364 75.2412,6.2304 151.4415,8.6769 226.4812,-0.8354 25.1395,-3.2627 50.4711,-10.1908 70.6383,-24.4259 22.0883,-15.8171 33.9292,-41.301 33.7551,-66.29475 0.1081,-23.70521 -10.7553,-46.73696 -27.5238,-64.87963 -19.9603,-22.12941 -47.5509,-37.88058 -76.8512,-48.45815 -28.4523,-10.67283 -58.5993,-18.38972 -89.5323,-20.01511 -7.1813,-0.43467 -14.3818,-0.58715 -21.5786,-0.51593 z"
       id="path1076"
       inkscape:connector-curvature="0" />
    <path
       style="color:#000000;display:inline;overflow:visible;visibility:visible;fill:#ffffff;fill-opacity:1;fill-rule:nonzero;stroke:none;stroke-width:1.46145px;marker:none;enable-background:accumulate"
       d="M 1428.3359 65.121094 C 1410.862 66.065804 1394.3921 75.428272 1376.6307 72.770098 C 1363.0384 71.347854 1347.9318 71.371613 1336.4462 79.850038 C 1326.2483 87.828404 1320.9548 100.46849 1318.2024 112.79546 C 1315.4395 126.64278 1315.4077 140.83422 1314.4656 154.8763 C 1312.1489 210.42285 1318.0905 265.82683 1320.2989 321.27518 C 1321.4201 344.29127 1322.4947 367.63352 1328.9492 389.88867 C 1331.6083 396.41524 1337.4102 401.04804 1342.9512 405.10352 C 1352.9372 411.73272 1364.1757 416.12298 1375.0526 421.03379 C 1408.6744 434.71932 1445.0639 439.15976 1480.9123 442.7647 C 1528.6062 446.54733 1576.0864 438.68111 1623.4797 434.54646 C 1650.7101 431.72702 1678.7709 428.31709 1703.3246 415.34691 C 1726.8635 401.96984 1742.9348 378.76204 1753.9437 354.57339 C 1769.7716 320.37146 1776.407 280.9819 1767.7305 243.93662 C 1760.5368 210.61793 1748.5174 177.21898 1725.834 151.17981 C 1710.904 134.27152 1690.8887 122.30619 1669.3901 115.77444 C 1646.8643 108.0474 1623.9018 101.56919 1601.7723 92.713435 C 1576.3023 83.364255 1549.883 76.176914 1522.7988 73.674585 C 1499.9421 71.151666 1477.0126 69.296004 1454.1973 66.40625 C 1445.6029 65.580461 1436.9735 65.033996 1428.3359 65.121094 z "
       id="path4546-6-5-5"
       inkscape:connector-curvature="0"
       sodipodi:nodetypes="cssssccccccccccccc" />
    <path
       style="color:#000000;display:inline;overflow:visible;visibility:visible;fill:#ffffff;fill-opacity:1;fill-rule:nonzero;stroke:none;stroke-width:0.600991px;marker:none;enable-background:accumulate"
       d="m 670.35742,769.71094 c -12.2973,0.9647 -24.88043,3.61674 -35.31645,10.49777 -8.26937,6.01073 -15.67977,13.16759 -22.32417,20.92215 -6.62645,7.92618 -12.45435,16.68654 -16.1348,26.37998 -3.14551,10.49958 -1.35181,21.73717 1.78536,32.01289 2.82779,8.96948 7.68064,17.87175 15.78303,23.07197 6.94429,4.14841 15.32919,4.36127 23.18225,3.9754 9.46419,-0.29273 19.23433,0.27025 28.00976,4.15103 9.04638,3.43181 18.21763,7.73729 28.11679,7.43852 13.77277,-0.35998 26.75813,-6.06737 38.3739,-13.09874 14.74173,-9.08988 26.7992,-23.24144 31.53588,-40.07628 2.84106,-10.03042 2.47383,-20.87049 -0.8408,-30.74109 -3.01302,-9.29937 -7.98249,-18.10356 -15.00292,-24.96219 -5.74301,-5.42623 -13.1915,-8.71524 -20.86833,-10.30244 -10.75987,-2.41067 -21.91535,-2.58388 -32.57378,-5.52158 -7.80876,-1.66324 -15.63484,-4.45051 -23.72572,-3.74739 z"
       id="path4040-41"
       inkscape:connector-curvature="0"
       sodipodi:nodetypes="zssssz" />
    <path
       style="color:#000000;display:inline;overflow:visible;visibility:visible;fill:#ffffff;fill-opacity:1;fill-rule:nonzero;stroke:none;stroke-width:0.888689px;marker:none;enable-background:accumulate"
       d="m 563.61538,294.92188 c -27.31436,0.52894 -54.90921,1.20542 -81.64412,10.07138 -7.86181,2.5029 -15.53982,7.05158 -21.67109,14.64504 -5.84324,6.92199 -10.58373,16.57887 -11.26182,27.62133 -0.7526,10.00446 0.42848,20.03515 1.57281,29.88295 1.5433,10.72435 4.9668,21.50126 11.32494,28.10742 7.87302,8.67822 17.51976,12.92409 26.73475,17.75407 18.79817,8.97683 38.80848,10.74304 58.49527,10.72165 30.78314,0.24417 61.61502,-2.07645 92.11649,-8.12962 13.9537,-3.52183 27.08239,-15.03886 34.78122,-32.15893 4.66723,-10.8684 6.43025,-24.51234 3.81384,-36.83872 -4.58463,-25.29193 -19.81993,-45.27497 -37.36992,-51.78308 -11.53288,-4.49459 -23.50695,-5.75471 -35.34221,-7.66458 -13.812,-1.76751 -27.68722,-2.30343 -41.55016,-2.22891 z"
       id="path4040-4-5-3-6"
       inkscape:connector-curvature="0"
       sodipodi:nodetypes="zssssz" />
    <path
       style="fill:#ffffff;fill-rule:evenodd;stroke:none;stroke-width:1.1856px;stroke-linecap:butt;stroke-linejoin:miter;stroke-opacity:1"
       d="m 567.86036,115.87537 c -34.54884,0.06 -68.99246,2.8147 -103.52444,3.42681 -32.51991,0.84502 -65.2052,1.35134 -97.38159,5.90823 -23.45606,3.13687 -46.35625,10.8338 -65.17205,23.47331 -9.32925,6.22774 -17.03242,14.01096 -24.74501,21.65588 -7.64775,7.95388 -14.87731,16.45959 -19.31041,26.13538 -6.85521,15.90957 -6.89638,33.60907 -2.23915,49.97304 4.15184,13.49569 13.7528,25.61939 26.74235,33.91414 14.72439,9.66713 32.40096,15.32538 50.19462,19.16744 26.98218,5.43648 54.84245,5.41581 82.36626,6.60693 85.13713,2.79181 170.35119,0.29158 255.42901,-2.76757 39.00419,-2.1954 78.37412,-4.74322 116.12721,-14.0351 17.68788,-6.93639 31.64646,-19.50206 42.04567,-33.44455 9.09163,-14.08632 10.60005,-30.81679 8.71517,-46.59384 -2.01234,-20.68371 -13.38674,-40.82827 -32.10484,-54.019 -24.39872,-18.88432 -56.18225,-29.66935 -88.47291,-33.0504 -23.21184,-2.8886 -46.58147,-5.09385 -70.03457,-5.66153 -22.858,-0.0157 -45.70982,-0.50445 -68.56556,-0.68357 -3.35655,-0.0229 -6.71316,-0.007 -10.06976,-0.006 z"
       id="path1299"
       inkscape:connector-curvature="0" />
    <path
       style="color:#000000;display:inline;overflow:visible;visibility:visible;fill:#ffffff;fill-opacity:1;fill-rule:nonzero;stroke:none;stroke-width:1px;marker:none;enable-background:accumulate"
       d="m 601.64274,401.13421 c -14.17455,40.88456 44.77094,72.82978 100.67006,54.05497 -23.16137,8.79652 -79.7912,49.66875 -144.52484,-46.85819 -30.03766,-44.79037 28.99451,-4.6799 28.99451,-4.6799 z"
       id="path4035-4"
       inkscape:connector-curvature="0"
       sodipodi:nodetypes="ccscc" />
    <path
       style="color:#000000;display:inline;overflow:visible;visibility:visible;fill:#ffffff;fill-opacity:1;fill-rule:nonzero;stroke:none;stroke-width:0.65663px;marker:none;enable-background:accumulate"
       d="m 611.41244,701.29174 c 17.11413,0.19349 18.72502,1.92575 19.18724,12.28702 0.46185,10.36191 -1.67076,26.02679 10.09463,35.89667 11.76506,9.87056 19.1963,13.36617 25.49665,11.79439 -5.19491,13.1306 -2.83584,31.62853 -10.75775,36.51466 -7.9219,4.88611 26.05967,-2.07377 26.05967,-2.07377 0,0 9.21399,-27.86213 6.82755,-44.34007 -2.3864,-16.4779 -28.23087,-11.38908 -37.42309,-16.46871 -9.19219,-5.07958 -7.20814,-26.722 -13.49221,-32.72081 -6.28377,-5.99953 -17.59228,-2.98484 -25.99269,-0.88938 z"
       id="path4538-7"
       inkscape:connector-curvature="0"
       sodipodi:nodetypes="ccscccsscc" />
    <path
       style="color:#000000;display:inline;overflow:visible;visibility:visible;fill:#ffffff;fill-opacity:1;fill-rule:nonzero;stroke:none;stroke-width:1.01366px;marker:none;enable-background:accumulate"
       d="m 1598.5835,596.86203 c 14.1467,-11.40413 29.0076,-23.09483 38.4486,-39.96949 2.5984,-4.85383 4.9981,-10.05752 6.0756,-15.49957 0.016,-5.8546 -3.8969,-10.34151 -8.4908,-12.17778 -6.4361,-3.18874 -14.5628,-3.42982 -19.4026,-9.63069 -3.4195,-4.61758 -1.8272,-11.14779 -0.9156,-16.72114 2.5699,-14.17326 6.8395,-28.1699 7.4104,-42.5769 1.5793,-16.24635 2.1988,-33.38893 -3.7408,-48.10801 -2.4394,-5.7727 -5.7341,-11.37091 -10.8601,-14.41865 -12.7918,-8.51566 -30.6307,-8.53627 -43.8564,1.70558 -7.9407,7.39354 -10.3193,22.05002 -3.5557,30.23691 3.5085,4.38614 9.2515,5.18736 14.4155,4.19228 9.6748,0.1491 18.2991,6.65319 22.6959,15.89335 3.7428,7.54995 5.2552,16.51182 4.6927,25.40135 2.0644,12.09608 -3.5504,23.92983 -6.6517,35.52848 -1.3509,5.3164 -2.467,11.0518 -1.4466,16.34944 3.0779,7.03972 10.5313,8.927 17.0498,9.68941 6.6944,0.98385 14.6099,1.26357 18.9566,7.63463 3.5752,3.9219 -0.1424,9.62907 -1.3852,14.17636 -5.6681,14.18394 -15.0865,26.49538 -26.0468,36.02362 -1.0987,0.82439 -2.2436,1.54861 -3.3927,2.27078 z"
       id="path4496-9"
       inkscape:connector-curvature="0"
       inkscape:transform-center-x="21.004464"
       inkscape:transform-center-y="-25.902749" />
    <path
       style="color:#000000;display:inline;overflow:visible;visibility:visible;fill:#ffffff;fill-opacity:1;fill-rule:nonzero;stroke:none;stroke-width:1.03729px;marker:none;enable-background:accumulate"
       d="m 2109.2559,751.99134 c -20.4103,6.10083 -40.0468,16.85113 -53.8,33.41265 -10.7709,14.46078 -16.5835,31.98514 -19.9326,49.53175 -1.4068,8.93082 -2.2092,18.35818 0.5,27.10829 3.2554,6.18918 11.8987,8.09797 17.7559,4.53442 7.5966,-3.5917 11.8306,-12.98928 9.3278,-21.03888 -1.6093,-16.53808 1.3652,-33.26989 6.7533,-48.89003 5.7833,-15.14652 16.5635,-28.06938 29.7192,-37.41611 3.7487,-2.79439 7.6932,-5.31046 11.6413,-7.81045 -0.655,0.18946 -1.3099,0.37891 -1.9649,0.56836 z"
       id="path5010-4"
       inkscape:connector-curvature="0"
       sodipodi:nodetypes="ccsc" />
    <path
       style="fill:#ffffff;stroke:none;stroke-width:1.00962"
       d="m 1694.6966,1472.3525 c -45.2399,1.9207 -89.88,23.5759 -116.9189,59.5519 -10.3545,14.1662 -14.9862,31.5853 -16.061,48.8011 -2.6607,26.1893 -2.2577,52.5488 -2.6945,78.8283 0.848,18.42 7.3076,37.3301 21.215,50.2307 17.3346,17.5119 41.5517,26.7038 65.7103,30.6406 38.0695,7.059 77.0071,5.6894 115.5163,4.3047 30.2772,-1.6408 61.4003,-8.243 86.5428,-25.6654 20.7623,-14.2178 35.9747,-36.832 38.7768,-61.7555 3.0873,-23.3392 -0.8243,-46.7948 -3.8998,-69.9242 -3.7,-23.9268 -10.133,-48.3988 -25.3614,-67.9404 -18.9343,-24.1142 -48.5635,-38.5823 -78.9201,-42.8707 -27.7199,-4.3314 -55.9144,-4.3212 -83.9055,-4.2011 z"
       id="path3280-10"
       inkscape:connector-curvature="0"
       sodipodi:nodetypes="csssc" />
    <path
       style="color:#000000;display:inline;overflow:visible;visibility:visible;fill:#ffffff;fill-opacity:1;fill-rule:nonzero;stroke:none;stroke-width:0.730994px;marker:none;enable-background:accumulate"
       d="m 1701.3359,1182.3633 c -23.6044,0.4972 -47.5014,8.2194 -65.537,23.7485 -16.8972,15.2472 -21.3862,42.7399 -9.3936,62.2553 7.3737,12.546 20.5403,20.6735 34.317,24.5048 22.0738,8.2236 45.7993,10.6274 69.1919,11.348 21.8322,0.47 44.2156,-1.001 64.7362,-9.0519 13.7438,-5.6802 26.0669,-16.1754 31.5122,-30.2834 6.1857,-15.1026 4.6669,-33.4624 -5.1548,-46.703 -9.4277,-13.4338 -24.3106,-21.9676 -39.6896,-26.8896 -23.7701,-7.8332 -49.0614,-8.7336 -73.8752,-8.9512 -2.0358,-7e-4 -4.0715,-0.013 -6.1071,0.023 z"
       id="path4546-6-89"
       inkscape:connector-curvature="0"
       sodipodi:nodetypes="cssssc" />
    <path
       style="fill:#ffffff;fill-rule:evenodd;stroke:none;stroke-width:0.479277px;stroke-linecap:butt;stroke-linejoin:miter;stroke-opacity:1"
       d="m 893.13501,1534.7305 c 27.51836,-11.7764 54.23289,-20.9661 71.61477,-23.4902 -3.55561,10.1642 -5.56972,16.3128 -14.89804,25.0191 24.30441,1.9047 70.63976,-18.9809 95.44776,-31.1705 -33.9587,5.7956 -60.1404,12.1497 -70.78238,13.5607 4.97656,-8.3585 6.96879,-14.5328 9.86224,-23.8449 -15.1281,3.6171 -70.65358,12.0504 -83.85269,9.4593 -13.19922,-2.5913 -7.39166,30.4665 -7.39166,30.4665 z"
       id="path1305"
       inkscape:connector-curvature="0"
       sodipodi:nodetypes="ccccccsc" />
    <path
       style="fill:#ffffff;fill-opacity:1;fill-rule:evenodd;stroke:none;stroke-width:1.10737px;stroke-linecap:butt;stroke-linejoin:miter;stroke-opacity:1"
       d="m 466.01954,1569.9179 c 30.67634,-10.521 25.84335,29.0854 7.52851,87.6907 21.07509,-42.7253 62.28463,-54.5706 26.24051,26.6768 56.66541,-60.6901 97.08135,-85.7432 88.19511,-2.6705 75.14417,-79.5477 79.3209,-42.486 74.02251,10.1446 29.84115,-75.6211 57.9904,-83.9057 84.08857,-10.5586 -7.36527,-78.0763 32.88991,-75.972 118.68777,2.8146 -38.33206,-82.423 9.15821,-53.0558 57.11724,-23.0779 -40.3171,-70.5513 15.16931,-31.4196 36.93145,-30.8979 -81.14313,-108.9326 -11.92996,-67.7368 31.75967,-52.0259 -41.93426,-30.7464 -62.31079,-59.0586 10.49952,-68.7458 -64.55403,-12.0507 -37.43211,-38.0924 25.7593,-68.2115 -34.48397,5.098 -100.55115,-15.3443 12.9776,-45.3995 -44.16367,5.4023 -87.48463,-12.8563 -37.1442,-34.29 -16.58525,4.7236 -107.86902,-3.5691 -33.50328,-30.5201 -46.0024,5.5599 -62.64991,3.015 40.50768,-32.6078 -160.1349,30.9765 -43.83167,-16.6513 -15.78978,-39.1823 -66.14689,18.1964 -177.93261,76.6905 -83.31913,-47.06 -131.86667,123.4237 -116.38221,49.4763 -108.99788,-13.6214 -45.44415,98.984 -61.29088,85.536 -65.19085,26.7059 -21.22218,37.9213 -23.99693,10.5965 -26.32052,-18.3239 -21.17338,54.5096 -41.7419,83.9303 -59.4849,-3.8445 -9.75736,101.4459 -44.21219,81.7174 -84.10246,35.321 7.19423,35.8651 -15.33845,19.1419 -47.9351,-15.3849 26.88162,91.5621 -25.12251,69.919 -43.21964,45.1678 14.34362,35.08 20.64266,57.2941 -2.60044,32.2608 14.10866,48.4683 15.61055,78.266 -8.63049,69.9386 28.49643,39.3443 19.32175,35.3206 8.45927,29.3537 10.69708,18.8013 8.20115,39.4912 -11.16785,50.1391 10.10832,17.2849 29.61997,31.8693 4.12763,59.3783 22.05733,-3.5137 24.02523,2.6462 1.19598,20.7466 31.36048,-21.1225 17.97308,6.6004 -0.6918,40.084 z"
       id="path1798"
       sodipodi:nodetypes="cccccccccccccccccccccccccccccccc" />
    <path
       style="fill:#ffffff;fill-rule:evenodd;stroke:none;stroke-width:0.960637px;stroke-linecap:butt;stroke-linejoin:miter;stroke-opacity:1"
       d="m 1778.0933,1289.0282 c 0,0 -3.9407,28.9212 8.0996,38.6226 12.0408,9.7023 15.4867,13.5023 36.0798,21.9048 -30.1647,-5.7228 -44.5902,-13.4046 -52.5226,-23.226 -7.9325,-9.8214 -20.0355,-30.3233 -22.8091,-36.2438 -2.7736,-5.9205 31.1523,-1.0576 31.1523,-1.0576 z"
       id="path1359"
       inkscape:connector-curvature="0" />
    <path
       style="fill:#ffffff;fill-rule:evenodd;stroke:none;stroke-width:1.51642px;stroke-linecap:butt;stroke-linejoin:miter;stroke-opacity:1"
       d="m 1879.5739,1605.0433 c 0,0 29.1528,33.6868 52.9454,28.1474 23.7942,-5.5388 31.7815,-6.1077 63.0487,-23.7148 -38.2213,32.3304 -62.191,42.8809 -81.8135,43.1241 -19.6227,0.2433 -55.9116,-4.864 -65.6341,-7.2483 -9.7228,-2.3842 31.4535,-40.3084 31.4535,-40.3084 z"
       id="path1359-6"
       inkscape:connector-curvature="0" />
    <path
       style="fill:#ffffff;fill-rule:evenodd;stroke:none;stroke-width:1.04628px;stroke-linecap:butt;stroke-linejoin:miter;stroke-opacity:1;filter:url(#filter1624-1-7)"
       d="m 304.54727,1936.8855 c 5.39109,-32.111 32.34599,-42.814 51.75368,-46.025 19.40768,-3.211 83.0216,-3.211 100.27283,9.633 17.25112,12.844 22.6421,36.392 16.17294,43.884 -6.46926,7.493 -15.09476,29.97 -38.81515,31.04 -23.7206,1.071 -74.39599,5.352 -94.88185,-6.422 -20.48586,-11.774 -36.6588,-14.985 -34.50245,-32.11 z"
       id="path1285-4-4"
       inkscape:connector-curvature="0"
       transform="matrix(1.2257744,0,0,1.060297,78.802093,-33.662704)" />
    <path
       style="fill:#ffffff;fill-rule:evenodd;stroke:none;stroke-width:1.04628px;stroke-linecap:butt;stroke-linejoin:miter;stroke-opacity:1;filter:url(#filter1624-1)"
       d="m 304.54727,1936.8855 c 5.39109,-32.111 32.34599,-42.814 51.75368,-46.025 19.40768,-3.211 83.0216,-3.211 100.27283,9.633 17.25112,12.844 22.6421,36.392 16.17294,43.884 -6.46926,7.493 -15.09476,29.97 -38.81515,31.04 -23.7206,1.071 -74.39599,5.352 -94.88185,-6.422 -20.48586,-11.774 -36.6588,-14.985 -34.50245,-32.11 z"
       id="path1285-4"
       inkscape:connector-curvature="0"
       transform="matrix(1.1958956,0,0,0.97870713,-64.882445,39.800192)" />
    <path
       style="fill:#ffffff;fill-rule:evenodd;stroke:none;stroke-width:1.04628px;stroke-linecap:butt;stroke-linejoin:miter;stroke-opacity:1;filter:url(#filter1624)"
       d="m 115.7959,1883.6103 c 5.39109,-32.111 32.34599,-42.814 51.75368,-46.025 19.40768,-3.211 83.0216,-3.211 100.27283,9.633 17.25112,12.844 22.6421,36.392 16.17294,43.884 -6.46926,7.493 -15.09476,29.97 -38.81515,31.04 -23.7206,1.071 -74.39599,5.352 -94.88185,-6.422 -20.48586,-11.774 -36.6588,-14.985 -34.50245,-32.11 z"
       id="path1285"
       inkscape:connector-curvature="0"
       transform="matrix(1.0933918,0,0,0.98960959,-10.339256,19.531819)" />
    <path
       style="color:#000000;display:inline;overflow:visible;visibility:visible;fill:#ffffff;fill-opacity:1;fill-rule:nonzero;stroke:none;stroke-width:0.921112px;marker:none;enable-background:accumulate"
       d="m 1241.0664,2352.3233 c -36.2286,-32.2998 -77.602,-59.113 -107.8532,-97.7871 l 6.9677,43.9112 c -17.7743,-7.7018 -29.1706,-25.5756 -42.7328,-39.995 l -0.057,27.888 c -41.735,-18.7232 -69.4761,-51.7603 -103.98103,-77.8792 l 3.66035,48.6148 c 37.88508,22.0665 78.75808,37.3542 113.28208,67.0437 l 2.7503,-27.2332 c 13.303,8.4793 26.3021,17.5344 37.9439,29.1641 l 0.5073,-34.5085 z"
       id="path4032-8"
       inkscape:connector-curvature="0"
       sodipodi:nodetypes="cccccccccccc" />
    <path
       style="opacity:1;fill:#ffffff;fill-rule:evenodd;stroke:none;stroke-width:1.17736px;stroke-linecap:butt;stroke-linejoin:miter;stroke-opacity:1"
       d="m 591.97507,2153.9416 c 74.81099,-3.71 75.04567,-22.4352 22.90356,-51.7058 37.78749,0.1363 24.93935,-18.1251 -1.81967,-41.4407 99.82388,28.7105 117.26943,-20.5013 89.07599,-77.5544 80.37455,67.1697 81.32329,28.4005 110.6064,-53.0521 16.7092,29.9734 38.81961,122.8095 132.52523,42.4068 -16.15681,66.9216 34.48745,20.6134 74.95832,-2.719 7.2583,9.6409 -65.63252,65.2732 40.4798,-3.6887 -76.58035,91.4191 41.7129,16.1788 78.3858,-9.148 -38.1116,43.2369 -121.7925,108.039 -9.5688,83.1286 -81.6098,50.0208 -9.4546,31.1958 26.8898,28.9061 -46.0941,20.7975 -47.9133,41.3996 -0.9229,33.0705 -68.5083,38.9217 -15.1845,42.1844 17.8248,43.3438 -25.6728,2.9798 -88.8955,20.0724 -7.3328,23.576 -56.3672,12.4278 -39.8153,45.5628 -31.7498,59.1169 -62.3513,-4.7181 -18.0952,40.6656 5.1349,69.9104 -43.054,-12.5236 -110.1834,-44.8665 -62.7273,12.2481 -105.57211,-34.1395 -63.9521,0.6718 -40.4234,42.03 -77.4889,-34.6571 -89.37355,-51.5284 -113.1388,-22.8562 -26.20398,-24.1043 -30.86111,-2.9812 -38.92311,22.5971 -16.14818,-51.6999 -43.60596,-20.2628 -72.7819,11.0334 -15.11787,-53.8683 -44.90663,-31.2483 -72.81417,-16.6774 0.11154,-61.8923 -37.52661,-46.8638 -113.59729,-0.897 59.73683,-43.2544 92.44398,-86.0991 -6.6372,-60.8009 31.82554,-12.5883 61.51901,-50.4679 19.11648,-36.7051 18.93046,-9.5615 36.73764,-31.2999 -19.4596,-25.1166 52.32193,-13.261 46.04691,-23.9727 -10.78955,-32.4844 97.85062,-11.8787 54.09899,-24.677 -15.21479,-36.5214 z"
       id="path523"
       sodipodi:nodetypes="cccccccccccccccccccccccccccc" />
  </g>
  <g
     inkscape:groupmode="layer"
     id="layer1"
     inkscape:label="txt">
    <text
       xml:space="preserve"
       style="font-style:normal;font-variant:normal;font-weight:normal;font-stretch:normal;font-size:45px;line-height:1.25;font-family:Lavi;-inkscape-font-specification:Lavi;text-align:center;letter-spacing:0px;word-spacing:0px;text-anchor:middle;fill:#000000;fill-opacity:1;stroke:none"
       x="548.5365"
       y="197.91747"
       id="text4246-3-2-2-6-3-7-9-3"><tspan
         style="font-size:45px"
         sodipodi:role="line"
         x="548.5365"
         y="197.91747"
         id="tspan27">Desculpa Pepper, mas </tspan><tspan
         style="font-size:45px"
         sodipodi:role="line"
         x="548.5365"
         y="254.16747"
         id="tspan919">você tem que ir embora.</tspan></text>
    <text
       xml:space="preserve"
       style="font-style:normal;font-variant:normal;font-weight:normal;font-stretch:normal;font-size:45px;line-height:1.25;font-family:Lavi;-inkscape-font-specification:Lavi;text-align:center;letter-spacing:0px;word-spacing:0px;text-anchor:middle;fill:#000000;fill-opacity:1;stroke:none"
       x="566.95776"
       y="374.66003"
       id="text4246-3-2-2-6-3-7-9-3-3"><tspan
         style="font-size:45px"
         sodipodi:role="line"
         x="566.95776"
         y="374.66003"
         id="tspan27-7">Agora.</tspan></text>
    <text
       xml:space="preserve"
       style="font-style:normal;font-variant:normal;font-weight:normal;font-stretch:normal;font-size:45px;line-height:1.25;font-family:Lavi;-inkscape-font-specification:Lavi;text-align:center;letter-spacing:0px;word-spacing:0px;text-anchor:middle;fill:#000000;fill-opacity:1;stroke:none"
       x="676.57495"
       y="846.57025"
       id="text4246-3-2-2-6-3-7-9-3-3-5"><tspan
         style="font-size:45px"
         sodipodi:role="line"
         x="676.57495"
         y="846.57025"
         id="tspan27-7-3">Hã?</tspan></text>
    <text
       xml:space="preserve"
       style="font-style:normal;font-variant:normal;font-weight:normal;font-stretch:normal;font-size:45px;line-height:1.25;font-family:Lavi;-inkscape-font-specification:Lavi;text-align:center;letter-spacing:0px;word-spacing:0px;text-anchor:middle;fill:#000000;fill-opacity:1;stroke:none"
       x="1538.2219"
       y="169.04332"
       id="text4246-3-2-2-6-3-7-9-3-3-56"><tspan
         style="font-size:45px"
         sodipodi:role="line"
         x="1538.2219"
         y="169.04332"
         id="tspan109">Ei ei ei, espera </tspan><tspan
         style="font-size:45px"
         sodipodi:role="line"
         x="1538.2219"
         y="225.29332"
         id="tspan1002">aí um minuto!</tspan><tspan
         style="font-size:45px"
         sodipodi:role="line"
         x="1538.2219"
         y="281.54333"
         id="tspan942">Eu acho que deve </tspan><tspan
         style="font-size:45px"
         sodipodi:role="line"
         x="1538.2219"
         y="337.79333"
         id="tspan1039">ter havido algum </tspan><tspan
         style="font-size:45px"
         sodipodi:role="line"
         x="1538.2219"
         y="394.04333"
         id="tspan1041">mal-entendido.</tspan></text>
    <text
       xml:space="preserve"
       style="font-style:normal;font-variant:normal;font-weight:normal;font-stretch:normal;font-size:45px;line-height:1.25;font-family:Lavi;-inkscape-font-specification:Lavi;text-align:center;letter-spacing:0px;word-spacing:0px;text-anchor:middle;fill:#000000;fill-opacity:1;stroke:none"
       x="2148.061"
       y="927.79041"
       id="text4246-3-2-2-6-3-7-9-3-3-56-9"><tspan
         style="font-size:45px"
         sodipodi:role="line"
         x="2148.061"
         y="927.79041"
         id="tspan119-9">Por favor Pepper, </tspan><tspan
         style="font-size:45px"
         sodipodi:role="line"
         x="2148.061"
         y="984.04041"
         id="tspan1045">não torne </tspan><tspan
         style="font-size:45px"
         sodipodi:role="line"
         x="2148.061"
         y="1040.2904"
         id="tspan1047">isto difícil.</tspan><tspan
         style="font-size:45px"
         sodipodi:role="line"
         x="2148.061"
         y="1096.5404"
         id="tspan946" /></text>
    <text
       xml:space="preserve"
       style="font-style:normal;font-variant:normal;font-weight:normal;font-stretch:normal;font-size:45px;line-height:1.25;font-family:Lavi;-inkscape-font-specification:Lavi;text-align:center;letter-spacing:0px;word-spacing:0px;text-anchor:middle;fill:#000000;fill-opacity:1;stroke:none"
       x="711.56104"
       y="1351.6949"
       id="text4246-3-2-2-6-3-7-9-3-3-56-9-3"><tspan
         style="font-size:45px"
         sodipodi:role="line"
         x="711.56104"
         y="1351.6949"
         id="tspan222">Ei! Você aí no </tspan><tspan
         style="font-size:45px"
         sodipodi:role="line"
         x="711.56104"
         y="1407.9449"
         id="tspan1069">trono. Se você tiver </tspan><tspan
         style="font-size:45px"
         sodipodi:role="line"
         x="711.56104"
         y="1464.1949"
         id="tspan1071">algum problema </tspan><tspan
         style="font-size:45px"
         sodipodi:role="line"
         x="711.56104"
         y="1520.4449"
         id="tspan980">comigo desça daí e me </tspan><tspan
         style="font-size:45px"
         sodipodi:role="line"
         x="711.56104"
         y="1576.6949"
         id="tspan1111">fale pessoalmente!</tspan></text>
    <text
       xml:space="preserve"
       style="font-style:normal;font-variant:normal;font-weight:normal;font-stretch:normal;font-size:52.7307px;line-height:1.25;font-family:Lavi;-inkscape-font-specification:Lavi;text-align:center;letter-spacing:0px;word-spacing:0px;text-anchor:middle;fill:#000000;fill-opacity:1;stroke:none;stroke-width:1.17179"
       x="1726.7211"
       y="1258.5393"
       id="text4246-3-2-2-6-3-7-9-3-3-56-9-3-2"><tspan
         style="font-size:52.7307px;stroke-width:1.17179"
         sodipodi:role="line"
         x="1726.7211"
         y="1258.5393"
         id="tspan222-9">Tsss...</tspan></text>
    <text
       xml:space="preserve"
       style="font-style:normal;font-variant:normal;font-weight:normal;font-stretch:normal;font-size:45px;line-height:1.25;font-family:Lavi;-inkscape-font-specification:Lavi;text-align:center;letter-spacing:0px;word-spacing:0px;text-anchor:middle;fill:#000000;fill-opacity:1;stroke:none"
       x="1730.0173"
       y="1569.9558"
       id="text4246-3-2-2-6-3-7-9-3-3-56-9-3-20"><tspan
         style="font-size:45px"
         sodipodi:role="line"
         x="1730.0173"
         y="1569.9558"
         id="tspan222-92">Shichimi, </tspan><tspan
         style="font-size:45px"
         sodipodi:role="line"
         x="1730.0173"
         y="1626.2058"
         id="tspan334">você tem dez </tspan><tspan
         style="font-size:45px"
         sodipodi:role="line"
         x="1730.0173"
         y="1682.4558"
         id="tspan1123">segundos...</tspan></text>
    <text
       xml:space="preserve"
       style="font-style:normal;font-variant:normal;font-weight:normal;font-stretch:normal;font-size:45px;line-height:1.25;font-family:Lavi;-inkscape-font-specification:Lavi;text-align:center;letter-spacing:0px;word-spacing:0px;text-anchor:middle;fill:#000000;fill-opacity:1;stroke:none"
       x="210.39514"
       y="1889.5347"
       id="text4246-3-2-2-6-3-7-9-3-3-56-9-3-20-2"><tspan
         style="font-size:45px"
         sodipodi:role="line"
         x="210.39514"
         y="1889.5347"
         id="tspan334-7">nove...</tspan></text>
    <text
       xml:space="preserve"
       style="font-style:normal;font-variant:normal;font-weight:normal;font-stretch:normal;font-size:45px;line-height:1.25;font-family:Lavi;-inkscape-font-specification:Lavi;text-align:center;letter-spacing:0px;word-spacing:0px;text-anchor:middle;fill:#000000;fill-opacity:1;stroke:none"
       x="399.80328"
       y="1942.1443"
       id="text4246-3-2-2-6-3-7-9-3-3-56-9-3-20-2-3"><tspan
         style="font-size:45px"
         sodipodi:role="line"
         x="399.80328"
         y="1942.1443"
         id="tspan334-7-6">oito...</tspan></text>
    <text
       xml:space="preserve"
       style="font-style:normal;font-variant:normal;font-weight:normal;font-stretch:normal;font-size:45px;line-height:1.25;font-family:Lavi;-inkscape-font-specification:Lavi;text-align:center;letter-spacing:0px;word-spacing:0px;text-anchor:middle;fill:#000000;fill-opacity:1;stroke:none"
       x="564.68182"
       y="2025.6428"
       id="text4246-3-2-2-6-3-7-9-3-3-56-9-3-20-2-3-1"><tspan
         style="font-size:45px"
         sodipodi:role="line"
         x="564.68182"
         y="2025.6428"
         id="tspan334-7-6-2">sete...</tspan></text>
    <text
       xml:space="preserve"
       style="font-style:normal;font-variant:normal;font-weight:normal;font-stretch:normal;font-size:55.953px;line-height:1.25;font-family:Lavi;-inkscape-font-specification:Lavi;text-align:center;letter-spacing:0px;word-spacing:0px;text-anchor:middle;fill:#000000;fill-opacity:1;stroke:none;stroke-width:0.902468"
       x="1073.8251"
       y="2109.1938"
       id="text4246-3-2-2-6-3-7-9-3-3-56-9-3-20-2-3-1-9"
       transform="skewX(-4.8400228)"><tspan
         style="font-style:normal;font-variant:normal;font-weight:bold;font-stretch:normal;font-size:55.953px;font-family:Lavi;-inkscape-font-specification:'Lavi Bold';stroke-width:0.902468"
         sodipodi:role="line"
         x="1073.8251"
         y="2109.1938"
         id="tspan451">CHEGA, </tspan><tspan
         style="font-style:normal;font-variant:normal;font-weight:bold;font-stretch:normal;font-size:55.953px;font-family:Lavi;-inkscape-font-specification:'Lavi Bold';stroke-width:0.902468"
         sodipodi:role="line"
         x="1073.8251"
         y="2179.1802"
         id="tspan457">PEPPER!</tspan><tspan
         style="font-style:normal;font-variant:normal;font-weight:bold;font-stretch:normal;font-size:55.953px;font-family:Lavi;-inkscape-font-specification:'Lavi Bold';stroke-width:0.902468"
         sodipodi:role="line"
         x="1073.8251"
         y="2249.1663"
         id="tspan918">VÁ EMBORA!!!</tspan></text>
    <text
       xml:space="preserve"
       style="font-style:normal;font-variant:normal;font-weight:normal;font-stretch:normal;font-size:180px;line-height:1.25;font-family:Lavi;-inkscape-font-specification:Lavi;letter-spacing:0px;word-spacing:0px;fill:#ffffff;fill-opacity:1;stroke:#ffffff;stroke-width:0.74524;stroke-miterlimit:4;stroke-dasharray:none;stroke-opacity:1;filter:url(#filter4375-4-1-1-1-9-5-8-8-5-5-3-3)"
       id="text4580-6-0-0-0-9-3-3"
       transform="matrix(0.88341196,-0.53750677,0,1.1213027,-74.551071,722.92786)"
       x="418.61386"
       y="279.76691"><textPath
         xlink:href="#path974"
         id="textPath2837"
         style="font-size:180px;stroke-width:0.74524"><tspan
           style="font-size:180px;fill:#ffffff;fill-opacity:1;stroke:#ffffff;stroke-width:0.74524;stroke-miterlimit:4;stroke-dasharray:none;stroke-opacity:1"
           id="tspan876-6-6"
           rotate="325 325 325 325 325 325 325 325 325 0">SHRRIiii!</tspan></textPath></text>
    <path
       style="fill:none;fill-rule:evenodd;stroke:none;stroke-width:1.13654px;stroke-linecap:butt;stroke-linejoin:miter;stroke-opacity:1"
       d="m 2062.1793,2191.5476 c 235.3161,220.1206 417.0174,422.7368 620.7004,632.5297"
       id="path974"
       sodipodi:nodetypes="cc" />
  </g>
</svg>
