<?xml version="1.0" encoding="UTF-8" standalone="no"?>
<svg
   xmlns:dc="http://purl.org/dc/elements/1.1/"
   xmlns:cc="http://creativecommons.org/ns#"
   xmlns:rdf="http://www.w3.org/1999/02/22-rdf-syntax-ns#"
   xmlns:svg="http://www.w3.org/2000/svg"
   xmlns="http://www.w3.org/2000/svg"
   xmlns:xlink="http://www.w3.org/1999/xlink"
   xmlns:sodipodi="http://sodipodi.sourceforge.net/DTD/sodipodi-0.dtd"
   xmlns:inkscape="http://www.inkscape.org/namespaces/inkscape"
   id="svg2"
   version="1.1"
   inkscape:version="1.0.2 (e86c870879, 2021-01-15, custom)"
   width="2481"
   height="3503"
   sodipodi:docname="E34P01.svg">
  <metadata
     id="metadata8">
    <rdf:RDF>
      <cc:Work
         rdf:about="">
        <dc:format>image/svg+xml</dc:format>
        <dc:type
           rdf:resource="http://purl.org/dc/dcmitype/StillImage" />
        <dc:title />
      </cc:Work>
    </rdf:RDF>
  </metadata>
  <defs
     id="defs6">
    <rect
       x="1152.3631"
       y="99974.956"
       width="303.83495"
       height="51.928154"
       id="rect166" />
    <filter
       inkscape:collect="always"
       style="color-interpolation-filters:sRGB"
       id="filter7961"
       x="-0.0038362744"
       width="1.0076725"
       y="-0.012583922"
       height="1.0251678"
       inkscape:label="blur-layer-whisper">
      <feGaussianBlur
         inkscape:collect="always"
         stdDeviation="2.6222679"
         id="feGaussianBlur7963" />
    </filter>
    <filter
       style="color-interpolation-filters:sRGB;"
       inkscape:label="narrator-drop-shadow"
       id="filter8274"
       width="1.3"
       height="1.5">
      <feFlood
         flood-opacity="0.603922"
         flood-color="rgb(0,21,64)"
         result="flood"
         id="feFlood8264" />
      <feComposite
         in="flood"
         in2="SourceGraphic"
         operator="in"
         result="composite1"
         id="feComposite8266" />
      <feGaussianBlur
         in="composite1"
         stdDeviation="2.0230825044646368"
         result="blur"
         id="feGaussianBlur8268" />
      <feOffset
         dx="-7.4077921838061513"
         dy="4.8380533854166714"
         result="offset"
         id="feOffset8270" />
      <feComposite
         in="SourceGraphic"
         in2="offset"
         operator="over"
         result="fbSourceGraphic"
         id="feComposite8272" />
      <feColorMatrix
         result="fbSourceGraphicAlpha"
         in="fbSourceGraphic"
         values="0 0 0 -1 0 0 0 0 -1 0 0 0 0 -1 0 0 0 0 1 0"
         id="feColorMatrix8420" />
      <feFlood
         id="feFlood8422"
         flood-opacity="0.061934527228860295"
         flood-color="rgb(0,12,37)"
         result="flood"
         in="fbSourceGraphic" />
      <feComposite
         in2="fbSourceGraphic"
         id="feComposite8424"
         in="flood"
         operator="in"
         result="composite1" />
      <feGaussianBlur
         id="feGaussianBlur8426"
         in="composite1"
         stdDeviation="1"
         result="blur" />
      <feOffset
         id="feOffset8428"
         dx="-3.3194756113327486"
         dy="-2.8318869588504754"
         result="offset" />
      <feComposite
         in2="offset"
         id="feComposite8430"
         in="fbSourceGraphic"
         operator="over"
         result="composite2" />
    </filter>
  </defs>
  <sodipodi:namedview
     pagecolor="#ffffff"
     bordercolor="#666666"
     borderopacity="1"
     objecttolerance="10"
     gridtolerance="10"
     guidetolerance="10"
     inkscape:pageopacity="0"
     inkscape:pageshadow="2"
     inkscape:window-width="1920"
     inkscape:window-height="1017"
     id="namedview4"
     showgrid="false"
     inkscape:zoom="0.45254834"
     inkscape:cx="1137.5018"
     inkscape:cy="2645.1603"
     inkscape:window-x="-8"
     inkscape:window-y="-8"
     inkscape:window-maximized="1"
     inkscape:current-layer="layer1"
     inkscape:document-rotation="0"
     borderlayer="true"
     inkscape:snap-global="false" />
  <g
     inkscape:groupmode="layer"
     id="layer2"
     inkscape:label="artwork"
     sodipodi:insensitive="true">
    <image
       sodipodi:absref="C:\Users\Xan\Documents\git\peppercarrot\webcomics\ep34_The-Knighting-of-Shichimi\lang\gfx_Pepper-and-Carrot_by-David-Revoy_E34P01.png"
       xlink:href="../gfx_Pepper-and-Carrot_by-David-Revoy_E34P01.png"
       y="0"
       x="0"
       id="image10"
       height="3503.7233"
       width="2481" />
  </g>
  <g
     inkscape:groupmode="layer"
     id="layer3"
     inkscape:label="speechbubbles-whisper"
     style="display:inline;opacity:0.65;filter:url(#filter7961)">
    <path
       id="path1299"
       style="fill:#e0ffff;fill-rule:evenodd;stroke:none;stroke-width:1.31141px;stroke-linecap:butt;stroke-linejoin:miter;stroke-opacity:1"
       d="m 1493.8738,2593.9965 c -39.2719,2.7518 -78.8828,4.69 -117.4283,15.0828 -31.845,10.2994 -62.5408,26.5632 -88.9374,49.7295 -21.2254,20.4464 -35.874,50.5432 -37.3054,82.1831 -1.2631,35.5596 16.6242,70.1802 43.6129,87.1392 19.9691,13.2358 41.829,22.2175 63.4018,31.5186 31.3959,12.3437 64.8685,16.983 98.1536,17.0524 40.6006,0.6099 81.1943,-2.6995 121.7525,-5.3484 32.2428,-2.3399 64.8525,-5.399 95.9605,-16.5394 18.5959,-6.93 36.0037,-18.7169 49.5181,-35.0542 10.8815,-12.5129 21.1498,-26.8448 25.2288,-44.0985 4.3467,-19.1165 1.8359,-39.1784 -3.008,-57.6531 -6.2462,-22.9498 -18.6778,-43.1724 -34.2161,-59.1148 -17.1123,-17.7021 -36.4368,-32.978 -58.0332,-42.8189 -10.9433,-5.1239 -22.4784,-8.4779 -34.1719,-10.6965 -29.6254,-6.2126 -59.7716,-8.7903 -89.8568,-10.9886 -11.5414,-0.5939 -23.1079,-0.6746 -34.6711,-0.3932 z" />
    <path
       style="fill:#e0ffff;fill-rule:evenodd;stroke:none;stroke-width:1.52421px;stroke-linecap:butt;stroke-linejoin:miter;stroke-opacity:1"
       d="m 1285.6716,2520.4406 c -23.8047,0.5715 -48.0086,3.124 -69.7456,10.569 -25.6973,9.335 -43.5127,29.5951 -43.4508,50.6444 0.5781,10.9745 7.7869,21.3476 17.9111,29.2934 7.2737,5.6779 16.4049,9.8604 25.9284,13.2307 19.174,7.0126 40.6614,10.2679 62.034,10.4477 34.0545,1.3792 68.502,-0.345 101.6452,-6.3959 15.5976,-2.9712 31.1266,-7.7122 42.6854,-16.162 11.8317,-8.3459 20.5038,-19.6239 21.5272,-31.7683 0.314,-10.8875 -6.1516,-21.2253 -14.5706,-29.9724 -10.7285,-11.6163 -27.1233,-20.6918 -45.98,-23.8402 -22.9411,-4.5851 -46.8755,-5.1076 -70.4964,-5.8492 -9.16,-0.1945 -18.3246,-0.2195 -27.4879,-0.1972 z"
       id="path1285"
       inkscape:connector-curvature="0" />
    <path
       style="font-variation-settings:normal;vector-effect:none;fill:#e0ffff;fill-opacity:1;stroke:none;stroke-width:1.28082px;stroke-linecap:butt;stroke-linejoin:miter;stroke-miterlimit:4;stroke-dasharray:none;stroke-dashoffset:0;stroke-opacity:1;stop-color:#000000"
       d="m 247.23264,2520.078 c -28.38432,1.2291 -56.8822,10.5086 -78.9986,28.6668 -18.63166,14.7836 -34.2286,34.2765 -41.45298,57.1712 -11.99049,41.1822 2.65545,88.8641 36.08198,115.8559 18.12316,14.8981 40.5932,23.2898 63.17043,28.7186 38.16304,8.8386 78.09262,9.8436 116.69462,3.2781 23.38738,-4.6715 46.32127,-14.492 63.70922,-31.142 18.85509,-18.074 31.17186,-43.3618 32.0321,-69.6182 0.60108,-14.7078 -1.15573,-29.4332 -4.02795,-43.8387 -4.90025,-22.4903 -16.81391,-43.7064 -34.75204,-58.3422 -11.96137,-9.8917 -26.3247,-16.6035 -41.32397,-20.4038 -25.60296,-7.1055 -52.26838,-9.146 -78.71986,-10.0843 -10.80183,-0.2861 -21.60826,-0.2664 -32.41295,-0.2614 z"
       id="path3280-8-90"
       inkscape:connector-curvature="0"
       sodipodi:nodetypes="csssc" />
    <path
       style="fill:#e0ffff;fill-opacity:1;fill-rule:evenodd;stroke:none;stroke-width:1.28082px;stroke-linecap:butt;stroke-linejoin:miter;stroke-opacity:1"
       d="m 405.61348,2631.9631 c 42.85265,-5.0607 58.06957,-2.3086 68.49973,0.7202 10.42915,3.0295 34.5561,33.0962 43.85358,53.3011 -34.06156,-36.1486 -48.52756,-39.3772 -65.05064,-34.4498 -16.52311,4.9273 -63.29994,23.4366 -63.29994,23.4366 l 11.09296,-45.4041 z"
       id="path1291"
       inkscape:connector-curvature="0"
       sodipodi:nodetypes="csccccc" />
    <path
       style="fill:#e0ffff;fill-rule:evenodd;stroke:none;stroke-width:0.964753px;stroke-linecap:butt;stroke-linejoin:miter;stroke-opacity:1"
       d="m 1434.2038,2989.2388 c 48.3667,-37.0134 81.9085,-79.2404 77.928,-171.8638 l 30.8393,-3.1198 c -4.7727,67.6875 -17.9327,144.5385 -108.7673,174.9836 z"
       id="path1291-6"
       inkscape:connector-curvature="0"
       sodipodi:nodetypes="cccc" />
  </g>
  <g
     inkscape:groupmode="layer"
     id="layer4"
     inkscape:label="speechbubbles"
     style="display:inline">
    <path
       id="path4040-4-1"
       style="color:#000000;display:inline;overflow:visible;visibility:visible;fill:#ffffff;fill-opacity:1;fill-rule:nonzero;stroke:none;stroke-width:0.936853px;marker:none;enable-background:accumulate"
       d="m 408.76962,1890.3918 c -55.67754,0.65 -111.74027,0.4045 -166.77515,11.7049 -32.56188,7.3829 -63.67135,26.534 -85.58846,56.1732 -9.98867,13.6553 -17.03337,30.283 -19.96414,48.0055 -5.16704,28.3387 -3.03734,57.917 2.82417,85.8621 6.21516,28.1931 18.41628,55.258 37.53312,74.1823 17.28195,17.5236 38.93578,28.2677 61.2381,33.07 22.16612,5.2219 44.66469,8.2524 67.17038,10.5416 62.83491,5.8342 125.89783,2.4646 188.82457,1.4202 36.68922,-1.141 73.85532,-5.2787 108.62369,-19.9677 19.34295,-7.7423 38.86097,-17.3359 53.94243,-34.0516 13.53079,-16.4282 20.05253,-38.7488 24.60383,-60.5397 5.46332,-27.6454 7.18878,-56.526 3.68031,-84.671 -4.15013,-27.5604 -17.12384,-53.0014 -35.64312,-70.482 -15.70775,-15.281 -34.8304,-24.7887 -54.35523,-30.9804 -55.56731,-19.4397 -114.08685,-20.223 -171.5716,-20.3043 -4.8477,-0.018 -9.69526,0.011 -14.5429,0.037 z" />
    <path
       style="color:#000000;display:inline;overflow:visible;visibility:visible;fill:#ffffff;fill-opacity:1;fill-rule:nonzero;stroke:none;stroke-width:1.80075px;marker:none;enable-background:accumulate"
       d="m 539.19946,1927.3519 c 7.55014,-44.8382 62.74837,-99.1824 137.61984,-61.3131 -80.77928,-16.5552 -107.19343,39.0539 -106.74645,81.3775 0.39562,37.4602 -16.36437,17.1598 -16.36437,17.1598 z"
       id="path4440-1"
       inkscape:connector-curvature="0"
       sodipodi:nodetypes="ccscc" />
    <path
       style="color:#000000;display:inline;overflow:visible;visibility:visible;fill:#ffffff;fill-opacity:1;fill-rule:nonzero;stroke:none;stroke-width:0.774122px;marker:none;enable-background:accumulate"
       d="m 1797.9375,2838.742 c -22.8492,2.5941 -45.8484,6.1471 -67.4347,15.0673 -11.3653,5.0192 -20.5875,15.2749 -26.1294,27.5302 -4.328,9.6259 -6.4433,20.8902 -4.554,31.7544 2.882,17.7548 14.0353,33.6763 28.7112,40.7039 13.988,7.3046 29.3003,9.9763 44.3773,11.8771 34.7472,4.1258 69.6173,2.1775 104.4199,3.6831 15.2916,0.5793 30.9039,-1.5255 44.8109,-8.7592 11.7296,-5.9879 22.2511,-15.7271 28.3179,-28.7969 4.3985,-9.1181 6.0825,-20.0225 4.2773,-30.4029 -1.4495,-9.349 -5.4856,-18.1027 -11.1057,-25.1567 -8.5876,-11.1973 -20.3816,-18.6282 -32.665,-22.9969 -16.5956,-6.3166 -33.8225,-9.99 -51.0693,-12.6239 -20.5825,-2.8848 -41.3458,-3.1672 -61.9564,-1.8795 z"
       id="path4040-2"
       inkscape:connector-curvature="0"
       sodipodi:nodetypes="zssssz" />
    <path
       style="color:#000000;display:inline;overflow:visible;visibility:visible;fill:#ffffff;fill-opacity:1;fill-rule:nonzero;stroke:none;stroke-width:0.811733px;marker:none;enable-background:accumulate"
       d="m 1970.7532,2998.2521 c 42.5246,54.5422 86.7334,47.5024 118.7066,15.8691 -23.32,34.399 -69.359,69.3478 -144.2603,0.1036 -14.3413,-13.258 25.5537,-15.9727 25.5537,-15.9727 z"
       id="path5010-4"
       inkscape:connector-curvature="0"
       sodipodi:nodetypes="ccsc" />
    <path
       style="color:#000000;display:inline;overflow:visible;visibility:visible;fill:#ffffff;fill-opacity:1;fill-rule:nonzero;stroke:none;stroke-width:0.932995px;marker:none;enable-background:accumulate"
       d="m 1888.3785,2929.8539 c -32.8312,0.8392 -66.6485,5.5919 -94.1657,18.7736 -16.9971,8.4739 -26.442,22.1332 -33.4865,35.474 -8.3413,15.4111 -12.0197,33.0114 -3.6355,48.8134 8.6708,16.343 28.3749,28.5597 49.8743,36.6312 46.9214,17.7207 102.6455,21.7726 154.7398,15.5 16.8805,-2.0118 33.9106,-5.056 48.4082,-11.6873 18.9964,-8.2839 33.834,-21.0625 41.4279,-35.808 12.0449,-22.2946 9.0213,-48.9881 -11.1783,-68.5321 -16.3919,-16.0706 -42.2042,-26.287 -69.0878,-31.2893 -26.8638,-5.5076 -54.9145,-8.1103 -82.8964,-7.8755 z"
       id="path4040-2-5"
       inkscape:connector-curvature="0"
       sodipodi:nodetypes="zssssz" />
    <rect
       style="color:#000000;overflow:visible;fill:#eeffdb;fill-opacity:0.89322;stroke:#807e00;stroke-width:8.05223;stroke-opacity:1;paint-order:stroke fill markers;filter:url(#filter8274);stop-color:#000000"
       id="rect8238"
       width="417.40149"
       height="86.261734"
       x="128.97966"
       y="127.99652"
       transform="matrix(1.2060961,0,0,1.0293806,-23.395196,-4.9656338)" />
  </g>
  <g
     inkscape:groupmode="layer"
     id="layer1"
     inkscape:label="txt"
     style="display:inline">
    <text
       xml:space="preserve"
       style="font-style:normal;font-variant:normal;font-weight:normal;font-stretch:normal;font-size:45px;line-height:1.25;font-family:Lavi;-inkscape-font-specification:Lavi;text-align:center;letter-spacing:0px;word-spacing:0px;text-anchor:middle;fill:#000000;fill-opacity:1;stroke:none"
       x="384.99158"
       y="186.49605"
       id="text4246-3-2-2-35"><tspan
         style="font-size:45px"
         sodipodi:role="line"
         x="384.99158"
         y="186.49605"
         id="tspan905-2">Naquela mesma noite...</tspan></text>
    <text
       xml:space="preserve"
       style="font-style:normal;font-variant:normal;font-weight:normal;font-stretch:normal;font-size:45px;line-height:1.25;font-family:Lavi;-inkscape-font-specification:Lavi;text-align:center;letter-spacing:0px;word-spacing:0px;text-anchor:middle;fill:#000000;fill-opacity:1;stroke:none"
       x="415.95737"
       y="1960.8977"
       id="text4246-3-2-2"><tspan
         style="font-size:45px"
         sodipodi:role="line"
         x="415.95737"
         y="1960.8977"
         id="tspan64">...e então, nesta noite, </tspan><tspan
         style="font-size:45px"
         sodipodi:role="line"
         x="415.95737"
         y="2017.1477"
         id="tspan98">nós te recebemos, </tspan><tspan
         style="font-size:45px"
         sodipodi:role="line"
         x="415.95737"
         y="2073.3977"
         id="tspan102">Shichimi, como a nossa </tspan><tspan
         style="font-size:45px"
         sodipodi:role="line"
         x="415.95737"
         y="2129.6477"
         id="tspan118">mais jovem Cavaleira </tspan><tspan
         style="font-size:45px"
         sodipodi:role="line"
         x="415.95737"
         y="2185.8977"
         id="tspan200">de Ah.</tspan></text>
    <text
       xml:space="preserve"
       style="font-style:normal;font-variant:normal;font-weight:normal;font-stretch:normal;font-size:45px;line-height:1.25;font-family:Lavi;-inkscape-font-specification:Lavi;text-align:center;letter-spacing:0px;word-spacing:0px;text-anchor:middle;fill:#000000;fill-opacity:1;stroke:none"
       x="289.69833"
       y="2598.4832"
       id="text4246-3-2-2-3"><tspan
         style="font-size:45px;fill:#000000;fill-opacity:1"
         sodipodi:role="line"
         x="289.69833"
         y="2598.4832"
         id="tspan122">Ainda sem </tspan><tspan
         style="font-size:45px;fill:#000000;fill-opacity:1"
         sodipodi:role="line"
         x="289.69833"
         y="2654.7332"
         id="tspan1165">sinal da </tspan><tspan
         style="font-size:45px;fill:#000000;fill-opacity:1"
         sodipodi:role="line"
         x="289.69833"
         y="2710.9832"
         id="tspan184">Pepper?</tspan></text>
    <text
       xml:space="preserve"
       style="font-style:normal;font-variant:normal;font-weight:normal;font-stretch:normal;font-size:45px;line-height:1.25;font-family:Lavi;-inkscape-font-specification:Lavi;text-align:center;letter-spacing:0px;word-spacing:0px;text-anchor:middle;white-space:pre;inline-size:256.448;fill:#000000;fill-opacity:1;stroke:none"
       x="1320.327"
       y="2594.489"
       id="text4246-3-2-2-3-5"
       transform="translate(-10.795882,-6.9036151)"><tspan
         x="1320.327"
         y="2594.489"><tspan
           style="font-size:45px;fill:#000000;fill-opacity:1">Ainda não.</tspan></tspan></text>
    <text
       xml:space="preserve"
       style="font-style:normal;font-variant:normal;font-weight:normal;font-stretch:normal;font-size:45px;line-height:1.25;font-family:Lavi;-inkscape-font-specification:Lavi;text-align:center;letter-spacing:0px;word-spacing:0px;text-anchor:middle;fill:#000000;fill-opacity:1;stroke:none"
       x="1506.9663"
       y="2669.9597"
       id="text4246-3-2-2-3-5-1"><tspan
         style="font-size:45px;fill:#000000;fill-opacity:1"
         x="1506.9663"
         y="2669.9597"
         id="tspan7590"
         sodipodi:role="line">É melhor ela se </tspan><tspan
         style="font-size:45px;fill:#000000;fill-opacity:1"
         x="1506.9663"
         y="2726.2097"
         sodipodi:role="line"
         id="tspan204">apressar, senão ela </tspan><tspan
         style="font-size:45px;fill:#000000;fill-opacity:1"
         x="1506.9663"
         y="2782.4597"
         sodipodi:role="line"
         id="tspan176">vai perder o discurso</tspan><tspan
         style="font-size:45px;fill:#000000;fill-opacity:1"
         x="1506.9663"
         y="2838.7097"
         id="tspan158"
         sodipodi:role="line">da Shichimi.</tspan></text>
    <text
       xml:space="preserve"
       style="font-style:normal;font-variant:normal;font-weight:normal;font-stretch:normal;font-size:45px;line-height:1.25;font-family:Lavi;-inkscape-font-specification:Lavi;text-align:center;letter-spacing:0px;word-spacing:0px;text-anchor:middle;fill:#000000;fill-opacity:1;stroke:none"
       x="1831.7936"
       y="2918.1755"
       id="text4246-3-2-2-3-5-1-7"><tspan
         style="font-size:45px"
         sodipodi:role="line"
         x="1831.7936"
         y="2918.1755"
         id="tspan7676">Obrigada.</tspan></text>
    <text
       xml:space="preserve"
       style="font-style:normal;font-variant:normal;font-weight:normal;font-stretch:normal;font-size:45px;line-height:1.25;font-family:Lavi;-inkscape-font-specification:Lavi;text-align:center;letter-spacing:0px;word-spacing:0px;text-anchor:middle;fill:#000000;fill-opacity:1;stroke:none"
       x="1904.54"
       y="3001.3691"
       id="text4246-3-2-2-3-5-1-7-3"><tspan
         style="font-size:45px"
         sodipodi:role="line"
         x="1904.54"
         y="3001.3691"
         id="tspan208">Eu gostaria</tspan><tspan
         style="font-size:45px"
         sodipodi:role="line"
         x="1904.54"
         y="3057.6191"
         id="tspan212">de...</tspan></text>
    <text
       xml:space="preserve"
       id="text164"
       style="font-style:normal;font-variant:normal;font-weight:normal;font-stretch:normal;font-size:21.3333px;line-height:1.25;font-family:'Baskerville Old Face';-inkscape-font-specification:'Baskerville Old Face';letter-spacing:0px;word-spacing:0px;white-space:pre;shape-inside:url(#rect166);fill:#000000;fill-opacity:1;stroke:none;" />
  </g>
</svg>
