<?xml version="1.0" encoding="UTF-8" standalone="no"?>
<!-- Created with Inkscape (http://www.inkscape.org/) -->

<svg
   xmlns:dc="http://purl.org/dc/elements/1.1/"
   xmlns:cc="http://creativecommons.org/ns#"
   xmlns:rdf="http://www.w3.org/1999/02/22-rdf-syntax-ns#"
   xmlns:svg="http://www.w3.org/2000/svg"
   xmlns="http://www.w3.org/2000/svg"
   xmlns:xlink="http://www.w3.org/1999/xlink"
   xmlns:sodipodi="http://sodipodi.sourceforge.net/DTD/sodipodi-0.dtd"
   xmlns:inkscape="http://www.inkscape.org/namespaces/inkscape"
   id="svg2"
   version="1.1"
   inkscape:version="0.92.4 (5da689c313, 2019-01-14)"
   width="2481"
   height="3503"
   sodipodi:docname="E17P02.svg">
  <sodipodi:namedview
     pagecolor="#ffffff"
     bordercolor="#666666"
     inkscape:pageopacity="0"
     inkscape:pageshadow="2"
     inkscape:window-width="1314"
     inkscape:window-height="955"
     id="namedview70"
     showgrid="false"
     inkscape:zoom="0.34980126"
     inkscape:cx="883.93926"
     inkscape:cy="864.18266"
     inkscape:current-layer="layer1"
     inkscape:window-x="0"
     inkscape:window-y="28"
     inkscape:window-maximized="0" />
  <metadata
     id="metadata8">
    <rdf:RDF>
      <cc:Work
         rdf:about="">
        <dc:format>image/svg+xml</dc:format>
        <dc:type
           rdf:resource="http://purl.org/dc/dcmitype/StillImage" />
        <dc:title />
      </cc:Work>
    </rdf:RDF>
  </metadata>
  <defs
     id="defs6">
    <filter
       style="color-interpolation-filters:sRGB;"
       id="filter4375-4-1-1-1-9-5"
       inkscape:label="Drop Shadow">
      <feFlood
         id="feFlood4377-7-9-0-8-1-7"
         flood-opacity="1"
         flood-color="rgb(108,125,133)"
         result="flood" />
      <feComposite
         id="feComposite4379-3-8-8-2-77-4"
         in2="SourceGraphic"
         in="flood"
         operator="in"
         result="composite1" />
      <feMorphology
         id="feMorphology4393-1-0-49-8-9-3"
         operator="dilate"
         radius="6.2000000000000002"
         result="result3" />
      <feComposite
         id="feComposite4385-9-5-7-0-8-8"
         in2="result3"
         in="SourceGraphic"
         operator="over"
         result="fbSourceGraphic" />
      <feColorMatrix
         result="fbSourceGraphicAlpha"
         in="fbSourceGraphic"
         values="0 0 0 -1 0 0 0 0 -1 0 0 0 0 -1 0 0 0 0 1 0"
         id="feColorMatrix4544" />
      <feTurbulence
         id="feTurbulence4546"
         type="fractalNoise"
         numOctaves="3"
         seed="37"
         baseFrequency="0.129 0.0050000000000000001"
         result="turbulence"
         in="fbSourceGraphic" />
      <feDisplacementMap
         id="feDisplacementMap4548"
         in2="turbulence"
         in="fbSourceGraphic"
         scale="6.6"
         yChannelSelector="G"
         xChannelSelector="R"
         result="fbSourceGraphic" />
      <feColorMatrix
         result="fbSourceGraphicAlpha"
         in="fbSourceGraphic"
         values="0 0 0 -1 0 0 0 0 -1 0 0 0 0 -1 0 0 0 0 1 0"
         id="feColorMatrix4670" />
      <feFlood
         id="feFlood4672"
         flood-opacity="1"
         flood-color="rgb(17,52,65)"
         result="flood"
         in="fbSourceGraphic" />
      <feComposite
         id="feComposite4674"
         in2="fbSourceGraphic"
         in="flood"
         operator="in"
         result="composite1" />
      <feGaussianBlur
         id="feGaussianBlur4676"
         in="composite1"
         stdDeviation="0"
         result="blur" />
      <feOffset
         id="feOffset4678"
         dx="6"
         dy="6"
         result="offset" />
      <feComposite
         id="feComposite4680"
         in2="offset"
         in="fbSourceGraphic"
         operator="over"
         result="composite2" />
    </filter>
    <filter
       inkscape:collect="always"
       style="color-interpolation-filters:sRGB"
       id="filter1003"
       x="-0.045154468"
       width="1.0903089"
       y="-0.043597406"
       height="1.0871948">
      <feGaussianBlur
         inkscape:collect="always"
         stdDeviation="0.83150736"
         id="feGaussianBlur1005" />
    </filter>
    <filter
       inkscape:collect="always"
       style="color-interpolation-filters:sRGB"
       id="filter1213"
       x="-0.12585663"
       width="1.2517133"
       y="-0.1122164"
       height="1.2244328">
      <feGaussianBlur
         inkscape:collect="always"
         stdDeviation="1.5985037"
         id="feGaussianBlur1215" />
    </filter>
    <filter
       inkscape:collect="always"
       style="color-interpolation-filters:sRGB"
       id="filter1551"
       x="-0.16191297"
       width="1.3238259"
       y="-0.10377736"
       height="1.2075547">
      <feGaussianBlur
         inkscape:collect="always"
         stdDeviation="1.8267689"
         id="feGaussianBlur1553" />
    </filter>
    <filter
       inkscape:collect="always"
       style="color-interpolation-filters:sRGB"
       id="filter1607"
       x="-0.14572168"
       width="1.2914434"
       y="-0.093399626"
       height="1.1867993">
      <feGaussianBlur
         inkscape:collect="always"
         stdDeviation="1.644092"
         id="feGaussianBlur1609" />
    </filter>
  </defs>
  <sodipodi:namedview
     pagecolor="#ffffff"
     bordercolor="#666666"
     borderopacity="1"
     objecttolerance="10"
     gridtolerance="10"
     guidetolerance="10"
     inkscape:pageopacity="0"
     inkscape:pageshadow="2"
     inkscape:window-width="1920"
     inkscape:window-height="1025"
     id="namedview4"
     showgrid="false"
     inkscape:zoom="0.24456143"
     inkscape:cx="418.96963"
     inkscape:cy="925.67436"
     inkscape:window-x="0"
     inkscape:window-y="26"
     inkscape:window-maximized="1"
     inkscape:current-layer="layer3" />
  <g
     inkscape:groupmode="layer"
     id="layer2"
     inkscape:label="artwork"
     sodipodi:insensitive="true">
    <image
       sodipodi:absref="C:\Users\stero\Documents\Kernewek\Pepper and Carrot\WIP\ep17_A-Fresh-Start\lang\kw\../gfx_Pepper-and-Carrot_by-David-Revoy_E17P02.png"
       xlink:href="../gfx_Pepper-and-Carrot_by-David-Revoy_E17P02.png"
       width="2481"
       height="3503"
       id="image10"
       x="0"
       y="0" />
  </g>
  <g
     inkscape:groupmode="layer"
     id="layer3"
     inkscape:label="speechbubbles">
    <path
       style="color:#000000;display:inline;overflow:visible;visibility:visible;fill:#ffffff;fill-opacity:1;fill-rule:nonzero;stroke:none;stroke-width:1.01915395px;marker:none;enable-background:accumulate"
       d="m 121.75796,1059.8057 c -8.80109,-137.39524 162.63136,-100.24004 247.30465,-98.49358 96.06059,6.0917 207.19932,1.94428 198.2578,131.27968 -7.7239,30.4224 -15.44795,62.6346 -43.25442,73.3719 -27.80662,10.7375 -225.54177,25.0539 -257.9827,17.8957 -32.44093,-7.1582 -84.96443,-8.9479 -112.77076,-30.4225 -28.19019,-21.771 -30.00984,-49.7869 -31.55457,-93.6312 z"
       id="path3373"
       inkscape:connector-curvature="0"
       sodipodi:nodetypes="cccsssc" />
    <path
       style="color:#000000;display:inline;overflow:visible;visibility:visible;fill:#ffffff;fill-opacity:1;fill-rule:nonzero;stroke:none;stroke-width:1.0345633px;marker:none;enable-background:accumulate"
       d="m 138.63683,1266.366 c 5.11907,-77.5814 83.72549,-135.3156 291.04494,-123.429 111.05145,6.367 237.08472,9.8512 230.87244,123.4858 -6.2124,113.6345 -187.28507,113.0706 -224.60875,116.2116 -37.32366,3.141 -232.1707,-6.2326 -266.89018,-44.4079 -21.7336,-23.8969 -30.60518,-47.8512 -30.41845,-71.8605 z"
       id="path4546-6"
       inkscape:connector-curvature="0"
       sodipodi:nodetypes="cssssc" />
    <path
       style="color:#000000;display:inline;overflow:visible;visibility:visible;fill:#ffffff;fill-opacity:1;fill-rule:nonzero;stroke:none;stroke-width:1px;marker:none;enable-background:accumulate"
       d="m 587.23586,1174.1904 c 51.27116,-41.1633 149.8778,-85.2003 264.98554,-18.484 117.45563,-13.9265 159.1674,-5.368 226.1925,56.8954 -72.139,-47.9191 -116.24059,-67.2081 -241.86362,-37.1297 -45.09623,-48.2708 -163.72454,-46.4191 -206.10579,10.6331 -42.38126,57.0523 -17.46921,58.1114 -17.46921,58.1114 l -39.32225,-53.5754 z"
       id="path5074"
       inkscape:connector-curvature="0"
       sodipodi:nodetypes="ccccsccc" />
    <path
       style="color:#000000;display:inline;overflow:visible;visibility:visible;fill:#ffffff;fill-opacity:1;fill-rule:nonzero;stroke:none;stroke-width:1.05406213px;marker:none;enable-background:accumulate"
       d="m 1791.0694,1654.71 c -12.0439,-65.126 -31.5831,-216.8911 215.3181,-202.6448 246.9011,14.2462 324.1055,23.8918 341.3569,94.8074 5.945,24.4376 52.5978,160.7933 -140.1055,197.4267 -192.7034,36.6331 -401.2681,-0.014 -416.5695,-89.5893 z"
       id="path3525"
       inkscape:connector-curvature="0"
       sodipodi:nodetypes="csssc" />
    <path
       style="color:#000000;display:inline;overflow:visible;visibility:visible;fill:#ffffff;fill-opacity:1;fill-rule:nonzero;stroke:none;stroke-width:1px;marker:none;enable-background:accumulate"
       d="m 1598.781,1488.4356 c 107.0984,73.703 229.4839,140.1632 303.5843,70.4763 79.5488,-74.8108 107.3574,-10.2915 107.3574,-10.2915 l -114.9117,66.5528 c -85.3574,-3.2446 -142.9698,20.7038 -296.03,-126.7376 z"
       id="path3072-1"
       inkscape:connector-curvature="0"
       sodipodi:nodetypes="csccc" />
    <path
       style="fill:#ffffff;fill-rule:evenodd;stroke:none;stroke-width:1.176422px;stroke-linecap:butt;stroke-linejoin:miter;stroke-opacity:1"
       d="m 2105.622,3018.9663 c -41.9974,-9.7708 -45.8669,-21.2054 -9.9798,-34.3752 -39.6258,-0.3908 -33.335,-8.3172 -16.3344,-18.0015 -61.1128,-36.8817 -56.1833,-70.3027 -49.7004,-103.6422 -47.3538,25.4846 -56.8003,-0.5993 -74.5483,-15.3899 -1.6864,37.9389 -13.5088,16.5417 -28.1593,-21.4121 0.8565,48.3213 -6.2044,53.7754 -20.4848,20.139 -3.1376,31.405 -14.3647,45.7347 -34.8895,40.4372 -26.6448,34.6422 -49.4385,0.6093 -73.4771,-11.2267 -0.1576,32.1345 -15.4262,36.5598 -35.5121,32.1508 -5.242,14.7666 -6.983,34.9163 -36.4215,12.4857 1.0525,26.2622 -14.7256,11.0842 -25.3313,8.6408 15.0636,11.6002 -3.9628,20.1687 -62.2017,25.2498 23.6274,2.4889 24.3511,12.6904 -1.9572,31.9952 36.0299,5.744 39.5201,21.3071 25.9158,42.0284 43.5814,16.4237 12.008,48.9798 -0.8122,77.5106 35.1517,-20.195 65.5667,-26.8111 81.4141,8.333 50.6736,-41.7771 45.9159,-24.131 43.6855,-9.1943 27.3605,-42.6291 32.6621,-11.8731 44.5323,-2.9695 87.7702,-64.9159 94.7621,-20.6981 120.651,-2.0113 -3.9584,-51.5957 21.2924,-37.2118 46.664,-22.5552 -10.9047,-41.8614 4.5297,-32.5468 19.4134,-24.3019 -2.8057,-18.5034 8.0479,-26.6201 37.3187,-20.7325 -22.4137,-10.4728 -11.4017,-15.7493 50.2148,-13.1582 z"
       id="path4289"
       inkscape:connector-curvature="0"
       sodipodi:nodetypes="cccccccccccccccccccccccc" />
    <path
       style="display:inline;fill:#ffffff;fill-rule:evenodd;stroke:none;stroke-width:1.06072116px;stroke-linecap:butt;stroke-linejoin:miter;stroke-opacity:1"
       d="m 981.59308,2957.4373 c 43.63432,29.1744 68.48882,17.3104 67.73982,-50.5046 20.8178,73.2824 35.2642,89.6722 43.8319,53.5655 27.5611,31.0352 44.7754,22.3296 58.4424,0 5.0939,28.7174 16.0181,17.1289 25.4725,15.7025 3.1137,6.4971 -7.581,22.6388 35.6262,1.1324 2.7989,8.5996 6.5691,16.0053 31.8776,-3.0609 6.5567,34.9048 27.5936,-1.9345 49.1448,-41.322 -13.4272,48.4236 -7.8594,55.2631 9.2977,36.7306 -7.8442,19.9412 -12.5356,35.378 17.2669,1.5305 -10.2029,36.8074 16.5645,11.543 59.7707,-41.3219 -21.6125,39.0774 -78.9237,104.9393 -41.1753,99.4787 -5.2643,11.5201 -24.0415,21.5573 31.8775,39.7915 -10.4392,7.8173 -42.3102,-3.6061 -15.7241,29.4926 3.562,3.869 -8.3627,6.2317 14.3959,16.4206 -13.4345,-0.6931 -21.6737,1.7832 -9.2976,16.8349 -24.5233,-0.8139 -15.3478,15.0132 2.6564,35.2001 -35.513,-25.894 -37.4674,-16.483 -38.5189,-6.1217 -44.5082,-35.3024 -47.1211,-24.1877 -53.1292,-16.8349 -21.6945,0.2754 -43.3889,-4.1702 -65.0837,35.2002 -5.6815,-24.4874 -17.0722,-43.3362 -65.0833,-26.0175 21.0805,-31.1522 -8.9093,-11.305 -31.8777,1.5304 12.5779,-38.9168 -19.3431,-13.3758 -59.7707,24.4871 22.6394,-42.975 -3.0735,-27.4515 -41.1752,3.0609 14.396,-42.2187 -9.04928,-62.6362 -65.08347,-64.2786 26.8197,-15.2288 42.4595,-34.3938 14.61066,-68.8699 31.39357,10.1516 40.75779,0.7222 18.59522,-36.7306 34.24189,30.7409 18.67343,-13.8473 5.31297,-55.0959 z"
       id="path4508"
       inkscape:connector-curvature="0"
       sodipodi:nodetypes="cccccccccccccccccccccccccccc" />
    <path
       style="color:#000000;display:inline;overflow:visible;visibility:visible;fill:#ffffff;fill-opacity:1;fill-rule:nonzero;stroke:none;stroke-width:1.11961007px;marker:none;enable-background:accumulate"
       d="m 1086.2458,3021.1956 c 2.6024,-35.7819 14.2674,-35.4753 54.4314,-3.1104 -10.5984,-63.8119 43.3255,-66.829 93.5819,-73.3016 -5.7638,-17.9297 -28.0157,-38.5217 8.0571,-49.6967 -19.3757,-10.6866 -19.4382,-24.9038 -2.2687,-42.271 -40.1116,8.2755 -55.1992,3.1808 -7.7574,-35.3242 -44.7765,21.875 -87.6559,41.3488 -70.7688,-14.8218 -16.9555,7.6453 -26.4152,52.1158 -92.8235,-29.229 -0.7519,37.456 -67.387,68.272 -100.11097,19.9208 16.56662,40.2873 -37.73796,86.5196 -63.20197,54.1736 15.12701,22.5855 2.62451,44.6725 -16.43767,48.3722 54.12119,5.9759 43.26386,19.666 5.80018,42.3776 111.47293,3.5451 50.12659,26.108 50.67289,41.3815 67.86084,-14.0473 63.49954,14.4911 73.21514,35.6473 64.625,-64.5316 44.9915,-53.0051 67.6104,5.8817 z"
       id="path3549-3"
       inkscape:connector-curvature="0"
       sodipodi:nodetypes="ccccccccccccccc" />
    <path
       style="color:#000000;display:inline;overflow:visible;visibility:visible;fill:#ffffff;fill-opacity:1;fill-rule:nonzero;stroke:none;stroke-width:1px;marker:none;enable-background:accumulate"
       d="m 1333.3957,2763.3018 c -26.1522,36.9012 -46.8971,78.302 -79.3319,109.9753 l 39.1635,-9.8688 c -5.4563,17.5055 -20.6662,29.6804 -32.5642,43.6655 l 25.2547,-1.9964 c -13.3891,41.1505 -40.934,70.0174 -61.6368,104.8213 l 43.7044,-7.0626 c 16.7451,-37.7274 27.0981,-77.8041 51.033,-112.8889 l -24.8923,-0.6188 c 6.5411,-13.3013 13.6301,-26.3553 23.1666,-38.3053 l -31.2879,2.0537 z"
       id="path4032"
       inkscape:connector-curvature="0"
       sodipodi:nodetypes="cccccccccccc" />
  </g>
  <g
     inkscape:groupmode="layer"
     id="layer1"
     inkscape:label="txt"
     style="display:inline">
    <text
       xml:space="preserve"
       style="font-style:normal;font-variant:normal;font-weight:normal;font-stretch:normal;line-height:0%;font-family:Lavi;-inkscape-font-specification:Lavi;text-align:center;letter-spacing:0px;word-spacing:0px;text-anchor:middle;fill:#000000;fill-opacity:1;stroke:none"
       x="342.81091"
       y="1034.4097"
       id="text4246"><tspan
         sodipodi:role="line"
         style="font-size:45px;line-height:1.25"
         x="349.84216"
         y="1034.4097"
         id="tspan95">Ytho, war an fordh </tspan><tspan
         sodipodi:role="line"
         style="font-size:45px;line-height:1.25"
         x="342.81091"
         y="1090.6597"
         id="tspan101">dhe bow an loryow</tspan><tspan
         sodipodi:role="line"
         style="font-size:45px;line-height:1.25"
         x="342.81091"
         y="1146.9097"
         id="tspan109">ow sedhi.</tspan></text>
    <text
       xml:space="preserve"
       style="font-style:normal;font-variant:normal;font-weight:normal;font-stretch:normal;line-height:0%;font-family:Lavi;-inkscape-font-specification:Lavi;text-align:center;letter-spacing:0px;word-spacing:0px;text-anchor:middle;fill:#000000;fill-opacity:1;stroke:none"
       x="403.24677"
       y="1227.9585"
       id="text4246-6"><tspan
         sodipodi:role="line"
         style="font-size:45px;line-height:1.25"
         x="410.27802"
         y="1227.9585"
         id="tspan116">Shichimi a yll derivas </tspan><tspan
         sodipodi:role="line"
         style="font-size:45px;line-height:1.25"
         x="410.27802"
         y="1284.2085"
         id="tspan122">orthyn fatel junir gans </tspan><tspan
         sodipodi:role="line"
         style="font-size:45px;line-height:1.25"
         x="403.24677"
         y="1340.4585"
         id="tspan130">an gwraghes a Ah!</tspan></text>
    <text
       xml:space="preserve"
       style="font-style:normal;font-variant:normal;font-weight:normal;font-stretch:normal;line-height:0%;font-family:Lavi;-inkscape-font-specification:Lavi;text-align:center;letter-spacing:0px;word-spacing:0px;text-anchor:middle;fill:#000000;fill-opacity:1;stroke:none"
       x="2074.5127"
       y="1533.0598"
       id="text4246-6-9"><tspan
         sodipodi:role="line"
         style="font-size:45px;line-height:1.25"
         x="2081.5439"
         y="1533.0598"
         id="tspan3388">Carrot, kyv </tspan><tspan
         sodipodi:role="line"
         style="font-size:45px;line-height:1.25"
         x="2074.5127"
         y="1589.3098"
         id="tspan143">an mappa ha'n kompas:</tspan><tspan
         sodipodi:role="line"
         style="font-size:45px;line-height:1.25"
         x="2081.5439"
         y="1645.5598"
         id="tspan141">re gomolek yw dhe weles </tspan><tspan
         sodipodi:role="line"
         style="font-size:45px;line-height:1.25"
         x="2074.5127"
         y="1701.8098"
         id="tspan145">an le mayth en.</tspan></text>
    <text
       xml:space="preserve"
       style="font-style:normal;font-variant:normal;font-weight:normal;font-stretch:normal;line-height:0%;font-family:Lavi;-inkscape-font-specification:Lavi;text-align:center;letter-spacing:0px;word-spacing:0px;text-anchor:middle;fill:#000000;fill-opacity:1;stroke:none"
       x="1949.7035"
       y="1557.4618"
       id="text4246-6-9-6"><tspan
         sodipodi:role="line"
         style="font-size:45px;line-height:1.25"
         x="1956.7347"
         y="1557.4618"
         id="tspan4297"> </tspan></text>
    <text
       xml:space="preserve"
       style="font-style:normal;font-variant:normal;font-weight:normal;font-stretch:normal;line-height:0%;font-family:Lavi;-inkscape-font-specification:Lavi;text-align:center;letter-spacing:0px;word-spacing:0px;text-anchor:middle;fill:#000000;fill-opacity:1;stroke:#000000;stroke-width:2.4000001;stroke-miterlimit:4;stroke-dasharray:none;stroke-opacity:1"
       x="1322.629"
       y="2706.6328"
       id="text4246-6-9-0"
       transform="matrix(0.92763131,0,-0.05816983,1.0780145,0,0)"><tspan
         sodipodi:role="line"
         style="font-size:59.70701599px;line-height:1.25;stroke:#000000;stroke-width:2.4000001;stroke-miterlimit:4;stroke-dasharray:none;stroke-opacity:1"
         x="1322.629"
         y="2706.6328"
         id="tspan4305-5">MOLLETH!</tspan></text>
    <text
       xml:space="preserve"
       style="font-style:normal;font-variant:normal;font-weight:normal;font-stretch:normal;line-height:0%;font-family:Lavi;-inkscape-font-specification:Lavi;text-align:center;letter-spacing:0px;word-spacing:0px;text-anchor:middle;fill:#000000;fill-opacity:1;stroke:none"
       x="1165.2826"
       y="3042.4436"
       id="text4246-6-9-8"><tspan
         sodipodi:role="line"
         style="font-size:45px;line-height:1.25"
         x="1165.2826"
         y="3042.4436"
         id="tspan4395">Terfysk!</tspan></text>
    <text
       xml:space="preserve"
       style="font-style:normal;font-variant:normal;font-weight:normal;font-stretch:normal;line-height:0%;font-family:Lavi;-inkscape-font-specification:Lavi;text-align:center;letter-spacing:0px;word-spacing:0px;text-anchor:middle;fill:#000000;fill-opacity:1;stroke:#000000;stroke-width:2.4000001;stroke-miterlimit:4;stroke-dasharray:none;stroke-opacity:1"
       x="2005.6809"
       y="2962.7725"
       id="text4246-6-9-8-8"
       transform="matrix(0.95440174,0,-0.25660426,1.0477768,0,0)"><tspan
         sodipodi:role="line"
         style="font-size:42.94808197px;line-height:1.25;stroke:#000000;stroke-width:2.4000001;stroke-miterlimit:4;stroke-dasharray:none;stroke-opacity:1"
         x="2005.6809"
         y="2962.7725"
         id="tspan4395-0">SYNS YN TYNN!</tspan></text>
    <path
       style="color:#000000;display:inline;overflow:visible;visibility:visible;fill:#ffffff;fill-opacity:1;fill-rule:nonzero;stroke:none;stroke-width:1px;marker:none;enable-background:accumulate"
       d="m 1999.554,2947.8845 c -2.8344,-2.7596 17.6625,-50.4745 17.6625,-50.4745 0,0 0.362,-14.576 1.0191,-17.668 7.9691,-5.303 20.5629,-9.8345 20.5629,-9.8345 l -1.9493,-38.8861 -7.2418,31.926 -20.2953,2.7706 -1.7964,23.9372 -36.789,19.3605 z"
       id="path4448"
       inkscape:connector-curvature="0"
       sodipodi:nodetypes="cccccccccc" />
    <text
       xml:space="preserve"
       style="font-style:normal;font-variant:normal;font-weight:normal;font-stretch:normal;line-height:0%;font-family:Lavi;-inkscape-font-specification:Lavi;text-align:center;letter-spacing:0px;word-spacing:0px;text-anchor:middle;fill:#000000;fill-opacity:1;stroke:none"
       x="1741.6854"
       y="3394.4365"
       id="text4246-6-9-0-4"
       transform="matrix(0.95609098,-0.27508698,0.05700764,1.0295233,0,0)"><tspan
         sodipodi:role="line"
         style="font-size:59.70701599px;line-height:1.25;stroke:#000000;stroke-width:4.24583244;stroke-miterlimit:4;stroke-dasharray:none;stroke-opacity:1"
         x="1741.6854"
         y="3394.4365"
         id="tspan4305-5-1">Ogh ha tru!!!</tspan></text>
    <text
       xml:space="preserve"
       style="font-style:normal;font-variant:normal;font-weight:normal;font-stretch:normal;line-height:0%;font-family:Lavi;-inkscape-font-specification:Lavi;letter-spacing:0px;word-spacing:0px;fill:#ffffff;fill-opacity:1;stroke:#98b9ca;stroke-width:0.99236238;stroke-miterlimit:4;stroke-dasharray:none;stroke-opacity:1;filter:url(#filter4375-4-1-1-1-9-5)"
       x="787.65729"
       y="1584.5073"
       id="text4580-6"
       transform="matrix(1.0541866,-0.30592674,-0.45361635,1.4058514,1555.6885,244.62886)"><tspan
         sodipodi:role="line"
         id="tspan4582-1"
         x="787.65729"
         y="1584.5073"
         style="font-size:70px;line-height:1.25;fill:#ffffff;fill-opacity:1;stroke:#98b9ca;stroke-opacity:1"><tspan
           style="font-size:93.14950562px;fill:#ffffff;fill-opacity:1;stroke:#98b9ca;stroke-opacity:1"
           id="tspan4315">BrrOoooOoo!</tspan><tspan
           style="font-size:114.73223114px;fill:#ffffff;fill-opacity:1;stroke:#98b9ca;stroke-opacity:1"
           id="tspan4313">!</tspan></tspan></text>
    <flowRoot
       xml:space="preserve"
       id="flowRoot867"
       style="font-style:normal;font-variant:normal;font-weight:normal;font-stretch:normal;font-size:0.66666669px;line-height:0%;font-family:Lavi;-inkscape-font-specification:Lavi;text-align:center;letter-spacing:22.65999985px;word-spacing:-79.63999939px;writing-mode:lr-tb;text-anchor:middle;fill:#000000;fill-opacity:1;stroke:none;stroke-width:1px;stroke-linecap:butt;stroke-linejoin:miter;stroke-opacity:1"><flowRegion
         id="flowRegion869"><rect
           id="rect871"
           width="51.584961"
           height="43.458561"
           x="470.62442"
           y="2697.78" /></flowRegion><flowPara
         id="flowPara873" /></flowRoot>    <ellipse
       style="color:#000000;clip-rule:nonzero;display:inline;overflow:visible;visibility:visible;opacity:1;isolation:auto;mix-blend-mode:normal;color-interpolation:sRGB;color-interpolation-filters:linearRGB;solid-color:#000000;solid-opacity:1;vector-effect:none;fill:#ccc0b2;fill-opacity:1;fill-rule:nonzero;stroke:none;stroke-width:0.81906337;stroke-linecap:butt;stroke-linejoin:miter;stroke-miterlimit:4;stroke-dasharray:none;stroke-dashoffset:0;stroke-opacity:1;marker:none;paint-order:markers stroke fill;filter:url(#filter1213);color-rendering:auto;image-rendering:auto;shape-rendering:auto;text-rendering:auto;enable-background:accumulate"
       id="path1007"
       cx="-1314.3951"
       cy="2284.5508"
       rx="13.22963"
       ry="18.621227"
       transform="matrix(0.72758993,-0.68601232,0.6318505,0.77509028,0,0)" />
    <text
       xml:space="preserve"
       style="font-style:normal;font-variant:normal;font-weight:normal;font-stretch:normal;line-height:0%;font-family:Lavi;-inkscape-font-specification:Lavi;text-align:center;letter-spacing:0px;word-spacing:0px;text-anchor:middle;display:inline;opacity:0.6;fill:#230800;fill-opacity:1;stroke:#0a0a0a;stroke-width:1.12461436;stroke-opacity:1;filter:url(#filter1003)"
       x="-447.29675"
       y="2872.5061"
       id="text4246-85"
       transform="matrix(0.48659421,0.56934496,-0.54012331,0.48694312,2248.6279,1535.5146)"><tspan
         sodipodi:role="line"
         style="font-style:normal;font-variant:normal;font-weight:normal;font-stretch:normal;font-size:40.14243317px;line-height:126.99999809%;font-family:Fondamento;-inkscape-font-specification:Fondamento;fill:#230800;fill-opacity:1;stroke:#0a0a0a;stroke-width:1.28985012;stroke-opacity:1"
         x="-447.29675"
         y="2872.5061"
         id="tspan4172">N</tspan></text>
    <ellipse
       style="color:#000000;clip-rule:nonzero;display:inline;overflow:visible;visibility:visible;opacity:0.52600002;isolation:auto;mix-blend-mode:normal;color-interpolation:sRGB;color-interpolation-filters:linearRGB;solid-color:#000000;solid-opacity:1;vector-effect:none;fill:#d1c9bb;fill-opacity:1;fill-rule:nonzero;stroke:none;stroke-width:1.3879416;stroke-linecap:butt;stroke-linejoin:miter;stroke-miterlimit:4;stroke-dasharray:none;stroke-dashoffset:0;stroke-opacity:1;marker:none;paint-order:markers stroke fill;filter:url(#filter1551);color-rendering:auto;image-rendering:auto;shape-rendering:auto;text-rendering:auto;enable-background:accumulate"
       id="path1007-7"
       cx="-1314.3951"
       cy="2284.5508"
       rx="13.22963"
       ry="18.621227"
       transform="matrix(0.35584042,-0.48849033,0.3090174,0.55192026,261.42762,774.61655)" />
    <ellipse
       style="color:#000000;clip-rule:nonzero;display:inline;overflow:visible;visibility:visible;opacity:0.64299999;isolation:auto;mix-blend-mode:normal;color-interpolation:sRGB;color-interpolation-filters:linearRGB;solid-color:#000000;solid-opacity:1;vector-effect:none;fill:#e4e0d9;fill-opacity:1;fill-rule:nonzero;stroke:none;stroke-width:1.3879416;stroke-linecap:butt;stroke-linejoin:miter;stroke-miterlimit:4;stroke-dasharray:none;stroke-dashoffset:0;stroke-opacity:1;marker:none;paint-order:markers stroke fill;filter:url(#filter1607);color-rendering:auto;image-rendering:auto;shape-rendering:auto;text-rendering:auto;enable-background:accumulate"
       id="path1007-7-5"
       cx="-1314.3951"
       cy="2284.5508"
       rx="13.22963"
       ry="18.621227"
       transform="matrix(0.35584042,-0.48849033,0.3090174,0.55192026,236.07502,765.92999)" />
  </g>
</svg>
