<?xml version="1.0" encoding="UTF-8" standalone="no"?>
<!-- Created with Inkscape (http://www.inkscape.org/) -->

<svg
   xmlns:dc="http://purl.org/dc/elements/1.1/"
   xmlns:cc="http://creativecommons.org/ns#"
   xmlns:rdf="http://www.w3.org/1999/02/22-rdf-syntax-ns#"
   xmlns:svg="http://www.w3.org/2000/svg"
   xmlns="http://www.w3.org/2000/svg"
   xmlns:xlink="http://www.w3.org/1999/xlink"
   xmlns:sodipodi="http://sodipodi.sourceforge.net/DTD/sodipodi-0.dtd"
   xmlns:inkscape="http://www.inkscape.org/namespaces/inkscape"
   id="svg2"
   version="1.1"
   inkscape:version="0.91 r13725"
   width="2481"
   height="3503"
   sodipodi:docname="E32P02.svg">
  <metadata
     id="metadata8">
    <rdf:RDF>
      <cc:Work
         rdf:about="">
        <dc:format>image/svg+xml</dc:format>
        <dc:type
           rdf:resource="http://purl.org/dc/dcmitype/StillImage" />
        <dc:title />
      </cc:Work>
    </rdf:RDF>
  </metadata>
  <defs
     id="defs6" />
  <sodipodi:namedview
     pagecolor="#ffffff"
     bordercolor="#666666"
     borderopacity="1"
     objecttolerance="10"
     gridtolerance="10"
     guidetolerance="10"
     inkscape:pageopacity="0"
     inkscape:pageshadow="2"
     inkscape:window-width="1366"
     inkscape:window-height="715"
     id="namedview4"
     showgrid="false"
     inkscape:zoom="0.46000001"
     inkscape:cx="1102.1679"
     inkscape:cy="736.1652"
     inkscape:window-x="-8"
     inkscape:window-y="-8"
     inkscape:window-maximized="1"
     inkscape:current-layer="layer3"
     inkscape:snap-global="false" />
  <g
     inkscape:groupmode="layer"
     id="layer2"
     inkscape:label="artwork"
     sodipodi:insensitive="true">
    <image
       sodipodi:absref="D:\Pepper&amp;Carrot translation\ep32_The-Battlefield_lang-pack\lang\cn\..\gfx_Pepper-and-Carrot_by-David-Revoy_E32P02.png"
       xlink:href="../gfx_Pepper-and-Carrot_by-David-Revoy_E32P02.png"
       width="2481"
       height="3503"
       id="image10"
       x="0"
       y="0" />
  </g>
  <g
     inkscape:groupmode="layer"
     id="layer3"
     inkscape:label="speechbubbles"
     style="display:inline">
    <path
       style="color:#000000;display:inline;overflow:visible;visibility:visible;fill:#ffffff;fill-opacity:1;fill-rule:nonzero;stroke:none;stroke-width:1.02533054px;marker:none;enable-background:accumulate"
       d="m 314.2926,244.75319 c 6.47674,-13.52294 33.78984,-11.75789 43.45615,-7.81931 -18.30912,-17.89529 -16.45315,-27.58142 11.1039,-26.13173 -42.56912,-33.28904 -5.55538,-24.94083 2.69327,-31.31974 -34.8981,-13.66266 -17.33435,-24.06 -9.48819,-35.45462 -41.38762,-4.90327 -25.53843,-22.81386 -25.46205,-38.43781 -4.36816,6.86259 -23.66076,27.1044 -21.76537,2.44499 -30.17418,20.4547 -64.97323,32.00967 -62.75339,-9.264327 -13.47853,19.424807 -25.51778,26.948047 -21.76544,2.444977 -31.1393,29.02512 -54.36736,14.84821 -78.03324,3.12826 -7.63645,8.95162 -10.14519,23.70202 -30.75129,17.94983 1.81655,9.88906 -6.05649,15.69913 -22.543233,17.87001 20.612423,8.08676 23.832833,14.47431 -16.465371,16.60927 30.014584,3.87937 57.921514,8.18919 20.037384,26.24949 11.01185,1.72912 39.44384,-13.68528 20.88185,38.4265 21.06367,-15.04513 42.49623,-22.28695 63.74356,16.3079 14.17276,-16.59663 36.13395,-23.19111 42.5919,0.15633 4.39629,-9.17917 18.38041,-11.29549 29.94379,-10.48382 4.00446,4.26924 7.98842,9.90966 11.98392,17.16744 9.50226,-13.30138 22.34533,-21.58905 42.59185,0.15636 z"
       id="path3549-3-7-5"
       inkscape:connector-curvature="0"
       sodipodi:nodetypes="cccccccccccccccccccc" />
    <path
       style="color:#000000;display:inline;overflow:visible;visibility:visible;fill:#ffffff;fill-opacity:1;fill-rule:nonzero;stroke:none;stroke-width:0.97324771px;marker:none;enable-background:accumulate"
       d="m 382.17101,159.02734 c -51.47226,1.53447 -103.27676,8.51862 -152.56098,27.62406 -20.61597,8.38244 -39.69505,24.56057 -51.26424,47.53471 -8.55729,17.069 -10.21999,38.43492 -6.69226,57.77699 3.28552,17.84896 11.4605,34.78532 23.97328,45.00803 13.26839,11.36189 28.67591,17.92067 43.67065,24.89182 33.81948,14.90865 69.5151,24.35674 105.5271,24.49963 37.10979,-0.4946 74.26424,0.0257 111.31921,-2.91183 34.22445,-3.06971 68.87099,-11.19846 99.39063,-31.33552 16.69123,-11.01675 32.42614,-25.85012 42.27191,-46.14869 7.74241,-16.15783 11.00345,-35.93549 7.34288,-54.33891 -4.1,-22.76841 -16.7959,-42.3693 -32.94459,-54.11594 -20.91445,-16.15813 -45.38911,-23.00477 -69.41321,-28.13907 -39.81825,-8.27387 -80.29289,-10.65836 -120.62038,-10.34528 z"
       id="path3970-3"
       inkscape:connector-curvature="0"
       sodipodi:nodetypes="cccscsc" />
    <path
       style="color:#000000;display:inline;overflow:visible;visibility:visible;fill:#ffffff;fill-opacity:1;fill-rule:nonzero;stroke:none;stroke-width:1px;marker:none;enable-background:accumulate"
       d="m 577.63531,481.55553 c 24.15675,-46.43871 15.15598,-67.79787 10.19676,-83.83511 -5.04081,0.18752 -14.08073,-1.23448 -14.08073,-1.23448 0,0 -7.00281,-32.37916 -13.50272,-43.8635 -6.49993,-11.48435 -19.9552,-4.33851 -19.9552,-4.33851 0,0 12.13026,63.2638 10.96525,77.57434 13.78917,-1.09946 20.70461,0.20644 25.45323,-2.31613 5.66701,8.19382 8.96155,41.29633 0.92341,58.01339 z"
       id="path4456-8"
       inkscape:connector-curvature="0" />
    <path
       style="color:#000000;display:inline;overflow:visible;visibility:visible;opacity:1;fill:#ffffff;fill-opacity:1;fill-rule:nonzero;stroke:none;stroke-width:0.93505698px;marker:none;enable-background:accumulate"
       d="m 937.23661,587.97276 c -24.7151,0.65509 -49.87131,3.7698 -72.66253,13.77194 -11.57028,5.50362 -19.49505,16.15408 -25.65935,26.95505 -16.79503,29.46146 -20.96791,66.30462 -8.95829,98.21233 6.57621,16.24094 21.10145,28.38108 37.35398,34.57257 17.06415,6.61176 35.35971,9.34909 53.5182,10.98647 12.62383,1.01238 25.29482,1.69006 37.9626,1.55666 26.68984,-0.54406 53.51538,-4.98642 78.33038,-14.93548 13.1653,-6.20963 21.961,-19.3364 25.0552,-33.19917 4.8718,-18.99493 4.0971,-38.9914 0.3071,-58.09959 -4.1741,-20.79181 -14.7888,-40.81655 -31.7706,-54.07134 -20.1807,-15.83398 -45.8695,-23.07788 -71.19119,-25.20182 -7.41086,-0.5979 -14.85395,-0.76568 -22.2855,-0.54762 z"
       id="path4040-5"
       inkscape:connector-curvature="0"
       sodipodi:nodetypes="zssssz" />
    <path
       style="color:#000000;display:inline;overflow:visible;visibility:visible;fill:#ffffff;fill-opacity:1;fill-rule:nonzero;stroke:none;stroke-width:1px;marker:none;enable-background:accumulate"
       d="m 1159.1652,618.60003 c -22.426,10.78245 -21.9205,17.27525 -23.5228,31.76828 -1.6032,14.49315 -6.5002,31.6111 -27.1248,48.30404 -30.1996,17.58679 -94.1328,69.98654 -71.7029,5.83439 5.3345,-23.46958 48.5109,-22.99772 64.4153,-32.38817 15.9045,-9.39055 14.6245,-34.55514 25.6984,-44.48017 11.0738,-9.92492 18.2375,-9.80409 32.2368,-9.03837 z"
       id="path4538-0"
       inkscape:connector-curvature="0"
       sodipodi:nodetypes="ccccccc" />
    <path
       style="fill:#ffffff;stroke:none;stroke-width:1"
       d="M 863.61133 442.7793 C 836.43744 443.80406 808.71915 451.68158 787.42488 469.12029 C 768.41327 485.24278 758.81976 510.97607 760.68968 535.62649 C 760.42923 549.86906 761.2754 565.15916 769.54968 577.3187 C 780.60802 593.90916 798.8577 604.22282 817.57458 609.91859 C 846.5517 619.63921 877.60335 618.57558 907.69264 616.76951 C 929.30551 615.28942 951.64202 613.03488 971.1405 602.84113 C 988.89899 592.95261 1001.6166 574.02125 1002.7754 553.57422 C 1004.6128 533.5667 999.92406 513.37321 991.7512 495.17755 C 982.46878 476.30736 965.75182 461.36494 946.0857 453.97891 C 920.03825 443.30965 891.35495 442.5302 863.61133 442.7793 z "
       id="path3280-10"
       inkscape:connector-curvature="0"
       sodipodi:nodetypes="csssc" />
    <path
       style="display:inline;fill:#ffffff;fill-rule:evenodd;stroke:none;stroke-width:1.02665567px;stroke-linecap:butt;stroke-linejoin:miter;stroke-opacity:1"
       d="m 1414.8376,2606.3928 c -2.2457,17.8001 -5.6602,36.1066 -16.7188,51.8255 -13.0489,13.028 -37.4031,16.1814 -55.3868,8.6039 -11.2662,-4.3785 -21.999,-9.6741 -33.2859,-13.9852 -0.4788,0.5067 0.5356,1.9567 0.6405,2.8311 5.5254,16.7368 12.8578,33.4638 12.7072,51.03 -2.0145,6.6052 -14.0365,8.2322 -19.0404,3.0545 -2.88,-1.68 -5.8045,-3.3323 -8.9821,-4.6129 5.1803,9.0009 12.3228,17.8124 12.7278,28.0846 -2.4582,7.6526 -13.4274,11.4662 -22.3098,9.7302 -5.7808,-0.792 -11.4587,-2.428 -17.3853,-2.2413 7.9655,8.2335 15.8658,17.5729 16.3938,28.4666 -0.3769,9.271 -7.8624,17.2408 -16.4424,22.7233 -7.2297,4.3927 -15.9366,6.6049 -23.5824,10.4152 -2.1256,0.9483 -4.251,1.8967 -6.3765,2.845 22.1581,0.3721 44.6082,1.2027 66.0158,6.3342 -18.6364,3.1295 -37.2865,6.2404 -56.0848,8.6486 14.2998,4.496 28.721,9.493 40.5734,17.6539 -0.1774,6.338 -11.4318,9.6098 -16.4963,4.8883 -4.107,-1.4939 -8.214,-2.9877 -12.3209,-4.4815 3.2158,4.169 6.4317,8.3381 9.6475,12.5072 -12.2577,-3.7443 -23.3455,-9.5597 -34.2514,-15.4006 8.7747,8.8214 17.45,17.8913 23.3603,28.2724 -1.4912,5.8699 -9.4919,9.9595 -16.5438,8.4201 -0.4958,5.2985 6.8389,9.1509 4.9252,14.5573 -2.0341,4.0023 -7.968,6.3556 -13.027,5.0745 1.9736,4.7758 9.9364,4.7133 12.286,9.2813 6.3808,7.2691 10.0329,15.9523 17.0438,22.8744 2.6884,3.5713 4.4745,8.9153 0.3929,12.2775 -5.1079,4.225 -12.8511,3.9866 -19.5459,4.2174 -4.6869,0.4661 -9.4211,1.032 -13.837,2.4675 17.8007,6.6656 37.4401,10.8946 52.6758,21.4499 6.6262,5.2273 5.0561,15.426 -2.816,19.2422 -1.0743,3.3814 4.472,5.6894 7.7615,4.1356 8.0949,0.064 12.4902,9.2422 7.3665,14.1576 -4.8107,6.4107 -11.2676,11.8279 -16.6659,17.8871 -12.0277,12.1291 -24.662,23.9409 -34.7992,37.2375 18.2674,-10.2389 35.796,-21.596 55.8149,-29.5024 7.304,0.5111 10.4795,8.6584 6.3735,13.2174 -0.9155,1.1735 -2.4516,3.125 -0.9387,4.3035 2.8231,0.2444 4.0415,-2.4722 6.385,-3.2804 8.22,-5.2041 16.7321,-10.1618 25.972,-14.0746 3.0563,5.7518 0.3133,12.5187 -4.6128,16.9653 1.19,2.1703 4.687,0.7219 5.8414,-0.7288 4.3265,-1.9928 8.9488,-3.5417 13.7219,-4.6416 6.9835,6.6743 6.2048,16.824 1.096,24.1135 -2.6441,6.8276 -5.3492,13.6391 -8.1083,20.4358 16.7361,-17.2997 32.6879,-35.7023 54.7121,-48.7976 7.9307,-3.5283 19.1454,1.1947 20.2744,8.5625 5.1064,3.1825 12.2399,1.2791 16.7151,-1.7893 8.4071,-2.8268 18.0174,-4.323 26.8626,-1.974 4.882,5.5947 14.8746,6.4876 21.9931,3.4661 10.7893,-2.3092 22.0738,-5.3526 33.2894,-3.2173 5.0671,2.3971 6.1706,8.5477 12.3057,9.7063 6.7848,0.01 14.202,-2.5738 20.4833,0.6305 5.795,3.0352 9.4639,8.1903 11.3305,13.526 4.6884,1.37 8.8501,-2.0575 10.9894,-5.1193 18.2869,-14.1807 49.7007,-13.8951 68.0395,0.074 3.2037,2.1164 6.4138,4.226 9.6285,6.331 6.8106,-3.1967 7.0745,-10.4743 11.8081,-15.0811 5.0912,-5.3397 15.8684,-6.41 21.8332,-1.4526 7.3292,5.1568 10.0415,13.0797 14.8152,19.7065 3.3952,5.4693 6.6646,10.9906 10.0546,16.462 1.6266,-14.5575 3.4583,-29.7873 12.878,-42.5604 12.4481,-14.469 37.2392,-19.8644 57.1818,-13.7729 13.8187,3.2145 26.9083,8.1413 40.2827,12.3756 -2.2847,-11.1033 -7.539,-21.5639 -11.3435,-32.333 6.2126,-1.4412 11.7288,2.2435 16.4783,4.9971 6.4878,3.6114 12.9648,7.2367 19.5166,10.7696 -7.1187,-9.5545 -14.1476,-19.4665 -17.0648,-30.5367 5.8031,-9.8771 22.1255,-13.4538 33.6786,-8.5162 5.0172,0.8321 10.0345,1.6643 15.0517,2.4966 -10.3077,-7.9879 -18.0217,-19.3807 -16.8409,-31.3222 4.114,-12.4427 16.7892,-21.7695 30.786,-26.7909 6.7053,-2.7879 13.4443,-5.5241 20.0535,-8.4651 -18.2493,-1.983 -36.5264,-4.059 -54.4422,-7.6064 6.9289,-5.8717 16.7277,-8.7446 26.376,-9.9472 -7.7584,-1.3971 -16.471,-1.013 -23.1074,-5.1388 -4.5231,-5.7046 3.2826,-14.2471 11.1953,-12.3007 12.7728,0.7126 25.3051,3.0828 38.0598,3.9355 -13.1433,-6.6693 -26.4335,-13.151 -39.292,-20.1919 0.6157,-5.1387 7.6978,-9.0773 13.6861,-7.3185 1.3831,-3.3143 -2.6721,-5.7733 -5.6726,-7.2567 -2.7996,-1.8282 -5.3096,-5.6628 -2.432,-8.22 6.5417,-4.8405 16.7742,-4.0129 23.7817,-0.3121 8.595,3.2338 17.199,6.4526 25.7216,9.8145 -11.1319,-8.4139 -22.2819,-17.0105 -30.8878,-27.3117 0.506,-6.6975 10.0324,-11.8478 17.6219,-9.1085 2.0126,-4.0428 -3.3516,-7.2495 -3.2346,-11.1471 1.5868,-5.6814 10.2085,-8.5067 16.4682,-6.2956 1.9608,-0.494 -0.093,-2.3659 -1.3831,-2.3307 -5.042,-2.6299 -11.4916,-5.2674 -12.6605,-10.5986 -1.2572,-8.4038 -10.3497,-14.7902 -9.9366,-23.5112 3.1966,-6.0504 12.1932,-8.3531 19.6299,-7.3481 5.2444,-0.3016 10.5614,-0.4988 15.6388,-1.7182 -15.82,-7.6543 -34.6474,-11.0203 -48.5669,-21.2779 -4.826,-4.6514 -2.7999,-12.5503 3.4947,-15.593 0.4847,-3.1837 -4.5411,-4.6677 -7.5731,-3.5598 -8.3304,-0.952 -11.9896,-10.4704 -6.6377,-15.5524 7.4539,-11.3047 17.4035,-21.2953 26.7124,-31.5699 14.7875,-15.4309 30.638,-30.1466 45.4619,-45.5532 -27.0715,19.4274 -53.3911,39.997 -84.4896,55.1005 -6.9703,1.8656 -14.2509,-5.2998 -10.7846,-10.6155 -4.2641,-1.861 -8.8371,0.9937 -11.3797,3.7054 -6.3937,3.9448 -13.0854,7.789 -20.7516,9.8503 -5.0655,-3.5355 -3.5483,-10.4333 1.1579,-13.6899 0.7754,-1.0706 2.2841,-2.9947 0.4373,-3.8654 -5.8503,2.8954 -11.9003,5.7992 -18.6772,6.9054 -6.8464,-5.8038 -6.6,-15.2371 -2.0573,-21.996 2.8312,-7.6465 5.6744,-15.2899 8.5295,-22.9303 -17.4164,18.5119 -34.2077,37.8857 -56.642,52.5937 -8.4451,3.3217 -19.7901,-1.6721 -21.1033,-9.3026 -9.8101,-0.832 -17.7546,4.9603 -26.812,6.9044 -7.2209,1.6292 -16.1383,2.2338 -22.0313,-2.3139 -4.3895,-3.5321 -11.3509,-2.5359 -16.282,-0.3897 -12.2559,2.8702 -24.8114,6.5979 -37.7265,5.5519 -4.9876,-2.2975 -6.5485,-8.1701 -12.6264,-9.097 -7.4671,0.6011 -15.5827,3.0741 -22.6812,-0.1116 -5.825,-2.6687 -10.0643,-7.542 -11.2774,-12.9356 -5.8254,-0.7599 -10.051,3.3596 -13.594,6.5006 -17.0093,10.5287 -41.1294,10.8301 -59.8641,3.2874 -7.6936,-3.2558 -14.1697,-8.1274 -21.8674,-11.3777 -3.3314,0.7898 -4.0276,4.037 -5.9516,6.0521 -2.9387,4.5068 -6.8316,9.7256 -13.6041,10.4077 -9.9269,1.3006 -19.573,-4.297 -23.5534,-11.5678 -9.7296,-12.4773 -17.1679,-26.0782 -22.8515,-40.1269 -2.4712,-5.8539 -4.8116,-11.7444 -7.1702,-17.6296 -0.1084,1.1507 -0.2168,2.3013 -0.3251,3.4519 z"
       id="path4508-2"
       inkscape:connector-curvature="0"
       sodipodi:nodetypes="ccccccccccccccccccccccccccccccccccccccccccccccccccc" />
    <path
       style="color:#000000;display:inline;overflow:visible;visibility:visible;fill:#ffffff;fill-opacity:1;fill-rule:nonzero;stroke:none;stroke-width:0.99999988px;marker:none;enable-background:accumulate"
       d="m 1159.215,2912.3636 c 24.9289,15.9696 53.0046,32.3355 73.7186,51.7212 l -4.4671,-22.5612 c 12.3017,3.6243 20.5576,9.2984 29.8695,16.4802 l 0.282,-14.4184 c 28.8782,8.8394 47.895,25.3613 71.6781,38.17 l -1.1627,-32.9839 c -26.1704,-10.6456 -58.8089,-18.5611 -82.5747,-33.2158 l 0.2558,18.7223 c -9.1838,-4.1156 -21.518,-9.7867 -29.518,-15.5652 l 2.2339,19.9359 z"
       id="path4032-7"
       inkscape:connector-curvature="0"
       sodipodi:nodetypes="cccccccccccc" />
    <path
       style="fill:#ffffff;fill-rule:evenodd;stroke:none;stroke-width:1px;stroke-linecap:butt;stroke-linejoin:miter;stroke-opacity:1"
       d="m 1753.7087,204.34351 c 1.185,-20.50278 15.4056,-58.09068 36.7365,-64.92493 21.3308,-6.83426 80.5831,-6.83426 92.4336,-3.41661 11.8505,3.41661 30.8112,28.4752 35.5515,38.72712 4.7402,10.25086 17.7757,46.69954 -3.5551,61.50728 -21.3309,14.80774 -42.6617,26.19782 -65.1777,25.0586 -22.5159,-1.13922 -67.5477,-9.1127 -78.2131,-22.78016 -10.6654,-13.66852 -17.7757,-34.1713 -17.7757,-34.1713 z"
       id="path1355"
       inkscape:connector-curvature="0" />
    <path
       style="fill:#ffffff;stroke:none"
       d="m 1847.3696,354.09054 c -13.8328,-28.3217 -7.9502,-36.13851 -0.501,-44.49778 7.4497,-8.36018 15.1632,-15.13458 14.5125,-22.36198 -0.6506,-7.22728 -5.6372,-15.60621 -10.1839,-21.34253 -4.5468,-5.73632 4.0413,-9.66514 7.9076,-16.31667 3.8657,-6.6508 10.7042,-47.80659 10.7042,-47.80659 0,0 -26.0852,17.5715 -32.236,25.43439 -6.1509,7.86277 -8.4405,10.70667 -10.0173,14.51431 -1.5759,3.80696 -4.0646,13.75357 -0.9533,20.82655 3.1118,7.07218 9.494,12.21912 13.0595,17.0376 3.5649,4.81933 -1.3116,12.15392 -5.5827,19.6909 -4.2712,7.53691 -6.1414,13.7099 -2.3508,27.83912 3.2494,12.11102 15.6412,26.98268 15.6412,26.98268 z"
       id="path3023-4"
       inkscape:connector-curvature="0"
       sodipodi:nodetypes="csssscssssssc" />
    <path
       style="color:#000000;display:inline;overflow:visible;visibility:visible;fill:#ffffff;fill-opacity:1;fill-rule:nonzero;stroke:none;stroke-width:1px;marker:none;enable-background:accumulate"
       d="m 1776.3464,1315.529 c 3.2527,-11.321 20.627,-46.387 25.7118,-9.291 37.4381,-49.672 83.6395,-32.169 93.8806,-24.931 -4.7258,-14.705 4.8022,-41.137 32.0153,-34.638 -5.1706,-14.206 2.6362,-24.873 22.022,-32.381 -27.4731,-6.646 -33.2796,-15.291 15.0553,-28.938 -37.6389,2.046 -72.8702,2.901 -32.2408,-33.757 -13.9008,0.297 -43.8343,30.571 -36.8893,-51.608 -21.0909,27.809 -44.9596,44.128 -82.345,-7.637 -7.5628,22.215 -20.6761,37.852 -51.7969,10.837 -3.8196,21.757 -37.5549,26.216 -50.4824,22.884 27.6128,21.802 28.2717,36.657 -5.6527,41.671 61.708,38.345 14.2263,35.6 6.113,47.213 46.5049,11.207 28.2717,31.183 22.1502,50.136 51.7672,-3.483 37.8708,27.229 42.4589,50.44 z"
       id="path3549-3-8"
       inkscape:connector-curvature="0"
       sodipodi:nodetypes="ccccccccccccccc" />
    <path
       style="color:#000000;display:inline;overflow:visible;visibility:visible;fill:#ffffff;fill-opacity:1;fill-rule:nonzero;stroke:none;stroke-width:1px;marker:none;enable-background:accumulate"
       d="m 1862.3291,1246.0499 c 14.3861,24.2296 28.6134,53.9163 31.3484,61.3263 -9.104,1.8541 -16.3446,4.7584 -22.9617,5.3139 6.2417,13.3724 31.8119,68.3466 45.0873,79.3414 -33.7825,-25.8525 -61.563,-70.2493 -70.1237,-92.8544 8.499,-2.3387 14.007,-2.5569 18.4447,-3.9047 -3.7254,-11.4708 -23.6989,-46.1206 -23.6989,-46.1206 z"
       id="path5066-8"
       inkscape:connector-curvature="0"
       sodipodi:nodetypes="cccccccc" />
    <path
       style="fill:#ffffff;stroke:none;stroke-width:0.99999988"
       d="m 554.61766,1452.0752 c -1.51043,-17.6706 25.57121,-61.9082 157.67431,-58.5809 132.10316,3.3272 173.44934,22.7651 177.32057,54.1751 6.124,49.69 -63.37529,62.9687 -163.17008,66.6495 -102.87756,3.794 -173.42145,-30.3145 -171.8248,-62.2437 z"
       id="path3280-7"
       inkscape:connector-curvature="0"
       sodipodi:nodetypes="csssc" />
    <path
       style="color:#000000;display:inline;overflow:visible;visibility:visible;fill:#ffffff;fill-opacity:1;fill-rule:nonzero;stroke:none;stroke-width:1px;marker:none;enable-background:accumulate"
       d="m 923.43677,1589.1694 c -67.24677,1.2844 -93.00504,-48.0053 -100.0269,-87.4546 -9.92573,-55.7646 -2.09042,-31.0329 -2.09042,-31.0329 l -33.99104,26.0816 c -4.43616,0.2077 36.58553,127.7062 136.10836,92.4059 z"
       id="path3072-12"
       inkscape:connector-curvature="0"
       sodipodi:nodetypes="csccc" />
    <path
       style="fill:#ffffff;fill-rule:evenodd;stroke:none;stroke-width:1.06666005px;stroke-linecap:butt;stroke-linejoin:miter;stroke-opacity:1"
       d="m 529.79565,1378.9971 c 1.2297,-19.455 15.98627,-55.122 38.12123,-61.607 22.13485,-6.485 83.62064,-6.485 95.91782,-3.242 12.29718,3.242 31.97265,27.02 36.89153,36.748 4.9189,9.727 18.44578,44.313 -3.68908,58.364 -22.13497,14.051 -44.26982,24.859 -67.63448,23.778 -23.36467,-1.081 -70.09387,-8.647 -81.16125,-21.616 -11.06749,-12.97 -18.44577,-32.425 -18.44577,-32.425 z"
       id="path1355-3"
       inkscape:connector-curvature="0" />
  </g>
  <g
     inkscape:groupmode="layer"
     id="layer1"
     inkscape:label="txt">
    <text
       xml:space="preserve"
       style="font-style:normal;font-variant:normal;font-weight:normal;font-stretch:normal;line-height:0%;font-family:Lavi;-inkscape-font-specification:Lavi;text-align:center;letter-spacing:0px;word-spacing:0px;text-anchor:middle;fill:#000000;fill-opacity:1;stroke:none"
       x="219.87317"
       y="180.54718"
       id="text4246-3-3"
       sodipodi:linespacing="0%"><tspan
         sodipodi:role="line"
         style="font-style:normal;font-variant:normal;font-weight:normal;font-stretch:normal;font-size:45px;line-height:1.25;font-family:'WenQuanYi Micro Hei';-inkscape-font-specification:'WenQuanYi Micro Hei'"
         x="219.87317"
         y="180.54718"
         id="tspan852">中尉！</tspan></text>
    <text
       xml:space="preserve"
       style="font-style:normal;font-variant:normal;font-weight:normal;font-stretch:normal;line-height:0%;font-family:'WenQuanYi Micro Hei';-inkscape-font-specification:'WenQuanYi Micro Hei';text-align:center;letter-spacing:0px;word-spacing:0px;text-anchor:middle;fill:#000000;fill-opacity:1;stroke:none"
       x="385.97449"
       y="234.32552"
       id="text4246-3-5-9"
       sodipodi:linespacing="0%"><tspan
         sodipodi:role="line"
         style="font-style:normal;font-variant:normal;font-weight:normal;font-stretch:normal;font-size:45px;line-height:1.25;font-family:'WenQuanYi Micro Hei';-inkscape-font-specification:'WenQuanYi Micro Hei'"
         x="385.97449"
         y="234.32552"
         id="tspan916">你有没有按照</tspan><tspan
         sodipodi:role="line"
         style="font-style:normal;font-variant:normal;font-weight:normal;font-stretch:normal;font-size:45px;line-height:1.25;font-family:'WenQuanYi Micro Hei';-inkscape-font-specification:'WenQuanYi Micro Hei'"
         x="385.97449"
         y="290.5755"
         id="tspan3389">我的命令去</tspan><tspan
         sodipodi:role="line"
         style="font-style:normal;font-variant:normal;font-weight:normal;font-stretch:normal;font-size:45px;line-height:1.25;font-family:'WenQuanYi Micro Hei';-inkscape-font-specification:'WenQuanYi Micro Hei'"
         x="385.97449"
         y="346.8255"
         id="tspan3391">雇佣一名女巫？</tspan></text>
    <text
       xml:space="preserve"
       style="font-style:normal;font-variant:normal;font-weight:normal;font-stretch:normal;line-height:0%;font-family:Lavi;-inkscape-font-specification:Lavi;text-align:center;letter-spacing:0px;word-spacing:0px;text-anchor:middle;fill:#000000;fill-opacity:1;stroke:none"
       x="896.45276"
       y="514.02069"
       id="text4246-1-6"
       sodipodi:linespacing="0%"><tspan
         sodipodi:role="line"
         style="font-style:normal;font-variant:normal;font-weight:normal;font-stretch:normal;font-size:45px;line-height:1.25;font-family:'WenQuanYi Micro Hei';-inkscape-font-specification:'WenQuanYi Micro Hei'"
         x="896.45276"
         y="514.02069"
         id="tspan920">有的，</tspan><tspan
         sodipodi:role="line"
         style="font-style:normal;font-variant:normal;font-weight:normal;font-stretch:normal;font-size:45px;line-height:1.25;font-family:'WenQuanYi Micro Hei';-inkscape-font-specification:'WenQuanYi Micro Hei'"
         x="896.45276"
         y="570.27069"
         id="tspan3395">陛下。</tspan></text>
    <text
       xml:space="preserve"
       style="font-style:normal;font-variant:normal;font-weight:normal;font-stretch:normal;line-height:0%;font-family:'WenQuanYi Micro Hei';-inkscape-font-specification:'WenQuanYi Micro Hei';text-align:center;letter-spacing:0px;word-spacing:0px;text-anchor:middle;display:inline;fill:#000000;fill-opacity:1;stroke:none"
       x="945.81696"
       y="670.9931"
       id="text4246-7-6-1-7-6-3-5"
       sodipodi:linespacing="0%"><tspan
         sodipodi:role="line"
         style="font-style:normal;font-variant:normal;font-weight:normal;font-stretch:normal;font-size:45px;line-height:1.25;font-family:'WenQuanYi Micro Hei';-inkscape-font-specification:'WenQuanYi Micro Hei'"
         x="945.81696"
         y="670.9931"
         id="tspan938">她就在</tspan><tspan
         sodipodi:role="line"
         style="font-style:normal;font-variant:normal;font-weight:normal;font-stretch:normal;font-size:45px;line-height:1.25;font-family:'WenQuanYi Micro Hei';-inkscape-font-specification:'WenQuanYi Micro Hei'"
         x="945.81696"
         y="727.2431"
         id="tspan3401">您旁边。</tspan></text>
    <text
       xml:space="preserve"
       style="font-style:normal;font-variant:normal;font-weight:normal;font-stretch:normal;font-size:15.90748692px;line-height:0%;font-family:Lavi;-inkscape-font-specification:Lavi;text-align:center;letter-spacing:0px;word-spacing:0px;text-anchor:middle;fill:#000000;fill-opacity:1;stroke:none;stroke-width:0.99999988"
       x="1859.6963"
       y="214.15907"
       id="text4246-86-3-3"
       transform="scale(0.98795945,1.0121873)"><tspan
         sodipodi:role="line"
         style="font-size:59.65306854px;line-height:1.20000005;stroke-width:0.99999988"
         x="1859.6963"
         y="214.15907"
         id="tspan1044-3"><tspan
           style="font-style:normal;font-variant:normal;font-weight:normal;font-stretch:normal;font-family:'WenQuanYi Micro Hei';-inkscape-font-specification:'WenQuanYi Micro Hei';stroke-width:0.99999988;"
           id="tspan1046-9">...?</tspan></tspan></text>
    <text
       xml:space="preserve"
       style="font-style:normal;font-variant:normal;font-weight:normal;font-stretch:normal;line-height:0%;font-family:'WenQuanYi Micro Hei';-inkscape-font-specification:'WenQuanYi Micro Hei';text-align:center;letter-spacing:0px;word-spacing:0px;text-anchor:middle;fill:#000000;fill-opacity:1;stroke:none"
       x="626.75427"
       y="1387.8031"
       id="text4246-3-7-7-6-7-2-9-6-1-4"
       sodipodi:linespacing="0%"><tspan
         sodipodi:role="line"
         style="font-style:normal;font-variant:normal;font-weight:normal;font-stretch:normal;font-size:45px;line-height:1.20000005;font-family:'WenQuanYi Micro Hei';-inkscape-font-specification:'WenQuanYi Micro Hei'"
         x="626.75427"
         y="1387.8031"
         id="tspan1183-0">嗨！</tspan></text>
    <text
       xml:space="preserve"
       style="font-style:normal;font-variant:normal;font-weight:normal;font-stretch:normal;line-height:0%;font-family:'WenQuanYi Micro Hei';-inkscape-font-specification:'WenQuanYi Micro Hei';text-align:center;letter-spacing:0px;word-spacing:0px;text-anchor:middle;fill:#000000;fill-opacity:1;stroke:none"
       x="736.13556"
       y="1476.2469"
       id="text4246-7-5"
       sodipodi:linespacing="0%"><tspan
         sodipodi:role="line"
         style="font-style:normal;font-variant:normal;font-weight:normal;font-stretch:normal;font-size:45px;line-height:1.25;font-family:'WenQuanYi Micro Hei';-inkscape-font-specification:'WenQuanYi Micro Hei'"
         x="736.13556"
         y="1476.2469"
         id="tspan950">我叫小辣……</tspan></text>
    <text
       xml:space="preserve"
       style="font-style:normal;font-variant:normal;font-weight:normal;font-stretch:normal;line-height:0%;font-family:'WenQuanYi Micro Hei';-inkscape-font-specification:'WenQuanYi Micro Hei';text-align:center;letter-spacing:0px;word-spacing:0px;text-anchor:middle;display:inline;fill:#000000;fill-opacity:1;stroke:none;"
       x="2271.7188"
       y="1112.7358"
       id="text4246-2-3-1-3-9-9-7"
       transform="matrix(0.89365154,0,-0.19329856,1.1190044,0,0)"><tspan
         sodipodi:role="line"
         style="font-size:104.29582214px;line-height:1.25;letter-spacing:-5px;-inkscape-font-specification:'WenQuanYi Micro Hei';font-family:'WenQuanYi Micro Hei';font-weight:normal;font-style:normal;font-stretch:normal;font-variant:normal;"
         x="2269.2188"
         y="1112.7358"
         id="tspan4161-6">?!!</tspan></text>
    <text
       xml:space="preserve"
       style="font-style:normal;font-variant:normal;font-weight:normal;font-stretch:normal;font-size:28.73172379px;line-height:0%;font-family:Lavi;-inkscape-font-specification:Lavi;text-align:center;letter-spacing:29.10897446px;word-spacing:0px;text-anchor:middle;fill:#000000;fill-opacity:1;stroke:none;stroke-width:1"
       x="2279.7253"
       y="2612.1687"
       id="text4246-6-6-3-6"
       transform="matrix(0.94427779,0,-0.21829887,1.0590104,0,0)"
       sodipodi:linespacing="0%"><tspan
         sodipodi:role="line"
         style="font-style:normal;font-variant:normal;font-weight:normal;font-stretch:normal;font-size:81.33332825px;line-height:1.20000005;font-family:'WenQuanYi Micro Hei';-inkscape-font-specification:'WenQuanYi Micro Hei';letter-spacing:4px;stroke-width:1"
         x="2281.7253"
         y="2612.1687"
         id="tspan4252-00-4-7-3">白痴 !!!</tspan></text>
    <text
       xml:space="preserve"
       style="font-style:normal;font-variant:normal;font-weight:normal;font-stretch:normal;font-size:14.11471462px;line-height:0%;font-family:Lavi;-inkscape-font-specification:Lavi;text-align:center;letter-spacing:14.30004215px;word-spacing:0px;text-anchor:middle;fill:#000000;fill-opacity:1;stroke:none;stroke-width:1"
       x="1668.1539"
       y="2708.7773"
       id="text4246-6-3"
       transform="scale(0.94973823,1.0529217)"
       sodipodi:linespacing="0%"><tspan
         sodipodi:role="line"
         style="font-style:normal;font-variant:normal;font-weight:normal;font-stretch:normal;font-size:52.9301796px;line-height:1.20000005;font-family:'WenQuanYi Micro Hei';-inkscape-font-specification:'WenQuanYi Micro Hei';letter-spacing:0.90000004px;stroke-width:1"
         x="1668.604"
         y="2708.7773"
         id="tspan954">你怎么雇了一个小孩子?!</tspan></text>
    <text
       xml:space="preserve"
       style="font-style:normal;font-variant:normal;font-weight:normal;font-stretch:normal;font-size:14.11471462px;line-height:0%;font-family:Lavi;-inkscape-font-specification:Lavi;text-align:center;letter-spacing:14.30004215px;word-spacing:0px;text-anchor:middle;fill:#000000;fill-opacity:1;stroke:none;stroke-width:1"
       x="1672.0237"
       y="2782.6804"
       id="text4246-6-3-4"
       transform="scale(0.94973823,1.0529217)"
       sodipodi:linespacing="0%"><tspan
         sodipodi:role="line"
         style="font-style:normal;font-variant:normal;font-weight:normal;font-stretch:normal;font-size:52.9301796px;line-height:1.20000005;font-family:'WenQuanYi Micro Hei';-inkscape-font-specification:'WenQuanYi Micro Hei';letter-spacing:0.90000004px;stroke-width:1"
         x="1672.4736"
         y="2782.6804"
         id="tspan958">我需要的是一个</tspan><tspan
         sodipodi:role="line"
         style="font-style:normal;font-variant:normal;font-weight:normal;font-stretch:normal;font-size:52.9301796px;line-height:1.20000005;font-family:'WenQuanYi Micro Hei';-inkscape-font-specification:'WenQuanYi Micro Hei';letter-spacing:0.90000004px;stroke-width:1"
         x="1672.4736"
         y="2846.1965"
         id="tspan3409">会战斗的女巫！</tspan></text>
  </g>
</svg>
