<?xml version="1.0" encoding="UTF-8" standalone="no"?>
<!-- Created With Inkscape (http://www.inkscape.org/) -->

<svg
   xmlns:dc="http://purl.org/dc/elements/1.1/"
   xmlns:cc="http://creativecommons.org/ns#"
   xmlns:rdf="http://www.w3.org/1999/02/22-rdf-syntax-ns#"
   xmlns:svg="http://www.w3.org/2000/svg"
   xmlns="http://www.w3.org/2000/svg"
   xmlns:xlink="http://www.w3.org/1999/xlink"
   xmlns:sodipodi="http://sodipodi.sourceforge.net/DTD/sodipodi-0.dtd"
   xmlns:inkscape="http://www.inkscape.org/namespaces/inkscape"
   id="svg2"
   version="1.1"
   inkscape:version="0.92.1 r15371"
   width="2646.3999"
   height="3736.5334"
   sodipodi:docname="E12P03.svg"
   viewBox="0 0 2481 3503">
  <metadata
     id="metadata8">
    <rdf:RDF>
      <cc:Work
         rdf:about="">
        <dc:format>image/svg+xml</dc:format>
        <dc:type
           rdf:resource="http://purl.org/dc/dcmitype/StillImage" />
        <dc:title />
      </cc:Work>
    </rdf:RDF>
  </metadata>
  <defs
     id="defs6">
    <filter
       style="color-interpolation-filters:sRGB"
       id="filter4375-4-1-7-3-7"
       inkscape:label="deevad outline effect">
      <feFlood
         id="feFlood4377-7-9-2-4-1"
         flood-opacity="1"
         flood-color="rgb(60,100,48)"
         result="flood" />
      <feComposite
         id="feComposite4379-3-8-5-4-75"
         in2="SourceGraphic"
         in="flood"
         operator="in"
         result="composite1" />
      <feMorphology
         id="feMorphology4393-1-0-4-5-8"
         operator="dilate"
         radius="4"
         result="result3" />
      <feComposite
         id="feComposite4385-9-5-2-1-5"
         in2="result3"
         in="SourceGraphic"
         operator="over"
         result="composite2" />
    </filter>
    <filter
       style="color-interpolation-filters:sRGB"
       id="filter4375-4-1-7-3-7-6"
       inkscape:label="deevad outline effect">
      <feFlood
         id="feFlood4377-7-9-2-4-1-8"
         flood-opacity="1"
         flood-color="rgb(60,100,48)"
         result="flood" />
      <feComposite
         id="feComposite4379-3-8-5-4-75-5"
         in2="SourceGraphic"
         in="flood"
         operator="in"
         result="composite1" />
      <feMorphology
         id="feMorphology4393-1-0-4-5-8-4"
         operator="dilate"
         radius="4"
         result="result3" />
      <feComposite
         id="feComposite4385-9-5-2-1-5-1"
         in2="result3"
         in="SourceGraphic"
         operator="over"
         result="composite2" />
    </filter>
  </defs>
  <sodipodi:namedview
     pagecolor="#ffffff"
     bordercolor="#666666"
     borderopacity="1"
     objecttolerance="10"
     gridtolerance="10"
     guidetolerance="10"
     inkscape:pageopacity="0"
     inkscape:pageshadow="2"
     inkscape:window-width="1858"
     inkscape:window-height="1057"
     id="namedview4"
     showgrid="false"
     inkscape:zoom="0.30716529"
     inkscape:cx="1449.6426"
     inkscape:cy="766.83163"
     inkscape:window-x="54"
     inkscape:window-y="-8"
     inkscape:window-maximized="1"
     inkscape:current-layer="layer1" />
  <g
     inkscape:groupmode="layer"
     id="layer2"
     inkscape:label="artwork"
     sodipodi:insensitive="true">
    <image
       sodipodi:absref="../gfx_Pepper-and-Carrot_by-David-Revoy_E12P03.png"
       xlink:href="../gfx_Pepper-and-Carrot_by-David-Revoy_E12P03.png"
       y="0"
       x="0"
       id="image10"
       height="3503"
       width="2481" />
  </g>
  <g
     inkscape:groupmode="layer"
     id="layer3"
     inkscape:label="speechbubbles" />
  <g
     inkscape:groupmode="layer"
     id="layer1"
     inkscape:label="txt">
    <path
       style="color:#000000;display:inline;overflow:visible;visibility:visible;fill:#ffffff;fill-opacity:1;fill-rule:nonzero;stroke:none;stroke-width:1px;marker:none;enable-background:accumulate"
       d="m 360.65741,1428.9168 c 3.96899,-2.1762 19.79333,-6.9821 19.79333,-6.9821 0.55874,-0.5426 31.82703,-6.6724 33.89724,-3.2539 23.50142,-1.8382 18.51495,16.9819 16.90818,17.9577 23.09413,3.5551 36.75984,-0.6117 56.56622,-7.1964 -18.01666,1.9167 -27.40814,2.7487 -39.91218,-3.6394 -9.20058,-5.3807 -7.73265,-12.4453 -4.16316,-19.8417 -16.63434,-0.4326 -32.65372,-1.9056 -38.35236,-20.837 l -3.29059,-6.528 c -65.32627,-16.3385 -79.16215,32.6762 -41.44668,50.3208 z"
       id="path4448"
       inkscape:connector-curvature="0"
       sodipodi:nodetypes="cccccccccc" />
    <path
       style="display:inline;fill:#ffffff;fill-rule:evenodd;stroke:none;stroke-width:1px;stroke-linecap:butt;stroke-linejoin:miter;stroke-opacity:1"
       d="m 2370.9082,247.99065 c 0.2091,54.62206 -9.6008,50.12839 -33.5846,74.19447 -24.5527,24.63688 -34.4691,28.6876 -72.7028,38.26595 -31.658,7.93073 -51.371,-4.95483 -74.0382,2.26276 -22.6673,7.21723 -49.3316,29.36636 -80.7413,30.7464 -31.4099,1.38038 -60.1311,-34.65211 -80.2577,-35.51748 -20.1268,-0.86529 -51.7192,25.23497 -67.3736,24.56195 -15.6541,-0.673 -48.9756,-23.49038 -66.8661,-24.25952 -17.8905,-0.76925 -37.5055,24.54017 -68.7124,20.46784 -31.2069,-4.07244 -52.6214,-28.24441 -72.8495,-26.38338 -20.2282,1.86089 -35.2192,26.40599 -70.7974,19.41489 -35.5782,-6.99087 -60.6539,-25.62959 -74.2745,-20.75377 -13.6206,4.87569 -50.4421,28.30489 -88.1551,18.49148 -37.7132,-9.81352 -49.9627,-40.45449 -70.0897,-41.31987 -20.1266,-0.86528 -44.9765,-13.58306 -56.0037,-32.49108 -14.6919,-25.1923 27.9859,-28.28915 15.5434,-55.70446 -10.7671,-23.72455 -13.9061,-21.38139 -7.7506,-49.26594 4.7304,-21.42867 31.9338,-29.11953 56.736,-33.51447 24.8021,-4.39504 19.168,-31.30597 48.3414,-32.78248 29.1734,-1.47639 44.0533,19.68197 75.3616,21.02798 31.3083,1.34604 61.8173,-35.71005 88.4503,-29.10368 26.6329,6.60635 55.5997,22.87873 88.8024,20.98778 53.6258,-3.054 57.972,-21.46541 89.3818,-22.84568 31.4097,-1.38028 56.1036,25.72272 80.7031,26.78037 24.5996,1.05764 48.1617,-29.30663 83.7446,-22.34844 35.4492,6.93211 22.9581,11.12593 66.4853,18.047 31.0357,4.93484 19.8493,-20.24643 80.7247,-18.70814 35.802,0.90469 35.8087,22.4955 66.2029,35.55297 31.0909,13.35655 60.2634,-15.5594 92.3821,-2.00483 39.6453,16.73088 59.2506,66.21184 51.3376,96.20138 z"
       id="path5057"
       inkscape:connector-curvature="0"
       sodipodi:nodetypes="cssssssssssssssssssssssssssssc" />
    <path
       style="color:#000000;display:inline;overflow:visible;visibility:visible;fill:#ffffff;fill-opacity:1;fill-rule:nonzero;stroke:none;stroke-width:1px;marker:none;enable-background:accumulate"
       d="m 1422.2566,272.72798 c -9.0465,17.17821 -22.1298,35.41844 -25.8633,37.63371 -3.7335,2.21528 -29.1071,-2.82552 -32.6588,2.42499 -3.5516,5.25048 -0.184,20.39637 -3.1892,23.03676 -3.005,2.64026 -22.248,2.15282 -24.7979,6.52322 -2.55,4.3704 -5.4057,31.01895 -7.9857,32.93092 -2.5801,1.91189 -16.4823,12.35157 -25.5588,27.07123 27.6826,-18.9975 34.9365,-17.20605 38.4881,-22.45653 3.5518,-5.25051 3.3409,-22.45998 7.9244,-26.13214 4.5834,-3.67214 23.0981,-3.60961 26.498,-9.43687 3.3999,-5.82716 2.2477,-17.23961 2.2477,-17.23961 5.6756,2.82332 37.3315,12.99419 59.43,-13.16691 22.0987,-26.16114 -14.5345,-41.18877 -14.5345,-41.18877 z"
       id="path5050"
       inkscape:connector-curvature="0" />
    <flowRoot
       xml:space="preserve"
       id="flowRoot2987-4-9-3-7-8-6-6-6-0-7"
       style="font-style:normal;font-variant:normal;font-weight:normal;font-stretch:normal;line-height:0.01%;font-family:Lavi;-inkscape-font-specification:Lavi;text-align:center;letter-spacing:0px;word-spacing:0px;text-anchor:middle;display:inline;fill:#000000;fill-opacity:1;stroke:none"
       transform="translate(1302.1139,-100.80138)"><flowRegion
         id="flowRegion2989-5-4-5-5-1-2-4-2-0-8"><rect
           id="rect2991-7-9-6-9-5-7-2-1-3-2"
           width="926.47235"
           height="193.26711"
           x="120.55251"
           y="265.53046"
           style="font-style:normal;font-variant:normal;font-weight:normal;font-stretch:normal;font-family:Lavi;-inkscape-font-specification:Lavi;text-align:center;text-anchor:middle" /></flowRegion><flowPara
         style="font-size:45px;line-height:1.25;text-align:center;text-anchor:middle"
         id="flowPara4118">i bilga le ka te makfa i sei cusku lo'e jerna be le ka me le te makfa pe la kalsa na zukte lo makfa lo nu lumci lo zdani be le nei</flowPara></flowRoot>    <path
       style="color:#000000;display:inline;overflow:visible;visibility:visible;fill:#ffffff;fill-opacity:1;fill-rule:nonzero;stroke:none;stroke-width:0.89855784px;marker:none;enable-background:accumulate"
       d="m 331.13159,1247.2041 c -0.58607,10.7691 3.72478,46.7566 18.85648,17.1486 9.47139,53.8925 40.38138,45.6317 92.00943,25.6267 -24.28314,25.5248 -27.19627,63.3139 -3.80259,70.2726 -8.49974,10.176 -5.07237,22.0327 8.9973,35.3894 -25.00178,-4.2774 -32.40672,0.9564 4.15967,29.9566 -30.9878,-15.3101 -60.30371,-28.7424 -36.94326,16.9831 -11.57876,-5.2656 -27.83272,-41.7222 -46.07221,30.4356 -9.55516,-31.1777 -24.80679,-53.6181 -71.3415,-23.228 0.15945,-21.5567 -6.2658,-39.5401 -40.2943,-27.8686 3.16661,-19.8183 -23.83858,-35.7654 -35.66336,-37.6038 29.55831,-8.5199 34.46182,-20.873 7.46062,-37.3588 63.01589,-10.2422 22.36503,-25.0426 18.95744,-37.812 42.30951,7.2754 32.85821,-16.2319 33.27209,-34.5048 42.42331,21.6245 39.75591,-9.4184 50.40419,-27.4366 z"
       id="path3549-3"
       inkscape:connector-curvature="0"
       sodipodi:nodetypes="ccccccccccccccc" />
    <flowRoot
       transform="matrix(0.90617713,0,-0.22078013,1.6225798,-71.845202,884.77795)"
       style="font-style:normal;font-variant:normal;font-weight:normal;font-stretch:normal;line-height:0.01%;font-family:Lavi;-inkscape-font-specification:Lavi;text-align:center;letter-spacing:0px;word-spacing:0px;text-anchor:middle;fill:#000000;fill-opacity:1;stroke:#000000;stroke-width:2.47324347;stroke-miterlimit:4;stroke-dasharray:none;stroke-opacity:1"
       id="flowRoot4212-3-7-8-6"
       xml:space="preserve"><flowRegion
         id="flowRegion4214-6-7-8-3"><rect
           style="font-style:normal;font-variant:normal;font-weight:normal;font-stretch:normal;font-family:Lavi;-inkscape-font-specification:Lavi;text-align:center;text-anchor:middle;stroke:#000000;stroke-width:2.47324347;stroke-miterlimit:4;stroke-dasharray:none;stroke-opacity:1"
           y="265.53046"
           x="120.55251"
           height="355.03918"
           width="798.1947"
           id="rect4216-4-0-26-5" /></flowRegion><flowPara
         style="font-size:48px;line-height:1.25;text-align:center;letter-spacing:5.20896292px;text-anchor:middle;stroke:#000000;stroke-width:2.47324347;stroke-miterlimit:4;stroke-dasharray:none;stroke-opacity:1"
         id="flowPara4358-7-1">le'o</flowPara></flowRoot>    <path
       style="color:#000000;display:inline;overflow:visible;visibility:visible;fill:#ffffff;fill-opacity:1;fill-rule:nonzero;stroke:none;stroke-width:0.98019183px;marker:none;enable-background:accumulate"
       d="m 1805.1233,1063.9682 -59.875,-17.6058 15.1262,31.612 c -27.8915,1.054 -42.4235,-5.0425 -62.2136,-8.3248 l 31.1068,24.9744 -5.1845,6.9375 c 5.0502,4.0563 12.6708,6.8229 14.5165,12.4872 -14.0897,3.5299 -24.22,3.5276 -35.8723,4.8829 10.964,4.6911 20.0921,10.1192 26.5403,16.623 l -37.3281,11.0997 34.2152,9.7107 c -25.7357,15.9684 -58.0819,26.0392 -88.1338,38.1572 l 88.523,-4.4691 -21.8415,26.0385 c 12.432,-2.3337 19.2011,-5.6968 38.0448,-9.7759 -11.7281,6.7972 -47.466,30.6095 -43.9317,28.6845 4.1474,-0.6938 50.1531,-9.9537 50.1531,-9.9537 0,0 -31.1068,19.4248 -26.9592,19.4248 4.1474,0 38.365,-4.8562 38.365,-4.8562 l -11.4058,18.7309 44.5864,-10.4062 -18.664,23.2901 c 11.6001,-1.3701 19.0847,-1.8485 14.9604,6.2499 41.4418,-15.4792 23.0543,-0.076 -13.0025,37.1555 23.6524,-11.0759 37.4077,-22.3054 71.2251,-34.2808 8.1507,10.6468 9.3025,25.4383 5.6208,39.734 11.1016,-10.8729 20.2375,-23.752 41.4758,-24.2808 8.5416,2.4261 6.7141,10.143 7.2583,16.6497 l 31.1067,-20.8121 v 21.5059 c 14.3579,-16.6485 26.8612,-21.0466 40.4389,-24.9746 11.2138,5.285 22.4366,11.8867 20.7297,33.89 16.593,-18.7084 34.7878,-26.7881 49.7791,-21.4026 8.9168,8.6603 11.0506,18.5791 13.4797,28.4431 2.5447,-9.3042 2.7975,-19.9077 10.369,-26.362 4.7199,6.1471 3.6718,14.2562 3.1107,22.1996 7.319,-15.1584 18.1544,-22.5421 29.0329,-29.8306 16.4266,6.0416 18.1795,16.8478 21.7749,27.0557 5.6302,-11.93 7.2205,-14.0495 20.7377,-24.9745 40.8986,0.6347 62.6605,36.8319 77.767,67.9861 -4.3766,-28.0049 -8.0289,-55.2021 -6.2213,-76.311 11.7513,-2.1997 23.5028,2.2 35.2543,8.3249 l -6.2213,-18.731 43.5496,12.4873 -19.7012,-29.137 c 66.4771,-0.9336 53.1317,4.0668 68.4353,6.9375 l -12.4429,-18.731 45.6235,14.5685 c -12.4636,-15.5004 -24.056,-24.5877 -32.5503,-38.7602 l 42.9191,-4.2516 c -18.6909,-12.4698 -27.6322,-18.9068 -44.8634,-31.5997 l 31.3839,-7.9432 -39.402,-20.8121 31.1068,-11.7935 -24.8854,-2.775 41.4756,-24.9745 -54.9554,-2.0812 66.3613,-45.0929 -76.7301,9.7124 6.2213,-32.6057 -42.5126,23.5871 20.431,-64.9555 c -35.092,27.952 -43.8002,26.7728 -85.3065,56.9246 l 12.8835,-29.2312 -44.4391,25.2678 4.1474,-23.3863 -61.1765,28.4431 6.2213,-13.1809 -18.6641,12.4872 4.1474,-17.3434 -32.1436,20.8121 2.9595,-18.1335 -15.4023,11.8898 -4.7428,-11.3937 -18.0688,7.2313 c -5.4367,-30.0619 -8.0556,-38.9919 -1.5919,-69.05386 -21.214,34.41376 -36.1941,44.41146 -72.0277,70.44136 l -11.4057,-13.1763 -14.2213,12.1839 -14.3653,-15.7489 -21.6284,18.8194 c -17.1033,-14.3372 -27.0648,-23.1215 -33.7734,-37.4586 3.3084,13.4369 5.714,22.4634 0.888,37.261 -63.138,-22.6555 -84.8764,-37.261 -84.8764,-37.261 0,0 10.1085,23.6387 14.6789,37.3303 z"
       id="path4024"
       inkscape:connector-curvature="0"
       sodipodi:nodetypes="cccccccccccccccccsccccccccccccccccccccccccccccccccccccccccccccccccccccccccccccccccccc" />
    <path
       style="color:#000000;display:inline;overflow:visible;visibility:visible;fill:#ffffff;fill-opacity:1;fill-rule:nonzero;stroke:none;stroke-width:1px;marker:none;enable-background:accumulate"
       d="m 1495.2162,1161.0088 c 45.2667,-1.3399 91.122,-12.2107 135.7051,-2.4766 l -30.5598,-34.6986 c 17.4874,-8.2093 36.1977,-1.4791 54.4929,0.1778 l -16.1244,-25.907 c 41.4303,-18.6844 80.9068,-12.0098 121.3275,-17.5923 l -30.8631,-41.9161 c -40.548,12.2593 -79.3563,33.3843 -121.8615,35.6716 l 13.7717,27.627 c -14.6613,3.6275 -29.4343,6.4581 -44.7057,5.7293 l 19.6323,32.4356 z"
       id="path4032"
       inkscape:connector-curvature="0"
       sodipodi:nodetypes="cccccccccccc" />
    <path
       style="color:#000000;display:inline;overflow:visible;visibility:visible;fill:#ffffff;fill-opacity:1;fill-rule:nonzero;stroke:none;stroke-width:1px;marker:none;enable-background:accumulate"
       d="m 1716.7283,920.23711 c -7.297,22.2136 -48.4531,24.0763 -63.6038,19.561 30.5403,24.84999 29.4756,40.28969 -11.9895,42.68699 69.5377,44.7862 12.7124,38.009 1.504,49.3655 54.6,15.4343 30.1714,34.6427 20.4507,53.7643 62.7573,0.6568 42.2197,31.3081 44.8648,55.7199 5.3203,-11.4551 30.5956,-46.3295 32.1164,-7.4992 41.5103,-37.0462 91.5084,-60.9762 95.4784,3.8548 16.7252,-32.6147 33.4002,-46.399 32.1164,-7.4992 41.4398,-50.5941 78.6792,-32.3826 116.1393,-18.0828 9.8387,-15.2705 10.9851,-38.7304 42.8156,-33.2327 -4.463,-15.1358 6.2843,-25.5401 30.5553,-31.7186 -32.2523,-9.1431 -38.1963,-18.574 21.689,-28.7231 -45.5692,-0.9817 -88.0628,-2.993 -34.6002,-37.6044 -16.7727,-0.8375 -56.5677,28.0432 -38.0137,-56.47679 -28.8416,27.05779 -59.613,41.99179 -98.2031,-14.6874 -18.2628,28.3158 -49.9392,42.32759 -63.72,6.9589 -4.9531,15.0783 -25.4913,20.749 -42.9267,21.4367 -6.7423,-5.9894 -13.6962,-14.1245 -20.9529,-24.7828 -11.8605,22.3796 -29.6025,37.49379 -63.72,6.9589 z"
       id="path3549-3-7"
       inkscape:connector-curvature="0"
       sodipodi:nodetypes="cccccccccccccccccccc" />
    <flowRoot
       xml:space="preserve"
       id="flowRoot2987-4-9-3-0"
       style="font-style:normal;font-variant:normal;font-weight:normal;font-stretch:normal;line-height:0.01%;font-family:Lavi;-inkscape-font-specification:Lavi;text-align:center;letter-spacing:0px;word-spacing:0px;text-anchor:middle;fill:#000000;fill-opacity:1;stroke:none"
       transform="matrix(1.0770452,0,0,1.2835583,1393.2088,638.66334)"><flowRegion
         id="flowRegion2989-5-4-5-1"><rect
           id="rect2991-7-9-6-4"
           width="602.40173"
           height="310.73996"
           x="120.55251"
           y="265.53046"
           style="font-style:normal;font-variant:normal;font-weight:normal;font-stretch:normal;font-family:Lavi;-inkscape-font-specification:Lavi;text-align:center;text-anchor:middle" /></flowRegion><flowPara
         style="font-size:45px;line-height:1.25;text-align:center;letter-spacing:1.5px;text-anchor:middle;stroke:#000000;stroke-width:1.10000002;stroke-miterlimit:4;stroke-dasharray:none;stroke-opacity:1"
         id="flowPara3030-8-7">i doi la karot</flowPara></flowRoot>    <flowRoot
       xml:space="preserve"
       id="flowRoot2987-4-9-3-7-8-6-6-6-0-7-2"
       style="font-style:normal;font-variant:normal;font-weight:normal;font-stretch:normal;line-height:0.01%;font-family:Lavi;-inkscape-font-specification:Lavi;text-align:center;letter-spacing:0px;word-spacing:0px;text-anchor:middle;display:inline;fill:#000000;fill-opacity:1;stroke:none"
       transform="translate(1441.5706,822.02983)"><flowRegion
         id="flowRegion2989-5-4-5-5-1-2-4-2-0-8-9"><rect
           id="rect2991-7-9-6-9-5-7-2-1-3-2-1"
           width="926.47235"
           height="193.26711"
           x="120.55251"
           y="265.53046"
           style="font-style:normal;font-variant:normal;font-weight:normal;font-stretch:normal;font-family:Lavi;-inkscape-font-specification:Lavi;text-align:center;text-anchor:middle" /></flowRegion><flowPara
         style="font-size:45px;line-height:1.25;text-align:center;text-anchor:middle"
         id="flowPara5032-7">le 7 moi cukta pe la kalsa</flowPara><flowPara
         style="font-size:45px;line-height:1.25;text-align:center;text-anchor:middle"
         id="flowPara4127">cu se cmene</flowPara><flowPara
         style="font-size:45px;line-height:1.25;text-align:center;text-anchor:middle"
         id="flowPara4244">lu tcila le te junta li'u</flowPara></flowRoot>    <path
       style="fill:#ffffff;fill-opacity:1;stroke:none"
       d="m 1312.427,2107.3463 c 41.1093,7.1531 56.9204,13.7949 49.5416,17.8825 16.8654,2.0437 23.1901,55.1807 7.3788,64.8883 -1.054,1.0222 -8.4327,4.0875 -5.2704,4.5985 3.1621,0.511 22.1356,-1.0217 25.2978,1.0219 3.1623,2.0438 -28.4601,31.1668 -24.244,32.1887 4.2166,1.0218 101.1922,-18.3936 114.8951,-13.7952 13.7031,4.5984 6.3246,16.3497 10.5411,16.8609 4.216,0.5109 43.2173,-2.5546 48.4877,-2.0439 5.2702,0.511 14.7567,15.8388 20.0272,16.3497 5.2705,0.511 29.5144,-6.6419 33.7308,-6.131 4.2165,0.511 2.1081,13.2843 7.3785,13.7948 5.2705,0.5113 28.4602,-10.7294 31.6224,-10.2185 3.1622,0.5111 14.7574,26.0579 20.0276,27.5905 5.2704,1.5329 39.001,-28.1014 42.1633,-28.6122 3.162,-0.511 23.1897,34.7436 27.406,35.2543 4.2166,0.5111 25.2981,-24.0141 28.4604,-23.5028 3.1621,0.5108 23.1897,14.817 27.406,15.8388 4.2162,1.0219 31.6224,-31.6777 35.8387,-31.6777 4.2166,0 40.0552,13.795 43.2177,16.3497 3.162,2.5548 6.324,-13.2843 10.5406,-13.2843 4.2164,0 52.7042,9.1969 53.7582,8.686 1.0538,-0.511 -7.3787,-10.2186 -4.2163,-10.2186 3.1623,0 52.7039,12.7733 54.8124,10.2186 2.1078,-2.5546 107.5161,12.7733 114.8946,10.7295 7.3788,-2.0436 -47.4336,-41.8964 -42.1636,-44.9618 5.2706,-3.0657 24.2444,0.5107 25.2984,-1.022 1.054,-1.5329 -11.5949,-8.1748 -8.433,-10.2187 3.1625,-2.0437 39.0012,-10.2184 42.1634,-12.773 3.1623,-2.5549 -15.8111,-9.1971 -11.5948,-10.7298 4.2163,-1.5329 66.4073,-11.2405 67.4614,-13.7952 1.0539,-2.5547 -31.6224,-14.8168 -27.4065,-18.3935 4.2164,-3.5765 15.8115,-5.1092 14.7573,-7.664 -1.0541,-2.5547 -21.0817,-5.6203 -20.0274,-8.1749 1.0542,-2.5547 11.5947,-15.3279 14.757,-17.3717 3.1622,-2.0436 -22.1357,-1.0218 -22.1357,-3.0656 0,-2.0436 92.7592,-56.7136 90.6509,-72.0415 -32.6765,9.7078 -144.4091,27.0796 -179.1935,22.9921 -34.7851,-4.0875 -21.0818,-29.6341 -26.3522,-31.1668 -5.2702,-1.5329 -44.2715,8.686 -49.542,5.1092 -5.2704,-3.5765 -7.3783,-10.2184 -11.5949,-10.2184 -4.2162,0 -28.4602,14.3056 -33.7304,13.7952 -5.2706,-0.5113 -54.8123,-22.9921 -62.1909,-23.5032 -7.3786,-0.5107 -35.8388,8.686 -42.1633,9.1968 -6.3245,0.5112 -11.5948,-12.2623 -16.8653,-11.2403 -5.2706,1.0218 -39.0011,10.2186 -44.2711,9.1967 -5.2706,-1.0219 -9.4869,-5.1091 -13.7036,-4.0875 -4.2159,1.0218 -23.1895,5.1094 -23.1895,5.1094 -11.6363,2.5924 -21.7873,-5.1527 -20.0276,-3.0657 3.8333,4.5461 -49.3104,17.4789 -54.8123,17.8825 -5.2703,1.0217 -50.5959,-38.8307 -47.4337,-41.8962 3.1626,-3.0656 -47.4336,42.4075 -54.8123,43.9401 -7.3784,1.5326 -29.5142,-3.0655 -31.6222,-1.5326 -2.1084,1.5326 -8.4329,9.7075 -14.7573,10.2184 -6.3245,0.5108 -21.0816,2.5546 -21.0816,2.5546 l 2.1081,3.0658 c 0,0 -44.2714,-8.1751 -49.5417,-11.2407 -5.2703,-3.0655 3.1622,13.2842 6.3244,17.3717 -18.9732,-4.0875 -74.8397,-12.7733 -79.0557,-15.328 -4.2168,-2.5546 7.3783,9.197 13.7028,12.7733 -8.4327,-1.5328 -15.8114,-2.0437 -15.8114,-2.0437 l 24.244,12.2624 -7.3787,1.022 c 0,0 15.8112,5.6202 15.8112,8.1749 0,2.5545 -41.1091,5.6201 -41.1091,5.6201 0,0 16.8654,4.5983 12.649,7.153 -4.2164,2.5546 -14.7571,4.0874 -14.7571,4.0874 l -2.1082,6.6422 z"
       id="path5888"
       inkscape:connector-curvature="0"
       sodipodi:nodetypes="cccsccscccccccccccscscsccsscsccccccscsssscccccscsccsccccsccccccsccccc" />
    <path
       style="color:#000000;display:inline;overflow:visible;visibility:visible;fill:#ffffff;fill-opacity:1;fill-rule:nonzero;stroke:none;stroke-width:1px;marker:none;enable-background:accumulate"
       d="m 1476.1891,2360.3093 c 58.7023,-40.2328 74.2517,-66.7852 83.6395,-84.5531 -18.192,-19.5453 -34.2979,-26.4643 -42.5827,-40.8563 31.517,-4.8173 59.7042,-4.3629 69.2765,1.3288 22.6858,-33.1454 -24.8003,-30.4847 -24.8003,-30.4847 0,0 -49.2813,4.066 -77.5084,12.5569 5.4898,31.6668 40.314,52.0029 45.4103,58.94 -10.9648,48.502 -45.6639,73.3026 -53.4349,83.0684 z"
       id="path5162"
       inkscape:connector-curvature="0"
       sodipodi:nodetypes="cccccccc" />
    <flowRoot
       xml:space="preserve"
       id="flowRoot2987-4-9-3-7-8-6-6-6-0-7-2-6"
       style="font-style:normal;font-variant:normal;font-weight:normal;font-stretch:normal;line-height:0.01%;font-family:Lavi;-inkscape-font-specification:Lavi;text-align:center;letter-spacing:0px;word-spacing:0px;text-anchor:middle;display:inline;fill:#000000;fill-opacity:1;stroke:none"
       transform="translate(1265.9919,1797.0962)"><flowRegion
         id="flowRegion2989-5-4-5-5-1-2-4-2-0-8-9-7"><rect
           id="rect2991-7-9-6-9-5-7-2-1-3-2-1-0"
           width="696.21313"
           height="243.84981"
           x="120.55251"
           y="265.53046"
           style="font-style:normal;font-variant:normal;font-weight:normal;font-stretch:normal;font-family:Lavi;-inkscape-font-specification:Lavi;text-align:center;text-anchor:middle" /></flowRegion><flowPara
         style="font-size:45px;line-height:1.25;text-align:center;text-anchor:middle"
         id="flowPara4135">i gau mi le laldo se fanza ba djuno le du'u le'e jarco te makfa pe la kalsa cu mo kau</flowPara></flowRoot>    <flowRoot
       xml:space="preserve"
       id="flowRoot2987-7-9-9-7-0-3-5-2-6"
       style="font-style:normal;font-variant:normal;font-weight:normal;font-stretch:normal;line-height:0.01%;font-family:Lavi;-inkscape-font-specification:Lavi;letter-spacing:0px;word-spacing:0px;fill:#000000;fill-opacity:1;stroke:#000000;stroke-width:0.99236238;stroke-miterlimit:4;stroke-dasharray:none;stroke-opacity:1;filter:url(#filter4375-4-1-7-3-7)"
       transform="matrix(0.69413547,-0.3960575,-0.18345695,1.6511803,1948.8802,2819.5754)"
       inkscape:transform-center-x="192.72092"
       inkscape:transform-center-y="-136.44814"><flowRegion
         id="flowRegion2989-4-5-8-7-41-7-68-63-1"
         style="stroke-width:5.40286207"><rect
           id="rect2991-45-1-3-3-8-0-3-6-32"
           width="319.66232"
           height="56.089447"
           x="120.55251"
           y="265.53046"
           style="font-style:normal;font-variant:normal;font-weight:normal;font-stretch:normal;font-family:Lavi;-inkscape-font-specification:Lavi;fill:#000000;fill-opacity:1;stroke:#000000;stroke-width:0.99236238;stroke-miterlimit:4;stroke-dasharray:none;stroke-opacity:1" /></flowRegion><flowPara
         id="flowPara2995-4-1-5-0-7-2-5-3-0"
         style="font-weight:normal;font-size:48px;line-height:1.25;-inkscape-font-specification:Lavi;letter-spacing:7.06853437px;fill:#ffffff;fill-opacity:1;stroke:#ffffff;stroke-width:0.99236238;stroke-linejoin:miter;stroke-miterlimit:4;stroke-dasharray:none;stroke-opacity:1">tam.</flowPara></flowRoot>    <flowRoot
       xml:space="preserve"
       id="flowRoot2987-7-9-9-7-0-3-5-2-6-5"
       style="font-style:normal;font-variant:normal;font-weight:normal;font-stretch:normal;line-height:0.01%;font-family:Lavi;-inkscape-font-specification:Lavi;letter-spacing:0px;word-spacing:0px;fill:#000000;fill-opacity:1;stroke:#000000;stroke-width:0.99236238;stroke-miterlimit:4;stroke-dasharray:none;stroke-opacity:1;filter:url(#filter4375-4-1-7-3-7-6)"
       transform="matrix(0.74738538,-0.36226504,-0.23031168,1.5278671,2226.8064,2821.3226)"
       inkscape:transform-center-x="202.28223"
       inkscape:transform-center-y="-127.60543"><flowRegion
         id="flowRegion2989-4-5-8-7-41-7-68-63-1-5"
         style="stroke-width:5.40286207"><rect
           id="rect2991-45-1-3-3-8-0-3-6-32-1"
           width="319.66232"
           height="56.089447"
           x="120.55251"
           y="265.53046"
           style="font-style:normal;font-variant:normal;font-weight:normal;font-stretch:normal;font-family:Lavi;-inkscape-font-specification:Lavi;fill:#000000;fill-opacity:1;stroke:#000000;stroke-width:0.99236238;stroke-miterlimit:4;stroke-dasharray:none;stroke-opacity:1" /></flowRegion><flowPara
         id="flowPara2995-4-1-5-0-7-2-5-3-0-4"
         style="font-weight:normal;font-size:48px;line-height:1.25;-inkscape-font-specification:Lavi;letter-spacing:7.06853437px;fill:#ffffff;fill-opacity:1;stroke:#ffffff;stroke-width:0.99236238;stroke-linejoin:miter;stroke-miterlimit:4;stroke-dasharray:none;stroke-opacity:1">tam.</flowPara></flowRoot>  </g>
</svg>
