<?xml version="1.0" encoding="UTF-8" standalone="no"?>
<!-- Created with Inkscape (http://www.inkscape.org/) -->

<svg
   xmlns:dc="http://purl.org/dc/elements/1.1/"
   xmlns:cc="http://creativecommons.org/ns#"
   xmlns:rdf="http://www.w3.org/1999/02/22-rdf-syntax-ns#"
   xmlns:svg="http://www.w3.org/2000/svg"
   xmlns="http://www.w3.org/2000/svg"
   xmlns:xlink="http://www.w3.org/1999/xlink"
   xmlns:sodipodi="http://sodipodi.sourceforge.net/DTD/sodipodi-0.dtd"
   xmlns:inkscape="http://www.inkscape.org/namespaces/inkscape"
   id="svg2"
   version="1.1"
   inkscape:version="0.92.4 (5da689c313, 2019-01-14)"
   width="2481"
   height="3503"
   sodipodi:docname="E29P02.svg">
  <metadata
     id="metadata8">
    <rdf:RDF>
      <cc:Work
         rdf:about="">
        <dc:format>image/svg+xml</dc:format>
        <dc:type
           rdf:resource="http://purl.org/dc/dcmitype/StillImage" />
        <dc:title />
      </cc:Work>
    </rdf:RDF>
  </metadata>
  <defs
     id="defs6">
    <filter
       style="color-interpolation-filters:sRGB"
       id="filter3018-3-2-2-2"
       inkscape:label="Lapping"
       inkscape:menu="Distort"
       inkscape:menu-tooltip="Something like a water noise"
       height="1.3"
       y="-0.15000001"
       width="1.3"
       x="-0.15000001">
      <feTurbulence
         id="feTurbulence3020-6-9-0-9"
         numOctaves="5"
         seed="0"
         type="fractalNoise"
         baseFrequency="0.1"
         result="result1" />
      <feGaussianBlur
         id="feGaussianBlur3022-7-1-2-3"
         stdDeviation="2"
         result="result2" />
      <feDisplacementMap
         id="feDisplacementMap3024-5-2-3-1"
         in2="result2"
         scale="50"
         yChannelSelector="B"
         xChannelSelector="R"
         in="SourceGraphic" />
    </filter>
    <filter
       style="color-interpolation-filters:sRGB"
       id="filter3018-3-2-2-2-0"
       inkscape:label="Lapping"
       inkscape:menu="Distort"
       inkscape:menu-tooltip="Something like a water noise"
       height="1.3"
       y="-0.15000001"
       width="1.3"
       x="-0.15000001">
      <feTurbulence
         id="feTurbulence3020-6-9-0-9-9"
         numOctaves="5"
         seed="0"
         type="fractalNoise"
         baseFrequency="0.1"
         result="result1" />
      <feGaussianBlur
         id="feGaussianBlur3022-7-1-2-3-3"
         stdDeviation="2"
         result="result2" />
      <feDisplacementMap
         id="feDisplacementMap3024-5-2-3-1-6"
         in2="result2"
         scale="50"
         yChannelSelector="B"
         xChannelSelector="R"
         in="SourceGraphic" />
    </filter>
    <filter
       style="color-interpolation-filters:sRGB"
       id="filter3018-3-2-2-2-0-0"
       inkscape:label="Lapping"
       inkscape:menu="Distort"
       inkscape:menu-tooltip="Something like a water noise"
       height="1.3"
       y="-0.15000001"
       width="1.3"
       x="-0.15000001">
      <feTurbulence
         id="feTurbulence3020-6-9-0-9-9-6"
         numOctaves="5"
         seed="0"
         type="fractalNoise"
         baseFrequency="0.1"
         result="result1" />
      <feGaussianBlur
         id="feGaussianBlur3022-7-1-2-3-3-2"
         stdDeviation="2"
         result="result2" />
      <feDisplacementMap
         id="feDisplacementMap3024-5-2-3-1-6-6"
         in2="result2"
         scale="50"
         yChannelSelector="B"
         xChannelSelector="R"
         in="SourceGraphic" />
    </filter>
    <filter
       style="color-interpolation-filters:sRGB"
       id="filter3018-3-2-2-2-0-0-8"
       inkscape:label="Lapping"
       inkscape:menu="Distort"
       inkscape:menu-tooltip="Something like a water noise"
       height="1.3"
       y="-0.15000001"
       width="1.3"
       x="-0.15000001">
      <feTurbulence
         id="feTurbulence3020-6-9-0-9-9-6-7"
         numOctaves="5"
         seed="0"
         type="fractalNoise"
         baseFrequency="0.1"
         result="result1" />
      <feGaussianBlur
         id="feGaussianBlur3022-7-1-2-3-3-2-9"
         stdDeviation="2"
         result="result2" />
      <feDisplacementMap
         id="feDisplacementMap3024-5-2-3-1-6-6-2"
         in2="result2"
         scale="50"
         yChannelSelector="B"
         xChannelSelector="R"
         in="SourceGraphic" />
    </filter>
    <filter
       style="color-interpolation-filters:sRGB"
       id="filter3018-3-2-2-2-0-0-8-3"
       inkscape:label="Lapping"
       inkscape:menu="Distort"
       inkscape:menu-tooltip="Something like a water noise"
       height="1.3"
       y="-0.15000001"
       width="1.3"
       x="-0.15000001">
      <feTurbulence
         id="feTurbulence3020-6-9-0-9-9-6-7-6"
         numOctaves="5"
         seed="0"
         type="fractalNoise"
         baseFrequency="0.1"
         result="result1" />
      <feGaussianBlur
         id="feGaussianBlur3022-7-1-2-3-3-2-9-7"
         stdDeviation="2"
         result="result2" />
      <feDisplacementMap
         id="feDisplacementMap3024-5-2-3-1-6-6-2-5"
         in2="result2"
         scale="50"
         yChannelSelector="B"
         xChannelSelector="R"
         in="SourceGraphic" />
    </filter>
    <filter
       style="color-interpolation-filters:sRGB"
       id="filter3018-3-2-2-2-0-0-8-3-3"
       inkscape:label="Lapping"
       inkscape:menu="Distort"
       inkscape:menu-tooltip="Something like a water noise"
       height="1.3"
       y="-0.15000001"
       width="1.3"
       x="-0.15000001">
      <feTurbulence
         id="feTurbulence3020-6-9-0-9-9-6-7-6-5"
         numOctaves="5"
         seed="0"
         type="fractalNoise"
         baseFrequency="0.1"
         result="result1" />
      <feGaussianBlur
         id="feGaussianBlur3022-7-1-2-3-3-2-9-7-6"
         stdDeviation="2"
         result="result2" />
      <feDisplacementMap
         id="feDisplacementMap3024-5-2-3-1-6-6-2-5-2"
         in2="result2"
         scale="50"
         yChannelSelector="B"
         xChannelSelector="R"
         in="SourceGraphic" />
    </filter>
    <filter
       style="color-interpolation-filters:sRGB"
       id="filter3018-3-2-2-2-0-0-9"
       inkscape:label="Lapping"
       inkscape:menu="Distort"
       inkscape:menu-tooltip="Something like a water noise"
       height="1.3"
       y="-0.15000001"
       width="1.3"
       x="-0.15000001">
      <feTurbulence
         id="feTurbulence3020-6-9-0-9-9-6-1"
         numOctaves="5"
         seed="0"
         type="fractalNoise"
         baseFrequency="0.1"
         result="result1" />
      <feGaussianBlur
         id="feGaussianBlur3022-7-1-2-3-3-2-2"
         stdDeviation="2"
         result="result2" />
      <feDisplacementMap
         id="feDisplacementMap3024-5-2-3-1-6-6-7"
         in2="result2"
         scale="50"
         yChannelSelector="B"
         xChannelSelector="R"
         in="SourceGraphic" />
    </filter>
  </defs>
  <sodipodi:namedview
     pagecolor="#ffffff"
     bordercolor="#666666"
     borderopacity="1"
     objecttolerance="10"
     gridtolerance="10"
     guidetolerance="10"
     inkscape:pageopacity="0"
     inkscape:pageshadow="2"
     inkscape:window-width="1850"
     inkscape:window-height="1016"
     id="namedview4"
     showgrid="false"
     inkscape:zoom="0.56568543"
     inkscape:cx="1224.7351"
     inkscape:cy="704.25385"
     inkscape:window-x="70"
     inkscape:window-y="27"
     inkscape:window-maximized="1"
     inkscape:current-layer="layer1"
     inkscape:snap-global="false" />
  <g
     inkscape:groupmode="layer"
     id="layer2"
     inkscape:label="artwork"
     sodipodi:insensitive="true">
    <image
       sodipodi:absref="/home/emmiline/Documents/git/webcomics/ep29_Destroyer-of-Worlds/lang/da/../gfx_Pepper-and-Carrot_by-David-Revoy_E29P02.png"
       xlink:href="../gfx_Pepper-and-Carrot_by-David-Revoy_E29P02.png"
       width="2481"
       height="3503"
       id="image10"
       x="0"
       y="0" />
  </g>
  <g
     inkscape:groupmode="layer"
     id="layer3"
     inkscape:label="speechbubbles"
     style="display:inline">
    <path
       style="fill:#0f0f0f;fill-rule:evenodd;stroke:none;stroke-width:1px;stroke-linecap:butt;stroke-linejoin:miter;stroke-opacity:1;fill-opacity:1"
       d="m 488.9121,345.00815 c 15.83997,34.15222 3.09046,31.71823 27.6126,60.42777 5.21873,6.10988 8.43941,3.94116 8.76059,-3.02201 1.43823,-4.56779 13.37218,-34.80654 18.77166,-21.56572 10.6774,26.18351 18.65996,53.7966 34.40867,77.58824 7.86136,-4.40544 5.03281,-15.37916 6.94369,-22.80834 -0.84207,-6.64725 9.75028,-18.52953 12.68566,-8.07544 8.18504,16.89427 11.36804,35.647 18.81718,52.84015 23.88604,67.34079 47.40203,134.81199 71.17857,202.1914 -30.87587,-72.46377 -61.75173,-144.92753 -92.6276,-217.3913 -0.97521,11.1719 -2.30418,23.47807 -9.80057,32.38362 -6.86048,7.46262 -16.26374,0.22456 -17.22187,-8.09298 -2.96134,-9.17345 -7.31873,-14.44764 -11.25861,-23.23507 -1.87481,-7.00924 -11.70105,-30.2524 -18.86766,-32.88191 -8.3941,0.80069 -11.06529,19.41466 -12.65272,25.32005 -0.98388,9.63821 -9.97218,8.64734 -16.1837,1.06156 -32.02398,-39.1091 -25.30976,-56.37592 -50.12072,-100.41538 8.82167,-12.6024 20.73316,-1.72224 29.55483,-14.32464 z"
       id="path1004"
       inkscape:connector-curvature="0"
       sodipodi:nodetypes="cscscccccccccccscc" />
    <path
       style="color:#000000;display:inline;overflow:visible;visibility:visible;opacity:1;fill:#0f0f0f;fill-opacity:1;fill-rule:nonzero;stroke:none;stroke-width:1.03416967px;marker:none;filter:url(#filter3018-3-2-2-2-0);enable-background:accumulate"
       d="m 554.0544,269.31883 c 12.84005,5.42704 45.97315,21.16042 45.97315,21.16042 0,0 45.31867,3.1775 49.27782,11.53423 3.95916,8.35674 10.65342,59.64239 13.92408,67.87063 0,0 -12.13274,60.06713 -11.73931,68.52257 0.39343,8.45545 -1.4198,32.83352 -3.27476,51.02421 -1.85495,18.19068 4.82313,25.48603 9.77811,46.43282 4.14934,17.54101 -16.12198,25.4211 -14.97751,44.15844 1.14447,18.73732 8.1079,47.73235 2.87248,55.8844 -10.47085,16.30412 -35.90425,14.08784 -52.7426,18.77015 -25.42763,7.07076 -20.02733,18.65735 -48.5075,18.67405 -16.69239,0.01 -20.94604,-27.74441 -43.21155,-21.32402 -22.26551,6.42039 -37.74777,25.60269 -54.85728,25.26969 -34.21904,-0.66601 -23.21538,-20.5653 -51.60241,-25.39245 -28.38702,-4.82714 -37.82737,31.25579 -53.56392,22.07233 -10.80008,-6.30266 -28.67097,-34.94411 -35.50419,-48.12983 -6.83321,-13.18573 7.96889,-53.94056 4.12684,-70.08141 -1.30943,-22.93004 10.94735,-25.15205 -5.34222,-60.22349 -8.17882,-17.609 -11.50496,-50.68698 3.99386,-53.87691 26.78278,-5.51236 -9.37168,-49.5905 -9.37168,-49.5905 -7.69628,-10.85459 -9.3352,-20.57058 -9.32862,-31.4133 0.0132,-21.68544 7.1106,-9.57197 10.69594,-22.44531 3.58535,-12.87334 1.26294,-33.35511 9.92459,-39.59984 8.66164,-6.24473 17.5364,-10.66558 32.77847,-12.46519 15.24207,-1.7996 9.01498,-17.11011 32.34158,-16.64807 11.6633,0.23102 24.42641,20.13799 38.39287,20.52502 13.96645,0.38703 18.65642,-29.6111 35.11405,-29.341 16.45763,0.2701 36.30286,19.95309 55.43968,19.83333 19.13681,-0.11976 27.38602,-10.41841 49.39003,-11.20097 z"
       id="path3986-3-7-9"
       inkscape:connector-curvature="0"
       sodipodi:nodetypes="ccsssssssssssssscsssssssssssc"
       transform="matrix(1.0376604,0,0,0.94190613,-156.40912,-41.442216)" />
    <path
       style="fill:#0f0f0f;fill-rule:evenodd;stroke:#000000;stroke-width:1px;stroke-linecap:butt;stroke-linejoin:miter;stroke-opacity:1;fill-opacity:1"
       d="m 686.8626,989.26846 c -39.9989,-66.84748 -67.206,-118.77119 -107.2049,-185.61867 -18.00515,-25.19428 -22.44383,8.78461 -28.0158,20.5724 -13.446,-17.13534 -32.60185,-46.51962 -46.95791,-62.71017 -14.99329,0.99809 -5.17855,32.81064 0.27751,43.8626 8.87253,19.6137 11.44129,17.72452 36.86709,39.41397 13.48616,12.16198 15.85284,14.47069 26.3398,5.43868 0.51669,-8.91942 2.75372,-19.96731 16.51835,-6.08556 28.8947,41.86867 72.93359,103.50263 102.17586,145.12675 z"
       id="path1019"
       inkscape:connector-curvature="0"
       sodipodi:nodetypes="ccccccccc" />
    <path
       style="color:#000000;display:inline;overflow:visible;visibility:visible;fill:#ffffff;fill-opacity:1;fill-rule:nonzero;stroke:none;stroke-width:1.04514658px;marker:none;enable-background:accumulate"
       d="m 1767.7735,3118.6078 c 7.9478,-80.4172 67.3613,-126.2138 304.821,-110.1066 127.1963,8.628 303.939,1.8494 293.7724,119.661 -10.1666,117.8115 -217.8266,113.9319 -260.7177,116.5124 -42.8912,2.5807 -266.1134,-10.6918 -304.9119,-50.9401 -24.2869,-25.1944 -33.8205,-50.2144 -32.9638,-75.1267 z"
       id="path4546-6"
       inkscape:connector-curvature="0"
       sodipodi:nodetypes="cssssc" />
    <path
       style="fill:#ffffff;fill-opacity:1;stroke:none;stroke-width:0.9288559"
       d="m 187.52293,3101.262 c -3.86077,-110.1132 63.52346,-175.2003 267.64114,-168.6656 204.11766,6.5347 252.57718,89.8521 267.26193,140.4959 14.68474,50.644 -0.2136,226.0269 -143.91022,231.9819 -141.95587,23.6655 -320.34071,7.2367 -360.69962,-31.834 -49.06293,-55.0107 -28.82478,-134.4037 -30.29323,-171.9782 z"
       id="path3238"
       inkscape:connector-curvature="0"
       sodipodi:nodetypes="cssccc" />
    <path
       style="color:#000000;display:inline;overflow:visible;visibility:visible;fill:#ffffff;fill-opacity:1;fill-rule:nonzero;stroke:none;stroke-width:0.88645953px;marker:none;enable-background:accumulate"
       d="m 528.21893,2174.2037 c 1.0434,-17.8382 7.98846,-33.0826 14.68257,-46.7698 20.11968,-38.6366 50.3617,-59.8636 80.34578,-65.021 30.84649,-5.5632 61.77311,2.4669 91.14059,15.9585 24.01521,11.7796 47.81968,30.2866 63.96186,62.3479 8.03371,16.4665 14.61436,37.3222 12.91362,59.3904 -3.18911,22.2382 -13.62314,39.3862 -23.77675,54.1444 -8.52556,12.1685 -18.75786,21.804 -29.99054,24.0887 -36.9907,16.7118 -63.77745,19.0863 -97.89861,18.9676 -25.62524,-0.6323 -56.14075,-11.6081 -79.96319,-27.9646 -13.91289,-10.3363 -25.10637,-29.5366 -31.49934,-52.1765 -3.41351,-12.2774 -3.45547,-26.7723 -0.0877,-39.4157 0.19328,-1.1553 -0.13878,-25.1289 0.17341,-3.5498 z"
       id="path3365"
       inkscape:connector-curvature="0"
       sodipodi:nodetypes="cccccccccccccc" />
    <path
       style="color:#000000;display:inline;overflow:visible;visibility:visible;fill:#ffffff;fill-opacity:1;fill-rule:nonzero;stroke:none;stroke-width:0.99999994px;marker:none;enable-background:accumulate"
       d="m 403.92926,2056.5601 c -0.9006,-30.8389 36.02389,-61.6779 97.26457,-63.8047 61.24061,-2.1268 113.4753,22.3317 118.87885,54.234 5.40362,31.9024 -54.0358,62.7413 -107.17108,63.8047 -53.13529,1.0634 -103.56879,-7.444 -108.97234,-54.234 z"
       id="path3565"
       inkscape:connector-curvature="0" />
    <path
       style="fill:#ffffff;stroke:none;stroke-width:1"
       d="m 991.94736,2179.9675 c -85.35547,-53.3438 -129.05672,-66.0231 -198.58525,18.28 -69.52862,84.303 -44.40146,-3.9533 -44.40146,-3.9533 0,0 87.01205,-167.772 242.98671,-14.3267 z"
       id="path3067"
       inkscape:connector-curvature="0"
       sodipodi:nodetypes="cccc" />
    <path
       style="display:inline;fill:#ffffff;stroke:none;stroke-width:1"
       d="m 815.88642,2982.5071 c -55.1154,-17.2597 -122.06272,-16.0175 -133.36871,49.6531 -5.22834,30.3687 -25.07,18.2714 -25.07,18.2714 l -28.18383,-31.7939 c 0,0 -8.60459,18.7717 19.4148,-16.4725 28.01939,-35.2442 84.8376,-75.3344 167.20774,-19.6581 z"
       id="path3063-1"
       inkscape:connector-curvature="0"
       sodipodi:nodetypes="cscczc" />
    <path
       style="display:inline;fill:#ffffff;stroke:none;stroke-width:1"
       d="m 1824.0017,3315.0686 c 55.6913,15.3001 128.7675,2.9909 137.7444,-63.0383 4.1512,-30.5346 2.0352,-34.0618 2.0352,-34.0618 l 14.3752,-12.7254 c 0,0 66.403,3.6416 28.4117,66.8664 -37.9913,63.2248 -91.2637,83.9959 -182.5665,42.9591 z"
       id="path3063-1-2"
       inkscape:connector-curvature="0"
       sodipodi:nodetypes="cscczc" />
    <path
       style="display:inline;fill:#0f0f0f;fill-rule:evenodd;stroke:none;stroke-width:1px;stroke-linecap:butt;stroke-linejoin:miter;stroke-opacity:1;fill-opacity:1"
       d="m 678.85763,1204.864 -114.83325,-2.027 c 3.2336,9.1321 25.20262,17.5409 17.76234,26.3466 -11.82777,0.2536 -22.66933,-4.9747 -34.54754,-5.8871 -7.65286,-0.2616 -21.21951,-6.6593 -24.97134,-2.8737 -0.71254,10.692 16.21575,29.3632 0.97144,37.0873 -3.05497,9.2333 -22.55219,13.3116 -48.63318,9.7318 -7.68526,2.7619 -30.78993,3.5108 -14.62139,9.5087 12.08285,7.2347 9.63335,34.365 24.86522,27.4847 13.65248,-4.4896 49.99529,-17.1492 62.94257,-32.2512 16.6875,-6.7134 18.84565,-18.0953 9.37378,-27.1532 6.56252,-4.5855 19.42988,0.4561 27.63811,3.7058 9.97427,2.746 22.38425,-0.904 18.96174,-13.6212 -5.01827,-6.8059 -2.07916,-7.1565 -11.96915,-21.2934 16.06046,-6.044 39.38067,-1.8471 56.10253,-5.7082 10.28332,-1.2658 20.6527,-1.9333 30.95812,-3.0499 z"
       id="path1064"
       inkscape:connector-curvature="0"
       sodipodi:nodetypes="cccccccccccccccc" />
    <path
       style="color:#000000;display:inline;overflow:visible;visibility:visible;opacity:1;fill:#0f0f0f;fill-opacity:1;fill-rule:nonzero;stroke:none;stroke-width:1.11652243px;marker:none;filter:url(#filter3018-3-2-2-2-0-0-8-3-3);enable-background:accumulate"
       d="m 617.53654,474.18102 c -5.14911,11.63206 -29.58442,27.86972 -29.58442,27.86972 0,0 18.96417,36.15852 11.03542,39.7452 -7.92873,3.58666 -46.86319,18.42251 -54.01012,21.16597 -26.59742,-1.96188 -101.94497,-1.63434 -130.65332,-1.63861 -17.77768,1.03679 -47.84669,-10.38618 -54.92746,-14.77771 -14.16154,-8.78311 -39.66191,-7.8421 -44.1044,-23.09628 -6.70864,-23.03536 11.59538,-18.73781 11.58087,-42.62737 -0.007,-14.00179 -2.97506,-20.29188 -9.06661,-40.46263 -6.09158,-20.17076 5.35022,-46.65349 5.63947,-61.00519 0.57846,-28.7034 -10.10294,-9.7223 -5.52301,-35.43864 4.57991,-25.71635 1.79388,-34.33313 9.42677,-47.67694 5.2385,-9.15794 2.78576,-26.8212 15.29617,-33.01153 12.51042,-6.19035 36.5529,0.14157 50.48583,-3.33865 20.82287,3.04432 49.88446,-5.82702 74.16336,-11.70804 20.54383,-0.94121 43.18256,6.78502 64.83203,9.70438 18.62596,2.51164 50.0428,-1.12736 55.96772,6.71939 5.92488,7.84674 12.08773,16.30497 16.49649,25.51525 5.04357,10.53645 11.56407,12.34623 11.12571,33.47822 -0.2192,10.56601 -12.92313,14.18403 -12.95582,25.90269 -0.0328,11.71864 21.57655,25.77935 21.32028,40.68863 -0.25627,14.90927 -15.63103,19.17752 -15.52701,35.22974 0.10415,16.05223 8.23955,28.82857 8.98205,48.7624 z"
       id="path3986-3-7-9-1-0"
       inkscape:connector-curvature="0"
       sodipodi:nodetypes="ccsccssssssssccasassssc"
       transform="matrix(0.95495109,0,0,0.87807244,-92.197256,948.33071)" />
    <path
       style="display:inline;opacity:1;fill:#0f0f0f;fill-opacity:1;stroke:none"
       d="m 278.18766,1416.3798 c 2.8076,36.5266 -11.3531,47.358 -7.5295,55.3048 3.8237,7.9469 15.8815,11.5559 18.34669,1.8286 2.4651,-9.7273 -8.73419,-30.033 -4.16619,-54.2007"
       id="path3060-5-7-4-8-6-3-7"
       inkscape:connector-curvature="0" />
    <path
       style="color:#000000;display:inline;overflow:visible;visibility:visible;opacity:1;fill:#0f0f0f;fill-opacity:1;fill-rule:nonzero;stroke:none;stroke-width:1.03416967px;marker:none;filter:url(#filter3018-3-2-2-2-0-0-9);enable-background:accumulate"
       d="m 532.59977,286.95358 c 11.67974,4.74935 38.1752,30.55971 38.1752,30.55971 0,0 35.75809,-25.3166 39.35947,-18.00341 3.60137,7.31318 6.04721,52.19454 9.0223,59.39526 6.79873,71.55445 -9.41706,24.06531 -8.04385,86.96588 1.04105,16.39749 9.03234,28.55468 4.27003,35.68874 -9.52464,14.26814 -32.6597,12.32861 -47.97641,16.42621 -23.1298,6.18781 -18.21752,16.32751 -44.12402,16.34213 -15.18394,0.008 -19.0532,-24.27982 -39.30664,-18.66118 -20.25345,5.61865 -34.33662,22.40555 -49.9,22.11413 -31.12676,-0.58283 -21.11746,-17.99719 -46.93924,-22.22156 -25.82177,-4.22435 -34.40902,27.35271 -48.72351,19.31604 -9.82411,-5.51561 -26.08006,-30.58044 -32.29577,-42.1196 -6.21572,-11.53915 5.59164,-33.98763 2.09678,-48.1129 12.04051,-65.46234 -15.43254,8.64896 -15.82765,-57.75378 0.0119,-18.97747 6.46803,-8.37666 9.72938,-19.64244 3.26136,-11.26578 1.14881,-29.18988 9.02773,-34.6548 7.87891,-5.46491 15.95169,-9.33371 29.81637,-10.90859 13.86469,-1.57488 8.20033,-14.97348 29.41897,-14.56915 10.60932,0.20218 22.21907,17.62326 34.92343,17.96195 12.70433,0.3387 16.97049,-25.9134 31.94089,-25.67702 14.9704,0.23637 33.02227,17.46144 50.42975,17.35664 17.40747,-0.10486 24.91123,-9.11741 44.92679,-9.80226 z"
       id="path3986-3-7-9-1"
       inkscape:connector-curvature="0"
       sodipodi:nodetypes="ccsccssssssssccsssssssc"
       transform="matrix(1.0794576,0,0,0.94190613,-133.14949,422.22093)" />
    <path
       style="display:inline;opacity:1;fill:#0f0f0f;fill-opacity:1;stroke:none"
       d="m 452.5156,880.41708 c 2.8076,36.5266 -11.3531,47.358 -7.5295,55.3048 3.8237,7.9469 15.8815,11.5559 18.3467,1.8286 2.4651,-9.7273 -8.7342,-30.033 -4.1662,-54.2007"
       id="path3060-5-7-4-8-6-3"
       inkscape:connector-curvature="0" />
    <path
       style="display:inline;opacity:1;fill:#0f0f0f;fill-opacity:1;stroke:none"
       d="m 274.38327,854.06169 c 2.8076,36.5266 -11.3531,47.358 -7.5295,55.3048 3.8237,7.9469 15.8815,11.5559 18.3467,1.8286 2.4651,-9.7273 -8.7342,-30.033 -4.1662,-54.2007"
       id="path3060-5-7-4-8-6-3-6"
       inkscape:connector-curvature="0" />
  </g>
  <g
     inkscape:groupmode="layer"
     id="layer1"
     inkscape:label="txt"
     style="display:inline">
    <flowRoot
       xml:space="preserve"
       id="flowRoot2987-4-9-3-6-6-2-8"
       style="font-style:normal;font-variant:normal;font-weight:normal;font-stretch:normal;line-height:0.01%;font-family:Lavi;-inkscape-font-specification:Lavi;text-align:center;letter-spacing:0px;word-spacing:0px;text-anchor:middle;opacity:1;fill:#000000;fill-opacity:1;stroke:none"
       transform="matrix(1.1000385,0,0,1.1857741,-127.73463,-54.966946)"><flowRegion
         id="flowRegion2989-5-4-5-0-1-8-4"><rect
           id="rect2991-7-9-6-6-8-9-5"
           width="615.85046"
           height="407.77811"
           x="120.55251"
           y="265.53046"
           style="font-style:normal;font-variant:normal;font-weight:normal;font-stretch:normal;font-family:Lavi;-inkscape-font-specification:Lavi;text-align:center;text-anchor:middle" /></flowRegion><flowPara
         style="font-style:normal;font-variant:normal;font-weight:normal;font-stretch:normal;font-size:48px;line-height:1.25;font-family:'Drukaatie burti';-inkscape-font-specification:'Drukaatie burti';text-align:center;text-anchor:middle;fill:#ffffff;fill-opacity:1"
         id="flowPara1323">En dimension</flowPara><flowPara
         style="font-style:normal;font-variant:normal;font-weight:normal;font-stretch:normal;font-size:48px;line-height:1.25;font-family:'Drukaatie burti';-inkscape-font-specification:'Drukaatie burti';text-align:center;text-anchor:middle;fill:#ffffff;fill-opacity:1"
         id="flowPara846">beboet af</flowPara><flowPara
         style="font-style:normal;font-variant:normal;font-weight:normal;font-stretch:normal;font-size:48px;line-height:1.25;font-family:'Drukaatie burti';-inkscape-font-specification:'Drukaatie burti';text-align:center;text-anchor:middle;fill:#ffffff;fill-opacity:1"
         id="flowPara95">intelligente</flowPara><flowPara
         style="font-style:normal;font-variant:normal;font-weight:normal;font-stretch:normal;font-size:48px;line-height:1.25;font-family:'Drukaatie burti';-inkscape-font-specification:'Drukaatie burti';text-align:center;text-anchor:middle;fill:#ffffff;fill-opacity:1"
         id="flowPara97">skabninger!</flowPara></flowRoot>    <flowRoot
       xml:space="preserve"
       id="flowRoot2987-4-9-3-6-6-2-8-3"
       style="font-style:normal;font-variant:normal;font-weight:normal;font-stretch:normal;line-height:0.01%;font-family:Lavi;-inkscape-font-specification:Lavi;text-align:center;letter-spacing:0px;word-spacing:0px;text-anchor:middle;opacity:1;fill:#000000;fill-opacity:1;stroke:none"
       transform="matrix(1.1000385,0,0,1.1857741,-104.10572,410.48708)"><flowRegion
         id="flowRegion2989-5-4-5-0-1-8-4-6"><rect
           id="rect2991-7-9-6-6-8-9-5-7"
           width="615.85046"
           height="407.77811"
           x="120.55251"
           y="265.53046"
           style="font-style:normal;font-variant:normal;font-weight:normal;font-stretch:normal;font-family:Lavi;-inkscape-font-specification:Lavi;text-align:center;text-anchor:middle" /></flowRegion><flowPara
         style="font-style:normal;font-variant:normal;font-weight:normal;font-stretch:normal;font-size:48px;line-height:1.25;font-family:'Drukaatie burti';-inkscape-font-specification:'Drukaatie burti';text-align:center;text-anchor:middle;fill:#ffffff;fill-opacity:1"
         id="flowPara846-6">Voks,</flowPara><flowPara
         style="font-style:normal;font-variant:normal;font-weight:normal;font-stretch:normal;font-size:48px;line-height:1.25;font-family:'Drukaatie burti';-inkscape-font-specification:'Drukaatie burti';text-align:center;text-anchor:middle;fill:#ffffff;fill-opacity:1"
         id="flowPara897">lille revne !</flowPara></flowRoot>    <flowRoot
       xml:space="preserve"
       id="flowRoot2987-4-9-3-6-6-2-8-3-2"
       style="font-style:normal;font-variant:normal;font-weight:normal;font-stretch:normal;line-height:0.01%;font-family:Lavi;-inkscape-font-specification:Lavi;text-align:center;letter-spacing:0px;word-spacing:0px;text-anchor:middle;opacity:1;fill:#000000;fill-opacity:1;stroke:none"
       transform="matrix(1.1000385,0,0,1.1857741,-114.54613,887.72834)"><flowRegion
         id="flowRegion2989-5-4-5-0-1-8-4-6-9"><rect
           id="rect2991-7-9-6-6-8-9-5-7-1"
           width="615.85046"
           height="407.77811"
           x="120.55251"
           y="265.53046"
           style="font-style:normal;font-variant:normal;font-weight:normal;font-stretch:normal;font-family:Lavi;-inkscape-font-specification:Lavi;text-align:center;text-anchor:middle" /></flowRegion><flowPara
         style="font-style:normal;font-variant:normal;font-weight:normal;font-stretch:normal;font-size:48px;line-height:1.25;font-family:'Drukaatie burti';-inkscape-font-specification:'Drukaatie burti';text-align:center;text-anchor:middle;fill:#ffffff;fill-opacity:1"
         id="flowPara846-6-2">Voks…</flowPara><flowPara
         style="font-style:normal;font-variant:normal;font-weight:normal;font-stretch:normal;font-size:48px;line-height:1.25;font-family:'Drukaatie burti';-inkscape-font-specification:'Drukaatie burti';text-align:center;text-anchor:middle;fill:#ffffff;fill-opacity:1"
         id="flowPara897-7">Muhaha</flowPara><flowPara
         style="font-style:normal;font-variant:normal;font-weight:normal;font-stretch:normal;font-size:48px;line-height:1.25;font-family:'Drukaatie burti';-inkscape-font-specification:'Drukaatie burti';text-align:center;text-anchor:middle;fill:#ffffff;fill-opacity:1"
         id="flowPara926">hahaha !</flowPara></flowRoot>    <text
       xml:space="preserve"
       style="font-style:normal;font-variant:normal;font-weight:normal;font-stretch:normal;line-height:0%;font-family:Lavi;-inkscape-font-specification:Lavi;text-align:center;letter-spacing:0px;word-spacing:0px;text-anchor:middle;fill:#000000;fill-opacity:1;stroke:none"
       x="512.44727"
       y="2061.8289"
       id="text4246"><tspan
         sodipodi:role="line"
         style="font-size:45px;line-height:1.20000005"
         x="512.44727"
         y="2061.8289"
         id="tspan4252">Pyha!</tspan></text>
    <text
       xml:space="preserve"
       style="font-style:normal;font-variant:normal;font-weight:normal;font-stretch:normal;line-height:0%;font-family:Lavi;-inkscape-font-specification:Lavi;text-align:center;letter-spacing:0px;word-spacing:0px;text-anchor:middle;fill:#000000;fill-opacity:1;stroke:none"
       x="646.62488"
       y="2149.1504"
       id="text4246-2"><tspan
         sodipodi:role="line"
         style="font-size:45px;line-height:1.20000005"
         x="646.62488"
         y="2149.1504"
         id="tspan1114">Sikke en</tspan><tspan
         sodipodi:role="line"
         style="font-size:45px;line-height:1.20000005"
         x="646.62488"
         y="2203.1504"
         id="tspan106">aften,</tspan><tspan
         sodipodi:role="line"
         style="font-size:45px;line-height:1.20000005"
         x="646.62488"
         y="2257.1504"
         id="tspan104">venner!</tspan></text>
    <text
       xml:space="preserve"
       style="font-style:normal;font-variant:normal;font-weight:normal;font-stretch:normal;line-height:0%;font-family:Lavi;-inkscape-font-specification:Lavi;text-align:center;letter-spacing:0px;word-spacing:0px;text-anchor:middle;fill:#000000;fill-opacity:1;stroke:none"
       x="453.97778"
       y="3027.9351"
       id="text4246-2-7"><tspan
         sodipodi:role="line"
         style="font-size:45px;line-height:1.20000005"
         x="453.97778"
         y="3027.9351"
         id="tspan138">Pepper, jeg har lige</tspan><tspan
         sodipodi:role="line"
         style="font-size:45px;line-height:1.20000005"
         x="453.97778"
         y="3081.9351"
         id="tspan91">talt med Safran om,</tspan><tspan
         sodipodi:role="line"
         style="font-size:45px;line-height:1.20000005"
         x="453.97778"
         y="3135.9351"
         id="tspan97">at vi ikke har en</tspan><tspan
         sodipodi:role="line"
         style="font-size:45px;line-height:1.20000005"
         x="453.97778"
         y="3189.9351"
         id="tspan140">anelse om, hvordan din</tspan><tspan
         sodipodi:role="line"
         style="font-size:45px;line-height:1.20000005"
         x="453.97778"
         y="3243.9351"
         id="tspan142">Kaosah-magi fungerer.</tspan></text>
    <text
       xml:space="preserve"
       style="font-style:normal;font-variant:normal;font-weight:normal;font-stretch:normal;line-height:0%;font-family:Lavi;-inkscape-font-specification:Lavi;text-align:center;letter-spacing:0px;word-spacing:0px;text-anchor:middle;fill:#000000;fill-opacity:1;stroke:none"
       x="2068.2693"
       y="3098.876"
       id="text4246-2-7-2"><tspan
         sodipodi:role="line"
         style="font-size:45px;line-height:1.20000005"
         x="2068.2693"
         y="3098.876"
         id="tspan1240">Det er lidt af et mysterium</tspan><tspan
         sodipodi:role="line"
         style="font-size:45px;line-height:1.20000005"
         x="2068.2693"
         y="3152.876"
         id="tspan151">for os. Kan du fortælle</tspan><tspan
         sodipodi:role="line"
         style="font-size:45px;line-height:1.20000005"
         x="2068.2693"
         y="3206.876"
         id="tspan153">mere om det?</tspan></text>
    <path
       style="display:inline;opacity:1;fill:#0f0f0f;fill-opacity:1;stroke:none"
       d="m 195.62006,569.40529 c 2.8076,36.5266 -11.3531,47.358 -7.5295,55.3048 3.8237,7.9469 15.8815,11.5559 18.3467,1.8286 2.4651,-9.7273 -8.7342,-30.033 -4.1662,-54.2007"
       id="path3060-5-7-4-8-6"
       inkscape:connector-curvature="0" />
  </g>
</svg>
