<?xml version="1.0" encoding="UTF-8" standalone="no"?>
<!-- Created With Inkscape (http://www.inkscape.org/) -->

<svg
   xmlns:dc="http://purl.org/dc/elements/1.1/"
   xmlns:cc="http://creativecommons.org/ns#"
   xmlns:rdf="http://www.w3.org/1999/02/22-rdf-syntax-ns#"
   xmlns:svg="http://www.w3.org/2000/svg"
   xmlns="http://www.w3.org/2000/svg"
   xmlns:xlink="http://www.w3.org/1999/xlink"
   xmlns:sodipodi="http://sodipodi.sourceforge.net/DTD/sodipodi-0.dtd"
   xmlns:inkscape="http://www.inkscape.org/namespaces/inkscape"
   id="svg2"
   version="1.1"
   inkscape:version="0.92.4 (5da689c313, 2019-01-14)"
   width="2646.3999"
   height="3736.5334"
   sodipodi:docname="E19P07.svg"
   viewBox="0 0 2481 3503">
  <metadata
     id="metadata8">
    <rdf:RDF>
      <cc:Work
         rdf:about="">
        <dc:format>image/svg+xml</dc:format>
        <dc:type
           rdf:resource="http://purl.org/dc/dcmitype/StillImage" />
        <dc:title />
      </cc:Work>
    </rdf:RDF>
  </metadata>
  <defs
     id="defs6">
    <linearGradient
       id="linearGradient3019-0"
       y2="333.89001"
       gradientUnits="userSpaceOnUse"
       x2="490.53"
       gradientTransform="matrix(2.0779,0,0,2.0779,-518.08,-281.8)"
       y1="489.14001"
       x1="382.34">
      <stop
         id="stop3015-93"
         style="stop-color:#000000;stop-opacity:.82639"
         offset="0" />
      <stop
         id="stop3017-6"
         style="stop-color:#000000"
         offset="1" />
    </linearGradient>
    <filter
       style="color-interpolation-filters:sRGB"
       inkscape:label="Drop Shadow"
       id="filter5558">
      <feFlood
         flood-opacity="1"
         flood-color="rgb(0,0,0)"
         result="flood"
         id="feFlood5560" />
      <feComposite
         in="flood"
         in2="SourceGraphic"
         operator="in"
         result="composite1"
         id="feComposite5562" />
      <feGaussianBlur
         in="composite1"
         stdDeviation="1"
         result="blur"
         id="feGaussianBlur5564" />
      <feOffset
         dx="2.5"
         dy="2.5"
         result="offset"
         id="feOffset5566" />
      <feComposite
         in="SourceGraphic"
         in2="offset"
         operator="over"
         result="composite2"
         id="feComposite5568" />
    </filter>
    <filter
       style="color-interpolation-filters:sRGB"
       inkscape:label="Drop Shadow"
       id="filter5546-3">
      <feFlood
         flood-opacity="1"
         flood-color="rgb(0,0,0)"
         result="flood"
         id="feFlood5548-6" />
      <feComposite
         in="flood"
         in2="SourceGraphic"
         operator="in"
         result="composite1"
         id="feComposite5550-7" />
      <feGaussianBlur
         in="composite1"
         stdDeviation="1"
         result="blur"
         id="feGaussianBlur5552-5" />
      <feOffset
         dx="2.5"
         dy="2.5"
         result="offset"
         id="feOffset5554-3" />
      <feComposite
         in="SourceGraphic"
         in2="offset"
         operator="over"
         result="composite2"
         id="feComposite5556-5" />
    </filter>
    <filter
       style="color-interpolation-filters:sRGB"
       inkscape:label="Drop Shadow"
       id="filter5522">
      <feFlood
         flood-opacity="1"
         flood-color="rgb(0,0,0)"
         result="flood"
         id="feFlood5524" />
      <feComposite
         in="flood"
         in2="SourceGraphic"
         operator="in"
         result="composite1"
         id="feComposite5526" />
      <feGaussianBlur
         in="composite1"
         stdDeviation="1"
         result="blur"
         id="feGaussianBlur5528" />
      <feOffset
         dx="2.5"
         dy="2.5"
         result="offset"
         id="feOffset5530" />
      <feComposite
         in="SourceGraphic"
         in2="offset"
         operator="over"
         result="composite2"
         id="feComposite5532" />
    </filter>
    <filter
       style="color-interpolation-filters:sRGB"
       inkscape:label="Drop Shadow"
       id="filter5534">
      <feFlood
         flood-opacity="1"
         flood-color="rgb(0,0,0)"
         result="flood"
         id="feFlood5536" />
      <feComposite
         in="flood"
         in2="SourceGraphic"
         operator="in"
         result="composite1"
         id="feComposite5538" />
      <feGaussianBlur
         in="composite1"
         stdDeviation="1"
         result="blur"
         id="feGaussianBlur5540" />
      <feOffset
         dx="2.5"
         dy="2.5"
         result="offset"
         id="feOffset5542" />
      <feComposite
         in="SourceGraphic"
         in2="offset"
         operator="over"
         result="composite2"
         id="feComposite5544" />
    </filter>
    <filter
       style="color-interpolation-filters:sRGB"
       inkscape:label="Drop Shadow"
       id="filter5558-6">
      <feFlood
         flood-opacity="1"
         flood-color="rgb(0,0,0)"
         result="flood"
         id="feFlood5560-1" />
      <feComposite
         in="flood"
         in2="SourceGraphic"
         operator="in"
         result="composite1"
         id="feComposite5562-8" />
      <feGaussianBlur
         in="composite1"
         stdDeviation="1"
         result="blur"
         id="feGaussianBlur5564-7" />
      <feOffset
         dx="2.5"
         dy="2.5"
         result="offset"
         id="feOffset5566-9" />
      <feComposite
         in="SourceGraphic"
         in2="offset"
         operator="over"
         result="composite2"
         id="feComposite5568-2" />
    </filter>
    <filter
       style="color-interpolation-filters:sRGB"
       inkscape:label="Drop Shadow"
       id="filter5546-3-0">
      <feFlood
         flood-opacity="1"
         flood-color="rgb(0,0,0)"
         result="flood"
         id="feFlood5548-6-2" />
      <feComposite
         in="flood"
         in2="SourceGraphic"
         operator="in"
         result="composite1"
         id="feComposite5550-7-3" />
      <feGaussianBlur
         in="composite1"
         stdDeviation="1"
         result="blur"
         id="feGaussianBlur5552-5-7" />
      <feOffset
         dx="2.5"
         dy="2.5"
         result="offset"
         id="feOffset5554-3-5" />
      <feComposite
         in="SourceGraphic"
         in2="offset"
         operator="over"
         result="composite2"
         id="feComposite5556-5-9" />
    </filter>
    <filter
       style="color-interpolation-filters:sRGB"
       inkscape:label="Drop Shadow"
       id="filter5522-2">
      <feFlood
         flood-opacity="1"
         flood-color="rgb(0,0,0)"
         result="flood"
         id="feFlood5524-2" />
      <feComposite
         in="flood"
         in2="SourceGraphic"
         operator="in"
         result="composite1"
         id="feComposite5526-8" />
      <feGaussianBlur
         in="composite1"
         stdDeviation="1"
         result="blur"
         id="feGaussianBlur5528-9" />
      <feOffset
         dx="2.5"
         dy="2.5"
         result="offset"
         id="feOffset5530-7" />
      <feComposite
         in="SourceGraphic"
         in2="offset"
         operator="over"
         result="composite2"
         id="feComposite5532-3" />
    </filter>
    <filter
       style="color-interpolation-filters:sRGB"
       inkscape:label="Drop Shadow"
       id="filter5534-6">
      <feFlood
         flood-opacity="1"
         flood-color="rgb(0,0,0)"
         result="flood"
         id="feFlood5536-1" />
      <feComposite
         in="flood"
         in2="SourceGraphic"
         operator="in"
         result="composite1"
         id="feComposite5538-2" />
      <feGaussianBlur
         in="composite1"
         stdDeviation="1"
         result="blur"
         id="feGaussianBlur5540-9" />
      <feOffset
         dx="2.5"
         dy="2.5"
         result="offset"
         id="feOffset5542-3" />
      <feComposite
         in="SourceGraphic"
         in2="offset"
         operator="over"
         result="composite2"
         id="feComposite5544-1" />
    </filter>
    <filter
       style="color-interpolation-filters:sRGB"
       inkscape:label="Drop Shadow"
       id="filter5558-9">
      <feFlood
         flood-opacity="1"
         flood-color="rgb(0,0,0)"
         result="flood"
         id="feFlood5560-4" />
      <feComposite
         in="flood"
         in2="SourceGraphic"
         operator="in"
         result="composite1"
         id="feComposite5562-7" />
      <feGaussianBlur
         in="composite1"
         stdDeviation="1"
         result="blur"
         id="feGaussianBlur5564-8" />
      <feOffset
         dx="2.5"
         dy="2.5"
         result="offset"
         id="feOffset5566-4" />
      <feComposite
         in="SourceGraphic"
         in2="offset"
         operator="over"
         result="composite2"
         id="feComposite5568-5" />
    </filter>
    <filter
       style="color-interpolation-filters:sRGB"
       inkscape:label="Drop Shadow"
       id="filter5546-3-03">
      <feFlood
         flood-opacity="1"
         flood-color="rgb(0,0,0)"
         result="flood"
         id="feFlood5548-6-6" />
      <feComposite
         in="flood"
         in2="SourceGraphic"
         operator="in"
         result="composite1"
         id="feComposite5550-7-1" />
      <feGaussianBlur
         in="composite1"
         stdDeviation="1"
         result="blur"
         id="feGaussianBlur5552-5-0" />
      <feOffset
         dx="2.5"
         dy="2.5"
         result="offset"
         id="feOffset5554-3-6" />
      <feComposite
         in="SourceGraphic"
         in2="offset"
         operator="over"
         result="composite2"
         id="feComposite5556-5-3" />
    </filter>
    <filter
       style="color-interpolation-filters:sRGB"
       inkscape:label="Drop Shadow"
       id="filter5522-20">
      <feFlood
         flood-opacity="1"
         flood-color="rgb(0,0,0)"
         result="flood"
         id="feFlood5524-6" />
      <feComposite
         in="flood"
         in2="SourceGraphic"
         operator="in"
         result="composite1"
         id="feComposite5526-1" />
      <feGaussianBlur
         in="composite1"
         stdDeviation="1"
         result="blur"
         id="feGaussianBlur5528-5" />
      <feOffset
         dx="2.5"
         dy="2.5"
         result="offset"
         id="feOffset5530-5" />
      <feComposite
         in="SourceGraphic"
         in2="offset"
         operator="over"
         result="composite2"
         id="feComposite5532-4" />
    </filter>
    <filter
       style="color-interpolation-filters:sRGB"
       inkscape:label="Drop Shadow"
       id="filter5534-7">
      <feFlood
         flood-opacity="1"
         flood-color="rgb(0,0,0)"
         result="flood"
         id="feFlood5536-6" />
      <feComposite
         in="flood"
         in2="SourceGraphic"
         operator="in"
         result="composite1"
         id="feComposite5538-5" />
      <feGaussianBlur
         in="composite1"
         stdDeviation="1"
         result="blur"
         id="feGaussianBlur5540-6" />
      <feOffset
         dx="2.5"
         dy="2.5"
         result="offset"
         id="feOffset5542-9" />
      <feComposite
         in="SourceGraphic"
         in2="offset"
         operator="over"
         result="composite2"
         id="feComposite5544-3" />
    </filter>
    <filter
       style="color-interpolation-filters:sRGB"
       inkscape:label="Drop Shadow"
       id="filter5558-7">
      <feFlood
         flood-opacity="1"
         flood-color="rgb(0,0,0)"
         result="flood"
         id="feFlood5560-45" />
      <feComposite
         in="flood"
         in2="SourceGraphic"
         operator="in"
         result="composite1"
         id="feComposite5562-2" />
      <feGaussianBlur
         in="composite1"
         stdDeviation="1"
         result="blur"
         id="feGaussianBlur5564-5" />
      <feOffset
         dx="2.5"
         dy="2.5"
         result="offset"
         id="feOffset5566-47" />
      <feComposite
         in="SourceGraphic"
         in2="offset"
         operator="over"
         result="composite2"
         id="feComposite5568-4" />
    </filter>
    <filter
       style="color-interpolation-filters:sRGB"
       inkscape:label="Drop Shadow"
       id="filter5546">
      <feFlood
         flood-opacity="1"
         flood-color="rgb(0,0,0)"
         result="flood"
         id="feFlood5548" />
      <feComposite
         in="flood"
         in2="SourceGraphic"
         operator="in"
         result="composite1"
         id="feComposite5550" />
      <feGaussianBlur
         in="composite1"
         stdDeviation="1"
         result="blur"
         id="feGaussianBlur5552" />
      <feOffset
         dx="2.5"
         dy="2.5"
         result="offset"
         id="feOffset5554" />
      <feComposite
         in="SourceGraphic"
         in2="offset"
         operator="over"
         result="composite2"
         id="feComposite5556" />
    </filter>
    <filter
       style="color-interpolation-filters:sRGB"
       inkscape:label="Drop Shadow"
       id="filter5546-3-4">
      <feFlood
         flood-opacity="1"
         flood-color="rgb(0,0,0)"
         result="flood"
         id="feFlood5548-6-3" />
      <feComposite
         in="flood"
         in2="SourceGraphic"
         operator="in"
         result="composite1"
         id="feComposite5550-7-0" />
      <feGaussianBlur
         in="composite1"
         stdDeviation="1"
         result="blur"
         id="feGaussianBlur5552-5-78" />
      <feOffset
         dx="2.5"
         dy="2.5"
         result="offset"
         id="feOffset5554-3-68" />
      <feComposite
         in="SourceGraphic"
         in2="offset"
         operator="over"
         result="composite2"
         id="feComposite5556-5-8" />
    </filter>
    <filter
       style="color-interpolation-filters:sRGB"
       inkscape:label="Drop Shadow"
       id="filter5522-4">
      <feFlood
         flood-opacity="1"
         flood-color="rgb(0,0,0)"
         result="flood"
         id="feFlood5524-3" />
      <feComposite
         in="flood"
         in2="SourceGraphic"
         operator="in"
         result="composite1"
         id="feComposite5526-14" />
      <feGaussianBlur
         in="composite1"
         stdDeviation="1"
         result="blur"
         id="feGaussianBlur5528-92" />
      <feOffset
         dx="2.5"
         dy="2.5"
         result="offset"
         id="feOffset5530-0" />
      <feComposite
         in="SourceGraphic"
         in2="offset"
         operator="over"
         result="composite2"
         id="feComposite5532-6" />
    </filter>
    <filter
       style="color-interpolation-filters:sRGB"
       inkscape:label="Drop Shadow"
       id="filter5534-8">
      <feFlood
         flood-opacity="1"
         flood-color="rgb(0,0,0)"
         result="flood"
         id="feFlood5536-9" />
      <feComposite
         in="flood"
         in2="SourceGraphic"
         operator="in"
         result="composite1"
         id="feComposite5538-26" />
      <feGaussianBlur
         in="composite1"
         stdDeviation="1"
         result="blur"
         id="feGaussianBlur5540-64" />
      <feOffset
         dx="2.5"
         dy="2.5"
         result="offset"
         id="feOffset5542-95" />
      <feComposite
         in="SourceGraphic"
         in2="offset"
         operator="over"
         result="composite2"
         id="feComposite5544-0" />
    </filter>
    <filter
       inkscape:collect="always"
       style="color-interpolation-filters:sRGB"
       id="filter5236-4-16-4"
       x="-0.0089085409"
       width="1.0178171"
       y="-0.027928527"
       height="1.0558571">
      <feGaussianBlur
         inkscape:collect="always"
         stdDeviation="0.49168068"
         id="feGaussianBlur5238-0-4-8" />
    </filter>
    <filter
       inkscape:collect="always"
       style="color-interpolation-filters:sRGB"
       id="filter5236-4-16"
       x="-0.0089085409"
       width="1.0178171"
       y="-0.027928527"
       height="1.0558571">
      <feGaussianBlur
         inkscape:collect="always"
         stdDeviation="0.49168068"
         id="feGaussianBlur5238-0-4" />
    </filter>
  </defs>
  <sodipodi:namedview
     pagecolor="#ffffff"
     bordercolor="#666666"
     borderopacity="1"
     objecttolerance="10"
     gridtolerance="10"
     guidetolerance="10"
     inkscape:pageopacity="0"
     inkscape:pageshadow="2"
     inkscape:window-width="1201"
     inkscape:window-height="777"
     id="namedview4"
     showgrid="false"
     inkscape:zoom="0.3652542"
     inkscape:cx="1658.6374"
     inkscape:cy="827.40875"
     inkscape:window-x="71"
     inkscape:window-y="-8"
     inkscape:window-maximized="1"
     inkscape:current-layer="layer1" />
  <g
     inkscape:groupmode="layer"
     id="layer2"
     inkscape:label="artwork"
     sodipodi:insensitive="true">
    <image
       sodipodi:absref="../gfx_Pepper-and-Carrot_by-David-Revoy_E19P07.png"
       xlink:href="../gfx_Pepper-and-Carrot_by-David-Revoy_E19P07.png"
       y="0"
       x="0"
       id="image10"
       height="3503"
       width="2481" />
  </g>
  <g
     inkscape:groupmode="layer"
     id="layer4"
     inkscape:label="translatornotes"
     sodipodi:insensitive="true">
    <path
       inkscape:connector-curvature="0"
       id="path3446"
       d="m 2741.3342,2941.3311 v -189.0352 h -203.8301 v 90.9805 h -10 v -15.6308 l -30.9824,26.9824 30.9824,26.9804 v -16.6171 h 10 v 76.3398 z"
       style="color:#000000;clip-rule:nonzero;display:inline;overflow:visible;visibility:visible;opacity:0.481;isolation:auto;mix-blend-mode:normal;color-interpolation:sRGB;color-interpolation-filters:linearRGB;solid-color:#000000;solid-opacity:1;fill:#ffe680;fill-opacity:1;fill-rule:nonzero;stroke:#565656;stroke-width:1.20000005;stroke-linecap:butt;stroke-linejoin:miter;stroke-miterlimit:4;stroke-dasharray:none;stroke-dashoffset:0;stroke-opacity:1;marker:none;color-rendering:auto;image-rendering:auto;shape-rendering:auto;text-rendering:auto;enable-background:accumulate" />
    <flowRoot
       transform="translate(2772.1456,1738.0483)"
       style="font-style:normal;font-variant:normal;font-weight:normal;font-stretch:normal;line-height:0.01%;font-family:Lavi;-inkscape-font-specification:'Lavi, Normal';text-align:center;letter-spacing:0px;word-spacing:0px;writing-mode:lr-tb;text-anchor:middle;display:inline;opacity:0.481;fill:#000000;fill-opacity:1;stroke:none;stroke-width:1px;stroke-linecap:butt;stroke-linejoin:miter;stroke-opacity:1"
       id="flowRoot3448"
       xml:space="preserve"><flowRegion
         id="flowRegion3450"><rect
           y="1061.6674"
           x="-275.14545"
           height="247.52747"
           width="291.95547"
           id="rect3452" /></flowRegion><flowPara
         id="flowPara3473"
         style="font-size:25.3241539px;line-height:1.25">Label</flowPara><flowPara
         id="flowPara4686"
         style="font-size:25.3241539px;line-height:1.25">of materials</flowPara><flowPara
         id="flowPara4688"
         style="font-size:25.3241539px;line-height:1.25">to translate</flowPara></flowRoot>  </g>
  <g
     inkscape:groupmode="layer"
     id="layer3"
     inkscape:label="speechbubbles">
    <path
       style="fill:#ffffff;stroke:none"
       d="m 1014.42,694.37504 c -7.2899,-32.61489 14.7108,-69.60607 30.5273,-81.2759 15.8165,-11.66984 44.1289,-18.88397 70.4255,-25.58105 21.784,-5.5478 118.7224,-5.35697 187.5516,-4.58633 57.6523,0.6455 119.4282,21.60973 133.4133,55.08499 13.9851,33.47516 9.834,93.24215 -7.2559,112.74939 -17.0899,19.50725 -33.8924,40.66521 -133.9631,48.368 -100.0707,7.7028 -224.0808,-4.5111 -253.5926,-43.77383 -16.637,-22.1341 -27.1061,-60.98527 -27.1061,-60.98527 z"
       id="path3286"
       inkscape:connector-curvature="0"
       sodipodi:nodetypes="csssssssc" />
    <path
       style="color:#000000;display:inline;overflow:visible;visibility:visible;fill:#ffffff;fill-opacity:1;fill-rule:nonzero;stroke:none;stroke-width:1px;marker:none;enable-background:accumulate"
       d="m 1264.2628,886.0945 c -48.0765,-27.09972 -52.9733,-81.65673 -52.1334,-99.98338 2.691,-58.70861 28.2795,-40.011 28.2795,-40.011 0,0 -19.0722,94.76375 23.8539,139.99438 z"
       id="path5002"
       inkscape:connector-curvature="0"
       sodipodi:nodetypes="cscc" />
    <path
       style="fill:#ffffff;stroke:none;stroke-width:1.00465369"
       d="m 650.65624,1075.9066 c 0.83703,-47.8529 32.64621,-83.18234 177.04296,-76.15287 144.39669,7.02947 218.112,4.07457 215.6224,69.90487 -2.354,62.2483 -96.8892,64.7041 -206.18406,67.1234 -112.6712,2.4941 -182.20039,-16.73 -186.4813,-60.8754 z"
       id="path3280"
       inkscape:connector-curvature="0"
       sodipodi:nodetypes="csssc" />
    <path
       style="color:#000000;display:inline;overflow:visible;visibility:visible;fill:#ffffff;fill-opacity:1;fill-rule:nonzero;stroke:none;stroke-width:0.94170988px;marker:none;enable-background:accumulate"
       d="m 758.12342,1197.6816 c 4.10855,-75.6565 43.26125,-82.0274 177.60118,-85.8612 142.6692,-4.0715 216.9067,8.3859 205.1405,90.8743 -2.8944,20.2922 -4.0175,38.4758 -42.2532,58.0442 -36.0746,18.4621 -118.40888,20.4566 -177.57935,19.1896 -52.1313,-1.1164 -91.76135,-6.212 -116.71231,-19.4482 -21.86897,-11.6012 -40.4785,-9.8911 -46.19682,-62.7987 z"
       id="path3365"
       inkscape:connector-curvature="0"
       sodipodi:nodetypes="csssssc" />
    <path
       style="color:#000000;display:inline;overflow:visible;visibility:visible;fill:#ffffff;fill-opacity:1;fill-rule:nonzero;stroke:none;stroke-width:1px;marker:none;enable-background:accumulate"
       d="m 1206.9658,1255.5052 c -49.4358,-22.6288 -99.2504,-39.7037 -133.061,-18.0787 -47.7942,30.5689 -24.2351,19.695 -24.2351,19.695 l 18.3095,-52.1641 c -2.8989,-3.6105 43.2218,-24.4374 138.9866,50.5478 z"
       id="path3072-1"
       inkscape:connector-curvature="0"
       sodipodi:nodetypes="csccc" />
    <path
       style="color:#000000;display:inline;overflow:visible;visibility:visible;fill:#ffffff;fill-opacity:1;fill-rule:nonzero;stroke:none;stroke-width:1.04438055px;marker:none;enable-background:accumulate"
       d="m 168.50884,1867.1469 c -11.90015,-92.2377 21.59478,-164.2934 281.97401,-161.5922 293.22153,3.0421 323.53242,22.1892 339.77987,116.7619 7.37467,42.9262 15.16338,87.5621 -212.33037,113.223 -227.49399,25.6606 -402.42472,-10.967 -409.42351,-68.3927 z"
       id="path3525-7"
       inkscape:connector-curvature="0"
       sodipodi:nodetypes="csssc" />
    <path
       style="color:#000000;display:inline;overflow:visible;visibility:visible;fill:#ffffff;fill-opacity:1;fill-rule:nonzero;stroke:none;stroke-width:0.7921434px;marker:none;enable-background:accumulate"
       d="m 294.17747,1992.3815 c -5.92753,-24.4215 9.87918,-89.2908 131.39386,-83.9486 121.51457,5.3421 141.27314,35.8689 144.23685,45.0269 2.96382,9.158 28.64981,61.0536 -66.19085,74.7906 -94.84075,13.7371 -179.80211,-0.7632 -209.43986,-35.8689 z"
       id="path3525"
       inkscape:connector-curvature="0" />
    <path
       style="color:#000000;display:inline;overflow:visible;visibility:visible;fill:#ffffff;fill-opacity:1;fill-rule:nonzero;stroke:none;stroke-width:1px;marker:none;enable-background:accumulate"
       d="m 261.53886,2066.6402 c -0.85436,-27.6519 14.52442,-46.4553 23.06822,-55.3039 8.54392,-8.8486 62.36996,-28.758 82.02077,-28.758 19.65076,0 105.39053,12.8028 119.91505,32.7123 14.52451,19.9093 23.25902,38.3864 13.86092,71.5688 -9.39827,33.1823 -62.86229,38.403 -75.67803,41.7211 -12.81577,3.3183 -49.55421,5.5305 -61.51559,4.4244 -11.96129,-1.1061 -104.23445,-21.0155 -101.67134,-66.3647 z"
       id="path3357-2"
       inkscape:connector-curvature="0"
       sodipodi:nodetypes="cssssssc" />
    <path
       style="color:#000000;display:inline;overflow:visible;visibility:visible;fill:#ffffff;fill-opacity:1;fill-rule:nonzero;stroke:none;stroke-width:1px;marker:none;enable-background:accumulate"
       d="m 302.39818,2125.5045 c -0.76339,-27.6519 12.97774,-46.4553 20.61173,-55.3039 7.63406,-8.8486 55.72825,-28.758 73.28648,-28.758 17.55815,0 72.10176,17.7063 98.15564,35.1641 19.74317,13.2291 44.53175,24.097 24.6437,51.9547 -19.02176,26.6442 -59.43717,55.5653 -70.88819,58.8834 -11.45103,3.3183 -44.27723,5.5305 -54.96487,4.4244 -10.68755,-1.1061 -93.13466,-21.0155 -90.84449,-66.3647 z"
       id="path3357-7"
       inkscape:connector-curvature="0"
       sodipodi:nodetypes="cssssssc" />
    <path
       style="color:#000000;display:inline;overflow:visible;visibility:visible;fill:#ffffff;fill-opacity:1;fill-rule:nonzero;stroke:none;stroke-width:1px;marker:none;enable-background:accumulate"
       d="m 206.31963,2193.8136 c -1.37345,-27.6519 35.58807,-50.5351 110.51936,-55.3039 16.30534,-1.0377 100.26281,-28.758 131.85248,-28.758 31.58954,0 218.37789,8.723 241.72676,28.6325 23.34886,19.9093 37.39003,34.3066 22.28211,67.489 -15.10817,33.1823 -150.01161,46.5626 -170.61357,49.8807 -20.60196,3.3183 -79.66083,5.5305 -98.88935,4.4244 -19.22838,-1.1061 -240.99813,-21.0155 -236.87779,-66.3647 z"
       id="path3357"
       inkscape:connector-curvature="0"
       sodipodi:nodetypes="cssssssc" />
    <path
       style="color:#000000;display:inline;overflow:visible;visibility:visible;fill:#ffffff;fill-opacity:1;fill-rule:nonzero;stroke:none;stroke-width:1px;marker:none;enable-background:accumulate"
       d="M 785.72784,2451.8371 C 637.80461,2397.796 596.87206,2290.9484 728.9578,2301.8414 c -57.57748,-33.2547 -34.64665,-58.5633 52.40374,-70.4004 -88.76216,3.0003 -135.47168,-40.0273 -115.04473,-61.7507 -33.73004,0.5115 -53.17923,-8.9675 -59.88666,-27.3613 -28.37411,21.3808 -50.23945,23.9363 -55.8401,-20.5488 -14.44171,32.3149 -38.92838,37.4552 -98.82994,-6.7666 -6.33866,11.8102 47.46665,46.5427 -129.12071,18.4034 50.33385,25.336 80.22303,73.4544 -52.00732,90.9673 44.87734,12.404 53.19534,29.6833 -21.64831,48.62 116.0779,-4.8011 57.91813,36.8217 44.11601,46.8266 61.66018,-17.3893 94.54335,-13.9181 88.47287,16.0671 115.0512,-41.6749 108.02264,-9.99 103.45928,3.1665 47.48426,-32.6454 96.15141,-30.4489 95.21072,-3.3556 82.64308,-54.3544 -26.54582,47.5446 205.48519,116.1282 z"
       id="path3549-3-78"
       inkscape:connector-curvature="0"
       sodipodi:nodetypes="ccccccccccccccc" />
  </g>
  <g
     inkscape:groupmode="layer"
     id="layer1"
     inkscape:label="txt">
    <text
       xml:space="preserve"
       style="font-style:normal;font-variant:normal;font-weight:normal;font-stretch:normal;line-height:0%;font-family:Lavi;-inkscape-font-specification:Lavi;text-align:center;letter-spacing:0px;word-spacing:0px;text-anchor:middle;fill:#000000;fill-opacity:1;stroke:none"
       x="1231.3203"
       y="645.97186"
       id="text4246-70-2-2-2-7-6-3-7"><tspan
         sodipodi:role="line"
         style="font-size:42.72212219px;line-height:1.25"
         x="1231.3203"
         y="645.97186"
         id="tspan9461">.i pu ta'e</tspan><tspan
         sodipodi:role="line"
         style="font-size:42.72212219px;line-height:1.25"
         x="1231.3203"
         y="699.37451"
         id="tspan183">sanga ma</tspan><tspan
         sodipodi:role="line"
         style="font-size:42.72212219px;line-height:1.25"
         x="1231.3203"
         y="752.77716"
         id="tspan4173-5">i ka ka ka kalsa</tspan><tspan
         sodipodi:role="line"
         style="font-size:42.72212219px;line-height:1.25"
         x="1237.9956"
         y="806.17981"
         id="tspan4211"> </tspan></text>
    <text
       xml:space="preserve"
       style="font-style:normal;font-variant:normal;font-weight:normal;font-stretch:normal;line-height:0%;font-family:Lavi;-inkscape-font-specification:Lavi;text-align:center;letter-spacing:0px;word-spacing:0px;text-anchor:middle;fill:#000000;fill-opacity:1;stroke:none"
       x="844.52161"
       y="1055.9192"
       id="text4246-70-2-2-2-7-6"><tspan
         sodipodi:role="line"
         style="font-size:38.06726837px;line-height:1.25"
         x="844.52161"
         y="1055.9192"
         id="tspan9465">i u'i mi ze'u na ku</tspan><tspan
         sodipodi:role="line"
         style="font-size:38.06726837px;line-height:1.25"
         x="844.52161"
         y="1103.5033"
         id="tspan9469">morji fi le valsi</tspan></text>
    <text
       xml:space="preserve"
       style="font-style:normal;font-variant:normal;font-weight:normal;font-stretch:normal;line-height:0%;font-family:Lavi;-inkscape-font-specification:Lavi;text-align:center;letter-spacing:0px;word-spacing:0px;text-anchor:middle;fill:#000000;fill-opacity:1;stroke:none"
       x="947.77765"
       y="1160.6504"
       id="text4246-70-2-2-2-7-6-3"><tspan
         sodipodi:role="line"
         style="font-size:38.06726837px;line-height:1.25"
         x="947.77765"
         y="1160.6504"
         id="tspan4304">i ju'o cu'i</tspan><tspan
         sodipodi:role="line"
         style="font-size:38.06726837px;line-height:1.25"
         x="947.77765"
         y="1208.2345"
         id="tspan9476">le cukta be le valsi</tspan><tspan
         sodipodi:role="line"
         style="font-size:38.06726837px;line-height:1.25"
         x="947.77765"
         y="1255.8186"
         id="tspan9478">ti zvati</tspan></text>
    <text
       xml:space="preserve"
       style="font-style:normal;font-variant:normal;font-weight:normal;font-stretch:normal;line-height:0%;font-family:Lavi;-inkscape-font-specification:Lavi;text-align:center;letter-spacing:0px;word-spacing:0px;text-anchor:middle;fill:#000000;fill-opacity:1;stroke:none"
       x="473.8335"
       y="1771.0748"
       id="text4246-3-3-6"><tspan
         sodipodi:role="line"
         style="font-size:45px;line-height:1.25"
         x="473.8335"
         y="1771.0748"
         id="tspan9482">i ja'o mi'o ca simxu</tspan><tspan
         sodipodi:role="line"
         style="font-size:45px;line-height:1.25"
         x="473.8335"
         y="1827.3248"
         id="tspan187">le ka tugni i ca'e co'a javni</tspan><tspan
         sodipodi:role="line"
         style="font-size:45px;line-height:1.25"
         x="473.8335"
         y="1883.5748"
         id="tspan9490">fi le te makfa pe la kalsa</tspan></text>
    <text
       xml:space="preserve"
       style="font-style:normal;font-variant:normal;font-weight:normal;font-stretch:normal;line-height:0%;font-family:Lavi;-inkscape-font-specification:Lavi;text-align:center;letter-spacing:0px;word-spacing:0px;text-anchor:middle;fill:#000000;fill-opacity:1;stroke:none"
       x="438.5726"
       y="1992.1729"
       id="text4246-3-3-6-9"><tspan
         sodipodi:role="line"
         style="font-size:45px;line-height:1.25"
         x="438.5726"
         y="1992.1729"
         id="tspan4284">fe le du'u</tspan></text>
    <text
       xml:space="preserve"
       style="font-style:normal;font-variant:normal;font-weight:normal;font-stretch:normal;line-height:0%;font-family:Lavi;-inkscape-font-specification:Lavi;text-align:center;letter-spacing:0px;word-spacing:0px;text-anchor:middle;fill:#000000;fill-opacity:1;stroke:none"
       x="381.44696"
       y="2067.9089"
       id="text4246-3-3-6-9-7"><tspan
         sodipodi:role="line"
         style="font-size:45px;line-height:1.25;stroke:#000000;stroke-width:1.20000005;stroke-miterlimit:4;stroke-dasharray:none;stroke-opacity:1"
         x="389.35712"
         y="2067.9089"
         id="tspan4284-0">gau mi'o </tspan></text>
    <text
       xml:space="preserve"
       style="font-style:normal;font-variant:normal;font-weight:normal;font-stretch:normal;line-height:0%;font-family:Lavi;-inkscape-font-specification:Lavi;text-align:center;letter-spacing:0px;word-spacing:0px;text-anchor:middle;fill:#000000;fill-opacity:1;stroke:none"
       x="412.08777"
       y="2136.5938"
       id="text4246-3-3-6-9-7-9"><tspan
         sodipodi:role="line"
         style="font-size:45px;line-height:1.25;stroke:#000000;stroke-width:1.20000005;stroke-miterlimit:4;stroke-dasharray:none;stroke-opacity:1"
         x="412.08777"
         y="2136.5938"
         id="tspan4284-0-3">ro festi</tspan></text>
    <text
       xml:space="preserve"
       style="font-style:normal;font-variant:normal;font-weight:normal;font-stretch:normal;line-height:0%;font-family:Lavi;-inkscape-font-specification:Lavi;text-align:center;letter-spacing:0px;word-spacing:0px;text-anchor:middle;fill:#000000;fill-opacity:1;stroke:none"
       x="464.02319"
       y="2199.7627"
       id="text4246-3-3-6-9-7-9-6"><tspan
         sodipodi:role="line"
         style="font-size:45px;line-height:1.25;stroke:#000000;stroke-width:1.20000005;stroke-miterlimit:4;stroke-dasharray:none;stroke-opacity:1"
         x="464.02319"
         y="2199.7627"
         id="tspan4284-0-3-0">cu cnici gi'e se daspo</tspan></text>
    <text
       xml:space="preserve"
       style="font-style:normal;font-variant:normal;font-weight:normal;font-stretch:normal;line-height:0%;font-family:Lavi;-inkscape-font-specification:Lavi;text-align:center;letter-spacing:0px;word-spacing:0px;text-anchor:middle;fill:#000000;fill-opacity:1;stroke:none"
       x="535.41351"
       y="2170.8594"
       id="text4246-3-3-6-9-7-9-6-6"
       transform="scale(0.95137096,1.0511147)"><tspan
         sodipodi:role="line"
         style="font-size:53.19481277px;line-height:1.25;stroke:#000000;stroke-width:2.24600315;stroke-miterlimit:4;stroke-dasharray:none;stroke-opacity:1"
         x="535.41351"
         y="2170.8594"
         id="tspan4284-0-3-0-2">i ba'e ro festi</tspan></text>
    <text
       id="text4178-6-5-9-0-7-0-4"
       style="font-style:normal;font-variant:normal;font-weight:normal;font-stretch:normal;line-height:0%;font-family:Lavi;-inkscape-font-specification:Lavi;text-align:center;letter-spacing:0px;word-spacing:0px;text-anchor:middle;opacity:0.63300003;fill:#ffffff;fill-opacity:1;stroke:none;filter:url(#filter5236-4-16)"
       xml:space="preserve"
       y="3129.8394"
       x="1318.7137"
       transform="matrix(0.7789993,0.22056585,-0.41432955,0.84306289,2185.9622,-7.9472473)"><tspan
         y="3129.8394"
         x="1318.7137"
         style="font-style:normal;font-variant:normal;font-weight:normal;font-stretch:normal;font-size:40.67671585px;line-height:1.25;font-family:Fondamento;-inkscape-font-specification:Fondamento;fill:#ffffff;fill-opacity:1"
         sodipodi:role="line"
         id="tspan4293-1-6-3-5-0-2">blaci</tspan></text>
    <text
       id="text4178-6-5-9-0-7-0-4-7"
       style="font-style:normal;font-variant:normal;font-weight:normal;font-stretch:normal;line-height:0%;font-family:Lavi;-inkscape-font-specification:Lavi;text-align:center;letter-spacing:0px;word-spacing:0px;text-anchor:middle;opacity:0.63300003;fill:#ffffff;fill-opacity:1;stroke:none;filter:url(#filter5236-4-16-4)"
       xml:space="preserve"
       y="3129.8394"
       x="1318.7137"
       transform="matrix(0.68751926,0.00310904,0.11179281,0.7439472,890.21837,525.37583)"><tspan
         y="3129.8394"
         x="1318.7137"
         style="font-style:normal;font-variant:normal;font-weight:normal;font-stretch:normal;font-size:40.67671585px;line-height:1.25;font-family:Fondamento;-inkscape-font-specification:Fondamento;fill:#ffffff;fill-opacity:1"
         sodipodi:role="line"
         id="tspan4293-1-6-3-5-0-2-1">jinme</tspan></text>
    <text
       xml:space="preserve"
       style="font-style:normal;font-variant:normal;font-weight:normal;font-stretch:normal;line-height:0%;font-family:Lavi;-inkscape-font-specification:Lavi;text-align:center;letter-spacing:0px;word-spacing:0px;text-anchor:middle;opacity:1;fill:#ffffff;fill-opacity:1;stroke:#ffffff;stroke-width:3.82200003;stroke-miterlimit:4;stroke-dasharray:none;stroke-opacity:1;filter:url(#filter5534-8)"
       x="2028.7821"
       y="2443.6147"
       id="text4213"
       transform="matrix(0.75304346,0,-0.11971288,1.3279446,3e-5,-58.841722)"><tspan
         sodipodi:role="line"
         id="tspan4215"
         x="2028.7821"
         y="2443.6147"
         style="font-size:63.55184174px;line-height:1.25;fill:#ffffff;stroke:#ffffff;stroke-width:3.82200003;stroke-miterlimit:4;stroke-dasharray:none">i fanmo</tspan></text>
    <text
       xml:space="preserve"
       style="font-style:normal;font-variant:normal;font-weight:normal;font-stretch:normal;line-height:0%;font-family:Lavi;-inkscape-font-specification:Lavi;text-align:center;letter-spacing:0px;word-spacing:0px;text-anchor:middle;fill:#ffffff;fill-opacity:1;stroke:#ffffff;filter:url(#filter5522-4)"
       x="1240.0964"
       y="3228.6868"
       id="text4246-42"><tspan
         sodipodi:role="line"
         style="font-size:36.73472214px;line-height:1.25;fill:#ffffff;stroke:#ffffff"
         x="1240.0964"
         y="3228.6868"
         id="tspan4252-9">i de'i li nanca bu 2016 masti bu 9 i zoi zoi.www.peppercarrot.com.zoi. judri i finti fa la'o gy.David Revoy.gy. i la gleki cu fanva</tspan></text>
    <text
       xml:space="preserve"
       style="color:#000000;font-style:normal;font-variant:normal;font-weight:normal;font-stretch:normal;line-height:0%;font-family:Lavi;-inkscape-font-specification:Lavi;text-indent:0;text-align:center;text-decoration:none;text-decoration-line:none;letter-spacing:0px;word-spacing:0px;text-transform:none;writing-mode:lr-tb;direction:ltr;baseline-shift:baseline;text-anchor:middle;display:inline;overflow:visible;visibility:visible;opacity:0.85500004;fill:#ffffff;fill-opacity:1;fill-rule:nonzero;stroke:#ffffff;filter:url(#filter5546-3-4);enable-background:accumulate"
       x="1242.8344"
       y="3273.4661"
       id="text4246-42-4-6"><tspan
         sodipodi:role="line"
         style="color:#000000;font-style:normal;font-variant:normal;font-weight:normal;font-stretch:normal;font-size:27.5px;line-height:125%;font-family:Lavi;-inkscape-font-specification:Lavi;text-indent:0;text-align:center;text-decoration:none;text-decoration-line:none;letter-spacing:0px;word-spacing:0px;text-transform:none;writing-mode:lr-tb;direction:ltr;baseline-shift:baseline;text-anchor:middle;display:inline;overflow:visible;visibility:visible;fill:#ffffff;fill-opacity:1;fill-rule:nonzero;stroke:#ffffff;enable-background:accumulate"
         x="1242.8344"
         y="3273.4661"
         id="tspan10713">i cikre le se lisri fa la'o gy.Craig Maloney.gy. i sidju fi tu'a le nu tavla vau fa la'o fy.Valvin.fy. e la'o gy.Seblediacre.gy. e la'o gy.Alex Gryson.gy.</tspan><tspan
         sodipodi:role="line"
         style="color:#000000;font-style:normal;font-variant:normal;font-weight:normal;font-stretch:normal;font-size:27.5px;line-height:125%;font-family:Lavi;-inkscape-font-specification:Lavi;text-indent:0;text-align:center;text-decoration:none;text-decoration-line:none;letter-spacing:0px;word-spacing:0px;text-transform:none;writing-mode:lr-tb;direction:ltr;baseline-shift:baseline;text-anchor:middle;display:inline;overflow:visible;visibility:visible;fill:#ffffff;fill-opacity:1;fill-rule:nonzero;stroke:#ffffff;enable-background:accumulate"
         x="1247.6683"
         y="3307.8411"
         id="tspan10717">i finti fo la'e lu le cukta be le sivni li'u to i la'e bu se finti la'o sy.Juan José Segura.sy. toi </tspan></text>
    <text
       xml:space="preserve"
       style="color:#000000;font-style:normal;font-variant:normal;font-weight:normal;font-stretch:normal;line-height:0%;font-family:Lavi;-inkscape-font-specification:Lavi;text-indent:0;text-align:center;text-decoration:none;text-decoration-line:none;letter-spacing:0px;word-spacing:0px;text-transform:none;writing-mode:lr-tb;direction:ltr;baseline-shift:baseline;text-anchor:middle;display:inline;overflow:visible;visibility:visible;opacity:0.85500004;fill:#ffffff;fill-opacity:1;fill-rule:nonzero;stroke:#ffffff;filter:url(#filter5546);enable-background:accumulate"
       x="1242.353"
       y="3350.7795"
       id="text4246-42-4"><tspan
         sodipodi:role="line"
         style="color:#000000;font-style:normal;font-variant:normal;font-weight:normal;font-stretch:normal;font-size:27.5px;line-height:125%;font-family:Lavi;-inkscape-font-specification:Lavi;text-indent:0;text-align:center;text-decoration:none;text-decoration-line:none;letter-spacing:0px;word-spacing:0px;text-transform:none;writing-mode:lr-tb;direction:ltr;baseline-shift:baseline;text-anchor:middle;display:inline;overflow:visible;visibility:visible;fill:#ffffff;fill-opacity:1;fill-rule:nonzero;stroke:#ffffff;enable-background:accumulate"
         x="1242.353"
         y="3350.7795"
         id="tspan4252-9-9">i skicu la .erevas. i ri munje gi'e se finti la'o gy.David Revoy.gy. i la'o gy.Willem Sonke.gy. e la'o gy.Moini.gy. e la'o gy.Hali.gy. e la'o gy.CGand.gy. e la'o gy.Alex Gryson.gy. sidju</tspan></text>
    <text
       xml:space="preserve"
       style="font-style:normal;font-variant:normal;font-weight:normal;font-stretch:normal;line-height:0%;font-family:Arial;-inkscape-font-specification:Arial;text-align:center;letter-spacing:0px;word-spacing:0px;text-anchor:middle;display:inline;opacity:0.85500004;fill:#ffffff;fill-opacity:1;stroke:#ffffff;filter:url(#filter5558-7)"
       x="1240.6473"
       y="3388.5505"
       id="text4229"><tspan
         sodipodi:role="line"
         x="1240.6473"
         y="3388.5505"
         style="font-style:normal;font-variant:normal;font-weight:normal;font-stretch:normal;font-size:27.5px;line-height:1.25;font-family:Lavi;-inkscape-font-specification:Lavi;fill:#ffffff;stroke:#ffffff"
         id="tspan4169">i jaspu fa la'o gy.Creative Commons Attribution 4.0.gy. i proga fa la'o gy.Krita 3.0.1.gy. e la'o gy.Inkscape 0.91.gy. joi bo la'o gy.Arch Linux XFCE.gy.</tspan></text>
    <text
       xml:space="preserve"
       style="font-style:normal;font-weight:normal;line-height:0%;font-family:sans-serif;letter-spacing:0px;word-spacing:0px;fill:#000000;fill-opacity:1;stroke:none;stroke-width:1px;stroke-linecap:butt;stroke-linejoin:miter;stroke-opacity:1"
       x="2143.7124"
       y="2859.6125"
       id="text9440"><tspan
         sodipodi:role="line"
         id="tspan9442"
         x="2143.7124"
         y="2859.6125"
         style="font-size:40px;line-height:1.25;font-family:sans-serif"> </tspan></text>
  </g>
</svg>
