<?xml version="1.0" encoding="UTF-8" standalone="no"?>
<!-- Created with Inkscape (http://www.inkscape.org/) -->

<svg
   xmlns:dc="http://purl.org/dc/elements/1.1/"
   xmlns:cc="http://creativecommons.org/ns#"
   xmlns:rdf="http://www.w3.org/1999/02/22-rdf-syntax-ns#"
   xmlns:svg="http://www.w3.org/2000/svg"
   xmlns="http://www.w3.org/2000/svg"
   xmlns:xlink="http://www.w3.org/1999/xlink"
   xmlns:sodipodi="http://sodipodi.sourceforge.net/DTD/sodipodi-0.dtd"
   xmlns:inkscape="http://www.inkscape.org/namespaces/inkscape"
   id="svg2"
   version="1.1"
   inkscape:version="0.92.3 (2405546, 2018-03-11)"
   width="2481"
   height="3503"
   sodipodi:docname="E02P04.svg">
  <metadata
     id="metadata8">
    <rdf:RDF>
      <cc:Work
         rdf:about="">
        <dc:format>image/svg+xml</dc:format>
        <dc:type
           rdf:resource="http://purl.org/dc/dcmitype/StillImage" />
        <dc:title />
      </cc:Work>
    </rdf:RDF>
  </metadata>
  <defs
     id="defs6" />
  <sodipodi:namedview
     pagecolor="#ffffff"
     bordercolor="#666666"
     borderopacity="1"
     objecttolerance="10"
     gridtolerance="10"
     guidetolerance="10"
     inkscape:pageopacity="0"
     inkscape:pageshadow="2"
     inkscape:window-width="1366"
     inkscape:window-height="715"
     id="namedview4"
     showgrid="false"
     inkscape:zoom="0.36213234"
     inkscape:cx="1464.4267"
     inkscape:cy="1952.3254"
     inkscape:window-x="-8"
     inkscape:window-y="-8"
     inkscape:window-maximized="1"
     inkscape:current-layer="layer1" />
  <g
     inkscape:groupmode="layer"
     id="layer2"
     inkscape:label="artwork"
     sodipodi:insensitive="true">
    <image
       sodipodi:absref="G:\Aslan's Works &amp; Design Projects\2. Personal Projects\3. Translation Projects\1. Pepper &amp; Carrot Translation Project\Episode 2\lang\fa\../gfx_Pepper-and-Carrot_by-David-Revoy_E02P04.png"
       xlink:href="../gfx_Pepper-and-Carrot_by-David-Revoy_E02P04.png"
       x="-1.6728083e-06"
       id="image10"
       height="3503"
       width="2481" />
  </g>
  <g
     inkscape:groupmode="layer"
     id="layer1"
     inkscape:label="text"
     style="opacity:1">
    <flowRoot
       xml:space="preserve"
       id="flowRoot3063-8"
       style="color:#000000;font-style:normal;font-variant:normal;font-weight:normal;font-stretch:normal;line-height:0.01%;font-family:Arial;-inkscape-font-specification:Arial;letter-spacing:0px;word-spacing:0px;display:inline;overflow:visible;visibility:visible;opacity:1;fill:#fe5c56;fill-opacity:1;fill-rule:nonzero;stroke:none;stroke-width:4.3819828;stroke-opacity:1;marker:none;enable-background:accumulate"
       transform="matrix(1.6482809,0,0,1.9696972,439.64581,685.73408)"><flowRegion
         id="flowRegion3065-8"
         style="stroke-width:4.3819828"><rect
           id="rect3067-6"
           width="243.45389"
           height="156.66579"
           x="92.642677"
           y="425.30325"
           style="color:#000000;font-size:72px;display:inline;overflow:visible;visibility:visible;fill:#fe5c56;fill-opacity:1;fill-rule:nonzero;stroke:none;stroke-width:4.3819828;stroke-opacity:1;marker:none;enable-background:accumulate" /></flowRegion><flowPara
         style="color:#000000;font-style:normal;font-variant:normal;font-weight:normal;font-stretch:normal;font-size:71.03863525px;line-height:1.25;font-family:'XP Vosta';-inkscape-font-specification:'XP Vosta';text-align:center;text-anchor:middle;display:inline;overflow:visible;visibility:visible;fill:#fe5c56;fill-opacity:1;fill-rule:nonzero;stroke:none;stroke-width:3.45422935;stroke-miterlimit:4;stroke-dasharray:none;stroke-opacity:1;marker:none;enable-background:accumulate"
         id="flowPara3188">قلپ</flowPara></flowRoot>    <flowRoot
       xml:space="preserve"
       id="flowRoot3063-8-9"
       style="color:#000000;font-style:normal;font-variant:normal;font-weight:normal;font-stretch:normal;line-height:0.01%;font-family:Arial;-inkscape-font-specification:Arial;letter-spacing:0px;word-spacing:0px;display:inline;overflow:visible;visibility:visible;opacity:1;fill:#8fc9ff;fill-opacity:1;fill-rule:nonzero;stroke:none;stroke-width:4.3819828;stroke-opacity:1;marker:none;enable-background:accumulate"
       transform="matrix(1.6482809,0,0,1.9696972,1318.7872,543.47733)"><flowRegion
         id="flowRegion3065-8-50"
         style="stroke-width:4.3819828"><rect
           id="rect3067-6-4"
           width="243.45389"
           height="156.66579"
           x="92.642677"
           y="425.30325"
           style="color:#000000;font-size:72px;display:inline;overflow:visible;visibility:visible;fill:#8fc9ff;fill-opacity:1;fill-rule:nonzero;stroke:none;stroke-width:4.3819828;stroke-opacity:1;marker:none;enable-background:accumulate" /></flowRegion><flowPara
         style="color:#000000;font-style:normal;font-variant:normal;font-weight:normal;font-stretch:normal;font-size:71.03863743px;line-height:1.25;font-family:'XP Vosta';-inkscape-font-specification:'XP Vosta';text-align:center;text-anchor:middle;display:inline;overflow:visible;visibility:visible;fill:#8fc9ff;fill-opacity:1;fill-rule:nonzero;stroke:none;stroke-width:3.45422935;stroke-miterlimit:4;stroke-dasharray:none;stroke-opacity:1;marker:none;enable-background:accumulate"
         id="flowPara3188-49">قلپ</flowPara></flowRoot>    <flowRoot
       xml:space="preserve"
       id="flowRoot3063-8-9-9"
       style="color:#000000;font-style:normal;font-variant:normal;font-weight:normal;font-stretch:normal;line-height:0.01%;font-family:Arial;-inkscape-font-specification:Arial;letter-spacing:0px;word-spacing:0px;display:inline;overflow:visible;visibility:visible;opacity:1;fill:#fed18f;fill-opacity:1;fill-rule:nonzero;stroke:none;stroke-width:4.3819828;stroke-opacity:1;marker:none;enable-background:accumulate"
       transform="matrix(1.2626564,1.0594945,-1.266097,1.5088756,2331.2736,532.1742)"><flowRegion
         id="flowRegion3065-8-50-04"
         style="stroke-width:4.3819828"><rect
           id="rect3067-6-4-8"
           width="243.45389"
           height="156.66579"
           x="92.642677"
           y="425.30325"
           style="color:#000000;font-size:72px;display:inline;overflow:visible;visibility:visible;fill:#fed18f;fill-opacity:1;fill-rule:nonzero;stroke:none;stroke-width:4.3819828;stroke-opacity:1;marker:none;enable-background:accumulate" /></flowRegion><flowPara
         style="color:#000000;font-style:normal;font-variant:normal;font-weight:normal;font-stretch:normal;font-size:71.03863525px;line-height:1.25;font-family:'XP Vosta';-inkscape-font-specification:'XP Vosta';text-align:center;text-anchor:middle;display:inline;overflow:visible;visibility:visible;fill:#fed18f;fill-opacity:1;fill-rule:nonzero;stroke:none;stroke-width:3.45422935;stroke-miterlimit:4;stroke-dasharray:none;stroke-opacity:1;marker:none;enable-background:accumulate"
         id="flowPara3188-49-4">قلپ</flowPara></flowRoot>    <flowRoot
       xml:space="preserve"
       id="flowRoot4359"
       style="font-style:normal;font-variant:normal;font-weight:normal;font-stretch:normal;line-height:0.01%;font-family:Midan;-inkscape-font-specification:'Midan, Normal';text-align:center;letter-spacing:0px;word-spacing:0px;writing-mode:lr-tb;text-anchor:middle;fill:#fed18f;fill-opacity:1;stroke:none;stroke-width:1px;stroke-linecap:butt;stroke-linejoin:miter;stroke-opacity:1"
       transform="translate(-29.289298,11.715719)"><flowRegion
         id="flowRegion4361"><rect
           id="rect4363"
           width="447.14993"
           height="228.45653"
           x="1942.8567"
           y="2630.179"
           style="font-size:125px;fill:#fed18f;fill-opacity:1" /></flowRegion><flowPara
         id="flowPara4365"
         style="font-style:normal;font-variant:normal;font-weight:normal;font-stretch:normal;font-size:80px;line-height:1.25;font-family:'XP Vosta';-inkscape-font-specification:'XP Vosta';direction:rtl">اومم...</flowPara></flowRoot>    <flowRoot
       xml:space="preserve"
       id="flowRoot4367"
       style="font-style:normal;font-variant:normal;font-weight:normal;font-stretch:normal;line-height:0.01%;font-family:Midan;-inkscape-font-specification:'Midan, Normal';text-align:center;letter-spacing:0px;word-spacing:0px;writing-mode:lr-tb;text-anchor:middle;fill:#fe5c56;fill-opacity:1;stroke:none;stroke-width:2.70000005;stroke-linecap:butt;stroke-linejoin:miter;stroke-miterlimit:4;stroke-dasharray:none;stroke-opacity:1"
       transform="rotate(-60,774.98811,3159.6128)"><flowRegion
         id="flowRegion4369"><rect
           id="rect4371"
           width="437.38684"
           height="177.6884"
           x="626.79095"
           y="3077.3289"
           style="fill:#fe5c56;fill-opacity:1;stroke:none;stroke-width:2.70000005;stroke-miterlimit:4;stroke-dasharray:none;stroke-opacity:1" /></flowRegion><flowPara
         id="flowPara4373"
         style="font-style:normal;font-variant:normal;font-weight:normal;font-stretch:normal;font-size:80px;line-height:1.25;font-family:'XP Vosta';-inkscape-font-specification:'XP Vosta';fill:#fe5c56;fill-opacity:1;stroke:none;stroke-width:2.70000005;stroke-miterlimit:4;stroke-dasharray:none;stroke-opacity:1;direction:rtl">پوووو!!</flowPara></flowRoot>    <flowRoot
       xml:space="preserve"
       id="flowRoot4375"
       style="font-style:normal;font-variant:normal;font-weight:normal;font-stretch:normal;line-height:0.01%;font-family:Midan;-inkscape-font-specification:'Midan, Normal';text-align:center;letter-spacing:0px;word-spacing:0px;writing-mode:lr-tb;text-anchor:middle;fill:#3590d2;fill-opacity:1;stroke:none;stroke-width:1px;stroke-linecap:butt;stroke-linejoin:miter;stroke-opacity:1"
       transform="rotate(-20,1887.9615,3138.4152)"><flowRegion
         id="flowRegion4377"><rect
           id="rect4379"
           width="531.11261"
           height="267.50891"
           x="1415.6494"
           y="3137.8601"
           style="font-size:112.5px;line-height:80.00000119%;fill:#3590d2;fill-opacity:1" /></flowRegion><flowPara
         id="flowPara4381"
         style="font-style:normal;font-variant:normal;font-weight:normal;font-stretch:normal;font-size:80px;line-height:0.80000001;font-family:'XP Vosta';-inkscape-font-specification:'XP Vosta';direction:rtl">چلپ</flowPara><flowPara
         id="flowPara4383"
         style="font-style:normal;font-variant:normal;font-weight:normal;font-stretch:normal;font-size:80px;line-height:0.80000001;font-family:'XP Vosta';-inkscape-font-specification:'XP Vosta';direction:rtl"> چلوپ...</flowPara></flowRoot>    <flowRoot
       xml:space="preserve"
       id="flowRoot3063-8-9-9-7"
       style="color:#000000;font-style:normal;font-variant:normal;font-weight:normal;font-stretch:normal;line-height:0.01%;font-family:Arial;-inkscape-font-specification:Arial;letter-spacing:0px;word-spacing:0px;display:inline;overflow:visible;visibility:visible;opacity:1;fill:#fed18f;fill-opacity:1;fill-rule:nonzero;stroke:none;stroke-width:4.3819828;stroke-opacity:1;marker:none;enable-background:accumulate"
       transform="matrix(1.2626564,1.0594945,-1.266097,1.5088756,2396.7754,670.44311)"><flowRegion
         id="flowRegion3065-8-50-04-6"
         style="stroke-width:4.3819828"><rect
           id="rect3067-6-4-8-0"
           width="243.45389"
           height="156.66579"
           x="92.642677"
           y="425.30325"
           style="color:#000000;font-size:72px;display:inline;overflow:visible;visibility:visible;fill:#fed18f;fill-opacity:1;fill-rule:nonzero;stroke:none;stroke-width:4.3819828;stroke-opacity:1;marker:none;enable-background:accumulate" /></flowRegion><flowPara
         style="color:#000000;font-style:normal;font-variant:normal;font-weight:normal;font-stretch:normal;font-size:53.27897644px;line-height:1.25;font-family:'XP Vosta';-inkscape-font-specification:'XP Vosta';text-align:center;text-anchor:middle;display:inline;overflow:visible;visibility:visible;fill:#fed18f;fill-opacity:1;fill-rule:nonzero;stroke:none;stroke-width:3.45422935;stroke-miterlimit:4;stroke-dasharray:none;stroke-opacity:1;marker:none;enable-background:accumulate"
         id="flowPara3188-49-4-1">قلپ</flowPara></flowRoot>    <flowRoot
       xml:space="preserve"
       id="flowRoot3063-8-7"
       style="color:#000000;font-style:normal;font-variant:normal;font-weight:normal;font-stretch:normal;line-height:0.01%;font-family:Arial;-inkscape-font-specification:Arial;letter-spacing:0px;word-spacing:0px;display:inline;overflow:visible;visibility:visible;opacity:1;fill:#fe5c56;fill-opacity:1;fill-rule:nonzero;stroke:none;stroke-width:4.3819828;stroke-opacity:1;marker:none;enable-background:accumulate"
       transform="matrix(1.6482809,0,0,1.9696972,492.95953,802.74009)"><flowRegion
         id="flowRegion3065-8-1"
         style="stroke-width:4.3819828"><rect
           id="rect3067-6-0"
           width="243.45389"
           height="156.66579"
           x="92.642677"
           y="425.30325"
           style="color:#000000;font-size:72px;display:inline;overflow:visible;visibility:visible;fill:#fe5c56;fill-opacity:1;fill-rule:nonzero;stroke:none;stroke-width:4.3819828;stroke-opacity:1;marker:none;enable-background:accumulate" /></flowRegion><flowPara
         style="color:#000000;font-style:normal;font-variant:normal;font-weight:normal;font-stretch:normal;font-size:53.27897644px;line-height:1.25;font-family:'XP Vosta';-inkscape-font-specification:'XP Vosta';text-align:center;text-anchor:middle;display:inline;overflow:visible;visibility:visible;fill:#fe5c56;fill-opacity:1;fill-rule:nonzero;stroke:none;stroke-width:3.45422935;stroke-miterlimit:4;stroke-dasharray:none;stroke-opacity:1;marker:none;enable-background:accumulate"
         id="flowPara3188-9">قلپ</flowPara></flowRoot>    <flowRoot
       xml:space="preserve"
       id="flowRoot3063-8-9-95"
       style="color:#000000;font-style:normal;font-variant:normal;font-weight:normal;font-stretch:normal;line-height:0.01%;font-family:Arial;-inkscape-font-specification:Arial;letter-spacing:0px;word-spacing:0px;display:inline;overflow:visible;visibility:visible;opacity:1;fill:#8fc9ff;fill-opacity:1;fill-rule:nonzero;stroke:none;stroke-width:4.3819828;stroke-opacity:1;marker:none;enable-background:accumulate"
       transform="matrix(1.6482809,0,0,1.9696972,1399.2845,663.14617)"><flowRegion
         id="flowRegion3065-8-50-2"
         style="stroke-width:4.3819828"><rect
           id="rect3067-6-4-0"
           width="243.45389"
           height="156.66579"
           x="92.642677"
           y="425.30325"
           style="color:#000000;font-size:72px;display:inline;overflow:visible;visibility:visible;fill:#8fc9ff;fill-opacity:1;fill-rule:nonzero;stroke:none;stroke-width:4.3819828;stroke-opacity:1;marker:none;enable-background:accumulate" /></flowRegion><flowPara
         style="color:#000000;font-style:normal;font-variant:normal;font-weight:normal;font-stretch:normal;font-size:53.27897644px;line-height:1.25;font-family:'XP Vosta';-inkscape-font-specification:'XP Vosta';text-align:center;text-anchor:middle;display:inline;overflow:visible;visibility:visible;fill:#8fc9ff;fill-opacity:1;fill-rule:nonzero;stroke:none;stroke-width:3.45422935;stroke-miterlimit:4;stroke-dasharray:none;stroke-opacity:1;marker:none;enable-background:accumulate"
         id="flowPara3188-49-0">قلپ</flowPara></flowRoot>  </g>
</svg>
