<?xml version="1.0" encoding="UTF-8" standalone="no"?>
<svg
   xmlns:dc="http://purl.org/dc/elements/1.1/"
   xmlns:cc="http://creativecommons.org/ns#"
   xmlns:rdf="http://www.w3.org/1999/02/22-rdf-syntax-ns#"
   xmlns:svg="http://www.w3.org/2000/svg"
   xmlns="http://www.w3.org/2000/svg"
   xmlns:xlink="http://www.w3.org/1999/xlink"
   xmlns:sodipodi="http://sodipodi.sourceforge.net/DTD/sodipodi-0.dtd"
   xmlns:inkscape="http://www.inkscape.org/namespaces/inkscape"
   id="svg2"
   version="1.1"
   inkscape:version="0.92.2 (5c3e80d, 2017-08-06)"
   width="2481"
   height="3503"
   sodipodi:docname="E33P04.svg">
  <metadata
     id="metadata8">
    <rdf:RDF>
      <cc:Work
         rdf:about="">
        <dc:format>image/svg+xml</dc:format>
        <dc:type
           rdf:resource="http://purl.org/dc/dcmitype/StillImage" />
        <dc:title />
      </cc:Work>
    </rdf:RDF>
  </metadata>
  <defs
     id="defs6">
    <filter
       inkscape:label="army-sound"
       height="1.0385585"
       y="-0.01927926"
       width="1.0168701"
       x="-0.0084350929"
       id="filter1058"
       style="color-interpolation-filters:sRGB"
       inkscape:collect="always">
      <feGaussianBlur
         id="feGaussianBlur1060"
         stdDeviation="0.67074246"
         inkscape:collect="always" />
    </filter>
    <filter
       inkscape:label="army-sound_background"
       height="1.0467198"
       y="-0.023359915"
       width="1.0228578"
       x="-0.011428907"
       id="filter987"
       style="color-interpolation-filters:sRGB"
       inkscape:collect="always">
      <feGaussianBlur
         id="feGaussianBlur989"
         stdDeviation="1.036897"
         inkscape:collect="always" />
    </filter>
  </defs>
  <sodipodi:namedview
     pagecolor="#ffffff"
     bordercolor="#666666"
     borderopacity="1"
     objecttolerance="10"
     gridtolerance="10"
     guidetolerance="10"
     inkscape:pageopacity="0"
     inkscape:pageshadow="2"
     inkscape:window-width="1201"
     inkscape:window-height="1015"
     id="namedview4"
     showgrid="false"
     inkscape:zoom="0.46000001"
     inkscape:cx="1240.5"
     inkscape:cy="2494.1201"
     inkscape:window-x="709"
     inkscape:window-y="2"
     inkscape:window-maximized="0"
     inkscape:current-layer="layer3"
     inkscape:document-rotation="0"
     inkscape:snap-global="false" />
  <g
     inkscape:groupmode="layer"
     id="layer2"
     inkscape:label="artwork"
     sodipodi:insensitive="true">
    <image
       sodipodi:absref="C:\Users\Kari\Documents\Pepper and Carrot\Episode 33\fi\../lang/en/./../gfx_Pepper-and-Carrot_by-David-Revoy_E33P04.png"
       xlink:href="../gfx_Pepper-and-Carrot_by-David-Revoy_E33P04.png"
       y="0"
       x="0"
       id="image10"
       height="3503"
       width="2481" />
  </g>
  <g
     style="display:inline"
     inkscape:groupmode="layer"
     id="layer3"
     inkscape:label="speechbubbles">
    <path
       sodipodi:nodetypes="ccccccsc"
       inkscape:connector-curvature="0"
       id="path5901"
       d="m 1302.3416,1319.8982 c -24.8746,9.0048 -67.4708,23.7919 -93.1422,40.3841 -15.4967,7.7702 -49.0139,49.9002 -53.3818,63.5295 -28.0024,1.4421 -56.3566,18.527 -83.4317,53.1858 24.2653,-39.2993 52.2934,-66.9375 76.4015,-69.4094 0.2285,-8.6465 24.7585,-44.5732 46.1338,-59.9591 9.7072,-6.7818 86.9034,-47.1926 117.7711,-62.4432 44.8072,-22.1377 -10.3507,34.7123 -10.3507,34.7123 z"
       style="color:#000000;display:inline;overflow:visible;visibility:visible;fill:#ffffff;fill-opacity:1;fill-rule:nonzero;stroke:none;stroke-width:0.999997px;marker:none;enable-background:accumulate" />
    <path
       sodipodi:nodetypes="cccccccccccccccccccccccccccccccccccccccc"
       inkscape:connector-curvature="0"
       id="path4323-0"
       d="m 1407.1251,1138.4772 c -17.8858,0.4392 -35.7575,1.5342 -53.6531,1.482 -27.0356,0.1541 -54.0499,-1.2662 -81.0434,-2.7189 -6.5772,0.096 -12.7812,2.8521 -18.8927,5.1988 -7.1456,3.0436 -10.9762,7.718 -29.4033,-6.2207 12.4003,28.6172 -24.7976,32.5544 -49.9553,31.0642 18.1782,13.4408 37.967,42.4671 -19.6422,58.5362 -1.1416,0.2404 -0.045,1.2798 0.6398,0.916 66.0592,7.4946 16.2458,33.8844 -15.0835,48.4538 11.1572,-1.9158 22.4005,-3.8744 33.7355,-3.4978 1.5722,8.5145 -9.7767,12.8516 -15.0884,16.5197 45.3796,-2.0788 37.5505,10.1599 10.9333,32.5634 45.6128,-18.1256 84.8707,-17.0179 59.7837,3.8463 -5.7909,3.0761 -9.5331,18.7363 12.488,13.4967 63.7838,-26.5378 54.2869,-1.3104 44.5071,18.2667 26.4287,-21.8953 47.1397,-32.181 46.0655,6.4992 13.713,-39.9574 31.2213,-43.9266 64.09,-28.8774 -3.2997,-33.4397 50.4713,-2.738 61.1786,2.5955 -2.0897,-25.9327 16.9394,-20.5727 46.1363,-0.7986 5.089,-10.4289 16.089,-16.695 26.8596,-16.1879 19.6512,-1.479 39.3559,4.484 56.442,14.8066 -5.6479,-25.8803 60.4625,-13.3978 70.9009,1.2694 1.4455,-10.0703 10.3141,-18.2854 19.7744,-17.8597 11.5678,-0.8 22.9845,1.933 34.3379,3.9058 11.5603,2.5266 22.8039,6.444 34.0485,10.2408 3.1013,-4.7763 8.2296,-8.9715 13.8984,-8.0662 12.2136,0.9241 23.515,6.4602 35.104,10.2418 6.3734,2.4134 12.7428,4.8399 19.1095,7.2741 0.094,-4.7908 -1.0584,-10.2078 1.8167,-14.3545 4.8777,-5.414 12.5976,-6.1629 19.0834,-4.4672 12.7078,1.881 25.0614,5.7271 37.4461,9.2263 -14.1411,-38.8782 36.9865,-20.7104 55.2132,-16.8331 -20.2511,-23.7928 -0.8783,-29.5997 19.331,-30.8508 -24.6271,-20.3036 -11.182,-33.4335 13.0761,-42.2939 -37.7985,-3.4333 -34.4497,-34.096 9.7944,-48.4872 -46.3338,1.5982 -83.0857,-22.7035 9.0883,-44.2753 -122.1495,-8.2032 -296.4627,5.0913 -418.7113,-0.725 -45.4212,-1.4336 -90.9745,-2.253 -136.1032,-8.5407 -5.7582,-0.5887 -11.5222,-1.1651 -17.3058,-1.3489 z"
       style="fill:#ffffff;fill-rule:evenodd;stroke:none;stroke-width:1.01052332px;stroke-linecap:butt;stroke-linejoin:miter;stroke-opacity:1" />
    <path
       sodipodi:nodetypes="cccccccccccc"
       inkscape:connector-curvature="0"
       id="path4032-7"
       d="m 1181.8075,432.89146 c 41.586,-19.48659 86.9142,-48.07648 110.3061,-55.71528 -12.0034,-5.38932 -26.511,-11.18011 -27.9957,-14.88305 16.5074,-10.725 22.7761,-12.17757 39.4396,-21.02956 -6.6685,-3.42995 -17.8015,-9.51329 -20.5031,-13.67703 31.8801,-33.37962 143.235,-75.0414 240.016,-59.63147 l 16.3308,-25.69172 c -121.3884,-9.14073 -264.417,61.38626 -280.8502,84.69247 l 21.476,13.45135 c -12.4646,8.51999 -25.2829,16.53403 -39.6844,22.29149 7.9799,4.791 13.2038,9.58202 28.4279,14.37302 z"
       style="color:#000000;display:inline;overflow:visible;visibility:visible;fill:#ffffff;fill-opacity:1;fill-rule:nonzero;stroke:none;stroke-width:1px;marker:none;enable-background:accumulate" />
    <path
       sodipodi:nodetypes="ccccccccccccccccccccccccc"
       inkscape:connector-curvature="0"
       id="path4508-2"
       d="m 1464.7906,153.41697 c 83.3111,68.76531 118.6931,35.78334 109.2927,-12.84239 31.0409,44.77791 52.9797,60.15607 64.8866,28.23827 20.9271,31.85113 58.1962,36.83036 60.621,0.34429 19.8491,37.13364 39.942,38.21413 57.4872,-4.97751 7.8009,38.28599 25.8281,49.7113 52.6608,3.31952 4.8063,44.93975 23.6358,42.15674 48.8369,-0.40743 -5.8082,66.24891 39.8615,4.58355 69.1482,-30.0225 -21.931,61.95669 -0.4813,58.94429 22.7795,36.39575 -12.2385,36.63234 27.1339,15.02169 87.1791,-31.7098 -30.0357,34.54409 -97.4625,87.80456 -45.0024,82.97805 -7.3159,10.18342 -45.6318,24.01513 32.0809,40.13357 -60.1612,11.31898 -32.0857,31.63509 -1.8458,40.58698 -32.6389,3.02975 -61.2523,1.51586 -9.2293,45.99691 -49.3539,-22.88973 -71.4484,-37.33121 -53.5312,-5.41083 -41.4563,-31.0946 -78.7673,-27.10062 -71.7756,9.29542 -19.0128,-37.94649 -69.8127,-37.28006 -81.8505,7.121 -7.5715,-42.18132 -32.5417,-54.67837 -89.4794,-6.99174 9.6382,-48.94253 -40.0286,-30.96539 -65.4368,-1.40247 17.4799,-34.40178 -25.1564,-37.17414 -62.0097,3.56308 22.0266,-41.34162 -22.023,-56.02814 -68.77,7.35483 18.2098,-98.2346 -46.1079,-57.72645 -85.1528,-44.92576 29.856,-30.37779 88.308,-52.85174 17.0549,-65.32413 72.1628,-0.52645 62.3559,-10.77836 23.7965,-39.91942 42.4017,8.00471 30.4722,-12.99191 -11.7408,-61.39369 z"
       style="display:inline;fill:#ffffff;fill-rule:evenodd;stroke:none;stroke-width:0.8459931px;stroke-linecap:butt;stroke-linejoin:miter;stroke-opacity:1" />
    <path
       inkscape:connector-curvature="0"
       id="path3072-56"
       d="m 605.01298,766.03759 c 1.97639,13.68735 4.89813,27.94334 1.54437,41.71842 -2.14174,8.3941 -7.44224,15.62787 -13.25861,21.89179 -7.51416,7.6917 -16.25069,14.2538 -25.79276,19.21693 -14.46,7.41261 -30.74351,11.91558 -43.16159,22.82403 -4.15158,4.87787 -4.72354,13.57308 0.86247,17.62488 7.36472,4.82439 16.60522,5.59784 25.16745,5.01692 10.01613,-1.82804 17.38325,-9.43186 24.53826,-16.06379 16.3121,-14.44251 31.93776,-30.69806 40.74022,-50.93509 7.42676,-20.39544 2.47014,-44.02052 -10.30582,-61.18667 -0.0959,-0.0344 -0.21387,-0.19298 -0.33399,-0.10742 z"
       style="color:#000000;display:inline;overflow:visible;visibility:visible;fill:#ffffff;fill-opacity:1;fill-rule:nonzero;stroke:none;stroke-width:1px;marker:none;enable-background:accumulate" />
    <path
       sodipodi:nodetypes="cccscsc"
       inkscape:connector-curvature="0"
       id="path3970-3"
       d="m 391.7747,822.92958 c -46.65867,1.04302 -93.66086,9.12182 -135.24508,27.06906 -17.86555,7.87327 -33.22605,20.78386 -39.3828,36.99968 -9.01321,21.9117 -7.96713,46.08957 0.0485,68.08918 6.29272,16.31997 19.6164,30.88569 37.59756,39.54085 17.69995,9.09545 37.30504,15.57225 57.52748,19.63375 38.37839,7.2505 78.08859,7.4676 117.21311,5.74 28.69912,-1.9193 56.61085,-8.2977 84.0381,-15.2479 18.91546,-5.19006 37.82562,-12.5298 51.18556,-25.14626 13.16499,-12.40832 20.13105,-28.6803 21.66514,-45.00603 2.90155,-20.10451 0.13036,-41.34796 -11.77357,-59.30197 -9.69848,-13.51347 -26.00463,-22.64284 -42.76248,-29.3905 -32.19353,-13.0185 -67.76281,-19.31041 -103.27036,-22.00896 -12.25013,-0.84003 -24.55074,-1.1922 -36.84116,-0.9709 z"
       style="color:#000000;display:inline;overflow:visible;visibility:visible;fill:#ffffff;fill-opacity:1;fill-rule:nonzero;stroke:none;stroke-width:0.81901085px;marker:none;enable-background:accumulate" />
  </g>
  <g
     inkscape:groupmode="layer"
     id="layer1"
     inkscape:label="txt">
    <text
       inkscape:label="kingA"
       id="text4246-7-6-1-7-6"
       y="906.73608"
       x="398.68967"
       style="font-style:normal;font-variant:normal;font-weight:normal;font-stretch:normal;line-height:0%;font-family:Lavi;-inkscape-font-specification:Lavi;text-align:center;letter-spacing:0px;word-spacing:0px;text-anchor:middle;display:inline;fill:#000000;fill-opacity:1;stroke:none"
       xml:space="preserve"><tspan
         id="tspan943"
         y="906.73608"
         x="398.68967"
         style="font-size:45px;line-height:1.25"
         sodipodi:role="line">Siihen meidät</tspan><tspan
         y="962.98608"
         x="398.68967"
         style="font-size:45px;line-height:1.25"
         sodipodi:role="line"
         id="tspan854">on koulittu.</tspan></text>
    <text
       inkscape:label="kingB"
       transform="matrix(0.95440174,0,-0.25660425,1.0477768,0,0)"
       id="text4246-6-9-8-8"
       y="265.48407"
       x="1885.7417"
       style="font-style:normal;font-variant:normal;font-weight:normal;font-stretch:normal;font-size:14.53719997px;line-height:0%;font-family:Lavi;-inkscape-font-specification:Lavi;text-align:center;letter-spacing:0px;word-spacing:0px;text-anchor:middle;fill:#000000;fill-opacity:1;stroke:#000000;stroke-width:2.40001011;stroke-miterlimit:4;stroke-dasharray:none;stroke-opacity:1"
       xml:space="preserve"><tspan
         id="tspan4395-0"
         y="265.48407"
         x="1885.7417"
         style="font-size:52.02870178px;line-height:1.25;stroke:#000000;stroke-width:2.40001011;stroke-miterlimit:4;stroke-dasharray:none;stroke-opacity:1"
         sodipodi:role="line">KÄSKYSTÄNI!</tspan></text>
    <text
       inkscape:label="warriorA"
       xml:space="preserve"
       style="font-style:normal;font-variant:normal;font-weight:normal;font-stretch:normal;font-size:8.2448px;line-height:0%;font-family:Lavi;-inkscape-font-specification:Lavi;letter-spacing:1.83751px;word-spacing:0px;display:inline;opacity:0.708356;fill:#b3cfde;fill-opacity:1;stroke:#302820;stroke-width:6.24756;stroke-miterlimit:4;stroke-dasharray:none;stroke-opacity:1;paint-order:stroke fill markers;filter:url(#filter1058)"
       x="1302.3322"
       y="1954.6715"
       id="use4516-8-2"
       transform="matrix(0.87298381,-0.39667522,-0.16116569,1.4302723,1280.2225,-1441.2945)"><tspan
         sodipodi:role="line"
         id="tspan4370-3-6"
         x="1302.3322"
         y="1954.6715"
         style="font-style:normal;font-variant:normal;font-weight:normal;font-stretch:normal;font-size:48.0947px;line-height:1.25;font-family:Lavi;-inkscape-font-specification:Lavi;fill:#ded5c0;fill-opacity:1;stroke:#302820;stroke-width:6.24756;stroke-miterlimit:4;stroke-dasharray:none;stroke-opacity:1;paint-order:stroke fill markers">Yahhhh!</tspan></text>
    <text
       inkscape:label="warriorB"
       transform="matrix(0.87298381,-0.39667522,-0.16116569,1.4302723,1089.34,-1406.6493)"
       id="use4516-8"
       y="1954.6715"
       x="1302.3322"
       style="font-style:normal;font-variant:normal;font-weight:normal;font-stretch:normal;font-size:8.2448px;line-height:0%;font-family:Lavi;-inkscape-font-specification:Lavi;letter-spacing:1.83751px;word-spacing:0px;display:inline;opacity:0.708356;fill:#b3cfde;fill-opacity:1;stroke:#302820;stroke-width:6.24756;stroke-miterlimit:4;stroke-dasharray:none;stroke-opacity:1;paint-order:stroke fill markers;filter:url(#filter1058)"
       xml:space="preserve"><tspan
         style="font-style:normal;font-variant:normal;font-weight:normal;font-stretch:normal;font-size:48.0947px;line-height:1.25;font-family:Lavi;-inkscape-font-specification:Lavi;fill:#ded5c0;fill-opacity:1;stroke:#302820;stroke-width:6.24756;stroke-miterlimit:4;stroke-dasharray:none;stroke-opacity:1;paint-order:stroke fill markers"
         y="1954.6715"
         x="1302.3322"
         id="tspan4370-3"
         sodipodi:role="line">Yeaahh!</tspan></text>
    <text
       inkscape:label="warriorC"
       xml:space="preserve"
       style="font-style:normal;font-variant:normal;font-weight:normal;font-stretch:normal;font-size:8.2448px;line-height:0%;font-family:Lavi;-inkscape-font-specification:Lavi;letter-spacing:1.83751px;word-spacing:0px;display:inline;opacity:0.708356;fill:#b3cfde;fill-opacity:1;stroke:#302820;stroke-width:6.24756;stroke-miterlimit:4;stroke-dasharray:none;stroke-opacity:1;paint-order:stroke fill markers;filter:url(#filter1058)"
       x="1302.3322"
       y="1954.6715"
       id="use4516-8-3"
       transform="matrix(0.87298381,-0.39667522,-0.16116569,1.4302723,900.90002,-1373.4986)"><tspan
         sodipodi:role="line"
         id="tspan4370-3-7"
         x="1302.3322"
         y="1954.6715"
         style="font-style:normal;font-variant:normal;font-weight:normal;font-stretch:normal;font-size:48.0947px;line-height:1.25;font-family:Lavi;-inkscape-font-specification:Lavi;fill:#ded5c0;fill-opacity:1;stroke:#302820;stroke-width:6.24756;stroke-miterlimit:4;stroke-dasharray:none;stroke-opacity:1;paint-order:stroke fill markers">Yaaah!</tspan></text>
    <text
       inkscape:label="warriorD"
       transform="matrix(0.50551861,-0.22852645,-0.0933262,0.82398656,1750.9332,-438.88491)"
       id="use4516-8-2-7"
       y="1954.6715"
       x="1302.3322"
       style="font-style:normal;font-variant:normal;font-weight:normal;font-stretch:normal;font-size:8.2448px;line-height:0%;font-family:Lavi;-inkscape-font-specification:Lavi;letter-spacing:1.83751px;word-spacing:0px;display:inline;opacity:0.369456;fill:#b3cfde;fill-opacity:1;stroke:#302820;stroke-width:10.8167;stroke-miterlimit:4;stroke-dasharray:none;stroke-opacity:1;paint-order:stroke fill markers;filter:url(#filter987)"
       xml:space="preserve"><tspan
         style="font-style:normal;font-variant:normal;font-weight:normal;font-stretch:normal;font-size:48.0947px;line-height:1.25;font-family:Lavi;-inkscape-font-specification:Lavi;fill:#ded5c0;fill-opacity:1;stroke:#302820;stroke-width:10.8167;stroke-miterlimit:4;stroke-dasharray:none;stroke-opacity:1;paint-order:stroke fill markers"
         y="1954.6715"
         x="1302.3322"
         id="tspan4370-3-6-5"
         sodipodi:role="line">Yaawww!</tspan></text>
    <text
       inkscape:label="warriorE"
       xml:space="preserve"
       style="font-style:normal;font-variant:normal;font-weight:normal;font-stretch:normal;font-size:8.2448px;line-height:0%;font-family:Lavi;-inkscape-font-specification:Lavi;letter-spacing:1.83751px;word-spacing:0px;display:inline;opacity:0.369456;fill:#b3cfde;fill-opacity:1;stroke:#302820;stroke-width:10.8167;stroke-miterlimit:4;stroke-dasharray:none;stroke-opacity:1;paint-order:stroke fill markers;filter:url(#filter987)"
       x="1302.3322"
       y="1954.6715"
       id="use4516-8-2-7-1"
       transform="matrix(0.50551861,-0.22852645,-0.0933262,0.82398656,1575.7589,-403.08047)"><tspan
         sodipodi:role="line"
         id="tspan4370-3-6-5-2"
         x="1302.3322"
         y="1954.6715"
         style="font-style:normal;font-variant:normal;font-weight:normal;font-stretch:normal;font-size:48.0947px;line-height:1.25;font-family:Lavi;-inkscape-font-specification:Lavi;fill:#ded5c0;fill-opacity:1;stroke:#302820;stroke-width:10.8167;stroke-miterlimit:4;stroke-dasharray:none;stroke-opacity:1;paint-order:stroke fill markers">Yeaaah!</tspan></text>
    <text
       inkscape:label="warriorF"
       transform="matrix(0.50551861,-0.22852645,-0.0933262,0.82398656,1409.4065,-380.10863)"
       id="use4516-8-2-7-1-1"
       y="1954.6715"
       x="1302.3322"
       style="font-style:normal;font-variant:normal;font-weight:normal;font-stretch:normal;font-size:8.2448px;line-height:0%;font-family:Lavi;-inkscape-font-specification:Lavi;letter-spacing:1.83751px;word-spacing:0px;display:inline;opacity:0.369456;fill:#b3cfde;fill-opacity:1;stroke:#302820;stroke-width:10.8167;stroke-miterlimit:4;stroke-dasharray:none;stroke-opacity:1;paint-order:stroke fill markers;filter:url(#filter987)"
       xml:space="preserve"><tspan
         style="font-style:normal;font-variant:normal;font-weight:normal;font-stretch:normal;font-size:48.0947px;line-height:1.25;font-family:Lavi;-inkscape-font-specification:Lavi;fill:#ded5c0;fill-opacity:1;stroke:#302820;stroke-width:10.8167;stroke-miterlimit:4;stroke-dasharray:none;stroke-opacity:1;paint-order:stroke fill markers"
         y="1954.6715"
         x="1302.3322"
         id="tspan4370-3-6-5-2-5"
         sodipodi:role="line">Yaaah!</tspan></text>
    <text
       inkscape:label="warriorG"
       xml:space="preserve"
       style="font-style:normal;font-variant:normal;font-weight:normal;font-stretch:normal;font-size:8.2448px;line-height:0%;font-family:Lavi;-inkscape-font-specification:Lavi;letter-spacing:1.83751px;word-spacing:0px;display:inline;opacity:0.369456;fill:#b3cfde;fill-opacity:1;stroke:#302820;stroke-width:10.8167;stroke-miterlimit:4;stroke-dasharray:none;stroke-opacity:1;paint-order:stroke fill markers;filter:url(#filter987)"
       x="1302.3322"
       y="1954.6715"
       id="use4516-8-2-7-1-1-7"
       transform="matrix(0.50551861,-0.22852645,-0.0933262,0.82398656,1249.3194,-363.84199)"><tspan
         sodipodi:role="line"
         id="tspan4370-3-6-5-2-5-1"
         x="1302.3322"
         y="1954.6715"
         style="font-style:normal;font-variant:normal;font-weight:normal;font-stretch:normal;font-size:48.0947px;line-height:1.25;font-family:Lavi;-inkscape-font-specification:Lavi;fill:#ded5c0;fill-opacity:1;stroke:#302820;stroke-width:10.8167;stroke-miterlimit:4;stroke-dasharray:none;stroke-opacity:1;paint-order:stroke fill markers">Yaeeh!</tspan></text>
    <text
       inkscape:label="warriorH"
       transform="matrix(0.50551861,-0.22852645,-0.0933262,0.82398656,1117.8153,-332.94981)"
       id="use4516-8-2-7-1-1-7-9"
       y="1954.6715"
       x="1302.3322"
       style="font-style:normal;font-variant:normal;font-weight:normal;font-stretch:normal;font-size:8.2448px;line-height:0%;font-family:Lavi;-inkscape-font-specification:Lavi;letter-spacing:1.83751px;word-spacing:0px;display:inline;opacity:0.369456;fill:#b3cfde;fill-opacity:1;stroke:#302820;stroke-width:10.8167;stroke-miterlimit:4;stroke-dasharray:none;stroke-opacity:1;paint-order:stroke fill markers;filter:url(#filter987)"
       xml:space="preserve"><tspan
         style="font-style:normal;font-variant:normal;font-weight:normal;font-stretch:normal;font-size:48.0947px;line-height:1.25;font-family:Lavi;-inkscape-font-specification:Lavi;fill:#ded5c0;fill-opacity:1;stroke:#302820;stroke-width:10.8167;stroke-miterlimit:4;stroke-dasharray:none;stroke-opacity:1;paint-order:stroke fill markers"
         y="1954.6715"
         x="1302.3322"
         id="tspan4370-3-6-5-2-5-1-5"
         sodipodi:role="line">Yaeeh!</tspan></text>
    <text
       inkscape:label="warriorI"
       xml:space="preserve"
       style="font-style:normal;font-variant:normal;font-weight:normal;font-stretch:normal;font-size:8.2448px;line-height:0%;font-family:Lavi;-inkscape-font-specification:Lavi;letter-spacing:1.83751px;word-spacing:0px;display:inline;opacity:0.369456;fill:#b3cfde;fill-opacity:1;stroke:#302820;stroke-width:12.9782;stroke-miterlimit:4;stroke-dasharray:none;stroke-opacity:1;paint-order:stroke fill markers;filter:url(#filter987)"
       x="1302.3322"
       y="1954.6715"
       id="use4516-8-2-7-1-1-7-9-1"
       transform="matrix(0.42167905,-0.19030679,-0.07784818,0.68617982,1055.5205,-94.195675)"><tspan
         sodipodi:role="line"
         id="tspan4370-3-6-5-2-5-1-5-1"
         x="1302.3322"
         y="1954.6715"
         style="font-style:normal;font-variant:normal;font-weight:normal;font-stretch:normal;font-size:48.0947px;line-height:1.25;font-family:Lavi;-inkscape-font-specification:Lavi;fill:#ded5c0;fill-opacity:1;stroke:#302820;stroke-width:12.9782;stroke-miterlimit:4;stroke-dasharray:none;stroke-opacity:1;paint-order:stroke fill markers">Yaahhh!</tspan></text>
    <text
       inkscape:label="kingC"
       xml:space="preserve"
       style="font-style:normal;font-variant:normal;font-weight:normal;font-stretch:normal;font-size:18.42469978px;line-height:0%;font-family:Lavi;-inkscape-font-specification:Lavi;text-align:center;letter-spacing:0px;word-spacing:0px;text-anchor:middle;fill:#000000;fill-opacity:1;stroke:#000000;stroke-width:2.40001011;stroke-miterlimit:4;stroke-dasharray:none;stroke-opacity:1"
       x="1953.6434"
       y="1204.5455"
       id="text4246-6-9-8-8-3"
       transform="matrix(0.9493189,0,-0.25523766,1.0533868,0,0)"><tspan
         sodipodi:role="line"
         style="font-size:65.94190216px;line-height:1.25;stroke:#000000;stroke-width:2.40001011;stroke-miterlimit:4;stroke-dasharray:none;stroke-opacity:1"
         x="1953.6434"
         y="1204.5455"
         id="tspan4395-0-6">HYÖKKÄYKSEEEEEEN!!!</tspan></text>
    <text
       inkscape:label="warriorJ"
       xml:space="preserve"
       style="font-style:normal;font-variant:normal;font-weight:normal;font-stretch:normal;font-size:8.2448px;line-height:0%;font-family:Lavi;-inkscape-font-specification:Lavi;letter-spacing:1.83751px;word-spacing:0px;display:inline;opacity:0.386112;fill:#b3cfde;fill-opacity:1;stroke:#302820;stroke-width:8.02114;stroke-miterlimit:4;stroke-dasharray:none;stroke-opacity:1;paint-order:stroke fill markers;filter:url(#filter987)"
       x="1302.3322"
       y="1954.6715"
       id="use4516-8-7"
       transform="matrix(0.76725519,-0.2738102,-0.14164663,0.98726394,369.54189,276.96994)"><tspan
         sodipodi:role="line"
         id="tspan4370-3-0"
         x="1302.3322"
         y="1954.6715"
         style="font-style:normal;font-variant:normal;font-weight:normal;font-stretch:normal;font-size:48.0947px;line-height:1.25;font-family:Lavi;-inkscape-font-specification:Lavi;fill:#ded5c0;fill-opacity:1;stroke:#302820;stroke-width:8.02114;stroke-miterlimit:4;stroke-dasharray:none;stroke-opacity:1;paint-order:stroke fill markers">Yeaahh!</tspan></text>
    <text
       inkscape:label="warriorK"
       transform="matrix(0.68010769,-0.24225481,-0.12555791,0.87348622,256.1633,518.50004)"
       id="use4516-8-7-6"
       y="1954.6715"
       x="1302.3322"
       style="font-style:normal;font-variant:normal;font-weight:normal;font-stretch:normal;font-size:8.2448px;line-height:0%;font-family:Lavi;-inkscape-font-specification:Lavi;letter-spacing:1.83751px;word-spacing:0px;display:inline;opacity:0.386112;fill:#b3cfde;fill-opacity:1;stroke:#302820;stroke-width:9.05745;stroke-miterlimit:4;stroke-dasharray:none;stroke-opacity:1;paint-order:stroke fill markers;filter:url(#filter987)"
       xml:space="preserve"><tspan
         style="font-style:normal;font-variant:normal;font-weight:normal;font-stretch:normal;font-size:48.0947px;line-height:1.25;font-family:Lavi;-inkscape-font-specification:Lavi;fill:#ded5c0;fill-opacity:1;stroke:#302820;stroke-width:9.05745;stroke-miterlimit:4;stroke-dasharray:none;stroke-opacity:1;paint-order:stroke fill markers"
         y="1954.6715"
         x="1302.3322"
         id="tspan4370-3-0-4"
         sodipodi:role="line">Yahhh!</tspan></text>
    <text
       inkscape:label="warriorL"
       xml:space="preserve"
       style="font-style:normal;font-variant:normal;font-weight:normal;font-stretch:normal;font-size:8.2448px;line-height:0%;font-family:Lavi;-inkscape-font-specification:Lavi;letter-spacing:1.83751px;word-spacing:0px;display:inline;opacity:0.386112;fill:#b3cfde;fill-opacity:1;stroke:#302820;stroke-width:9.05745;stroke-miterlimit:4;stroke-dasharray:none;stroke-opacity:1;paint-order:stroke fill markers;filter:url(#filter987)"
       x="1302.3322"
       y="1954.6715"
       id="use4516-8-7-6-9"
       transform="matrix(0.68010769,-0.24225481,-0.12555791,0.87348622,520.65577,484.96621)"><tspan
         sodipodi:role="line"
         id="tspan4370-3-0-4-8"
         x="1302.3322"
         y="1954.6715"
         style="font-style:normal;font-variant:normal;font-weight:normal;font-stretch:normal;font-size:48.0947px;line-height:1.25;font-family:Lavi;-inkscape-font-specification:Lavi;fill:#ded5c0;fill-opacity:1;stroke:#302820;stroke-width:9.05745;stroke-miterlimit:4;stroke-dasharray:none;stroke-opacity:1;paint-order:stroke fill markers">Yaeeh!</tspan></text>
  </g>
</svg>
