<?xml version="1.0" encoding="UTF-8" standalone="no"?>
<!-- Created with Inkscape (http://www.inkscape.org/) -->

<svg
   xmlns:dc="http://purl.org/dc/elements/1.1/"
   xmlns:cc="http://creativecommons.org/ns#"
   xmlns:rdf="http://www.w3.org/1999/02/22-rdf-syntax-ns#"
   xmlns:svg="http://www.w3.org/2000/svg"
   xmlns="http://www.w3.org/2000/svg"
   xmlns:xlink="http://www.w3.org/1999/xlink"
   xmlns:sodipodi="http://sodipodi.sourceforge.net/DTD/sodipodi-0.dtd"
   xmlns:inkscape="http://www.inkscape.org/namespaces/inkscape"
   id="svg2"
   version="1.1"
   inkscape:version="0.92.4 (5da689c313, 2019-01-14)"
   width="2481"
   height="3503"
   sodipodi:docname="E32P03.svg">
  <metadata
     id="metadata8">
    <rdf:RDF>
      <cc:Work
         rdf:about="">
        <dc:format>image/svg+xml</dc:format>
        <dc:type
           rdf:resource="http://purl.org/dc/dcmitype/StillImage" />
        <dc:title />
      </cc:Work>
    </rdf:RDF>
  </metadata>
  <defs
     id="defs6">
    <filter
       inkscape:collect="always"
       style="color-interpolation-filters:sRGB"
       id="filter4213-8-8"
       x="-0.0010298714"
       width="1.0020597"
       y="-0.0014578935"
       height="1.0029159">
      <feGaussianBlur
         inkscape:collect="always"
         stdDeviation="0.24308766"
         id="feGaussianBlur4215-7-9" />
    </filter>
    <filter
       inkscape:collect="always"
       style="color-interpolation-filters:sRGB"
       id="filter1266-5-1"
       x="-0.013221323"
       width="1.0264426"
       y="-0.024911748"
       height="1.0498235">
      <feGaussianBlur
         inkscape:collect="always"
         stdDeviation="0.78825367"
         id="feGaussianBlur1268-9-2" />
    </filter>
    <filter
       inkscape:collect="always"
       style="color-interpolation-filters:sRGB"
       id="filter1395"
       x="-0.01195875"
       width="1.0239176"
       y="-0.014728761"
       height="1.0294574">
      <feGaussianBlur
         inkscape:collect="always"
         stdDeviation="0.26634151"
         id="feGaussianBlur1397" />
    </filter>
    <filter
       inkscape:collect="always"
       style="color-interpolation-filters:sRGB"
       id="filter1266"
       x="-0.013221323"
       width="1.0264426"
       y="-0.024911748"
       height="1.0498235">
      <feGaussianBlur
         inkscape:collect="always"
         stdDeviation="0.78825367"
         id="feGaussianBlur1268" />
    </filter>
    <filter
       inkscape:collect="always"
       style="color-interpolation-filters:sRGB"
       id="filter1639"
       x="-0.022949615"
       width="1.0458992"
       y="-0.048711937"
       height="1.0974239">
      <feGaussianBlur
         inkscape:collect="always"
         stdDeviation="0.45636794"
         id="feGaussianBlur1641" />
    </filter>
    <filter
       inkscape:collect="always"
       style="color-interpolation-filters:sRGB"
       id="filter1266-5"
       x="-0.013221323"
       width="1.0264426"
       y="-0.024911748"
       height="1.0498235">
      <feGaussianBlur
         inkscape:collect="always"
         stdDeviation="0.78825367"
         id="feGaussianBlur1268-9" />
    </filter>
    <filter
       inkscape:collect="always"
       style="color-interpolation-filters:sRGB"
       id="filter4213-0"
       x="-0.0010298714"
       width="1.0020597"
       y="-0.0014578935"
       height="1.0029159">
      <feGaussianBlur
         inkscape:collect="always"
         stdDeviation="0.24308766"
         id="feGaussianBlur4215-2" />
    </filter>
    <filter
       inkscape:collect="always"
       style="color-interpolation-filters:sRGB"
       id="filter4213-1"
       x="-0.0010298714"
       width="1.0020597"
       y="-0.0014578935"
       height="1.0029159">
      <feGaussianBlur
         inkscape:collect="always"
         stdDeviation="0.24308766"
         id="feGaussianBlur4215-9" />
    </filter>
    <filter
       inkscape:collect="always"
       style="color-interpolation-filters:sRGB"
       id="filter4213"
       x="-0.0010298714"
       width="1.0020597"
       y="-0.0014578935"
       height="1.0029159">
      <feGaussianBlur
         inkscape:collect="always"
         stdDeviation="0.24308766"
         id="feGaussianBlur4215" />
    </filter>
    <filter
       style="color-interpolation-filters:sRGB"
       id="filter5561-1"
       inkscape:label="deevad outline effect">
      <feFlood
         id="feFlood5563-9"
         flood-opacity="1"
         flood-color="rgb(0,0,0)"
         result="flood" />
      <feComposite
         id="feComposite5565-0"
         in2="SourceGraphic"
         in="flood"
         operator="in"
         result="composite1" />
      <feMorphology
         id="feMorphology5567-7"
         operator="dilate"
         radius="1.8999999999999999 6.0999999999999996"
         result="result3" />
      <feComposite
         id="feComposite5569-2"
         in2="result3"
         in="SourceGraphic"
         operator="over"
         result="composite2" />
    </filter>
  </defs>
  <sodipodi:namedview
     pagecolor="#ffffff"
     bordercolor="#666666"
     borderopacity="1"
     objecttolerance="10"
     gridtolerance="10"
     guidetolerance="10"
     inkscape:pageopacity="0"
     inkscape:pageshadow="2"
     inkscape:window-width="1920"
     inkscape:window-height="1017"
     id="namedview4"
     showgrid="false"
     inkscape:zoom="0.4058178"
     inkscape:cx="1242.4234"
     inkscape:cy="1973.2346"
     inkscape:window-x="-8"
     inkscape:window-y="-8"
     inkscape:window-maximized="1"
     inkscape:current-layer="layer3"
     inkscape:snap-global="false" />
  <g
     inkscape:groupmode="layer"
     id="layer2"
     inkscape:label="artwork"
     sodipodi:insensitive="true">
    <image
       sodipodi:absref="C:\Users\Xan\Documents\git\webcomics\ep32_The-Battlefield\lang\pt\../gfx_Pepper-and-Carrot_by-David-Revoy_E32P03.png"
       xlink:href="../gfx_Pepper-and-Carrot_by-David-Revoy_E32P03.png"
       width="2481"
       height="3503"
       id="image10"
       x="0"
       y="0" />
  </g>
  <g
     inkscape:groupmode="layer"
     id="layer3"
     inkscape:label="speechbubbles">
    <path
       style="fill:#ffffff;stroke:none;stroke-width:1"
       d="m 422.42593,211.2925 c -5.49879,51.69419 -83.25672,59.68933 -119.1525,61.21736 -35.89571,1.52748 -131.36479,8.19477 -163.70896,-35.04616 -32.34408,-43.24035 -18.13783,-63.07567 2.89681,-84.14687 17.93758,-17.96915 60.10881,-26.66186 97.02364,-30.91794 45.83711,-5.28392 121.93718,6.9987 153.71833,29.11345 16.94853,11.79308 34.72161,8.08598 29.22268,59.78016 z"
       id="path3100-98"
       inkscape:connector-curvature="0"
       sodipodi:nodetypes="zsssssz" />
    <path
       style="color:#000000;display:inline;overflow:visible;visibility:visible;fill:#ffffff;fill-opacity:1;fill-rule:nonzero;stroke:none;stroke-width:1.0525049px;marker:none;enable-background:accumulate"
       d="m 438.34377,227.08396 c 2.6957,-31.95871 3.08266,-62.81228 38.73883,-81.57093 35.6561,-18.75785 98.47257,-23.95181 177.37429,-19.2924 42.26397,2.4956 95.50567,5.85993 129.20789,18.83159 33.70221,12.97166 47.86503,35.55064 44.40653,82.35871 -3.4585,46.80808 -22.12213,67.25852 -61.05409,79.28131 -38.93188,12.02358 -98.13222,15.61952 -112.38758,16.95547 -14.25535,1.33596 -58.46914,0.18433 -102.33566,-5.22119 -43.86645,-5.40553 -73.87094,-9.1858 -86.73715,-24.86863 -20.16988,-19.86059 -28.43964,-43.21295 -27.21306,-66.47393 z"
       id="path4546-6-2-0"
       inkscape:connector-curvature="0"
       sodipodi:nodetypes="cssssssscc" />
    <path
       style="color:#000000;display:inline;overflow:visible;visibility:visible;fill:#ffffff;fill-opacity:1;fill-rule:nonzero;stroke:none;stroke-width:1.0566107px;marker:none;enable-background:accumulate"
       d="M 990.50977 134.47461 C 954.93287 135.01284 918.9806 140.30355 885.99384 154.09759 C 874.86793 159.3771 867.3461 170.00269 862.69766 181.09302 C 854.04944 200.67773 844.95238 220.57819 842.48107 242.07556 C 839.3172 266.04473 841.11985 291.21 851.10992 313.46402 C 859.43344 331.75659 875.5062 345.68157 893.64475 353.81238 C 914.79842 363.55713 937.59778 368.83363 960.06144 374.58583 C 988.70422 381.31909 1018.4013 383.61265 1047.7363 381.33594 C 1070.3624 379.2597 1092.7827 373.94245 1113.6427 364.8651 C 1124.8105 359.89737 1135.8404 353.95979 1144.4077 345.07063 C 1153.3144 336.16862 1159.6619 324.92731 1163.3491 312.92576 C 1168.2833 297.22054 1169.4763 280.63367 1169.7392 264.26343 C 1169.6977 245.1576 1167.0567 225.69998 1159.1689 208.15292 C 1150.3816 189.31657 1135.3009 173.91718 1117.7986 162.95306 C 1092.221 146.46907 1062.0779 138.20096 1031.9364 135.77643 C 1018.1632 134.59065 1004.3265 134.40012 990.50977 134.47461 z "
       id="path4040-41"
       inkscape:connector-curvature="0"
       sodipodi:nodetypes="zssssz" />
    <path
       style="opacity:1;fill:#ffffff;fill-rule:evenodd;stroke:none;stroke-width:1px;stroke-linecap:butt;stroke-linejoin:miter;stroke-opacity:1"
       d="m 1027.5093,510.74622 c 79.9896,-25.34188 116.4009,-40.38771 130.7924,-88.3665 12.0423,-40.14692 -33.9999,-116.14332 -96.0942,-157.07156 -74.30428,-48.97611 -720.91559,-69.58576 -737.53456,-86.65613 -24.24194,-24.90039 -28.29447,37.40472 -7.48472,36.66367 110.11684,-3.92132 657.67116,25.43523 724.93768,68.50333 62.3575,39.92512 107.1789,103.00167 91.9981,146.96092 -14.5457,42.11997 -106.6147,79.96627 -106.6147,79.96627 z"
       id="path4324-2"
       inkscape:connector-curvature="0"
       sodipodi:nodetypes="cssssssc" />
    <path
       style="color:#000000;display:inline;overflow:visible;visibility:visible;fill:#ffffff;fill-opacity:1;fill-rule:nonzero;stroke:none;stroke-width:1.02404094px;marker:none;enable-background:accumulate"
       d="m 1450.386,160.75586 c 5.3524,58.0424 -57.3195,45.56473 -85.7474,27.27436 -2.6571,-1.6925 -5.2349,-3.49395 -7.8333,-5.26655 8.7638,32.63909 9.1567,63.94917 -33.0512,57.06055 20.3749,29.50108 -26.3151,34.82714 -37.4793,35.84961 58.2682,10.44428 19.7751,27.33762 -11.109,34.65625 31.4482,5.47045 78.1198,-1.33603 38.3926,37.39648 58.5993,-15.87086 81.9082,0.39261 52.8753,49.15625 54.7402,-36.63239 86.7351,-61.70826 93.1526,4.9375 33.391,-53.579 68.7789,-66.95947 113.43,2.65777 3.6922,-66.17428 60.7948,-33.5212 80.2756,-6.88267 -5.4295,-47.05832 57.43,-39.35867 73.4994,-27.18325 -7.4513,-46.93794 42.9755,-20.43662 63.6328,-12.24614 -32.6355,-31.80398 -12.7771,-56.49275 15.7873,-53.41602 -58.9565,-27.61301 -60.5035,-45.70415 -8.2807,-57.75977 -30.3694,-6.35909 -69.6941,-19.18971 -52.2631,-55.71679 -43.313,17.91152 -58.5389,8.59899 -38.659,-31.42383 -20.1284,22.94734 -71.3504,61.05751 -62.1377,3.58044 -44.6476,37.59194 -81.3123,43.77553 -113.7177,2.38831 -22.7193,31.9191 -35.5653,51.04462 -81.0834,-6.27184 z"
       id="path3549-3-7-1"
       inkscape:connector-curvature="0"
       sodipodi:nodetypes="ccccccccccccccccccccc" />
    <path
       style="color:#000000;display:inline;overflow:visible;visibility:visible;fill:#ffffff;fill-opacity:1;fill-rule:nonzero;stroke:none;stroke-width:1px;marker:none;enable-background:accumulate"
       d="m 1898.5376,423.83603 c -31.5172,-40.32544 -51.0315,-61.90879 -76.4783,-108.99711 l 3.258,50.97171 c -16.0686,-10.44733 -25.4093,-31.97446 -37.0346,-49.73896 l -2.127,38.51455 c -36.3006,-43.2467 -51.7192,-53.55742 -83.7945,-82.67547 l -29.5303,38.66317 c 49.3632,6.12619 92.5351,44.77214 122.6506,81.95014 l 4.6002,-30.96826 c 11.8245,10.93146 23.3216,22.49541 33.3564,36.88708 l 3.0413,-39.51242 z"
       id="path4032-8"
       inkscape:connector-curvature="0"
       sodipodi:nodetypes="cccccccccccc" />
    <path
       style="fill:#ffffff;fill-opacity:1;stroke:none;stroke-width:2.10578156"
       d="m 415.88677,1219.3743 c -67.23274,1.5041 -134.94916,2.2264 -201.23055,14.633 -27.41909,5.4633 -53.16687,21.8972 -66.90356,46.15 -10.16013,18.9528 -11.15094,41.4051 -7.01237,62.1015 2.42688,15.0931 7.71037,30.8381 19.90527,41.0752 12.84393,10.7672 30.1434,14.1812 46.56524,15.1555 91.31369,7.9595 183.12097,9.3449 274.72524,6.926 39.41102,-1.5434 79.60615,-6.2496 115.83635,-22.4785 19.58445,-8.6659 38.73466,-20.6071 50.49718,-38.7197 15.84508,-24.428 18.40548,-57.4592 3.87551,-83.0462 -7.79449,-13.9525 -21.78776,-24.4666 -37.70255,-27.7646 -19.13679,-5.1091 -38.97866,-6.7121 -58.56516,-9.3389 -46.48238,-4.857 -93.30612,-4.7564 -139.9906,-4.6933 z"
       id="path3659-8-8"
       inkscape:connector-curvature="0"
       sodipodi:nodetypes="cssssc" />
    <path
       style="color:#000000;display:inline;overflow:visible;visibility:visible;fill:#ffffff;fill-opacity:1;fill-rule:nonzero;stroke:none;stroke-width:1.0321523px;marker:none;enable-background:accumulate"
       d="m 700.44297,1258.653 c 41.76085,-52.341 273.33371,-44.336 345.36233,-30.8546 78.6061,14.712 102.8078,35.5579 106.3227,81.2466 1.0858,14.1123 -5.2724,78.1075 -43.9382,90.7059 -38.6656,12.5976 -149.38992,18.8968 -188.05562,18.8968 -38.6656,0 -162.09488,-8.0182 -193.32854,-26.4562 -29.87795,-17.6366 -68.12363,-81.1982 -26.36267,-133.5385 z"
       id="path3330-0"
       inkscape:connector-curvature="0"
       sodipodi:nodetypes="zsssssz" />
    <path
       style="color:#000000;display:inline;overflow:visible;visibility:visible;fill:#ffffff;fill-opacity:1;fill-rule:nonzero;stroke:none;stroke-width:0.99999994px;marker:none;enable-background:accumulate"
       d="M 1127.7031 1285.3086 C 1092.5552 1285.8441 1058.1064 1293.742 1024.0877 1301.9027 C 974.95395 1312.3109 924.54864 1316.9562 874.34321 1315.1816 C 836.49134 1313.2099 799.61632 1303.7026 762.13281 1298.7949 C 734.99975 1294.9525 707.63349 1292.7299 680.22775 1292.4274 C 658.61809 1291.7661 636.60413 1291.427 615.51233 1296.8313 C 608.81321 1299.6045 602.41087 1305.8472 602.80279 1313.588 C 604.18008 1322.0196 615.21381 1326.4833 622.27887 1321.9386 C 648.12281 1314.0716 675.51631 1315.2077 702.14578 1316.9461 C 755.63276 1320.7743 807.68268 1335.2218 861.09284 1339.6659 C 897.16535 1342.4662 933.45221 1340.346 969.27328 1335.6383 C 1010.5721 1330.9445 1050.9896 1320.9392 1091.8719 1313.7577 C 1142.0061 1306.2965 1192.7632 1310.9359 1243.1777 1311.2773 C 1277.8468 1310.6571 1312.049 1317.2944 1346.0336 1323.3061 C 1359.112 1325.5698 1371.8244 1329.4786 1384.6429 1332.8152 C 1404.9653 1336.6273 1425.9616 1337.2918 1445.666 1344.0329 C 1447.7405 1344.6023 1450.7004 1345.5883 1452.2182 1345.9087 C 1426.2276 1333.0901 1398.6868 1323.5532 1370.5334 1316.7771 C 1353.3729 1310.3776 1335.7739 1304.7944 1317.5815 1302.301 C 1302.8794 1298.015 1288.5209 1290.6437 1272.8192 1291.4657 C 1224.3424 1292.4539 1176.163 1284.9034 1127.7031 1285.3086 z "
       id="path5050-5"
       inkscape:connector-curvature="0"
       sodipodi:nodetypes="csccscccccccccccc" />
  </g>
  <g
     inkscape:groupmode="layer"
     id="layer1"
     inkscape:label="txt">
    <text
       xml:space="preserve"
       style="font-style:normal;font-variant:normal;font-weight:normal;font-stretch:normal;line-height:0%;font-family:Lavi;-inkscape-font-specification:Lavi;text-align:center;letter-spacing:0px;word-spacing:0px;text-anchor:middle;fill:#000000;fill-opacity:1;stroke:none"
       x="272.01614"
       y="210.52769"
       id="text4246-10"><tspan
         sodipodi:role="line"
         style="font-size:45px;line-height:1.25"
         x="272.01614"
         y="210.52769"
         id="tspan4262">Escuta aqui!</tspan></text>
    <text
       xml:space="preserve"
       style="font-style:normal;font-variant:normal;font-weight:normal;font-stretch:normal;line-height:0%;font-family:Lavi;-inkscape-font-specification:Lavi;text-align:center;letter-spacing:0px;word-spacing:0px;text-anchor:middle;fill:#000000;fill-opacity:1;stroke:none"
       x="635.88397"
       y="179.88968"
       id="text4246-10-3"><tspan
         sodipodi:role="line"
         style="font-size:45px;line-height:1.25"
         x="635.88397"
         y="179.88968"
         id="tspan4262-6">Eu sou uma</tspan><tspan
         sodipodi:role="line"
         style="font-size:45px;line-height:1.25"
         x="635.88397"
         y="236.13968"
         id="tspan898">verdadeira bruxa</tspan><tspan
         sodipodi:role="line"
         style="font-size:45px;line-height:1.25"
         x="635.88397"
         y="292.38968"
         id="tspan900">de Chaosah.</tspan><tspan
         sodipodi:role="line"
         style="font-size:45px;line-height:1.25"
         x="635.88397"
         y="310.92322"
         id="tspan863" /></text>
    <text
       xml:space="preserve"
       style="font-style:normal;font-variant:normal;font-weight:normal;font-stretch:normal;line-height:0%;font-family:Lavi;-inkscape-font-specification:Lavi;text-align:center;letter-spacing:0px;word-spacing:0px;text-anchor:middle;fill:#000000;fill-opacity:1;stroke:none"
       x="1004.3275"
       y="216.5408"
       id="text4246-10-3-7"><tspan
         sodipodi:role="line"
         style="font-size:45px;line-height:1.25"
         x="1004.3275"
         y="216.5408"
         id="tspan4262-6-5">Eu até tenho</tspan><tspan
         sodipodi:role="line"
         style="font-size:45px;line-height:1.25"
         x="1004.3275"
         y="272.7908"
         id="tspan908">um diploma</tspan><tspan
         sodipodi:role="line"
         style="font-size:45px;line-height:1.25"
         x="1004.3275"
         y="329.0408"
         id="tspan871">que diz...</tspan></text>
    <text
       xml:space="preserve"
       style="font-style:normal;font-variant:normal;font-weight:normal;font-stretch:normal;line-height:0%;font-family:Lavi;-inkscape-font-specification:Lavi;text-align:center;letter-spacing:0px;word-spacing:0px;text-anchor:middle;display:inline;opacity:0.6;fill:#000000;fill-opacity:1;stroke:none;stroke-width:0.61894035;filter:url(#filter4213)"
       x="-447.29675"
       y="2872.5061"
       id="text4246-85"
       transform="matrix(1.3745356,0.03085482,-0.2413062,1.3023184,2295.9581,-3114.939)"><tspan
         sodipodi:role="line"
         style="font-style:normal;font-variant:normal;font-weight:normal;font-stretch:normal;font-size:68.81560516px;line-height:1.26999998;font-family:Fondamento;-inkscape-font-specification:Fondamento;stroke:#000000;stroke-width:0.70987916;stroke-opacity:1"
         x="-447.29675"
         y="2872.5061"
         id="tspan4172">Diploma</tspan></text>
    <text
       xml:space="preserve"
       style="font-style:normal;font-variant:normal;font-weight:normal;font-stretch:normal;line-height:0%;font-family:Lavi;-inkscape-font-specification:Lavi;text-align:center;letter-spacing:0px;word-spacing:0px;text-anchor:middle;display:inline;opacity:0.6;fill:#000000;fill-opacity:1;stroke:none;stroke-width:0.88680899;filter:url(#filter4213-1)"
       x="-447.29675"
       y="2872.5061"
       id="text4246-85-4"
       transform="matrix(0.95085692,0.02172708,-0.16692742,0.91705505,1882.16,-1925.4134)"><tspan
         sodipodi:role="line"
         style="font-style:normal;font-variant:normal;font-weight:normal;font-stretch:normal;font-size:68.81560516px;line-height:1.26999998;font-family:Fondamento;-inkscape-font-specification:Fondamento;stroke:#000000;stroke-width:1.01710486;stroke-opacity:1"
         x="-447.29675"
         y="2872.5061"
         id="tspan4172-78">de</tspan></text>
    <text
       xml:space="preserve"
       style="font-style:normal;font-variant:normal;font-weight:normal;font-stretch:normal;line-height:0%;font-family:Lavi;-inkscape-font-specification:Lavi;text-align:center;letter-spacing:0px;word-spacing:0px;text-anchor:middle;display:inline;opacity:0.6;fill:#000000;fill-opacity:1;stroke:none;stroke-width:0.76331925;filter:url(#filter4213-0)"
       x="-447.29675"
       y="2872.5061"
       id="text4246-85-3"
       transform="matrix(1.1126099,0.07589889,-0.1953239,1.0489042,2013.3945,-2215.8631)"><tspan
         sodipodi:role="line"
         style="font-style:normal;font-variant:normal;font-weight:normal;font-stretch:normal;font-size:68.81560516px;line-height:1.26999998;font-family:Fondamento;-inkscape-font-specification:Fondamento;stroke:#000000;stroke-width:0.87547123;stroke-opacity:1"
         x="-447.29675"
         y="2872.5061"
         id="tspan4172-7">Chaosah</tspan></text>
    <text
       xml:space="preserve"
       style="font-style:normal;font-variant:normal;font-weight:normal;font-stretch:normal;line-height:0%;font-family:Lavi;-inkscape-font-specification:Lavi;text-align:center;letter-spacing:0px;word-spacing:0px;text-anchor:middle;display:inline;opacity:0.69899998;fill:#202020;fill-opacity:1;stroke:#000000;stroke-width:0.34196657;stroke-miterlimit:4;stroke-dasharray:none;stroke-opacity:1;filter:url(#filter1266)"
       x="903.31201"
       y="2924.6372"
       id="text4246-8-3-7"
       transform="matrix(0.98507156,-0.49862606,0.34034107,1.288094,-1030.3969,-2382.8062)"><tspan
         sodipodi:role="line"
         style="font-style:normal;font-variant:normal;font-weight:normal;font-stretch:normal;font-size:51.00867081px;line-height:1.25;font-family:Cursivah;-inkscape-font-specification:Cursivah;fill:#202020;fill-opacity:1;stroke:#000000;stroke-width:0.34196657;stroke-miterlimit:4;stroke-dasharray:none;stroke-opacity:1"
         x="903.31201"
         y="2924.6372"
         id="tspan4150-8-6-5">Cayenne</tspan></text>
    <text
       xml:space="preserve"
       style="font-style:normal;font-variant:normal;font-weight:normal;font-stretch:normal;line-height:0%;font-family:Lavi;-inkscape-font-specification:Lavi;text-align:center;letter-spacing:0px;word-spacing:0px;text-anchor:middle;display:inline;opacity:0.69899998;fill:#202020;fill-opacity:1;stroke:#000000;stroke-width:0.33053353;stroke-miterlimit:4;stroke-dasharray:none;stroke-opacity:1;filter:url(#filter1266-5)"
       x="903.31201"
       y="2924.6372"
       id="text4246-8-3-7-2"
       transform="matrix(1.2249224,-0.16351137,-0.05268865,1.2640987,76.67569,-2662.2628)"><tspan
         sodipodi:role="line"
         style="font-size:38.3127861px;line-height:1.25;fill:#202020;fill-opacity:1;stroke:#000000;stroke-width:0.33053353;stroke-miterlimit:4;stroke-dasharray:none;stroke-opacity:1"
         x="903.31201"
         y="2924.6372"
         id="tspan4150-8-6-5-2">Cumin</tspan></text>
    <text
       xml:space="preserve"
       style="font-style:normal;font-variant:normal;font-weight:normal;font-stretch:normal;line-height:0%;font-family:Lavi;-inkscape-font-specification:Lavi;text-align:center;letter-spacing:-0.03348966px;word-spacing:0px;text-anchor:middle;display:inline;opacity:0.69899998;fill:#202020;fill-opacity:1;stroke:#000000;stroke-width:0.31403527;stroke-miterlimit:4;stroke-dasharray:none;stroke-opacity:1;filter:url(#filter1266-5-1)"
       x="903.31201"
       y="2924.6372"
       id="text4246-8-3-7-2-9"
       transform="matrix(1.4560413,-0.02137803,-0.63767126,1.180929,1526.7936,-2434.7947)"><tspan
         sodipodi:role="line"
         style="font-style:normal;font-variant:normal;font-weight:normal;font-stretch:normal;font-size:38.3127861px;line-height:1.25;font-family:Fondamento;-inkscape-font-specification:Fondamento;letter-spacing:-0.03348966px;fill:#202020;fill-opacity:1;stroke:#000000;stroke-width:0.31403527;stroke-miterlimit:4;stroke-dasharray:none;stroke-opacity:1"
         x="903.29529"
         y="2924.6372"
         id="tspan4150-8-6-5-2-3"><tspan
   style="font-size:53.58345795px;letter-spacing:-6.69793224px;stroke-width:0.31403527"
   id="tspan1399">T</tspan><tspan
   style="letter-spacing:-0.66979319px;stroke-width:0.31403527"
   id="tspan1407">h</tspan>yme</tspan></text>
    <text
       xml:space="preserve"
       style="font-style:normal;font-variant:normal;font-weight:normal;font-stretch:normal;line-height:0%;font-family:Lavi;-inkscape-font-specification:Lavi;text-align:center;letter-spacing:0px;word-spacing:0px;text-anchor:middle;display:inline;opacity:0.6;fill:#000000;fill-opacity:1;stroke:none;stroke-width:0.73875922;filter:url(#filter4213-8-8)"
       x="-447.29675"
       y="2872.5061"
       id="text4246-85-9-7"
       transform="matrix(1.1265079,-0.01406056,-0.02918254,1.1204037,1504.6499,-2132.9222)"><tspan
         sodipodi:role="line"
         style="font-style:normal;font-variant:normal;font-weight:normal;font-stretch:normal;font-size:49.19388962px;line-height:1.26999998;font-family:Fondamento;-inkscape-font-specification:Fondamento;stroke:#000000;stroke-width:0.84730262;stroke-opacity:1"
         x="-447.29675"
         y="2872.5061"
         id="tspan1120-6">~ para Pepper ~</tspan></text>
    <text
       xml:space="preserve"
       style="font-style:normal;font-variant:normal;font-weight:normal;font-stretch:normal;font-size:14.77923584px;line-height:0%;font-family:Lavi;-inkscape-font-specification:Lavi;text-align:center;letter-spacing:0px;word-spacing:0px;text-anchor:middle;fill:#000000;fill-opacity:1;stroke:#000000;stroke-width:1.30000007;stroke-miterlimit:4;stroke-dasharray:none;stroke-opacity:1"
       x="1619.0638"
       y="303.90353"
       id="text4246-7-6-4-0"
       transform="matrix(0.99650308,0,-0.23158448,1.0035092,0,0)"><tspan
         sodipodi:role="line"
         style="font-style:normal;font-variant:normal;font-weight:bold;font-stretch:normal;font-size:74.85820007px;line-height:1.25;font-family:Lavi;-inkscape-font-specification:'Lavi Bold';stroke:#000000;stroke-width:1.30000007;stroke-miterlimit:4;stroke-dasharray:none;stroke-opacity:1"
         x="1619.0638"
         y="303.90353"
         id="tspan4212-7">SILÊNCIO!</tspan></text>
    <path
       style="opacity:0.69899998;fill:none;fill-rule:evenodd;stroke:#202020;stroke-width:1.0516634;stroke-linecap:butt;stroke-linejoin:miter;stroke-miterlimit:4;stroke-dasharray:none;stroke-opacity:1;filter:url(#filter1639)"
       d="m 1547.1934,2802.853 c 3.8646,-3.5133 9.3102,-3.689 12.2965,-3.5133 2.9863,0.1757 7.0265,-4.7429 9.8371,-5.6212 2.8106,-0.8783 12.8234,0.1756 13.8774,-0.8783 1.054,-1.054 11.2425,-2.108 11.5938,-3.8646 0.3513,-1.7567 -0.086,-5.8644 -0.086,-5.8644"
       id="path1409"
       inkscape:connector-curvature="0"
       transform="matrix(2.332865,0.27867164,-0.32316546,2.0116733,-1731.1758,-5165.5624)"
       sodipodi:nodetypes="cssccc" />
    <path
       style="opacity:0.69899998;vector-effect:none;fill:none;fill-opacity:1;fill-rule:evenodd;stroke:#202020;stroke-width:0.32464391;stroke-linecap:butt;stroke-linejoin:miter;stroke-miterlimit:4;stroke-dasharray:none;stroke-dashoffset:0;stroke-opacity:1;filter:url(#filter1395)"
       d="m 1077.1201,752.52314 c 0.8783,-6.4995 5.6852,-7.2186 2.699,3.8482 -2.9863,11.0668 -52.5234,35.3083 -52.5234,35.3083"
       id="path910"
       inkscape:connector-curvature="0"
       sodipodi:nodetypes="ccc"
       transform="matrix(2.3551423,0,0,2.0308834,-1611.2802,-642.97344)" />
    <text
       xml:space="preserve"
       style="font-style:normal;font-variant:normal;font-weight:normal;font-stretch:normal;line-height:0%;font-family:Lavi;-inkscape-font-specification:Lavi;text-align:center;letter-spacing:0px;word-spacing:0px;text-anchor:middle;fill:#000000;fill-opacity:1;stroke:none"
       x="400.79132"
       y="1302.4747"
       id="text4246-5-5"><tspan
         sodipodi:role="line"
         style="font-style:normal;font-variant:normal;font-weight:normal;font-stretch:normal;font-size:45px;line-height:1.25;font-family:Lavi;-inkscape-font-specification:Lavi;text-align:center;text-anchor:middle"
         x="400.79132"
         y="1302.4747"
         id="tspan1094">Crianças não tem lugar</tspan><tspan
         sodipodi:role="line"
         style="font-style:normal;font-variant:normal;font-weight:normal;font-stretch:normal;font-size:45px;line-height:1.25;font-family:Lavi;-inkscape-font-specification:Lavi;text-align:center;text-anchor:middle"
         x="400.79132"
         y="1358.7247"
         id="tspan1096">no meu exército.</tspan></text>
    <text
       xml:space="preserve"
       style="font-style:normal;font-variant:normal;font-weight:normal;font-stretch:normal;line-height:0%;font-family:Lavi;-inkscape-font-specification:Lavi;text-align:center;letter-spacing:0px;word-spacing:0px;text-anchor:middle;fill:#000000;fill-opacity:1;stroke:none"
       x="914.54718"
       y="1280.3481"
       id="text4246-5-5-3"><tspan
         sodipodi:role="line"
         style="font-style:normal;font-variant:normal;font-weight:normal;font-stretch:normal;font-size:45px;line-height:1.25;font-family:Lavi;-inkscape-font-specification:Lavi;text-align:center;text-anchor:middle"
         x="914.54718"
         y="1280.3481"
         id="tspan1096-6">Vá para casa</tspan><tspan
         sodipodi:role="line"
         style="font-style:normal;font-variant:normal;font-weight:normal;font-stretch:normal;font-size:45px;line-height:1.25;font-family:Lavi;-inkscape-font-specification:Lavi;text-align:center;text-anchor:middle"
         x="914.54718"
         y="1336.5981"
         id="tspan934">brincar com as suas</tspan><tspan
         sodipodi:role="line"
         style="font-style:normal;font-variant:normal;font-weight:normal;font-stretch:normal;font-size:45px;line-height:1.25;font-family:Lavi;-inkscape-font-specification:Lavi;text-align:center;text-anchor:middle"
         x="914.54718"
         y="1392.8481"
         id="tspan1127">bonecas.</tspan></text>
    <text
       xml:space="preserve"
       style="color:#000000;font-style:normal;font-variant:normal;font-weight:normal;font-stretch:normal;line-height:0%;font-family:Arial;-inkscape-font-specification:Arial;letter-spacing:0.02734961px;word-spacing:0px;clip-rule:nonzero;display:inline;overflow:visible;visibility:visible;opacity:1;isolation:auto;mix-blend-mode:normal;color-interpolation:sRGB;color-interpolation-filters:linearRGB;solid-color:#000000;solid-opacity:1;fill:#ffffff;fill-opacity:1;fill-rule:nonzero;stroke:#ffffff;stroke-width:0.96854872;stroke-linecap:butt;stroke-linejoin:miter;stroke-miterlimit:4;stroke-dasharray:none;stroke-dashoffset:0;stroke-opacity:1;marker:none;filter:url(#filter5561-1);color-rendering:auto;image-rendering:auto;shape-rendering:auto;text-rendering:auto;enable-background:accumulate"
       id="text4251-1-3"
       inkscape:transform-center-x="-270.60518"
       inkscape:transform-center-y="60.453122"
       y="1742.2045"
       x="1705.2566"
       transform="matrix(0.91879135,-0.67832788,0.07526662,1.411228,-949.41897,401.37966)"><tspan
         sodipodi:role="line"
         id="tspan4253-5-1"
         x="1705.2566"
         y="1742.2045"
         style="font-style:normal;font-variant:normal;font-weight:normal;font-stretch:normal;font-size:45.57711792px;line-height:1.25;font-family:Lavi;-inkscape-font-specification:Lavi;letter-spacing:6.35989523px;stroke-width:0.96854872">Plaft!</tspan></text>
    <flowRoot
       xml:space="preserve"
       id="flowRoot971"
       style="font-style:normal;font-variant:normal;font-weight:normal;font-stretch:normal;font-size:0.66666669px;line-height:0%;font-family:Lavi;-inkscape-font-specification:Lavi;text-align:center;letter-spacing:22.65999985px;word-spacing:-79.63999939px;writing-mode:lr-tb;text-anchor:middle;fill:#000000;fill-opacity:1;stroke:none;stroke-width:1px;stroke-linecap:butt;stroke-linejoin:miter;stroke-opacity:1"><flowRegion
         id="flowRegion973"><rect
           id="rect975"
           width="33.872047"
           height="9.9623671"
           x="1695.5948"
           y="340.94467" /></flowRegion><flowPara
         id="flowPara977" /></flowRoot>    <text
       xml:space="preserve"
       style="font-style:normal;font-variant:normal;font-weight:normal;font-stretch:normal;font-size:10.17543411px;line-height:0%;font-family:Lavi;-inkscape-font-specification:Lavi;text-align:center;letter-spacing:0px;word-spacing:0px;text-anchor:middle;fill:#000000;fill-opacity:1;stroke:#000000;stroke-width:3.72000003;stroke-miterlimit:4;stroke-dasharray:none;stroke-opacity:1"
       x="2098.6653"
       y="2255.6174"
       id="text4246-6-5-6-0-2-1"
       transform="matrix(0.88228376,0,-0.23605329,1.1334222,0,0)"><tspan
         sodipodi:role="line"
         style="font-style:normal;font-variant:normal;font-weight:bold;font-stretch:normal;font-size:35.87166214px;line-height:1.25;font-family:Lavi;-inkscape-font-specification:'Lavi Bold';fill:#000000;fill-opacity:1;stroke:none;stroke-width:3.72000003;stroke-miterlimit:4;stroke-dasharray:none;stroke-opacity:1"
         x="2098.6653"
         y="2255.6174"
         id="tspan4252-7-3-1-2-9-2">HAHA HA HA!</tspan></text>
    <text
       xml:space="preserve"
       style="font-style:normal;font-variant:normal;font-weight:normal;font-stretch:normal;font-size:10.17543411px;line-height:0%;font-family:Lavi;-inkscape-font-specification:Lavi;text-align:center;letter-spacing:0px;word-spacing:0px;text-anchor:middle;fill:#000000;fill-opacity:1;stroke:#000000;stroke-width:3.72000003;stroke-miterlimit:4;stroke-dasharray:none;stroke-opacity:1"
       x="2367.9607"
       y="2228.4077"
       id="text4246-6-5-6-0-2-1-9"
       transform="matrix(0.88228376,0,-0.23605329,1.1334222,0,0)"><tspan
         sodipodi:role="line"
         style="font-style:normal;font-variant:normal;font-weight:bold;font-stretch:normal;font-size:35.87166214px;line-height:1.25;font-family:Lavi;-inkscape-font-specification:'Lavi Bold';fill:#000000;fill-opacity:1;stroke:none;stroke-width:3.72000003;stroke-miterlimit:4;stroke-dasharray:none;stroke-opacity:1"
         x="2367.9607"
         y="2228.4077"
         id="tspan4252-7-3-1-2-9-2-3">HAHA HA HA!</tspan></text>
    <text
       xml:space="preserve"
       style="font-style:normal;font-variant:normal;font-weight:normal;font-stretch:normal;font-size:10.17543411px;line-height:0%;font-family:Lavi;-inkscape-font-specification:Lavi;text-align:center;letter-spacing:0px;word-spacing:0px;text-anchor:middle;fill:#000000;fill-opacity:1;stroke:#000000;stroke-width:3.72000003;stroke-miterlimit:4;stroke-dasharray:none;stroke-opacity:1"
       x="2640.1641"
       y="2240.2549"
       id="text4246-6-5-6-0-2-1-9-6"
       transform="matrix(0.88228376,0,-0.23605329,1.1334222,0,0)"><tspan
         sodipodi:role="line"
         style="font-style:normal;font-variant:normal;font-weight:bold;font-stretch:normal;font-size:35.87166214px;line-height:1.25;font-family:Lavi;-inkscape-font-specification:'Lavi Bold';fill:#000000;fill-opacity:1;stroke:none;stroke-width:3.72000003;stroke-miterlimit:4;stroke-dasharray:none;stroke-opacity:1"
         x="2640.1641"
         y="2240.2549"
         id="tspan4252-7-3-1-2-9-2-3-0">HAHA HA HA!</tspan></text>
    <text
       xml:space="preserve"
       style="font-style:normal;font-variant:normal;font-weight:normal;font-stretch:normal;font-size:10.17543411px;line-height:0%;font-family:Lavi;-inkscape-font-specification:Lavi;text-align:center;letter-spacing:0px;word-spacing:0px;text-anchor:middle;fill:#000000;fill-opacity:1;stroke:#000000;stroke-width:3.72000003;stroke-miterlimit:4;stroke-dasharray:none;stroke-opacity:1"
       x="3150.7107"
       y="2239.4143"
       id="text4246-6-5-6-0-2-1-9-6-6"
       transform="matrix(0.88228376,0,-0.23605329,1.1334222,0,0)"><tspan
         sodipodi:role="line"
         style="font-style:normal;font-variant:normal;font-weight:bold;font-stretch:normal;font-size:35.87166214px;line-height:1.25;font-family:Lavi;-inkscape-font-specification:'Lavi Bold';fill:#000000;fill-opacity:1;stroke:none;stroke-width:3.72000003;stroke-miterlimit:4;stroke-dasharray:none;stroke-opacity:1"
         x="3150.7107"
         y="2239.4143"
         id="tspan4252-7-3-1-2-9-2-3-0-2">HA HA HAHA!</tspan></text>
  </g>
</svg>
