<?xml version="1.0" encoding="UTF-8" standalone="no"?>
<!-- Created with Inkscape (http://www.inkscape.org/) -->

<svg
   xmlns:dc="http://purl.org/dc/elements/1.1/"
   xmlns:cc="http://creativecommons.org/ns#"
   xmlns:rdf="http://www.w3.org/1999/02/22-rdf-syntax-ns#"
   xmlns:svg="http://www.w3.org/2000/svg"
   xmlns="http://www.w3.org/2000/svg"
   xmlns:xlink="http://www.w3.org/1999/xlink"
   xmlns:sodipodi="http://sodipodi.sourceforge.net/DTD/sodipodi-0.dtd"
   xmlns:inkscape="http://www.inkscape.org/namespaces/inkscape"
   id="svg2"
   version="1.1"
   inkscape:version="0.92.4 (5da689c313, 2019-01-14)"
   width="2481"
   height="3503"
   sodipodi:docname="E29P01.svg">
  <metadata
     id="metadata8">
    <rdf:RDF>
      <cc:Work
         rdf:about="">
        <dc:format>image/svg+xml</dc:format>
        <dc:type
           rdf:resource="http://purl.org/dc/dcmitype/StillImage" />
        <dc:title />
      </cc:Work>
    </rdf:RDF>
  </metadata>
  <defs
     id="defs6">
    <filter
       style="color-interpolation-filters:sRGB"
       id="filter3018"
       inkscape:label="Lapping"
       inkscape:menu="Distort"
       inkscape:menu-tooltip="Something like a water noise"
       height="1.3"
       y="-0.15000001"
       width="1.3"
       x="-0.15000001">
      <feTurbulence
         id="feTurbulence3020"
         numOctaves="5"
         seed="0"
         type="fractalNoise"
         baseFrequency="0.1"
         result="result1" />
      <feGaussianBlur
         id="feGaussianBlur3022"
         stdDeviation="2"
         result="result2" />
      <feDisplacementMap
         id="feDisplacementMap3024"
         in2="result2"
         scale="50"
         yChannelSelector="B"
         xChannelSelector="R"
         in="SourceGraphic" />
    </filter>
    <filter
       style="color-interpolation-filters:sRGB"
       id="filter3018-3"
       inkscape:label="Lapping"
       inkscape:menu="Distort"
       inkscape:menu-tooltip="Something like a water noise"
       height="1.3"
       y="-0.15000001"
       width="1.3"
       x="-0.15000001">
      <feTurbulence
         id="feTurbulence3020-6"
         numOctaves="5"
         seed="0"
         type="fractalNoise"
         baseFrequency="0.1"
         result="result1" />
      <feGaussianBlur
         id="feGaussianBlur3022-7"
         stdDeviation="2"
         result="result2" />
      <feDisplacementMap
         id="feDisplacementMap3024-5"
         in2="result2"
         scale="50"
         yChannelSelector="B"
         xChannelSelector="R"
         in="SourceGraphic" />
    </filter>
    <filter
       style="color-interpolation-filters:sRGB"
       id="filter3018-3-2"
       inkscape:label="Lapping"
       inkscape:menu="Distort"
       inkscape:menu-tooltip="Something like a water noise"
       height="1.3"
       y="-0.15000001"
       width="1.3"
       x="-0.15000001">
      <feTurbulence
         id="feTurbulence3020-6-9"
         numOctaves="5"
         seed="0"
         type="fractalNoise"
         baseFrequency="0.1"
         result="result1" />
      <feGaussianBlur
         id="feGaussianBlur3022-7-1"
         stdDeviation="2"
         result="result2" />
      <feDisplacementMap
         id="feDisplacementMap3024-5-2"
         in2="result2"
         scale="50"
         yChannelSelector="B"
         xChannelSelector="R"
         in="SourceGraphic" />
    </filter>
    <filter
       style="color-interpolation-filters:sRGB"
       id="filter3018-7"
       inkscape:label="Lapping"
       inkscape:menu="Distort"
       inkscape:menu-tooltip="Something like a water noise"
       height="1.3"
       y="-0.15000001"
       width="1.3"
       x="-0.15000001">
      <feTurbulence
         id="feTurbulence3020-0"
         numOctaves="5"
         seed="0"
         type="fractalNoise"
         baseFrequency="0.1"
         result="result1" />
      <feGaussianBlur
         id="feGaussianBlur3022-9"
         stdDeviation="2"
         result="result2" />
      <feDisplacementMap
         id="feDisplacementMap3024-3"
         in2="result2"
         scale="50"
         yChannelSelector="B"
         xChannelSelector="R"
         in="SourceGraphic" />
    </filter>
    <linearGradient
       inkscape:collect="always"
       xlink:href="#linearGradient964"
       id="linearGradient966"
       x1="483.93088"
       y1="252.79726"
       x2="521.5141"
       y2="254.66634"
       gradientUnits="userSpaceOnUse"
       gradientTransform="matrix(0.7318028,-0.00645912,0,0.52593651,127.71231,81.375383)" />
    <linearGradient
       inkscape:collect="always"
       id="linearGradient964">
      <stop
         style="stop-color:#918a6f;stop-opacity:1;"
         offset="0"
         id="stop960" />
      <stop
         style="stop-color:#c2bb9f;stop-opacity:1"
         offset="1"
         id="stop962" />
    </linearGradient>
    <radialGradient
       inkscape:collect="always"
       xlink:href="#linearGradient928"
       id="radialGradient932"
       cx="256.4834"
       cy="197.78122"
       fx="256.4834"
       fy="197.78122"
       r="182.11266"
       gradientTransform="matrix(1.531586,0.31372838,-0.25336446,0.61471419,-83.547813,-21.284558)"
       gradientUnits="userSpaceOnUse" />
    <linearGradient
       inkscape:collect="always"
       id="linearGradient928">
      <stop
         style="stop-color:#f3efe0;stop-opacity:1"
         offset="0"
         id="stop924" />
      <stop
         style="stop-color:#d9cc9d;stop-opacity:1"
         offset="1"
         id="stop926" />
    </linearGradient>
    <filter
       style="color-interpolation-filters:sRGB"
       id="filter3018-3-2-2"
       inkscape:label="Lapping"
       inkscape:menu="Distort"
       inkscape:menu-tooltip="Something like a water noise"
       height="1.3"
       y="-0.15000001"
       width="1.3"
       x="-0.15000001">
      <feTurbulence
         id="feTurbulence3020-6-9-0"
         numOctaves="5"
         seed="0"
         type="fractalNoise"
         baseFrequency="0.1"
         result="result1" />
      <feGaussianBlur
         id="feGaussianBlur3022-7-1-2"
         stdDeviation="2"
         result="result2" />
      <feDisplacementMap
         id="feDisplacementMap3024-5-2-3"
         in2="result2"
         scale="50"
         yChannelSelector="B"
         xChannelSelector="R"
         in="SourceGraphic" />
    </filter>
    <filter
       style="color-interpolation-filters:sRGB"
       id="filter3018-3-2-2-2"
       inkscape:label="Lapping"
       inkscape:menu="Distort"
       inkscape:menu-tooltip="Something like a water noise"
       height="1.3"
       y="-0.15000001"
       width="1.3"
       x="-0.15000001">
      <feTurbulence
         id="feTurbulence3020-6-9-0-9"
         numOctaves="5"
         seed="0"
         type="fractalNoise"
         baseFrequency="0.1"
         result="result1" />
      <feGaussianBlur
         id="feGaussianBlur3022-7-1-2-3"
         stdDeviation="2"
         result="result2" />
      <feDisplacementMap
         id="feDisplacementMap3024-5-2-3-1"
         in2="result2"
         scale="50"
         yChannelSelector="B"
         xChannelSelector="R"
         in="SourceGraphic" />
    </filter>
    <filter
       style="color-interpolation-filters:sRGB"
       id="filter3018-3-2-2-2-1"
       inkscape:label="Lapping"
       inkscape:menu="Distort"
       inkscape:menu-tooltip="Something like a water noise"
       height="1.3"
       y="-0.15000001"
       width="1.3"
       x="-0.15000001">
      <feTurbulence
         id="feTurbulence3020-6-9-0-9-0"
         numOctaves="5"
         seed="0"
         type="fractalNoise"
         baseFrequency="0.1"
         result="result1" />
      <feGaussianBlur
         id="feGaussianBlur3022-7-1-2-3-6"
         stdDeviation="2"
         result="result2" />
      <feDisplacementMap
         id="feDisplacementMap3024-5-2-3-1-3"
         in2="result2"
         scale="50"
         yChannelSelector="B"
         xChannelSelector="R"
         in="SourceGraphic" />
    </filter>
    <filter
       style="color-interpolation-filters:sRGB"
       id="filter3018-7-5"
       inkscape:label="Lapping"
       inkscape:menu="Distort"
       inkscape:menu-tooltip="Something like a water noise"
       height="1.3"
       y="-0.15000001"
       width="1.3"
       x="-0.15000001">
      <feTurbulence
         id="feTurbulence3020-0-6"
         numOctaves="5"
         seed="0"
         type="fractalNoise"
         baseFrequency="0.1"
         result="result1" />
      <feGaussianBlur
         id="feGaussianBlur3022-9-9"
         stdDeviation="1.5"
         result="result2" />
      <feDisplacementMap
         id="feDisplacementMap3024-3-3"
         in2="result2"
         scale="50"
         yChannelSelector="B"
         xChannelSelector="R"
         in="SourceGraphic" />
    </filter>
    <filter
       style="color-interpolation-filters:sRGB"
       id="filter3018-3-2-2-7"
       inkscape:label="Lapping"
       inkscape:menu="Distort"
       inkscape:menu-tooltip="Something like a water noise"
       height="1.3"
       y="-0.15000001"
       width="1.3"
       x="-0.15000001">
      <feTurbulence
         id="feTurbulence3020-6-9-0-4"
         numOctaves="5"
         seed="0"
         type="fractalNoise"
         baseFrequency="0.1"
         result="result1" />
      <feGaussianBlur
         id="feGaussianBlur3022-7-1-2-4"
         stdDeviation="2"
         result="result2" />
      <feDisplacementMap
         id="feDisplacementMap3024-5-2-3-3"
         in2="result2"
         scale="50"
         yChannelSelector="B"
         xChannelSelector="R"
         in="SourceGraphic" />
    </filter>
    <filter
       style="color-interpolation-filters:sRGB"
       id="filter3018-3-2-2-7-8"
       inkscape:label="Lapping"
       inkscape:menu="Distort"
       inkscape:menu-tooltip="Something like a water noise"
       height="1.3"
       y="-0.15000001"
       width="1.3"
       x="-0.15000001">
      <feTurbulence
         id="feTurbulence3020-6-9-0-4-8"
         numOctaves="5"
         seed="0"
         type="fractalNoise"
         baseFrequency="0.1"
         result="result1" />
      <feGaussianBlur
         id="feGaussianBlur3022-7-1-2-4-4"
         stdDeviation="2"
         result="result2" />
      <feDisplacementMap
         id="feDisplacementMap3024-5-2-3-3-3"
         in2="result2"
         scale="50"
         yChannelSelector="B"
         xChannelSelector="R"
         in="SourceGraphic" />
    </filter>
  </defs>
  <sodipodi:namedview
     pagecolor="#ffffff"
     bordercolor="#666666"
     borderopacity="1"
     objecttolerance="10"
     gridtolerance="10"
     guidetolerance="10"
     inkscape:pageopacity="0"
     inkscape:pageshadow="2"
     inkscape:window-width="1871"
     inkscape:window-height="1056"
     id="namedview4"
     showgrid="false"
     inkscape:zoom="0.25775554"
     inkscape:cx="584.28693"
     inkscape:cy="1551.8125"
     inkscape:window-x="49"
     inkscape:window-y="24"
     inkscape:window-maximized="1"
     inkscape:current-layer="layer1"
     inkscape:snap-global="false" />
  <g
     inkscape:groupmode="layer"
     id="layer2"
     inkscape:label="artwork"
     sodipodi:insensitive="true">
    <image
       sodipodi:absref="/felles/omsetting/pepper-carrot/webcomics/ep29_Destroyer-of-Worlds/lang/nn/../gfx_Pepper-and-Carrot_by-David-Revoy_E29P01.png"
       xlink:href="../gfx_Pepper-and-Carrot_by-David-Revoy_E29P01.png"
       width="2481"
       height="3503"
       id="image10"
       x="0"
       y="0" />
  </g>
  <g
     inkscape:groupmode="layer"
     id="layer3"
     inkscape:label="speechbubbles"
     style="display:inline">
    <path
       style="color:#000000;display:inline;overflow:visible;visibility:visible;fill:#101010;fill-opacity:1;fill-rule:nonzero;stroke:none;stroke-width:0.99999994px;marker:none;enable-background:accumulate"
       d="m 2192.2514,3117.3272 c 14.9445,-43.4849 20.5793,-85.1201 -10.9877,-108.6818 55.3429,24.3622 47.5109,110.6327 42.6787,137.0071 -4.8322,26.3745 -31.691,-28.3253 -31.691,-28.3253 z"
       id="path5010"
       inkscape:connector-curvature="0" />
    <path
       style="color:#000000;display:inline;overflow:visible;visibility:visible;fill:#0f0f0f;fill-opacity:1;fill-rule:nonzero;stroke:none;stroke-width:1px;marker:none;enable-background:accumulate"
       d="m 1263.381,2497.9192 c 8.4719,17.8984 14.9795,39.5894 14.2356,43.8801 -0.7439,4.2907 -23.2819,20.6864 -21.2553,26.7647 2.0266,6.0781 17.6118,13.0975 17.7588,17.0957 0.147,3.9981 -14.044,18.551 -12.0664,23.2965 1.9777,4.7455 23.1171,23.8778 22.9345,27.085 -0.1827,3.2072 -1.0468,20.5758 5.2648,36.9358 3.2784,-33.4479 10.0264,-37.9126 7.9996,-43.9908 -2.0264,-6.0782 -17.1484,-16.8465 -17.0637,-22.7192 0.084,-5.8725 13.3847,-20.1328 10.7478,-26.4601 -2.6369,-6.3273 -13.3892,-12.6864 -13.3892,-12.6864 6.5165,-2.5902 38.0119,-20.5796 31.0634,-54.2648 -6.9484,-33.6853 -46.2299,-14.9365 -46.2299,-14.9365 z"
       id="path5050"
       inkscape:connector-curvature="0" />
    <path
       style="color:#000000;display:inline;overflow:visible;visibility:visible;opacity:1;fill:#0f0f0f;fill-opacity:1;fill-rule:nonzero;stroke:none;stroke-width:0.92131662px;marker:none;filter:url(#filter3018-7);enable-background:accumulate"
       d="m 168.28312,283.8421 c 0,-33.58279 14.75908,-50.8989 58.54415,-54.04737 43.78511,-3.14835 169.7094,-7.85644 188.89616,3.16291 19.18671,11.01941 19.20607,27.27159 20.19004,49.31029 0.98391,22.03871 -49.15482,72.90604 -92.9228,70.88969 -34.17117,-1.57423 -91.76602,6.39736 -115.38046,-1.47364 -23.61444,-7.871 -57.3592,-41.08057 -59.32709,-67.84188 z"
       id="path3986"
       inkscape:connector-curvature="0"
       sodipodi:nodetypes="csssssc"
       transform="matrix(1.1064327,0,0,1.1130217,731.25226,493.96877)" />
    <path
       style="opacity:1;fill:#0f0f0f;fill-opacity:1;stroke:none"
       d="m 1068.5767,1042.6614 c 2.8076,36.5266 -11.3531,47.358 -7.5295,55.3048 3.8237,7.9469 15.8815,11.5559 18.3467,1.8286 2.4651,-9.7273 -8.7342,-30.033 -4.1662,-54.2007"
       id="path3060"
       inkscape:connector-curvature="0" />
    <path
       style="opacity:1;fill:#0f0f0f;fill-opacity:1;stroke:none;stroke-width:0.99999994"
       d="m 1404.5355,982.05389 c 3.1888,39.43331 -12.8949,51.12671 -8.552,59.70591 4.343,8.5793 18.0383,12.4755 20.8384,1.9741 2.7999,-10.5014 -9.9204,-32.4231 -4.732,-58.51405"
       id="path3060-9"
       inkscape:connector-curvature="0" />
    <path
       style="color:#000000;display:inline;overflow:visible;visibility:visible;opacity:1;fill:#0f0f0f;fill-opacity:1;fill-rule:nonzero;stroke:none;stroke-width:1px;marker:none;enable-background:accumulate"
       d="m 1167.515,1008.4201 c 5.756,16.0551 36.8697,21.8704 34.6394,25.8409 -2.2303,3.9705 -43.01,23.6375 -44.822,28.8265 -1.4766,4.2968 13.32,2.0583 17.0774,2.8471 3.7574,0.7889 13.421,0.9232 18.1192,11.2971 4.6984,10.374 -4.1293,24.3583 -11.7604,31.5826 -7.631,7.2244 -21.254,9.8009 -18.5521,17.9701 2.7018,8.1692 10.3661,3.5153 15.2974,2.8158 4.9315,-0.6993 26.8788,-5.3934 34.7459,-4.099 7.8671,1.2945 30.5976,14.4124 28.7208,26.263 -7.6706,-12.0246 -17.5023,-14.2985 -24.782,-13.888 -7.2799,0.4104 -19.721,1.229 -27.4698,5.8264 -7.7489,4.5977 -22.1356,7.9519 -28.946,5.8077 -6.8106,-2.144 -16.55,-7.3392 -17.843,-16.6413 -1.293,-9.3019 -2.8828,-17.8086 9.4444,-27.7204 7.631,-7.2244 10.8006,-11.4057 9.7435,-13.8216 -1.0571,-2.4157 -10.3335,-4.2101 -19.6089,-1.1065 -9.2754,3.1036 -21.7936,1.0176 -23.2036,-4.3803 -1.4097,-5.398 2.4238,-16.8664 7.5618,-25.344 5.1379,-13.8512 34.8579,-36.7588 34.8579,-36.7588 z"
       id="path5058"
       inkscape:connector-curvature="0"
       sodipodi:nodetypes="cscsssssscssssccscccc" />
    <path
       style="color:#000000;display:inline;overflow:visible;visibility:visible;opacity:1;fill:#0f0f0f;fill-opacity:1;fill-rule:nonzero;stroke:none;stroke-width:0.97100657px;marker:none;filter:url(#filter3018-3-2);enable-background:accumulate"
       d="m 150.23771,339.2262 c 0,-56.01207 31.18983,-106.33705 104.99344,-111.58832 73.80368,-5.25107 286.06024,-13.1036 318.40123,5.27536 32.3409,18.37905 46.26011,64.40671 47.91868,101.16462 1.65847,36.75793 -72.14522,99.95629 -145.94884,97.33075 -73.8037,-2.62563 -206.92076,7.74969 -246.72499,-5.37819 C 189.073,412.90253 153.55476,383.86084 150.23771,339.2262 Z"
       id="path3986-3"
       inkscape:connector-curvature="0"
       sodipodi:nodetypes="csssssc"
       transform="matrix(1.1653238,0,0,0.92211828,728.67625,656.3082)" />
    <path
       style="opacity:1;fill:#0f0f0f;fill-opacity:1;stroke:none"
       d="m 927.57921,825.10587 c 2.0926,31.7613 -8.4621,41.1796 -5.6121,48.0897 2.85,6.9101 11.8373,10.0483 13.6748,1.59 1.8374,-8.4583 -6.5101,-26.1149 -3.1053,-47.1297"
       id="path3060-9-6"
       inkscape:connector-curvature="0" />
    <path
       style="opacity:1;fill:#0f0f0f;fill-opacity:1;stroke:none"
       d="m 965.79664,1021.9037 c 4.1246,27.5199 -5.4305,36.5008 -2.2235,42.3123 3.207,5.8116 12.083,7.8862 13.2942,0.3816 1.2112,-7.5046 -8.0105,-22.2759 -6.1203,-40.8359"
       id="path3060-4"
       inkscape:connector-curvature="0" />
    <g
       transform="matrix(1.1272584,0.01466921,0,1.6619851,-100.4119,-119.9094)"
       id="g975"
       style="stroke-width:0.65149605">
      <path
         inkscape:connector-curvature="0"
         id="path101"
         d="m 549.88676,190.72919 c -3.54348,-0.0348 -7.29462,0.1157 -11.15995,0.53804 0,0 -30.0934,106.15112 -34.39246,120.39084 11.46417,0 17.19658,2.58826 28.66075,3.88278 11.46419,1.29452 32.95953,-2.58907 41.55766,-3.23633 8.59813,-0.64726 15.76193,2.58904 44.42238,0 -2.86603,0.64726 -12.18043,-6.47148 -16.47949,-9.06051 -4.29907,-2.58904 -2.86564,-7.7685 -5.73169,-13.59384 -7.1651,4.53081 -12.18133,-3e-5 -15.76388,-3.23633 -3.58256,-3.2363 0,-4.52924 0,-4.52924 l 11.4634,-8.41405 c 0,0 -3.58217,-14.24033 -5.7317,-17.47663 -2.14954,-3.2363 2.86698,-16.18167 2.86698,-16.18167 0,0 3.58164,-9.0614 0.71562,-14.88673 -2.86604,-5.82535 4.29867,-7.11997 5.73169,-9.70901 1.43304,-2.58904 9.31656,-12.29889 9.31656,-12.29889 l 7.88082,-3.88279 19.34646,-0.64645 10.74778,-5.82622 -16.48174,0.64645 -24.3603,2.58989 -25.79378,-1.29494 c 0,0 -11.46004,-3.62374 -26.81511,-3.77437 z m 14.40511,63.85728 c 0,0 11.92148,1.46891 13.54683,3.42659 1.62535,1.95768 4.33226,0.4895 6.4994,1.95776 2.16714,1.46826 4.87786,9.7878 2.71073,10.76663 -2.16714,0.97885 -5.41927,3.42554 -7.58642,2.44669 -2.16713,-0.97883 -4.87568,-5.87327 -4.87568,-5.87327 -0.54179,-4.40479 0,-6.85113 0,-6.85113 z"
         style="fill:url(#linearGradient966);fill-opacity:1;fill-rule:evenodd;stroke:none;stroke-width:0.65149599px;stroke-linecap:butt;stroke-linejoin:miter;stroke-opacity:1" />
      <path
         inkscape:connector-curvature="0"
         id="path958"
         d="m 504.79715,310.61856 c 0,0 8.1984,-5.23752 15.06909,-6.63932 6.87069,-1.40181 24.66762,-6.18478 30.68906,-7.94356 l 6.13248,-1.15243 -4.75833,-30.62178 -8.70287,-22.89613 -30.68908,2.80361 -5.49655,49.06313 z"
         style="fill:#6c6753;fill-rule:evenodd;stroke:#6c6753;stroke-width:0.65149605px;stroke-linecap:butt;stroke-linejoin:miter;stroke-opacity:1"
         sodipodi:nodetypes="ccscccccc" />
      <path
         inkscape:connector-curvature="0"
         id="path99"
         d="m 567.92133,152.34375 c -0.137,0.0194 -0.27605,0.0584 -0.4184,0.11719 -4.55511,1.87969 -37.35272,-0.93945 -43.72988,3.75976 -6.37716,4.69921 -87.18552,-0.94062 -102.67291,-2.82031 -15.48737,-1.87968 -89.09394,-3.37313 -101.84823,-0.5536 -12.75432,2.81953 -45.55159,6.57969 -85.63658,2.82032 l 2.73193,9.39843 0.91253,7.51758 -3.64446,7.51953 h 2.73193 l 14.57789,5.63867 v 8.45899 l -6.37831,6.57812 -10.02087,1.88086 -12.75471,40.41211 c 0,0 1.82168,6.57852 0.91065,10.33789 -0.91102,3.75937 -10.01975,15.97738 -17.30793,46.99219 17.30942,-1.87969 34.61853,-3.75937 55.57205,-4.69922 20.95351,-0.93984 84.53843,13.7118 98.20376,13.7118 13.66534,0 43.72953,-2.81915 62.861,-5.63867 19.13147,-2.81953 89.91973,-2.81992 99.94097,-3.75977 10.02124,-0.93985 22.7756,-7.51873 36.44093,-4.69921 -1.82203,-11.27811 -0.91216,-15.03595 -1.82318,-22.55469 -0.91103,-7.51874 8.19884,-29.13674 10.02088,-38.53516 1.82205,-9.39843 1.82318,-18.79493 1.82318,-23.49414 0,-4.69921 4.55513,-6.58008 4.55513,-6.58008 l -4.55513,-9.39843 c 0,0 3.6441,-12.21799 4.55513,-18.79688 0.88254,-6.37331 -0.80007,-24.21344 -5.04737,-23.61328 z m -328.6301,64.755 c 1.75327,0.02 3.16423,0.6712 3.36239,2.30664 0.45294,3.73815 2.2656,8.87803 -0.90497,11.68164 -3.17058,2.80361 -11.32342,-0.46687 -11.32342,-2.33594 0,-1.86907 2.2643,-9.3457 2.2643,-9.3457 1.52868,-1.31419 4.34751,-2.33231 6.6017,-2.30664 z"
         style="fill:url(#radialGradient932);fill-opacity:1;fill-rule:evenodd;stroke:none;stroke-width:0.65149599px;stroke-linecap:butt;stroke-linejoin:miter;stroke-opacity:1"
         sodipodi:nodetypes="ccsssccccccccccccssssccsscccccccscc" />
      <path
         inkscape:connector-curvature="0"
         id="path109"
         d="m 500.39935,227.45228 c 4.8646,-2.80361 12.64794,-2.33634 14.59378,0.46727 1.94585,2.80361 7.78336,6.07448 6.32398,8.87809 -1.45938,2.80361 -4.8646,8.41082 -7.78336,8.41082 -2.91876,0 -11.18856,1.86907 -13.62086,-2.33634 -2.4323,-4.20541 -4.37814,-8.87809 -3.40521,-11.21443 0.97291,-2.33634 3.89167,-4.20541 3.89167,-4.20541 z"
         style="opacity:0.53299997;fill:#cbc29a;fill-opacity:1;fill-rule:evenodd;stroke:none;stroke-width:0.65149599px;stroke-linecap:butt;stroke-linejoin:miter;stroke-opacity:1" />
      <path
         inkscape:connector-curvature="0"
         id="path111"
         d="m 526.66816,190.53812 c 7.29689,-4.20541 14.59379,-4.20541 16.05316,0.93454 1.45939,5.13994 4.8646,8.87808 0.48646,10.74716 -4.37813,1.86907 -10.7021,9.81262 -13.62086,4.20541 -2.91876,-5.60722 -9.72919,-8.41082 -8.75627,-9.81263 0.97291,-1.4018 5.83751,-6.07448 5.83751,-6.07448 z"
         style="opacity:0.53299997;vector-effect:none;fill:#cbc29a;fill-opacity:1;fill-rule:evenodd;stroke:none;stroke-width:0.65149599px;stroke-linecap:butt;stroke-linejoin:miter;stroke-miterlimit:4;stroke-dasharray:none;stroke-dashoffset:0;stroke-opacity:1" />
      <path
         inkscape:connector-curvature="0"
         id="path113"
         d="m 517.91189,269.50639 c 4.8646,-2.80361 8.75627,0 8.75627,3.27087 0,3.27088 2.4323,6.54175 -2.91875,6.54175 -5.35106,0 -9.72919,0.46727 -9.72919,-3.27087 0,-3.73814 3.89167,-6.54175 3.89167,-6.54175 z"
         style="opacity:0.53299997;vector-effect:none;fill:#cbc29a;fill-opacity:1;fill-rule:evenodd;stroke:none;stroke-width:0.65149599px;stroke-linecap:butt;stroke-linejoin:miter;stroke-miterlimit:4;stroke-dasharray:none;stroke-dashoffset:0;stroke-opacity:1" />
      <path
         inkscape:connector-curvature="0"
         id="path115"
         d="m 499.42643,283.05716 c 3.40522,-6.07449 6.81043,-4.67268 6.81043,-4.67268 l 4.37813,4.67268 -5.35104,5.60721 z"
         style="opacity:0.53299997;vector-effect:none;fill:#cbc29a;fill-opacity:1;fill-rule:evenodd;stroke:none;stroke-width:0.65149599px;stroke-linecap:butt;stroke-linejoin:miter;stroke-miterlimit:4;stroke-dasharray:none;stroke-dashoffset:0;stroke-opacity:1" />
    </g>
    <path
       style="fill:#0f0f0f;fill-opacity:1;stroke:none;stroke-width:1"
       d="m 1600.6957,1390.5913 c 24.5589,5.7352 36.1331,28.4179 33.4474,42.48 -2.6857,14.0621 -30.7585,40.7541 -25.6969,47.701 5.0617,6.9468 15.851,10.6091 23.551,14.4427 24.9731,12.4334 -1.9689,39.2733 -1.9597,48.9468 0.01,9.6736 21.4782,30.6042 21.4782,30.6042 0,0 17.3988,-32.1731 19.0338,-44.7703 1.6347,-12.5972 8.837,-21.7317 8.1685,-26.8016 -0.6681,-5.0699 -11.5505,-17.6316 -19.0808,-22.6113 -7.5302,-4.9796 -17.2978,-5.5767 -23.9333,-7.908 -6.6357,-2.331 14.4443,-26.9612 14.3196,-37.8425 -0.1247,-10.8813 -11.6787,-31.9063 -24.7689,-38.5058 -13.09,-6.5994 -24.5592,-5.7352 -24.5592,-5.7352 z"
       id="path3023"
       inkscape:connector-curvature="0"
       sodipodi:nodetypes="csssscsssssscc" />
    <path
       style="color:#000000;display:inline;overflow:visible;visibility:visible;opacity:1;fill:#0f0f0f;fill-opacity:1;fill-rule:nonzero;stroke:none;stroke-width:1.03416967px;marker:none;filter:url(#filter3018-3-2-2);enable-background:accumulate"
       d="m 179.12788,360.18442 c 0,-52.80693 25.71827,-117.3131 91.33022,-134.35644 67.49521,-17.53252 245.47576,-18.27652 321.7222,15.98269 49.50269,22.24263 54.52069,62.29394 56.0375,96.94848 1.5167,34.65455 -9.00944,178.28565 -73.92693,197.47604 -98.03201,28.97944 -282.53278,27.84966 -343.20244,-9.78866 C 189.4505,500.61514 182.16141,402.26497 179.12788,360.18442 Z"
       id="path3986-3-7"
       inkscape:connector-curvature="0"
       sodipodi:nodetypes="csssssc"
       transform="matrix(1.030959,0,0,0.94210874,1321.5896,1309.875)" />
    <path
       style="display:inline;opacity:1;fill:#0f0f0f;fill-opacity:1;stroke:none"
       d="m 1622.2996,1804.6853 c 2.8076,36.5266 -11.3531,47.358 -7.5295,55.3048 3.8237,7.9469 15.8815,11.5559 18.3467,1.8286 2.4651,-9.7273 -8.7342,-30.033 -4.1662,-54.2007"
       id="path3060-5"
       inkscape:connector-curvature="0" />
    <path
       style="display:inline;opacity:1;fill:#0f0f0f;fill-opacity:1;stroke:none"
       d="m 1952.1802,1760.0639 c 2.8076,36.5266 -5.949,47.358 -2.1254,55.3048 3.8237,7.9469 15.8815,11.5559 18.3467,1.8286 2.4651,-9.7273 -8.7342,-30.033 -4.1662,-54.2007"
       id="path3060-5-9"
       inkscape:connector-curvature="0"
       sodipodi:nodetypes="cccc" />
    <path
       style="display:inline;opacity:1;fill:#0f0f0f;fill-opacity:1;stroke:none;stroke-width:1"
       d="m 1501.0373,1645.9125 c 5.3812,33.3121 -17.0906,43.7731 -12.9066,50.8078 4.184,7.0347 21.4818,8.1166 23.062,-0.9675 23.6461,1.5401 -6.1629,-13.6833 3.6585,-52.4948"
       id="path3060-4-2"
       inkscape:connector-curvature="0"
       sodipodi:nodetypes="cscc" />
    <path
       style="fill:#0f0f0f;fill-opacity:1;stroke:none;stroke-width:1"
       d="m 250.60992,2738.0007 c -29.0203,-27.199 -30.3395,-41.8764 -23.24119,-53.2904 7.09808,-11.4143 11.60319,-24.3514 8.1083,-32.1376 -3.49468,-7.786 -10.13615,-13.2728 -18.3006,-18.4048 -21.40585,-13.4553 18.16258,-30.9329 21.01071,-39.4089 2.84807,-8.4763 -36.56643,-19.2552 -36.56643,-19.2552 0,0 -4.64653,14.8347 -10.16022,25.319 -5.51391,10.4842 -7.59619,14.295 -8.36204,18.9603 -0.76564,4.6654 1.91955,12.6664 8.70102,19.5592 6.78147,6.8929 17.30998,10.0813 23.89327,14.3535 6.58347,4.2722 0.13761,18.1256 -2.94073,27.6983 -3.07846,9.5727 -3.38805,16.9343 6.86519,31.4162 8.78883,12.4137 30.99272,25.1904 30.99272,25.1904 z"
       id="path3023-2"
       inkscape:connector-curvature="0"
       sodipodi:nodetypes="csssscssssssc" />
    <path
       style="color:#000000;display:inline;overflow:visible;visibility:visible;opacity:1;fill:#0f0f0f;fill-opacity:1;fill-rule:nonzero;stroke:none;stroke-width:1.03416967px;marker:none;filter:url(#filter3018-3-2-2-2);enable-background:accumulate"
       d="m 589.37375,248.80282 c 12.84005,5.76932 16.71059,35.95854 24.4458,43.66128 7.73521,7.70274 -24.03529,15.31735 -20.07614,24.20113 3.95916,8.88379 -11.58746,42.02461 -10.07556,51.33706 1.51189,9.31244 53.9479,38.71478 54.34133,47.7035 0.39343,8.98873 -28.24619,21.56541 -30.10115,40.90336 -1.85495,19.33795 8.54469,41.66959 3.06831,63.78876 -5.47638,22.11917 -29.98644,2.14167 -40.45729,19.47406 -10.47085,17.3324 -17.71855,19.89666 -34.5569,24.87428 -25.42763,7.51671 -20.02733,-16.58698 -48.5075,-16.56924 -33.38477,0.0208 -6.88185,24.15693 -41.10088,23.44892 -34.21904,-0.70801 -14.95034,-15.79216 -43.33737,-20.92375 -28.38702,-5.13159 -26.80733,24.12181 -42.54388,14.35915 -10.80008,-6.70016 -27.29346,-12.86731 -34.12668,-26.88464 -6.83321,-14.01734 -37.27304,35.6673 -41.11509,18.50846 -20.95094,-390.01935 -47.92119,-294.57164 304.143,-307.88233 z"
       id="path3986-3-7-9"
       inkscape:connector-curvature="0"
       sodipodi:nodetypes="cssssssssssssscc"
       transform="matrix(1.0376604,0,0,0.94190613,-205.9646,2089.4259)" />
    <rect
       style="color:#000000;clip-rule:nonzero;display:inline;overflow:visible;visibility:visible;opacity:1;isolation:auto;mix-blend-mode:normal;color-interpolation:sRGB;color-interpolation-filters:linearRGB;solid-color:#000000;solid-opacity:1;vector-effect:none;fill:#ffffff;fill-opacity:1;fill-rule:nonzero;stroke:none;stroke-width:1.5;stroke-linecap:butt;stroke-linejoin:miter;stroke-miterlimit:4;stroke-dasharray:none;stroke-dashoffset:0;stroke-opacity:1;marker:none;paint-order:stroke fill markers;color-rendering:auto;image-rendering:auto;shape-rendering:auto;text-rendering:auto;enable-background:accumulate"
       id="rect1243-4"
       width="596.69598"
       height="61.288307"
       x="-2812.6338"
       y="40.783878"
       transform="rotate(-90)" />
    <path
       style="display:inline;opacity:1;fill:#0f0f0f;fill-opacity:1;stroke:none"
       d="m 151.3791,2592.0721 c 2.8076,36.5266 -11.3531,47.358 -7.5295,55.3048 3.8237,7.9469 15.8815,11.5559 18.3467,1.8286 2.4651,-9.7273 -8.7342,-30.033 -4.1662,-54.2007"
       id="path3060-5-7"
       inkscape:connector-curvature="0" />
    <path
       style="color:#000000;display:inline;overflow:visible;visibility:visible;opacity:1;fill:#0f0f0f;fill-opacity:1;fill-rule:nonzero;stroke:none;stroke-width:1px;marker:none;enable-background:accumulate"
       d="m 667.7791,2848.8642 c 33.71458,-10.0399 56.65107,-20.7413 80.08528,-48.578 -2.47358,-21.4283 -44.05269,-16.1085 -27.63149,-37.4416 27.07704,-14.3492 53.32562,-42.5179 48.09918,-75.3645 -15.89655,-32.5264 -72.59906,-3.3372 -67.70013,25.893 -14.54954,30.5606 -7.2637,36.467 -28.23567,48.5286 -4.9287,27.362 34.9634,21.0683 49.96947,35.3389 -2.39274,16.8748 -33.91844,36.7956 -50.61537,49.5892 z"
       id="path5162"
       inkscape:connector-curvature="0"
       sodipodi:nodetypes="ccccccccc" />
    <path
       style="color:#000000;display:inline;overflow:visible;visibility:visible;opacity:1;fill:#0f0f0f;fill-opacity:1;fill-rule:nonzero;stroke:none;stroke-width:0.94811273px;marker:none;filter:url(#filter3018-3-2-2-2-1);enable-background:accumulate"
       d="m 605.17066,246.62324 c 12.84005,5.76932 25.96374,38.87106 33.69895,46.5738 7.73521,7.70274 -0.52681,32.44959 3.43234,41.33337 3.95916,8.88379 5.88232,17.61107 7.39422,26.92352 1.51189,9.31244 3.71649,43.08356 4.10992,52.07228 0.39343,8.98873 -14.22002,32.18805 -16.07498,51.526 -1.85495,19.33795 25.3709,31.65908 19.89452,53.77825 -5.47638,22.11917 8.91409,49.8221 -1.55676,67.15449 -10.47085,17.3324 -56.98757,33.38572 -73.82592,38.36334 -25.42763,7.51671 -51.50271,-6.99392 -79.98288,-6.97618 -33.38477,0.0208 -21.05564,28.03764 -55.27467,27.32963 -34.21904,-0.70801 -27.5405,-11.95493 -55.92753,-17.08652 -28.38702,-5.13159 -36.50657,15.65961 -52.24312,5.89695 -10.80008,-6.70016 -42.80168,2.06934 -49.6349,-11.94799 -6.83321,-14.01734 -57.15762,-2.73732 -60.99967,-19.89616 -31.8741,-452.56515 -38.10344,-326.03724 376.99048,-355.04478 z"
       id="path3986-3-7-9-2"
       inkscape:connector-curvature="0"
       sodipodi:nodetypes="cssssssssssssscc"
       transform="matrix(-1.0373381,0.03076926,0.02347501,1.1203052,1139.0523,2032.2379)" />
    <rect
       style="color:#000000;clip-rule:nonzero;display:inline;overflow:visible;visibility:visible;opacity:1;isolation:auto;mix-blend-mode:normal;color-interpolation:sRGB;color-interpolation-filters:linearRGB;solid-color:#000000;solid-opacity:1;vector-effect:none;fill:#ffffff;fill-opacity:1;fill-rule:nonzero;stroke:none;stroke-width:1.5;stroke-linecap:butt;stroke-linejoin:miter;stroke-miterlimit:4;stroke-dasharray:none;stroke-dashoffset:0;stroke-opacity:1;marker:none;paint-order:stroke fill markers;color-rendering:auto;image-rendering:auto;shape-rendering:auto;text-rendering:auto;enable-background:accumulate"
       id="rect1243"
       width="858.05865"
       height="61.288307"
       x="60.116302"
       y="2284.2473" />
    <rect
       style="color:#000000;clip-rule:nonzero;display:inline;overflow:visible;visibility:visible;opacity:1;isolation:auto;mix-blend-mode:normal;color-interpolation:sRGB;color-interpolation-filters:linearRGB;solid-color:#000000;solid-opacity:1;vector-effect:none;fill:#ffffff;fill-opacity:1;fill-rule:nonzero;stroke:none;stroke-width:1.5;stroke-linecap:butt;stroke-linejoin:miter;stroke-miterlimit:4;stroke-dasharray:none;stroke-dashoffset:0;stroke-opacity:1;marker:none;paint-order:stroke fill markers;color-rendering:auto;image-rendering:auto;shape-rendering:auto;text-rendering:auto;enable-background:accumulate"
       id="rect1243-4-0"
       width="596.69598"
       height="33.411301"
       x="-2900.5508"
       y="902.09576"
       transform="rotate(-90)" />
    <path
       style="color:#000000;display:inline;overflow:visible;visibility:visible;opacity:1;fill:#0f0f0f;fill-opacity:1;fill-rule:nonzero;stroke:none;stroke-width:1.3308636px;marker:none;filter:url(#filter3018-7-5);enable-background:accumulate"
       d="m 182.35697,293.88528 c -0.23072,-35.74619 14.15193,-67.86759 64.57601,-70.89971 50.42415,-3.03201 152.14371,10.97575 174.32489,22.84482 22.18113,11.86915 22.31508,29.16842 23.60014,52.63403 1.285,23.46561 -46.58039,61.2263 -97.02028,58.76102 -39.38015,-1.92472 -71.90453,4.05735 -99.16531,-4.49284 -27.26078,-8.55018 -63.86434,-30.34771 -66.31545,-58.84732 z"
       id="path3986-7"
       inkscape:connector-curvature="0"
       sodipodi:nodetypes="csssssc"
       transform="matrix(-1.2704473,0.08797677,-0.09887992,-1.0653405,1712.5055,2749.6155)" />
    <path
       style="display:inline;opacity:1;fill:#0f0f0f;fill-opacity:1;stroke:none"
       d="m 1234.6371,2511.5263 c 2.8076,36.5266 -11.3531,47.358 -7.5295,55.3048 3.8237,7.9469 15.8815,11.5559 18.3467,1.8286 2.4651,-9.7273 -8.7342,-30.033 -4.1662,-54.2007"
       id="path3060-5-7-4"
       inkscape:connector-curvature="0" />
    <path
       style="color:#000000;display:inline;overflow:visible;visibility:visible;opacity:1;fill:#0f0f0f;fill-opacity:1;fill-rule:nonzero;stroke:none;stroke-width:1.06790841px;marker:none;filter:url(#filter3018-3-2-2-7);enable-background:accumulate"
       d="m 133.72891,317.54986 c 0,-26.44283 18.783,-48.99102 93.21503,-57.99663 76.56846,-9.26411 380.66786,-15.17398 467.16396,1.43354 56.15725,10.78236 72.24234,20.86412 73.96305,38.20634 1.72059,17.34221 -5.02429,92.1798 -78.66851,102.25555 -111.21027,15.21542 -422.70639,20.23384 -491.53175,1.82236 -47.23523,-12.6359 -60.70046,-64.6713 -64.14178,-85.72116 z"
       id="path3986-3-7-0"
       inkscape:connector-curvature="0"
       sodipodi:nodetypes="csssssc"
       transform="matrix(0.90646444,0,0,0.94190613,965.5061,2969.0467)" />
    <path
       style="display:inline;opacity:1;fill:#0f0f0f;fill-opacity:1;stroke:none"
       d="m 1604.2155,3312.0524 c 2.8076,36.5266 -11.3531,47.358 -7.5295,55.3048 3.8237,7.9469 15.8815,11.5559 18.3467,1.8286 2.4651,-9.7273 -8.7342,-30.033 -4.1662,-54.2007"
       id="path3060-5-7-4-8"
       inkscape:connector-curvature="0" />
    <path
       style="display:inline;opacity:1;fill:#0f0f0f;fill-opacity:1;stroke:none"
       d="m 876.29078,2703.3858 c 2.8076,36.5266 -11.3531,47.358 -7.5295,55.3048 3.8237,7.9469 15.8815,11.5559 18.3467,1.8286 2.4651,-9.7273 -8.7342,-30.033 -4.1662,-54.2007"
       id="path3060-5-7-4-8-6"
       inkscape:connector-curvature="0" />
    <path
       style="color:#000000;display:inline;overflow:visible;visibility:visible;opacity:1;fill:#0f0f0f;fill-opacity:1;fill-rule:nonzero;stroke:none;stroke-width:0.93159527px;marker:none;filter:url(#filter3018-3-2-2-7-8);enable-background:accumulate"
       d="m 437.5541,320.87848 c 0.17804,-34.16554 13.44366,-63.41322 65.47065,-75.50151 53.52033,-12.43529 49.23663,-18.32708 109.51396,2.60479 39.13481,13.58995 51.99604,29.09803 53.08054,51.49463 0.54225,11.19832 3.59151,153.20649 1.87478,199.25689 -1.71673,46.05042 -10.72951,129.07515 -36.4716,135.80826 -38.87317,10.16765 -16.43987,18.36903 -56.62572,17.03418 -40.18586,-1.33484 -102.80454,-11.27764 -126.76852,-22.9627 -16.44661,-8.01954 -18.30746,-83.01661 -17.06423,-121.31527 1.24322,-38.29865 8.12059,-172.83096 6.99014,-186.41927 z"
       id="path3986-3-7-0-1"
       inkscape:connector-curvature="0"
       sodipodi:nodetypes="cssssssssc"
       transform="matrix(-0.02883578,-0.96442027,1.2483451,-0.01835557,1557.3944,3769.4249)" />
    <path
       style="display:inline;opacity:1;fill:#0f0f0f;fill-opacity:1;stroke:none"
       d="m 1923.9349,3313.6505 c 2.8076,36.5266 -11.3531,47.358 -7.5295,55.3048 3.8237,7.9469 15.8815,11.5559 18.3467,1.8286 2.4651,-9.7273 -8.7342,-30.033 -4.1662,-54.2007"
       id="path3060-5-7-4-8-8"
       inkscape:connector-curvature="0" />
    <path
       style="color:#000000;display:inline;overflow:visible;visibility:visible;opacity:1;fill:#0f0f0f;fill-opacity:1;fill-rule:nonzero;stroke:none;stroke-width:1px;marker:none;enable-background:accumulate"
       d="m 1413.1536,3209.1155 c -9.4337,-14.7882 -23.7275,-14.7168 -22.1036,-35.5712 0.6838,-3.9374 25.1444,-28.3457 22.8434,-33.4879 -2.301,-5.1421 -19.0178,-9.2083 -19.2724,-12.7585 -0.2543,-3.55 14.4511,-18.5536 12.2349,-22.5123 -2.2162,-3.9588 -25.1274,-18.0584 -25.0126,-20.9486 0.115,-2.8903 0.6044,-18.5249 -6.4983,-32.2444 -2.6562,30.3368 -9.7095,35.2781 -7.4084,40.4203 2.301,5.1422 18.6184,12.6222 18.6732,17.8791 0.055,5.257 -13.7123,19.8733 -10.7574,25.1517 2.955,5.2784 14.5256,9.438 14.5256,9.438 -6.8537,3.2346 -39.8437,23.7535 -31.638,52.8566 8.2057,29.1031 54.4136,11.7772 54.4136,11.7772 z"
       id="path5050-7"
       inkscape:connector-curvature="0"
       sodipodi:nodetypes="cccccccccccsc" />
  </g>
  <g
     inkscape:groupmode="layer"
     id="layer1"
     inkscape:label="txt"
     style="opacity:1">
    <flowRoot
       xml:space="preserve"
       id="flowRoot2987-4-9-3"
       style="font-style:normal;font-variant:normal;font-weight:normal;font-stretch:normal;line-height:0.01%;font-family:Lavi;-inkscape-font-specification:Lavi;text-align:center;letter-spacing:0px;word-spacing:0px;text-anchor:middle;fill:#000000;fill-opacity:1;stroke:none"
       transform="matrix(1.1000385,0,0,1.1857741,602.90671,462.58866)"><flowRegion
         id="flowRegion2989-5-4-5"><rect
           id="rect2991-7-9-6"
           width="602.40173"
           height="310.73996"
           x="120.55251"
           y="265.53046"
           style="font-style:normal;font-variant:normal;font-weight:normal;font-stretch:normal;font-family:Lavi;-inkscape-font-specification:Lavi;text-align:center;text-anchor:middle" /></flowRegion><flowPara
         style="font-style:normal;font-variant:normal;font-weight:normal;font-stretch:normal;font-size:48px;line-height:1.25;font-family:'Drukaatie burti';-inkscape-font-specification:'Drukaatie burti';text-align:center;text-anchor:middle;fill:#ffffff;fill-opacity:1"
         id="flowPara3071">Endeleg!</flowPara></flowRoot>    <flowRoot
       xml:space="preserve"
       id="flowRoot2987-4-9-3-6"
       style="font-style:normal;font-variant:normal;font-weight:normal;font-stretch:normal;line-height:0.01%;font-family:Lavi;-inkscape-font-specification:Lavi;text-align:center;letter-spacing:0px;word-spacing:0px;text-anchor:middle;opacity:1;fill:#000000;fill-opacity:1;stroke:none"
       transform="matrix(1.1000385,0,0,1.1857741,714.34443,578.95794)"><flowRegion
         id="flowRegion2989-5-4-5-0"><rect
           id="rect2991-7-9-6-6"
           width="602.40173"
           height="310.73996"
           x="120.55251"
           y="265.53046"
           style="font-style:normal;font-variant:normal;font-weight:normal;font-stretch:normal;font-family:Lavi;-inkscape-font-specification:Lavi;text-align:center;text-anchor:middle" /></flowRegion><flowPara
         style="font-style:normal;font-variant:normal;font-weight:normal;font-stretch:normal;font-size:48px;line-height:1.25;font-family:'Drukaatie burti';-inkscape-font-specification:'Drukaatie burti';text-align:center;text-anchor:middle;fill:#ffffff;fill-opacity:1"
         id="flowPara957">Ei interdimensjonal</flowPara><flowPara
         style="font-style:normal;font-variant:normal;font-weight:normal;font-stretch:normal;font-size:48px;line-height:1.25;font-family:'Drukaatie burti';-inkscape-font-specification:'Drukaatie burti';text-align:center;text-anchor:middle;fill:#ffffff;fill-opacity:1"
         id="flowPara959">rivne!</flowPara></flowRoot>    <text
       xml:space="preserve"
       style="font-style:normal;font-variant:normal;font-weight:normal;font-stretch:normal;font-size:11.54258823px;line-height:0%;font-family:Lavi;-inkscape-font-specification:Lavi;text-align:center;letter-spacing:0px;word-spacing:0px;text-anchor:middle;fill:#5d5146;fill-opacity:1;stroke:none;stroke-width:0.99999994"
       x="347.91733"
       y="225.96765"
       id="text4246"><tspan
         sodipodi:role="line"
         style="font-size:45px;line-height:1.20000005;fill:#5d5146;fill-opacity:1;stroke-width:0.99999994"
         x="347.91733"
         y="225.96765"
         id="tspan298">Samtidig,</tspan><tspan
         sodipodi:role="line"
         style="font-size:45px;line-height:1.20000005;fill:#5d5146;fill-opacity:1;stroke-width:0.99999994"
         x="347.91733"
         y="279.96765"
         id="tspan951">i ein annan</tspan><tspan
         sodipodi:role="line"
         style="font-size:45px;line-height:1.20000005;fill:#5d5146;fill-opacity:1;stroke-width:0.99999994"
         x="347.91733"
         y="333.96765"
         id="tspan953">dimensjon ...</tspan></text>
    <flowRoot
       xml:space="preserve"
       id="flowRoot2987-4-9-3-6-6"
       style="font-style:normal;font-variant:normal;font-weight:normal;font-stretch:normal;line-height:0.01%;font-family:Lavi;-inkscape-font-specification:Lavi;text-align:center;letter-spacing:0px;word-spacing:0px;text-anchor:middle;opacity:1;fill:#000000;fill-opacity:1;stroke:none"
       transform="matrix(1.1000385,0,0,1.1857741,1286.3719,1254.851)"><flowRegion
         id="flowRegion2989-5-4-5-0-1"><rect
           id="rect2991-7-9-6-6-8"
           width="602.40173"
           height="310.73996"
           x="120.55251"
           y="265.53046"
           style="font-style:normal;font-variant:normal;font-weight:normal;font-stretch:normal;font-family:Lavi;-inkscape-font-specification:Lavi;text-align:center;text-anchor:middle" /></flowRegion><flowPara
         style="font-style:normal;font-variant:normal;font-weight:normal;font-stretch:normal;font-size:48px;line-height:1.25;font-family:'Drukaatie burti';-inkscape-font-specification:'Drukaatie burti';text-align:center;text-anchor:middle;fill:#ffffff;fill-opacity:1"
         id="flowPara992">Truleg resultatet</flowPara><flowPara
         style="font-style:normal;font-variant:normal;font-weight:normal;font-stretch:normal;font-size:48px;line-height:1.25;font-family:'Drukaatie burti';-inkscape-font-specification:'Drukaatie burti';text-align:center;text-anchor:middle;fill:#ffffff;fill-opacity:1"
         id="flowPara970">av ei kosmisk</flowPara><flowPara
         style="font-style:normal;font-variant:normal;font-weight:normal;font-stretch:normal;font-size:48px;line-height:1.25;font-family:'Drukaatie burti';-inkscape-font-specification:'Drukaatie burti';text-align:center;text-anchor:middle;fill:#ffffff;fill-opacity:1"
         id="flowPara974">storhending!</flowPara></flowRoot>    <flowRoot
       xml:space="preserve"
       id="flowRoot2987-4-9-3-6-6-2"
       style="font-style:normal;font-variant:normal;font-weight:normal;font-stretch:normal;line-height:0.01%;font-family:Lavi;-inkscape-font-specification:Lavi;text-align:center;letter-spacing:0px;word-spacing:0px;text-anchor:middle;opacity:1;fill:#000000;fill-opacity:1;stroke:none"
       transform="matrix(1.1000385,0,0,1.1857741,-203.67082,2046.214)"><flowRegion
         id="flowRegion2989-5-4-5-0-1-8"><rect
           id="rect2991-7-9-6-6-8-9"
           width="602.40173"
           height="310.73996"
           x="120.55251"
           y="265.53046"
           style="font-style:normal;font-variant:normal;font-weight:normal;font-stretch:normal;font-family:Lavi;-inkscape-font-specification:Lavi;text-align:center;text-anchor:middle" /></flowRegion><flowPara
         style="font-style:normal;font-variant:normal;font-weight:normal;font-stretch:normal;font-size:48px;line-height:1.25;font-family:'Drukaatie burti';-inkscape-font-specification:'Drukaatie burti';text-align:center;text-anchor:middle;fill:#ffffff;fill-opacity:1"
         id="flowPara1001">Veks!</flowPara><flowPara
         style="font-style:normal;font-variant:normal;font-weight:normal;font-stretch:normal;font-size:48px;line-height:1.25;font-family:'Drukaatie burti';-inkscape-font-specification:'Drukaatie burti';text-align:center;text-anchor:middle;fill:#ffffff;fill-opacity:1"
         id="flowPara990">Veks,</flowPara><flowPara
         style="font-style:normal;font-variant:normal;font-weight:normal;font-stretch:normal;font-size:48px;line-height:1.25;font-family:'Drukaatie burti';-inkscape-font-specification:'Drukaatie burti';text-align:center;text-anchor:middle;fill:#ffffff;fill-opacity:1"
         id="flowPara993">vesle rivne!</flowPara></flowRoot>    <flowRoot
       xml:space="preserve"
       id="flowRoot2987-4-9-3-6-6-2-8"
       style="font-style:normal;font-variant:normal;font-weight:normal;font-stretch:normal;line-height:0.01%;font-family:Lavi;-inkscape-font-specification:Lavi;text-align:center;letter-spacing:0px;word-spacing:0px;text-anchor:middle;opacity:1;fill:#000000;fill-opacity:1;stroke:none"
       transform="matrix(1.1000385,0,0,1.1857741,218.29464,2045.1857)"><flowRegion
         id="flowRegion2989-5-4-5-0-1-8-4"><rect
           id="rect2991-7-9-6-6-8-9-5"
           width="615.85046"
           height="407.77811"
           x="120.55251"
           y="265.53046"
           style="font-style:normal;font-variant:normal;font-weight:normal;font-stretch:normal;font-family:Lavi;-inkscape-font-specification:Lavi;text-align:center;text-anchor:middle" /></flowRegion><flowPara
         style="font-style:normal;font-variant:normal;font-weight:normal;font-stretch:normal;font-size:48px;line-height:1.25;font-family:'Drukaatie burti';-inkscape-font-specification:'Drukaatie burti';text-align:center;text-anchor:middle;fill:#ffffff;fill-opacity:1"
         id="flowPara960">Og vis meg</flowPara><flowPara
         style="font-style:normal;font-variant:normal;font-weight:normal;font-stretch:normal;font-size:48px;line-height:1.25;font-family:'Drukaatie burti';-inkscape-font-specification:'Drukaatie burti';text-align:center;text-anchor:middle;fill:#ffffff;fill-opacity:1"
         id="flowPara1004">ei ny verd</flowPara><flowPara
         style="font-style:normal;font-variant:normal;font-weight:normal;font-stretch:normal;font-size:48px;line-height:1.25;font-family:'Drukaatie burti';-inkscape-font-specification:'Drukaatie burti';text-align:center;text-anchor:middle;fill:#ffffff;fill-opacity:1"
         id="flowPara1008">som eg kan</flowPara><flowPara
         style="font-style:normal;font-variant:normal;font-weight:normal;font-stretch:normal;font-size:48px;line-height:1.25;font-family:'Drukaatie burti';-inkscape-font-specification:'Drukaatie burti';text-align:center;text-anchor:middle;fill:#ffffff;fill-opacity:1"
         id="flowPara949">TRÆLBINDA og</flowPara><flowPara
         style="font-style:normal;font-variant:normal;font-weight:normal;font-stretch:normal;font-size:48px;line-height:1.25;font-family:'Drukaatie burti';-inkscape-font-specification:'Drukaatie burti';text-align:center;text-anchor:middle;fill:#ffffff;fill-opacity:1"
         id="flowPara1010">HERSKA OVER!</flowPara></flowRoot>    <flowRoot
       xml:space="preserve"
       id="flowRoot2987-4-9-3-6-6-2-8-6"
       style="font-style:normal;font-variant:normal;font-weight:normal;font-stretch:normal;line-height:0.01%;font-family:Lavi;-inkscape-font-specification:Lavi;text-align:center;letter-spacing:0px;word-spacing:0px;text-anchor:middle;opacity:1;fill:#000000;fill-opacity:1;stroke:none"
       transform="matrix(1.1000385,0,0,1.1857741,821.41599,2121.6308)"><flowRegion
         id="flowRegion2989-5-4-5-0-1-8-4-1"><rect
           id="rect2991-7-9-6-6-8-9-5-5"
           width="615.85046"
           height="407.77811"
           x="120.55251"
           y="265.53046"
           style="font-style:normal;font-variant:normal;font-weight:normal;font-stretch:normal;font-family:Lavi;-inkscape-font-specification:Lavi;text-align:center;text-anchor:middle" /></flowRegion><flowPara
         style="font-style:normal;font-variant:normal;font-weight:normal;font-stretch:normal;font-size:48px;line-height:1.25;font-family:'Drukaatie burti';-inkscape-font-specification:'Drukaatie burti';text-align:center;text-anchor:middle;fill:#ffffff;fill-opacity:1"
         id="flowPara966">Oi sann ...</flowPara></flowRoot>    <flowRoot
       xml:space="preserve"
       id="flowRoot2987-4-9-3-6-6-2-8-6-5"
       style="font-style:normal;font-variant:normal;font-weight:normal;font-stretch:normal;line-height:0.01%;font-family:Lavi;-inkscape-font-specification:Lavi;text-align:center;letter-spacing:0px;word-spacing:0px;text-anchor:middle;opacity:1;fill:#000000;fill-opacity:1;stroke:none"
       transform="matrix(1.1000385,0,0,1.1857741,900.97522,2929.8312)"><flowRegion
         id="flowRegion2989-5-4-5-0-1-8-4-1-2"><rect
           id="rect2991-7-9-6-6-8-9-5-5-5"
           width="615.85046"
           height="407.77811"
           x="120.55251"
           y="265.53046"
           style="font-style:normal;font-variant:normal;font-weight:normal;font-stretch:normal;font-family:Lavi;-inkscape-font-specification:Lavi;text-align:center;text-anchor:middle" /></flowRegion><flowPara
         style="font-style:normal;font-variant:normal;font-weight:normal;font-stretch:normal;font-size:48px;line-height:1.25;font-family:'Drukaatie burti';-inkscape-font-specification:'Drukaatie burti';text-align:center;text-anchor:middle;fill:#ffffff;fill-opacity:1"
         id="flowPara962">Dette var interessant.</flowPara></flowRoot>    <flowRoot
       xml:space="preserve"
       id="flowRoot2987-4-9-3-6-6-2-8-6-5-4"
       style="font-style:normal;font-variant:normal;font-weight:normal;font-stretch:normal;line-height:0.01%;font-family:Lavi;-inkscape-font-specification:Lavi;text-align:center;letter-spacing:0px;word-spacing:0px;text-anchor:middle;opacity:1;fill:#000000;fill-opacity:1;stroke:none"
       transform="matrix(1.1000385,0,0,1.1857741,1628.2427,2842.9506)"><flowRegion
         id="flowRegion2989-5-4-5-0-1-8-4-1-2-9"><rect
           id="rect2991-7-9-6-6-8-9-5-5-5-2"
           width="615.85046"
           height="407.77811"
           x="120.55251"
           y="265.53046"
           style="font-style:normal;font-variant:normal;font-weight:normal;font-stretch:normal;font-family:Lavi;-inkscape-font-specification:Lavi;text-align:center;text-anchor:middle" /></flowRegion><flowPara
         style="font-style:normal;font-variant:normal;font-weight:normal;font-stretch:normal;font-size:48px;line-height:1.25;font-family:'Drukaatie burti';-inkscape-font-specification:'Drukaatie burti';text-align:center;text-anchor:middle;fill:#ffffff;fill-opacity:1"
         id="flowPara1053">I dag er visst</flowPara><flowPara
         style="font-style:normal;font-variant:normal;font-weight:normal;font-stretch:normal;font-size:48px;line-height:1.25;font-family:'Drukaatie burti';-inkscape-font-specification:'Drukaatie burti';text-align:center;text-anchor:middle;fill:#ffffff;fill-opacity:1"
         id="flowPara1014">lukkedagen min ...</flowPara></flowRoot>  </g>
</svg>
