<?xml version="1.0" encoding="UTF-8" standalone="no"?>
<svg
   xmlns:dc="http://purl.org/dc/elements/1.1/"
   xmlns:cc="http://creativecommons.org/ns#"
   xmlns:rdf="http://www.w3.org/1999/02/22-rdf-syntax-ns#"
   xmlns:svg="http://www.w3.org/2000/svg"
   xmlns="http://www.w3.org/2000/svg"
   xmlns:xlink="http://www.w3.org/1999/xlink"
   xmlns:sodipodi="http://sodipodi.sourceforge.net/DTD/sodipodi-0.dtd"
   xmlns:inkscape="http://www.inkscape.org/namespaces/inkscape"
   sodipodi:docname="E31P06.svg"
   height="3503"
   width="2481"
   inkscape:version="1.0 (4035a4fb49, 2020-05-01)"
   version="1.1"
   id="svg2">
  <metadata
     id="metadata8">
    <rdf:RDF>
      <cc:Work
         rdf:about="">
        <dc:format>image/svg+xml</dc:format>
        <dc:type
           rdf:resource="http://purl.org/dc/dcmitype/StillImage" />
        <dc:title />
      </cc:Work>
    </rdf:RDF>
  </metadata>
  <defs
     id="defs6">
    <filter
       inkscape:label="Drop Shadow"
       id="filter4375-4-1-1-1-9-5-8-3-8"
       style="color-interpolation-filters:sRGB">
      <feFlood
         result="flood"
         flood-color="rgb(39,39,39)"
         flood-opacity="1"
         id="feFlood4377-7-9-0-8-1-7-3-8-3" />
      <feComposite
         result="composite1"
         operator="in"
         in="flood"
         in2="SourceGraphic"
         id="feComposite4379-3-8-8-2-77-4-1-8-7" />
      <feMorphology
         result="result3"
         radius="6.2000000000000002"
         operator="dilate"
         id="feMorphology4393-1-0-49-8-9-3-0-31-8" />
      <feComposite
         result="fbSourceGraphic"
         operator="over"
         in="SourceGraphic"
         in2="result3"
         id="feComposite4385-9-5-7-0-8-8-7-8-2" />
      <feColorMatrix
         id="feColorMatrix4544-96-1"
         values="0 0 0 -1 0 0 0 0 -1 0 0 0 0 -1 0 0 0 0 1 0"
         in="fbSourceGraphic"
         result="fbSourceGraphicAlpha" />
      <feTurbulence
         result="turbulence"
         baseFrequency="0.129 0.0050000000000000001"
         seed="37"
         numOctaves="3"
         type="fractalNoise"
         id="feTurbulence4546-4-0" />
      <feDisplacementMap
         result="fbSourceGraphic"
         xChannelSelector="R"
         yChannelSelector="G"
         scale="6.6"
         in="fbSourceGraphic"
         in2="turbulence"
         id="feDisplacementMap4548-3-5" />
      <feColorMatrix
         id="feColorMatrix4670-33-8"
         values="0 0 0 -1 0 0 0 0 -1 0 0 0 0 -1 0 0 0 0 1 0"
         in="fbSourceGraphic"
         result="fbSourceGraphicAlpha" />
      <feFlood
         in="fbSourceGraphic"
         result="flood"
         flood-color="rgb(0,0,0)"
         flood-opacity="0.40999999999999998"
         id="feFlood4672-8-5" />
      <feComposite
         result="composite1"
         operator="in"
         in="flood"
         in2="fbSourceGraphic"
         id="feComposite4674-6-5" />
      <feGaussianBlur
         result="blur"
         stdDeviation="0"
         in="composite1"
         id="feGaussianBlur4676-0-0" />
      <feOffset
         result="offset"
         dy="6"
         dx="6"
         id="feOffset4678-4-7" />
      <feComposite
         result="composite2"
         operator="over"
         in="fbSourceGraphic"
         in2="offset"
         id="feComposite4680-8-3" />
    </filter>
    <filter
       inkscape:label="deevad outline effect"
       id="filter4375-4-1-1-1-9-0"
       style="color-interpolation-filters:sRGB">
      <feFlood
         result="flood"
         flood-color="rgb(0,0,0)"
         flood-opacity="1"
         id="feFlood4377-7-9-0-8-1-9" />
      <feComposite
         result="composite1"
         operator="in"
         in="flood"
         in2="SourceGraphic"
         id="feComposite4379-3-8-8-2-77-1" />
      <feMorphology
         result="result3"
         radius="3"
         operator="dilate"
         id="feMorphology4393-1-0-49-8-9-9" />
      <feComposite
         result="composite2"
         operator="over"
         in="SourceGraphic"
         in2="result3"
         id="feComposite4385-9-5-7-0-8-6" />
    </filter>
    <filter
       inkscape:label="deevad outline effect"
       id="filter4375-4-1-1-1-9-0-5"
       style="color-interpolation-filters:sRGB">
      <feFlood
         result="flood"
         flood-color="rgb(0,0,0)"
         flood-opacity="1"
         id="feFlood4377-7-9-0-8-1-9-6" />
      <feComposite
         result="composite1"
         operator="in"
         in="flood"
         in2="SourceGraphic"
         id="feComposite4379-3-8-8-2-77-1-2" />
      <feMorphology
         result="result3"
         radius="3"
         operator="dilate"
         id="feMorphology4393-1-0-49-8-9-9-9" />
      <feComposite
         result="composite2"
         operator="over"
         in="SourceGraphic"
         in2="result3"
         id="feComposite4385-9-5-7-0-8-6-1" />
    </filter>
  </defs>
  <sodipodi:namedview
     inkscape:document-rotation="0"
     inkscape:snap-global="false"
     inkscape:current-layer="layer3"
     inkscape:window-maximized="1"
     inkscape:window-y="28"
     inkscape:window-x="0"
     inkscape:cy="2715.6673"
     inkscape:cx="1345.7718"
     inkscape:zoom="0.41307483"
     showgrid="false"
     id="namedview4"
     inkscape:window-height="1025"
     inkscape:window-width="1920"
     inkscape:pageshadow="2"
     inkscape:pageopacity="0"
     guidetolerance="10"
     gridtolerance="10"
     objecttolerance="10"
     borderopacity="1"
     bordercolor="#666666"
     pagecolor="#ffffff" />
  <g
     sodipodi:insensitive="true"
     inkscape:label="artwork"
     id="layer2"
     inkscape:groupmode="layer">
    <image
       sodipodi:absref="C:\Users\stero\Documents\Kernewek\Pepper and Carrot\webcomics\ep31_The-Fight\lang\gfx_Pepper-and-Carrot_by-David-Revoy_E31P06.png"
       xlink:href="../gfx_Pepper-and-Carrot_by-David-Revoy_E31P06.png"
       y="0"
       x="0"
       id="image10"
       height="3503"
       width="2481" />
  </g>
  <g
     inkscape:label="speechbubbles"
     id="layer3"
     inkscape:groupmode="layer">
    <path
       sodipodi:nodetypes="ccccccccccccccc"
       inkscape:connector-curvature="0"
       id="path3549-3-78-5-3"
       d="m 985.64012,2925.6926 c -24.3495,-3.0753 -96.17482,-31.0327 -11.06573,-31.992 -63.60872,-10.7706 -57.42112,-36.1548 -7.26873,-52.3649 -67.15753,5.0058 -117.71269,0.2287 -85.17189,-26.7489 -98.30749,19.5804 -142.27462,24.2844 -124.63475,-12.7729 -43.39021,31.4363 -87.92374,27.1345 -102.24891,-7.7042 -8.13338,26.527 -75.47445,36.8922 -155.79119,4.185 27.36121,30.8416 42.89848,46.8938 -99.87278,42.3823 55.37748,16.7365 90.56302,27.4574 -0.37742,37.9391 47.37874,6.861 78.09315,17.1507 6.84092,37.0684 47.61535,4.2054 122.0553,0.3429 34.36256,36.9929 58.35111,-17.8244 158.93233,-9.1912 118.19268,17.9721 114.54358,-32.5667 137.70311,-25.4803 157.13319,-5.1642 40.92295,-31.8112 126.27563,-37.7434 164.34501,-21.0916 -20.06487,-26.5151 51.82889,-17.1146 105.55704,-18.7011 z"
       style="color:#000000;display:inline;overflow:visible;visibility:visible;fill:#ffffff;fill-opacity:1;fill-rule:nonzero;stroke:none;stroke-width:1.45708px;marker:none;enable-background:accumulate" />
    <path
       sodipodi:nodetypes="ccccccccccccccc"
       inkscape:connector-curvature="0"
       id="path3549-3-78-5"
       d="m 864.81689,2994.1713 c -14.02474,-2.9785 -28.49426,-22.306 -5.70477,-35.2868 -18.90966,-0.688 -29.73147,-7.3316 -11.89461,-20.9326 -39.65117,17.0282 -50.16248,-6.109 -37.19029,-33.2935 -58.19834,13.0575 -84.02746,15.72 -71.93274,-12.9191 -26.80964,23.6321 -52.525,19.2215 -59.14947,-8.4238 -6.0415,20.6058 -18.93867,31.8674 -57.38336,5.9229 -2.82991,7.5606 10.19289,32.4271 -72.7057,25.5615 31.41634,14.4116 50.26535,17.0575 -3.19593,23.1541 27.24583,6.4833 63.4555,16.2056 20.99198,30.1585 27.51434,4.4069 53.31644,8.7539 0.45735,35.4404 34.84949,-12.6127 71.93184,-4.4394 46.87578,15.9049 68.29043,-22.8594 81.42484,-16.7642 91.73648,-0.3847 25.39167,-23.9836 62.08722,-21.2672 83.43103,-7.3256 -10.37597,-21.2539 44.30584,-17.5851 75.66425,-17.5762 z"
       style="color:#000000;display:inline;overflow:visible;visibility:visible;fill:#ffffff;fill-opacity:1;fill-rule:nonzero;stroke:none;stroke-width:1.23338px;marker:none;enable-background:accumulate" />
    <path
       sodipodi:nodetypes="cccsccsscccccccsccscscsccsccccccsccscsccccsccscsccccccccccc"
       inkscape:connector-curvature="0"
       id="path5888-3-2"
       d="m 2336.0954,607.49643 c -23.6574,3.86007 -32.7632,7.46431 -28.5273,9.6977 -9.704,1.09817 -13.4422,30.03928 -4.3667,35.3413 0.604,0.55806 4.8423,2.23433 3.0222,2.50979 -1.8193,0.27548 -12.7289,-0.5762 -14.5514,0.53413 -1.8227,1.11089 16.3095,17.00347 13.8824,17.5563 -2.4268,0.55338 -58.1647,-10.10974 -66.0545,-7.61678 -7.8898,2.49298 -3.6683,8.9012 -6.0942,9.17575 -2.4257,0.27454 -24.8514,-1.42978 -27.8834,-1.15616 -3.0322,0.2736 -8.5174,8.61487 -11.5494,8.88847 -3.0325,0.27362 -16.9624,-3.64446 -19.3882,-3.36991 -2.4261,0.27454 -1.2378,7.23467 -4.2698,7.50829 -3.0324,0.2736 -16.3484,-5.86981 -18.1682,-5.59434 -1.8195,0.27548 -8.5367,14.1817 -11.5707,15.01188 -3.0343,0.83018 -22.3776,-15.34253 -24.1957,-15.62363 -1.8177,-0.28165 -13.4031,18.90564 -15.8288,19.18018 -2.4264,0.27454 -14.5045,-13.1041 -16.3244,-12.82862 -1.8198,0.27548 -13.3653,8.05138 -15.7921,8.60421 -2.4268,0.55283 -18.1273,-17.28455 -20.5525,-17.28829 -2.4249,-0.004 -23.0633,7.47929 -24.8869,8.86791 -1.8237,1.38917 -3.6122,-7.24215 -6.0372,-7.24589 -2.4248,-0.004 -30.3297,4.96349 -30.9349,4.68427 -0.6054,-0.27923 4.2632,-5.56029 2.4444,-5.56309 -1.8185,-0.003 -30.3361,6.9115 -31.5442,5.5182 8.3182,-20.42315 -61.5053,6.15199 -66.1007,5.74316 -4.2399,-1.12024 27.3604,-22.78124 24.3352,-24.45617 -3.0257,-1.6744 -13.9451,0.25676 -14.5485,-0.57903 -0.603,-0.83579 6.6845,-4.44284 4.8696,-5.55878 -1.8148,-1.1165 -22.4115,-5.60143 -24.2254,-6.99566 -1.8139,-1.3948 9.111,-4.99624 6.6888,-5.83483 -2.4222,-0.83915 -38.1721,-6.18233 -38.7736,-7.57524 -0.6012,-1.39237 18.2158,-8.04334 15.7975,-9.99509 -2.4181,-1.95229 -9.0842,-2.79743 -8.473,-4.18848 0.6112,-1.39049 12.1355,-3.04299 11.5343,-4.43535 -0.6014,-1.39238 -6.6398,-8.36054 -8.4545,-9.47648 -1.815,-1.11595 12.7331,-0.53694 12.7368,-1.65008 0,-1.11369 -2.8038,-23.5183 -24.3072,-33.66701 37.6488,6.75864 53.5154,3.53587 73.5294,1.34045 20.014,-2.19598 12.1809,-16.12464 15.2151,-16.95484 12.3115,5.17921 32.038,27.89768 35.172,1.91714 -0.6226,-1.85524 21.678,11.16727 24.71,10.89366 3.0323,-0.27361 28.027,-14.7864 32.2716,-15.05814 4.2447,-0.27174 20.596,4.76377 24.2323,5.04767 3.6366,0.2839 6.6919,-6.66969 9.7214,-6.10843 3.0293,0.56124 22.4115,5.60143 25.4445,5.04953 3.0333,-0.55245 5.466,-2.775 7.8893,-2.21468 2.4225,0.56031 13.3273,2.80399 13.3273,2.80399 0,0 7.8873,-1.65812 11.5246,-1.65251 3.6374,0.006 28.4615,9.22905 31.4907,9.79031 3.0293,0.56124 34.1839,-9.43403 32.3711,-11.10655 3.8369,7.31416 22.4849,0.65375 26.4308,1.02589 4.2404,0.84196 16.9805,-1.64353 18.1902,-0.80679 1.2093,0.83672 4.8314,5.29601 8.4678,5.57991 3.6367,0.2839 12.12,1.41013 12.12,1.41013 l -1.218,1.6684 c 0,0 25.4775,6.87013 28.5149,5.20508 10.9104,-0.92566 10.4258,1.56665 38.4326,-6.34533 -22.434,16.83134 -37.3253,35.87639 9.3846,28.12884 -38.8414,7.40389 -21.6405,13.68463 10.87,12.26364 z"
       style="fill:#ffffff;fill-opacity:1;stroke:none;stroke-width:1.22545" />
    <path
       sodipodi:nodetypes="ccccccccccscccccccccscccccccccccccccscccccccccccccscsssccccccccccccsccccsccccc"
       inkscape:connector-curvature="0"
       id="path5888-3"
       d="m 2149.4124,406.59234 c -0.061,0.004 -0.125,0.0176 -0.1868,0.041 -1.9799,0.75002 -9.379,7.90828 -11.3589,7.15827 -1.98,-0.75076 -11.0335,-7.40689 -12.6175,-6.65688 -1.5839,0.75001 -7.392,11.06376 -7.392,11.06376 0,0 -9.6028,-4.96527 -19.6284,-11.01838 -2.9572,5.91093 -5.6277,17.08211 -7.6079,17.83213 -1.9798,0.75002 -22.3066,-12.78316 -30.3457,-17.47112 -2.962,6.19133 -5.487,18.47784 -8.0651,18.97112 -2.7718,1.12577 -20.3149,-13.22067 -21.1066,-12.09564 -0.792,1.12502 6.0583,18.09759 3.6823,18.4726 -2.3759,0.37501 -7.9192,1.875 -7.9192,1.875 l 0.7909,2.25 c 0,0 -16.6316,-6.00192 -18.6116,-8.25196 -1.9798,-2.25078 1.1888,9.75311 2.3768,12.75391 -7.1278,-3.0008 -28.115,-9.37813 -29.6987,-11.25391 -1.584,-1.87503 2.7722,6.75193 5.1481,9.37696 -3.168,-1.12501 -5.9411,-1.5 -5.9411,-1.5 l 9.1086,9.00195 -2.7713,0.75 c 0,0 5.9393,4.12498 5.9393,6 0,1.87579 -15.4441,4.12695 -15.4441,4.12695 17.5198,11.23691 6.4824,14.55335 -7.1267,16.50391 7.393,2.51362 12.5825,4.93804 15.7064,7.11523 l -15.0871,3.7168 15.6687,7.56445 -8.3573,3.24219 8.3573,5.4043 -22.982,8.64648 24.0279,5.4043 -17.7603,9.72851 17.7603,5.4043 -9.4032,7.56446 21.0508,1.45312 c 0,3.14332 -6.1293,19.04189 -9.1823,23.27148 12.0251,-0.0303 32.0169,0.13477 46.5493,0.13477 0.026,1.16441 0.1135,2.00665 0.5718,2.11523 0.778,0.18421 4.7243,-0.26823 8.7576,-0.72851 l 12.8312,4.42578 c 1.5124,3.15354 3.0683,6.59956 4.1513,6.80469 1.2377,0.23437 5.2584,-1.72876 8.4873,-3.14258 9e-4,-2.5e-4 0,2.5e-4 0,0 l 4.627,-0.9082 c 0.9931,1.91909 0.5689,9.34263 2.3276,9.67578 1.9801,0.37502 10.692,-7.87501 11.8799,-7.5 1.188,0.375 5.5431,19.12886 7.5228,20.2539 1.9801,1.12501 14.6525,-20.6289 15.8408,-21.0039 1.1876,-0.37576 8.7099,25.5039 10.2939,25.8789 1.5839,0.37502 9.5044,-17.62892 10.6924,-17.2539 1.1881,0.37499 8.7122,10.87889 10.296,11.6289 1.584,0.75002 11.8797,-23.25586 13.4637,-23.25586 1.584,0 15.0471,10.12693 16.2351,12.00196 1.1881,1.87579 2.3766,-9.75196 3.9604,-9.75196 1.5842,0 19.7977,6.75197 20.1938,6.37696 0.3962,-0.37501 -2.7719,-7.50196 -1.5838,-7.50196 1.1878,0 19.8,9.37698 20.5921,7.50196 0.7917,-1.87578 33.9986,3.46603 43.1621,7.87695 -7.1062,-9.56114 -17.8201,-30.75508 -15.8403,-33.00586 1.9798,-2.25003 9.1091,0.37502 9.5051,-0.75 0.3958,-1.12502 -4.3555,-6.00194 -3.1675,-7.50195 1.1878,-1.50078 14.6505,-7.50191 15.8382,-9.37696 1.188,-1.87577 -5.9388,-6.74999 -4.355,-7.875 1.5838,-1.12576 24.9475,-8.25313 25.3435,-10.1289 0.3958,-1.87504 -11.88,-10.87691 -10.296,-13.50195 1.584,-2.62579 5.9406,-3.74922 5.5445,-5.625 -0.396,-1.87502 -7.9208,-4.12694 -7.5247,-6.00196 0.396,-1.87503 4.3566,-11.25193 5.5443,-12.75195 1.1883,-1.50003 -8.3155,-0.74998 -8.3155,-2.25 0,-1.50078 -21.7288,-9.73512 2.6913,-31.94263 -34.9583,4.74119 -22.8868,-1.06318 -35.9542,-4.06323 -13.0678,-3.0008 -7.9198,-21.75584 -9.8996,-22.88086 -1.98,-1.12577 -16.6318,6.377 -18.6117,3.75195 -1.98,-2.62579 -2.773,-7.50195 -4.3572,-7.50195 -1.5837,0 -18.5996,8.06404 -20.5796,7.68903 -1.98,-0.37501 -12.6825,-14.44098 -15.4544,-14.81598 -2.7719,-0.37502 -13.4647,6.37695 -15.8406,6.75195 -2.3015,0.36329 -4.2298,-8.42522 -6.1484,-8.29297 z"
       style="fill:#ffffff;fill-opacity:1;stroke:none;stroke-width:1.03989" />
    <path
       sodipodi:nodetypes="cccccccccccc"
       inkscape:connector-curvature="0"
       id="path4032-1"
       d="m 1272.5449,3077.9523 c -78.231,15.2781 -158.5825,23.1124 -234.3525,47.042 l 48.6913,-38.9221 c -31.113,-0.2775 -62.6052,11.89 -93.96922,19.832 l 24.81112,-26.6421 c -73.62433,-0.043 -140.93978,19.5825 -211.30464,29.7017 l 48.37788,-44.8304 c 71.35729,-4.7997 140.74069,-1.8479 214.31916,-15.3676 l -20.5535,27.1733 c 25.7084,-2.3825 51.5171,-5.4463 77.7719,-11.5491 l -30.1046,33.1547 z"
       style="color:#000000;display:inline;overflow:visible;visibility:visible;fill:#ffffff;fill-opacity:1;fill-rule:nonzero;stroke:none;stroke-width:0.99999994px;marker:none;enable-background:accumulate" />
    <path
       sodipodi:nodetypes="cccccccccccccccccccccccccccc"
       inkscape:connector-curvature="0"
       id="path4508-9"
       d="m 535.35782,2979.2366 c 42.39347,23.355 79.0134,41.0773 50.26519,-25.083 34.2359,49.4296 48.04424,27.5103 56.36831,-1.3936 26.77748,24.8442 45.26785,46.8027 58.54622,28.9276 4.94916,22.9883 15.56277,13.7115 24.74823,12.5694 3.02525,5.2017 -18.84196,-11.802 23.13661,-29.0181 -5.22613,-33.0161 26.68687,3.8352 51.27586,-11.4276 6.37023,27.9419 2.82365,45.2359 38.91927,5.8228 -13.04531,38.7644 -7.63595,44.2395 9.03327,29.404 -7.62104,15.9636 -12.1792,28.3211 16.77595,1.2247 -9.9128,29.4655 25.11096,9.9952 59.35928,-20.2566 -32.59181,33.5457 -77.9676,71.1845 -41.29264,66.8129 -5.11457,9.2221 -23.35785,17.2571 30.9711,31.8543 -10.14249,6.2577 -41.10717,-2.8874 -15.27705,23.6089 3.46071,3.0977 -8.12494,4.9888 13.98657,13.1458 -13.05265,-0.555 -21.05756,1.4268 -9.03328,13.4765 -23.82595,-0.6517 -14.91132,12.0185 2.58096,28.1785 -44.68196,-31.6245 -59.00171,-37.3865 -37.42358,-4.9004 -43.24278,-28.2604 -58.46425,-24.6432 -52.95361,-1.4092 -18.40749,-24.6694 -39.48513,-28.9832 -56.55765,-0.4832 -18.20304,-29.4078 -30.60495,-26.3948 -68.57304,-4.2335 20.48117,-24.9384 -8.65594,-9.0501 -30.97122,1.2247 12.22029,-31.1535 -18.79304,-10.707 -58.07101,19.6024 21.99547,-34.4018 -2.98621,-21.9748 -40.00451,2.4502 13.98666,-33.7969 -8.79189,-50.1411 -63.23285,-51.4559 26.05706,-12.1912 41.25219,-27.5334 14.1952,-55.1323 30.50091,8.1266 39.59887,0.5779 18.06651,-29.4033 33.26837,24.6085 18.14248,-11.0852 5.16191,-44.106 z"
       style="display:inline;fill:#ffffff;fill-rule:evenodd;stroke:none;stroke-width:0.9061px;stroke-linecap:butt;stroke-linejoin:miter;stroke-opacity:1" />
    <path
       sodipodi:nodetypes="cccccccccc"
       inkscape:connector-curvature="0"
       id="path4448"
       d="m 2279.1877,625.34512 c -0.091,3.76817 51.831,-6.4041 51.831,-6.4041 0,0 1.5665,29.95657 4.6782,32.0986 11.0733,-0.0391 21.0624,-5.37296 21.0624,-5.37296 l 18.0133,48.73793 -20.0054,-31.72225 c -9.8867,-0.91886 -20.0127,-0.88091 -32.7339,9.5382 l -4.3594,-32.26765 -34.1656,7.80769 z"
       style="color:#000000;display:inline;overflow:visible;visibility:visible;fill:#ffffff;fill-opacity:1;fill-rule:nonzero;stroke:none;stroke-width:1px;marker:none;enable-background:accumulate" />
  </g>
  <g
     inkscape:label="txt"
     id="layer1"
     inkscape:groupmode="layer">
    <text
       transform="scale(0.99789912,1.0021053)"
       id="text4246-1-3-2-8"
       y="482.24832"
       x="2138.4619"
       style="font-style:normal;font-variant:normal;font-weight:normal;font-stretch:normal;font-size:15.8906px;line-height:0%;font-family:Lavi;-inkscape-font-specification:Lavi;text-align:center;letter-spacing:0px;word-spacing:0px;text-anchor:middle;fill:#000000;fill-opacity:1;stroke:none;stroke-width:1.17751"
       xml:space="preserve"><tspan
         id="tspan829"
         y="482.24832"
         x="2138.4619"
         style="font-style:normal;font-variant:normal;font-weight:bold;font-stretch:normal;font-size:46.6667px;line-height:1.25;font-family:Lavi;-inkscape-font-specification:'Lavi Bold';stroke-width:1.17751"
         sodipodi:role="line">Y leveris</tspan><tspan
         id="tspan65"
         y="540.58167"
         x="2138.4619"
         style="font-style:normal;font-variant:normal;font-weight:bold;font-stretch:normal;font-size:46.6667px;line-height:1.25;font-family:Lavi;-inkscape-font-specification:'Lavi Bold';stroke-width:1.17751"
         sodipodi:role="line">HEDH!</tspan></text>
    <text
       transform="scale(0.99789912,1.0021053)"
       id="text4246-1-3-2-8-3"
       y="637.91968"
       x="2096.3638"
       style="font-style:normal;font-variant:normal;font-weight:normal;font-stretch:normal;font-size:15.8906px;line-height:0%;font-family:Lavi;-inkscape-font-specification:Lavi;text-align:center;letter-spacing:0px;word-spacing:0px;text-anchor:middle;fill:#000000;fill-opacity:1;stroke:none;stroke-width:1.17751"
       xml:space="preserve"><tspan
         id="tspan829-7"
         y="637.91968"
         x="2096.3638"
         style="font-style:normal;font-variant:normal;font-weight:bold;font-stretch:normal;font-size:46.6667px;line-height:1.25;font-family:Lavi;-inkscape-font-specification:'Lavi Bold';stroke-width:1.17751"
         sodipodi:role="line">Lowr yw henna!!</tspan></text>
    <text
       transform="matrix(0.55718765,-0.37423929,0.21813977,1.0749149,-120.92735,-234.76499)"
       id="text4580-25"
       y="1584.5073"
       x="787.65729"
       style="font-style:normal;font-variant:normal;font-weight:normal;font-stretch:normal;line-height:0%;font-family:Lavi;-inkscape-font-specification:Lavi;letter-spacing:0px;word-spacing:0px;fill:#000000;fill-opacity:1;stroke:#ffffff;stroke-width:2.66678;stroke-miterlimit:4;stroke-dasharray:none;stroke-opacity:1;filter:url(#filter4375-4-1-1-1-9-0)"
       xml:space="preserve"><tspan
         style="font-size:70px;line-height:100%;letter-spacing:4.88345px;fill:#ffffff;stroke:#ffffff;stroke-width:2.66678;stroke-miterlimit:4;stroke-dasharray:none;stroke-opacity:1"
         y="1584.5073"
         x="787.65729"
         id="tspan4582-4"
         sodipodi:role="line"><tspan
           id="tspan4439-4"
           style="font-size:55.3496px;line-height:100%;letter-spacing:4.88345px;stroke:#ffffff;stroke-width:2.66678;stroke-miterlimit:4;stroke-dasharray:none;stroke-opacity:1">Snapp</tspan><tspan
           id="tspan4617-9"
           style="font-size:80.4001px;line-height:100%;letter-spacing:4.88345px;stroke:#ffffff;stroke-width:2.66678;stroke-miterlimit:4;stroke-dasharray:none;stroke-opacity:1">!</tspan></tspan></text>
    <text
       transform="matrix(1.5492299,-0.0813593,-0.87667877,1.9075458,1570.733,-1836.1775)"
       id="text4580-6-0-8-8"
       y="1584.5073"
       x="787.65729"
       style="font-style:normal;font-variant:normal;font-weight:normal;font-stretch:normal;line-height:0%;font-family:Lavi;-inkscape-font-specification:Lavi;letter-spacing:0px;word-spacing:0px;display:inline;fill:#ffffff;fill-opacity:1;stroke:#000000;stroke-width:0.481485;stroke-miterlimit:4;stroke-dasharray:none;stroke-opacity:1;filter:url(#filter4375-4-1-1-1-9-5-8-3-8)"
       xml:space="preserve"><tspan
         style="font-style:normal;font-variant:normal;font-weight:bold;font-stretch:normal;font-size:70px;line-height:1.25;font-family:'Noto Sans';-inkscape-font-specification:'Noto Sans Bold';letter-spacing:5.87611px;fill:#ffffff;fill-opacity:1;stroke:#000000;stroke-width:0.481485;stroke-opacity:1"
         y="1584.5073"
         x="787.65729"
         id="tspan4582-1-1-8-2"
         sodipodi:role="line"><tspan
           id="tspan4315-8-97-3"
           style="font-style:normal;font-variant:normal;font-weight:bold;font-stretch:normal;font-size:93.1495px;font-family:'Noto Sans';-inkscape-font-specification:'Noto Sans Bold';letter-spacing:5.87611px;fill:#ffffff;fill-opacity:1;stroke:#000000;stroke-width:0.481485;stroke-opacity:1">POU<tspan
   id="tspan912"
   style="font-style:normal;font-variant:normal;font-weight:bold;font-stretch:normal;font-size:81.1149px;font-family:'Noto Sans';-inkscape-font-specification:'Noto Sans Bold';stroke-width:0.481485">UF</tspan></tspan><tspan
           id="tspan4313-2-76-0"
           style="font-style:normal;font-variant:normal;font-weight:bold;font-stretch:normal;font-size:114.732px;font-family:'Noto Sans';-inkscape-font-specification:'Noto Sans Bold';letter-spacing:5.87611px;fill:#ffffff;fill-opacity:1;stroke:#000000;stroke-width:0.481485;stroke-opacity:1">!</tspan></tspan></text>
    <text
       transform="matrix(0.37191843,0.11061463,-0.38324889,0.61702867,2371.8774,1301.4149)"
       id="text4580-25-2"
       y="1584.5073"
       x="787.65729"
       style="font-style:normal;font-variant:normal;font-weight:normal;font-stretch:normal;line-height:0%;font-family:Lavi;-inkscape-font-specification:Lavi;letter-spacing:0px;word-spacing:0px;fill:#000000;fill-opacity:1;stroke:#ffffff;stroke-width:4.21926;stroke-miterlimit:4;stroke-dasharray:none;stroke-opacity:1;filter:url(#filter4375-4-1-1-1-9-0-5)"
       xml:space="preserve"><tspan
         style="font-style:normal;font-variant:normal;font-weight:bold;font-stretch:normal;font-size:80.4001px;line-height:100%;font-family:'Noto Sans';-inkscape-font-specification:'Noto Sans Bold';letter-spacing:4.88345px;fill:#ffffff;stroke:#ffffff;stroke-width:4.21926;stroke-miterlimit:4;stroke-dasharray:none;stroke-opacity:1"
         y="1584.5073"
         x="787.65729"
         id="tspan4582-4-7"
         sodipodi:role="line">TCHK!</tspan></text>
    <text
       transform="scale(0.99789912,1.0021053)"
       id="text4246-1-3-2-8-3-3"
       y="2895.5073"
       x="685.59564"
       style="font-style:normal;font-variant:normal;font-weight:normal;font-stretch:normal;font-size:15.8906px;line-height:0%;font-family:Lavi;-inkscape-font-specification:Lavi;text-align:center;letter-spacing:0px;word-spacing:0px;text-anchor:middle;fill:#000000;fill-opacity:1;stroke:none;stroke-width:1.17751"
       xml:space="preserve"><tspan
         id="tspan829-7-6"
         y="2895.5073"
         x="685.59564"
         style="font-style:normal;font-variant:normal;font-weight:bold;font-stretch:normal;font-size:46.6667px;line-height:1.25;font-family:Lavi;-inkscape-font-specification:'Lavi Bold';stroke-width:1.17751"
         sodipodi:role="line">An dhiw ahanowgh!</tspan></text>
    <text
       transform="scale(0.99789912,1.0021053)"
       id="text4246-1-3-2-8-3-3-7"
       y="2985.6943"
       x="719.39069"
       style="font-style:normal;font-variant:normal;font-weight:normal;font-stretch:normal;font-size:15.8906px;line-height:0%;font-family:Lavi;-inkscape-font-specification:Lavi;text-align:center;letter-spacing:0px;word-spacing:0px;text-anchor:middle;fill:#000000;fill-opacity:1;stroke:none;stroke-width:1.17751"
       xml:space="preserve"><tspan
         id="tspan829-7-6-5"
         y="2985.6943"
         x="719.39069"
         style="font-style:normal;font-variant:normal;font-weight:bold;font-stretch:normal;font-size:46.6667px;line-height:1.25;font-family:Lavi;-inkscape-font-specification:'Lavi Bold';stroke-width:1.17751"
         sodipodi:role="line">OMMA!</tspan></text>
    <text
       transform="scale(0.99789912,1.0021053)"
       id="text4246-1-3-2-8-36-2"
       y="3070.9504"
       x="713.04907"
       style="font-style:normal;font-variant:normal;font-weight:normal;font-stretch:normal;font-size:15.8906px;line-height:0%;font-family:Lavi;-inkscape-font-specification:Lavi;text-align:center;letter-spacing:0px;word-spacing:0px;text-anchor:middle;fill:#000000;fill-opacity:1;stroke:none;stroke-width:1.17751"
       xml:space="preserve"><tspan
         id="tspan1020-8"
         y="3070.9504"
         x="713.04907"
         style="font-style:normal;font-variant:normal;font-weight:bold;font-stretch:normal;font-size:46.6667px;line-height:1.25;font-family:Lavi;-inkscape-font-specification:'Lavi Bold';stroke-width:1.17751"
         sodipodi:role="line">Distowgh!</tspan></text>
  </g>
</svg>
