<?xml version="1.0" encoding="UTF-8" standalone="no"?>
<!-- Created with Inkscape (http://www.inkscape.org/) -->

<svg
   xmlns:dc="http://purl.org/dc/elements/1.1/"
   xmlns:cc="http://creativecommons.org/ns#"
   xmlns:rdf="http://www.w3.org/1999/02/22-rdf-syntax-ns#"
   xmlns:svg="http://www.w3.org/2000/svg"
   xmlns="http://www.w3.org/2000/svg"
   xmlns:xlink="http://www.w3.org/1999/xlink"
   xmlns:sodipodi="http://sodipodi.sourceforge.net/DTD/sodipodi-0.dtd"
   xmlns:inkscape="http://www.inkscape.org/namespaces/inkscape"
   id="svg2"
   version="1.1"
   inkscape:version="0.92.1 r15371"
   width="2481"
   height="3503"
   sodipodi:docname="E28P06.svg"
   inkscape:export-filename="/home/dash/Downloads/pepper carrot EPS/ep28_The-Festivities_lang-pack/lang/ph/E28P06.svg.png"
   inkscape:export-xdpi="96"
   inkscape:export-ydpi="96">
  <metadata
     id="metadata8">
    <rdf:RDF>
      <cc:Work
         rdf:about="">
        <dc:format>image/svg+xml</dc:format>
        <dc:type
           rdf:resource="http://purl.org/dc/dcmitype/StillImage" />
        <dc:title />
      </cc:Work>
    </rdf:RDF>
  </metadata>
  <defs
     id="defs6" />
  <sodipodi:namedview
     pagecolor="#ffffff"
     bordercolor="#666666"
     borderopacity="1"
     objecttolerance="10"
     gridtolerance="10"
     guidetolerance="10"
     inkscape:pageopacity="0"
     inkscape:pageshadow="2"
     inkscape:window-width="1920"
     inkscape:window-height="997"
     id="namedview4"
     showgrid="false"
     inkscape:zoom="0.25"
     inkscape:cx="1641.165"
     inkscape:cy="1191.2248"
     inkscape:window-x="0"
     inkscape:window-y="0"
     inkscape:window-maximized="1"
     inkscape:current-layer="layer3" />
  <g
     inkscape:groupmode="layer"
     id="layer2"
     inkscape:label="artwork"
     sodipodi:insensitive="true">
    <image
       sodipodi:absref="/home/dash/Downloads/pepper carrot EPS/ep28_The-Festivities_lang-pack/lang/ph/../gfx_Pepper-and-Carrot_by-David-Revoy_E28P06.png"
       xlink:href="../gfx_Pepper-and-Carrot_by-David-Revoy_E28P06.png"
       width="2481"
       height="3503"
       id="image10"
       x="0"
       y="0" />
  </g>
  <g
     inkscape:groupmode="layer"
     id="layer3"
     inkscape:label="speechbubbles">
    <path
       style="fill:#ffffff;fill-rule:evenodd;stroke:none;stroke-width:1.65002429px;stroke-linecap:butt;stroke-linejoin:miter;stroke-opacity:1"
       d="m 245.09218,1977.87 c 0,-122.661 43.08003,-147.8222 61.03005,-154.1127 17.95001,-6.2901 111.29008,-12.5806 130.43676,0 19.14667,12.581 49.06336,56.6129 49.06336,125.8062 0,69.1933 -8.37666,141.532 -47.8667,169.8381 -39.49003,28.3066 -125.65008,6.2903 -150.78011,-9.4353 -25.13001,-15.7259 -40.6867,-66.0483 -41.88336,-132.0963 z"
       id="path845"
       inkscape:connector-curvature="0" />
    <path
       style="fill:#ffffff;fill-rule:evenodd;stroke:none;stroke-width:1.13135469px;stroke-linecap:butt;stroke-linejoin:miter;stroke-opacity:1"
       d="m 1693.3399,2257.5901 c -3.9832,81.8531 -25.891,117.6638 -40.8281,121.0742 -14.9371,3.4106 -86.6352,10.2317 -99.5807,8.5265 -12.9454,-1.7053 -154.3501,1.7052 -168.2914,0 -13.9413,-1.7053 -54.7694,-15.3475 -65.7232,-46.0424 -10.954,-30.6948 -26.8868,-81.853 -16.9287,-122.7796 9.958,-40.9264 39.8322,-98.9057 131.4465,-95.4952 91.6141,3.4106 190.1992,-8.5263 220.0733,20.4633 29.8743,28.9897 38.8365,83.5582 39.8323,114.2532 z"
       id="path851"
       inkscape:connector-curvature="0" />
  </g>
  <g
     inkscape:groupmode="layer"
     id="layer1"
     inkscape:label="txt">
    <text
       xml:space="preserve"
       style="font-style:normal;font-variant:normal;font-weight:normal;font-stretch:normal;line-height:0%;font-family:Lavi;-inkscape-font-specification:Lavi;text-align:center;letter-spacing:0px;word-spacing:0px;text-anchor:middle;fill:#000000;fill-opacity:1;stroke:none"
       x="361.77133"
       y="1976.8854"
       id="text4246"><tspan
         sodipodi:role="line"
         style="font-size:45px;line-height:1.20000005"
         x="361.77133"
         y="1976.8854"
         id="tspan4252">PEPPER</tspan><tspan
         sodipodi:role="line"
         style="font-size:45px;line-height:1.20000005"
         x="361.77133"
         y="2030.8854"
         id="tspan4517">!?</tspan></text>
    <text
       xml:space="preserve"
       style="font-style:normal;font-variant:normal;font-weight:normal;font-stretch:normal;line-height:0%;font-family:Lavi;-inkscape-font-specification:Lavi;text-align:center;letter-spacing:0px;word-spacing:0px;text-anchor:middle;fill:#000000;fill-opacity:1;stroke:none"
       x="1478.7153"
       y="2202.9377"
       id="text4246-3"><tspan
         sodipodi:role="line"
         style="font-size:45px;line-height:1.20000005"
         x="1486.6255"
         y="2202.9377"
         id="tspan7147">Nagsukbit </tspan><tspan
         sodipodi:role="line"
         style="font-size:45px;line-height:1.20000005"
         x="1486.6255"
         y="2256.9377"
         id="tspan4529">ako ng handa! </tspan><tspan
         sodipodi:role="line"
         style="font-size:45px;line-height:1.20000005"
         x="1486.6255"
         y="2310.9377"
         id="tspan4531">Gusto mo ba </tspan><tspan
         sodipodi:role="line"
         style="font-size:45px;line-height:1.20000005"
         x="1478.7153"
         y="2364.9377"
         id="tspan4541">share?</tspan></text>
    <text
       xml:space="preserve"
       style="font-style:normal;font-variant:normal;font-weight:normal;font-stretch:normal;font-size:40px;line-height:1.25;font-family:laavi;-inkscape-font-specification:laavi;letter-spacing:0px;word-spacing:0px;fill:#000000;fill-opacity:1;stroke:none"
       x="1630.801"
       y="372.56528"
       id="text4497"
       transform="skewX(-21.998612)"><tspan
         sodipodi:role="line"
         id="tspan4495"
         x="1630.801"
         y="372.56528"
         style="font-style:normal;font-variant:normal;font-weight:normal;font-stretch:normal;font-family:Lavi;-inkscape-font-specification:Lavi;letter-spacing:4.44999886px;word-spacing:3.26999903px;fill:#ffffff"
         dx="10.719995">Hikbi...</tspan></text>
    <text
       xml:space="preserve"
       style="font-style:normal;font-variant:normal;font-weight:normal;font-stretch:normal;font-size:63.20120621px;line-height:1.25;font-family:laavi;-inkscape-font-specification:laavi;letter-spacing:0px;word-spacing:0px;fill:#000000;fill-opacity:1;stroke:none;stroke-width:1.5800302"
       x="1532.7711"
       y="1053.7107"
       id="text4497-2"
       transform="skewX(-21.998612)"><tspan
         sodipodi:role="line"
         id="tspan4495-6"
         x="1532.7711"
         y="1053.7107"
         style="font-style:normal;font-variant:normal;font-weight:normal;font-stretch:normal;font-family:Lavi;-inkscape-font-specification:Lavi;letter-spacing:7.0311327px;word-spacing:5.16669703px;fill:#ffffff;stroke-width:1.5800302">hay....</tspan></text>
    <text
       xml:space="preserve"
       style="font-style:normal;font-variant:normal;font-weight:normal;font-stretch:normal;font-size:63.20120621px;line-height:1.25;font-family:laavi;-inkscape-font-specification:laavi;letter-spacing:0px;word-spacing:0px;fill:#ffaaee;fill-opacity:1;stroke:none;stroke-width:1.5800302;"
       x="1877.4108"
       y="2882.1399"
       id="text4497-2-4"
       transform="skewX(-21.998612)"><tspan
         sodipodi:role="line"
         id="tspan4495-6-2"
         x="1877.4108"
         y="2882.1399"
         style="font-style:normal;font-variant:normal;font-weight:normal;font-stretch:normal;font-family:Lavi;-inkscape-font-specification:Lavi;letter-spacing:7.0311327px;word-spacing:5.16669703px;fill:#ffaaee;stroke-width:1.5800302;">yum...</tspan></text>
    <text
       xml:space="preserve"
       style="font-style:normal;font-variant:normal;font-weight:normal;font-stretch:normal;font-size:63.20120621px;line-height:1.25;font-family:laavi;-inkscape-font-specification:laavi;letter-spacing:0px;word-spacing:0px;fill:#000000;fill-opacity:1;stroke:none;stroke-width:1.5800302"
       x="2866.4966"
       y="2903.3813"
       id="text4497-2-4-3"
       transform="skewX(-21.998612)"><tspan
         sodipodi:role="line"
         id="tspan4495-6-2-0"
         x="2866.4966"
         y="2903.3813"
         style="font-style:normal;font-variant:normal;font-weight:normal;font-stretch:normal;font-family:Lavi;-inkscape-font-specification:Lavi;letter-spacing:7.0311327px;word-spacing:5.16669703px;fill:#ffffff;stroke-width:1.5800302">...</tspan></text>
    <path
       style="fill:none;stroke:#ffffff;stroke-width:3;stroke-linecap:butt;stroke-linejoin:miter;stroke-miterlimit:4;stroke-dasharray:none;stroke-opacity:1"
       d="m 501.16445,384.63333 -5.67108,-25.51985 40.64273,17.95841 21.73913,-57.65595 7.56143,62.38185 43.47826,-15.12287 -21.73913,25.51984"
       id="path4581"
       inkscape:connector-curvature="0" />
    <path
       style="fill:none;stroke:#ffffff;stroke-width:3;stroke-linecap:butt;stroke-linejoin:miter;stroke-miterlimit:4;stroke-dasharray:none;stroke-opacity:1"
       d="m 195.12624,476.29696 -28.35539,-13.23252 30.24575,-6.61625 -23.11068,-35.42646 42.95945,19.3584 -0.94518,-18.90359 14.17769,11.34216"
       id="path4583"
       inkscape:connector-curvature="0"
       sodipodi:nodetypes="ccccccc" />
    <text
       xml:space="preserve"
       style="font-style:normal;font-variant:normal;font-weight:normal;font-stretch:normal;font-size:56.56854248px;line-height:1.25;font-family:laavi;-inkscape-font-specification:laavi;letter-spacing:0px;word-spacing:0px;fill:#000000;fill-opacity:1;stroke:none;stroke-width:1.41421354"
       x="455.68527"
       y="255.70099"
       id="text4497-5"
       transform="matrix(0.76326159,0.12113558,0.31448157,1.3600775,0,0)"><tspan
         sodipodi:role="line"
         id="tspan4495-0"
         x="455.68527"
         y="255.70099"
         style="font-style:normal;font-variant:normal;font-weight:normal;font-stretch:normal;font-family:Lavi;-inkscape-font-specification:Lavi;letter-spacing:6.29324865px;word-spacing:4.62447691px;fill:#ffffff;stroke-width:1.41421354">!!!</tspan></text>
    <text
       xml:space="preserve"
       style="font-style:normal;font-variant:normal;font-weight:normal;font-stretch:normal;font-size:25.71055794px;line-height:1.25;font-family:laavi;-inkscape-font-specification:laavi;letter-spacing:0px;word-spacing:0px;fill:#000000;fill-opacity:1;stroke:none;stroke-width:0.64276397"
       x="125.70319"
       y="550.82239"
       id="text4497-5-7"
       transform="matrix(0.78986068,-0.61328632,0.47574612,0.89665359,0,0)"><tspan
         sodipodi:role="line"
         id="tspan4495-0-2"
         x="125.70319"
         y="550.82239"
         style="font-style:normal;font-variant:normal;font-weight:normal;font-stretch:normal;font-family:Lavi;-inkscape-font-specification:Lavi;letter-spacing:2.86029887px;word-spacing:2.10183764px;fill:#ffffff;stroke-width:0.64276397">?!</tspan></text>
    <text
       xml:space="preserve"
       style="font-style:normal;font-variant:normal;font-weight:normal;font-stretch:normal;font-size:56.29765701px;line-height:1.25;font-family:laavi;-inkscape-font-specification:laavi;letter-spacing:0px;word-spacing:0px;fill:#000000;fill-opacity:1;stroke:none;stroke-width:1.40744138"
       x="753.16382"
       y="639.31909"
       id="text4497-5-8"
       transform="matrix(0.94745446,-0.31989067,-0.06287909,1.0766897,0,0)"><tspan
         sodipodi:role="line"
         id="tspan4495-0-0"
         x="753.16382"
         y="639.31909"
         style="font-style:normal;font-variant:normal;font-weight:normal;font-stretch:normal;font-family:Lavi;-inkscape-font-specification:Lavi;letter-spacing:6.26311255px;word-spacing:4.60233212px;fill:#ffffff;stroke-width:1.40744138">!</tspan></text>
    <text
       xml:space="preserve"
       style="font-style:normal;font-variant:normal;font-weight:normal;font-stretch:normal;font-size:14.23565483px;line-height:1.25;font-family:laavi;-inkscape-font-specification:laavi;letter-spacing:0px;word-spacing:0px;fill:#000000;fill-opacity:1;stroke:none;stroke-width:0.35589138"
       x="260.94604"
       y="539.66583"
       id="text4497-5-7-2"
       transform="matrix(0.98664043,-0.16291322,-0.00889267,1.0150088,0,0)"><tspan
         sodipodi:role="line"
         id="tspan4495-0-2-3"
         x="260.94604"
         y="539.66583"
         style="font-style:normal;font-variant:normal;font-weight:normal;font-stretch:normal;font-family:Lavi;-inkscape-font-specification:Lavi;letter-spacing:1.58371615px;word-spacing:1.16376448px;fill:#ffffff;stroke-width:0.35589138">CONGRATS!</tspan></text>
    <text
       xml:space="preserve"
       style="font-style:normal;font-variant:normal;font-weight:normal;font-stretch:normal;font-size:26.80571365px;line-height:1.25;font-family:laavi;-inkscape-font-specification:laavi;letter-spacing:0px;word-spacing:0px;fill:#000000;fill-opacity:1;stroke:none;stroke-width:0.67014283"
       x="431.2092"
       y="676.24677"
       id="text4497-5-7-2-5"
       transform="matrix(0.87005681,-0.49295146,0.34144653,0.95589555,0,0)"
       inkscape:transform-center-x="370.95065"
       inkscape:transform-center-y="49.899436"><tspan
         sodipodi:role="line"
         id="tspan4495-0-2-3-4"
         x="431.2092"
         y="676.24677"
         style="font-style:normal;font-variant:normal;font-weight:normal;font-stretch:normal;font-family:Lavi;-inkscape-font-specification:Lavi;letter-spacing:2.98213482px;word-spacing:2.19136643px;fill:#ffffff;stroke-width:0.67014283">hi!</tspan></text>
    <text
       xml:space="preserve"
       style="font-style:normal;font-variant:normal;font-weight:normal;font-stretch:normal;font-size:22.30358315px;line-height:1.25;font-family:laavi;-inkscape-font-specification:laavi;letter-spacing:0px;word-spacing:0px;fill:#000000;fill-opacity:1;stroke:none;stroke-width:0.55758959"
       x="554.5434"
       y="494.11356"
       id="text4497-5-7-2-5-3"
       transform="matrix(1.0314723,0.11973732,-0.15349336,0.95166988,0,0)"
       inkscape:transform-center-x="-0.42829748"
       inkscape:transform-center-y="-2.584478"><tspan
         sodipodi:role="line"
         id="tspan4495-0-2-3-4-0"
         x="554.5434"
         y="494.11356"
         style="font-style:normal;font-variant:normal;font-weight:normal;font-stretch:normal;font-family:Lavi;-inkscape-font-specification:Lavi;letter-spacing:2.48127294px;word-spacing:1.82331753px;fill:#ffffff;stroke-width:0.55758959">hello!</tspan></text>
    <text
       xml:space="preserve"
       style="font-style:normal;font-variant:normal;font-weight:normal;font-stretch:normal;font-size:22.30358315px;line-height:1.25;font-family:laavi;-inkscape-font-specification:laavi;letter-spacing:0px;word-spacing:0px;fill:#000000;fill-opacity:1;stroke:none;stroke-width:0.55758959"
       x="316.11542"
       y="421.29745"
       id="text4497-5-7-2-5-3-7"
       transform="matrix(1.0314723,0.11973732,-0.15349336,0.95166988,0,0)"
       inkscape:transform-center-x="-0.42829748"
       inkscape:transform-center-y="-2.584478"><tspan
         sodipodi:role="line"
         id="tspan4495-0-2-3-4-0-1"
         x="316.11542"
         y="421.29745"
         style="font-style:normal;font-variant:normal;font-weight:normal;font-stretch:normal;font-family:Lavi;-inkscape-font-specification:Lavi;letter-spacing:2.48127294px;word-spacing:1.82331753px;fill:#ffffff;stroke-width:0.55758959">BLA BLA!</tspan></text>
    <text
       xml:space="preserve"
       style="font-style:normal;font-variant:normal;font-weight:normal;font-stretch:normal;font-size:22.30358315px;line-height:1.25;font-family:laavi;-inkscape-font-specification:laavi;letter-spacing:0px;word-spacing:0px;fill:#000000;fill-opacity:1;stroke:none;stroke-width:0.55758959"
       x="342.99368"
       y="430.45575"
       id="text4497-5-7-2-5-3-7-8"
       transform="matrix(1.0314723,0.11973732,-0.15349336,0.95166988,0,0)"
       inkscape:transform-center-x="-0.42829748"
       inkscape:transform-center-y="-2.584478"><tspan
         sodipodi:role="line"
         id="tspan4495-0-2-3-4-0-1-8"
         x="342.99368"
         y="430.45575"
         style="font-style:normal;font-variant:normal;font-weight:normal;font-stretch:normal;font-family:Lavi;-inkscape-font-specification:Lavi;letter-spacing:2.48127294px;word-spacing:1.82331753px;fill:#ffffff;stroke-width:0.55758959">BLA BLA!</tspan></text>
    <text
       xml:space="preserve"
       style="font-style:normal;font-variant:normal;font-weight:normal;font-stretch:normal;font-size:22.30358315px;line-height:1.25;font-family:laavi;-inkscape-font-specification:laavi;letter-spacing:0px;word-spacing:0px;fill:#000000;fill-opacity:1;stroke:none;stroke-width:0.55758959"
       x="254.47757"
       y="663.55237"
       id="text4497-5-7-2-5-3-7-7"
       transform="matrix(0.98296264,-0.33474854,0.26999752,0.92538484,0,0)"
       inkscape:transform-center-x="0.77498065"
       inkscape:transform-center-y="-2.8409557"><tspan
         sodipodi:role="line"
         id="tspan4495-0-2-3-4-0-1-4"
         x="254.47757"
         y="663.55237"
         style="font-style:normal;font-variant:normal;font-weight:normal;font-stretch:normal;font-family:Lavi;-inkscape-font-specification:Lavi;letter-spacing:2.48127294px;word-spacing:1.82331753px;fill:#ffffff;stroke-width:0.55758959">BLA BLA!</tspan></text>
    <text
       xml:space="preserve"
       style="font-style:normal;font-variant:normal;font-weight:normal;font-stretch:normal;font-size:22.30358315px;line-height:1.25;font-family:laavi;-inkscape-font-specification:laavi;letter-spacing:0px;word-spacing:0px;fill:#000000;fill-opacity:1;stroke:none;stroke-width:0.55758959"
       x="278.1604"
       y="656.85754"
       id="text4497-5-7-2-5-3-7-7-2"
       transform="matrix(0.98296264,-0.33474854,0.26999752,0.92538484,0,0)"
       inkscape:transform-center-x="0.77499552"
       inkscape:transform-center-y="-2.8409505"><tspan
         sodipodi:role="line"
         id="tspan4495-0-2-3-4-0-1-4-2"
         x="278.1604"
         y="656.85754"
         style="font-style:normal;font-variant:normal;font-weight:normal;font-stretch:normal;font-family:Lavi;-inkscape-font-specification:Lavi;letter-spacing:2.48127294px;word-spacing:1.82331753px;fill:#ffffff;stroke-width:0.55758959">BLA BLA!</tspan></text>
    <text
       xml:space="preserve"
       style="font-style:normal;font-variant:normal;font-weight:normal;font-stretch:normal;font-size:63.20120621px;line-height:1.25;font-family:laavi;-inkscape-font-specification:laavi;letter-spacing:0px;word-spacing:0px;fill:#000000;fill-opacity:1;stroke:none;stroke-width:1.5800302"
       x="752.26843"
       y="1609.0189"
       id="text4497-2-1"
       transform="matrix(0.88008765,-0.47481123,0.11925754,1.0719105,0,0)"><tspan
         sodipodi:role="line"
         id="tspan4495-6-21"
         x="752.26843"
         y="1609.0189"
         style="font-style:normal;font-variant:normal;font-weight:normal;font-stretch:normal;font-family:Lavi;-inkscape-font-specification:Lavi;letter-spacing:7.0311327px;word-spacing:5.16669703px;fill:#ffffff;stroke-width:1.5800302">?</tspan></text>
  </g>
</svg>
