<?xml version="1.0" encoding="UTF-8" standalone="no"?>
<svg
   xmlns:dc="http://purl.org/dc/elements/1.1/"
   xmlns:cc="http://creativecommons.org/ns#"
   xmlns:rdf="http://www.w3.org/1999/02/22-rdf-syntax-ns#"
   xmlns:svg="http://www.w3.org/2000/svg"
   xmlns="http://www.w3.org/2000/svg"
   xmlns:xlink="http://www.w3.org/1999/xlink"
   xmlns:sodipodi="http://sodipodi.sourceforge.net/DTD/sodipodi-0.dtd"
   xmlns:inkscape="http://www.inkscape.org/namespaces/inkscape"
   id="svg2"
   version="1.1"
   inkscape:version="1.0.2-2 (e86c870879, 2021-01-15)"
   width="2481"
   height="3503"
   sodipodi:docname="E27P05.svg">
  <metadata
     id="metadata8">
    <rdf:RDF>
      <cc:Work
         rdf:about="">
        <dc:format>image/svg+xml</dc:format>
        <dc:type
           rdf:resource="http://purl.org/dc/dcmitype/StillImage" />
        <dc:title />
      </cc:Work>
    </rdf:RDF>
  </metadata>
  <defs
     id="defs6">
    <filter
       style="color-interpolation-filters:sRGB"
       id="filter4375-4-1-1-1-9-7-7-0-3-7"
       inkscape:label="deevad outline effect">
      <feFlood
         id="feFlood4377-7-9-0-8-1-4-8-3-2-4"
         flood-opacity="1"
         flood-color="rgb(0,0,0)"
         result="flood" />
      <feComposite
         id="feComposite4379-3-8-8-2-77-7-8-1-2-6"
         in2="SourceGraphic"
         in="flood"
         operator="in"
         result="composite1" />
      <feMorphology
         id="feMorphology4393-1-0-49-8-9-3-9-0-1-4"
         operator="dilate"
         radius="4"
         result="result3" />
      <feComposite
         id="feComposite4385-9-5-7-0-8-0-0-3-5-9"
         in2="result3"
         in="SourceGraphic"
         operator="over"
         result="composite2" />
    </filter>
    <filter
       style="color-interpolation-filters:sRGB"
       id="filter4375-4-1-1-1-9-7-7-0-1"
       inkscape:label="deevad outline effect">
      <feFlood
         id="feFlood4377-7-9-0-8-1-4-8-3-23"
         flood-opacity="1"
         flood-color="rgb(0,0,0)"
         result="flood" />
      <feComposite
         id="feComposite4379-3-8-8-2-77-7-8-1-1"
         in2="SourceGraphic"
         in="flood"
         operator="in"
         result="composite1" />
      <feMorphology
         id="feMorphology4393-1-0-49-8-9-3-9-0-8"
         operator="dilate"
         radius="4"
         result="result3" />
      <feComposite
         id="feComposite4385-9-5-7-0-8-0-0-3-1"
         in2="result3"
         in="SourceGraphic"
         operator="over"
         result="composite2" />
    </filter>
    <filter
       style="color-interpolation-filters:sRGB"
       id="filter4375-4-1-1-1-9-7-7-3"
       inkscape:label="deevad outline effect">
      <feFlood
         id="feFlood4377-7-9-0-8-1-4-8-8"
         flood-opacity="1"
         flood-color="rgb(0,0,0)"
         result="flood" />
      <feComposite
         id="feComposite4379-3-8-8-2-77-7-8-9"
         in2="SourceGraphic"
         in="flood"
         operator="in"
         result="composite1" />
      <feMorphology
         id="feMorphology4393-1-0-49-8-9-3-9-2"
         operator="dilate"
         radius="4"
         result="result3" />
      <feComposite
         id="feComposite4385-9-5-7-0-8-0-0-4"
         in2="result3"
         in="SourceGraphic"
         operator="over"
         result="composite2" />
    </filter>
    <filter
       style="color-interpolation-filters:sRGB"
       id="filter4375-4-1-1-1-9-7-5"
       inkscape:label="deevad outline effect">
      <feFlood
         id="feFlood4377-7-9-0-8-1-4-1"
         flood-opacity="1"
         flood-color="rgb(0,0,0)"
         result="flood" />
      <feComposite
         id="feComposite4379-3-8-8-2-77-7-0"
         in2="SourceGraphic"
         in="flood"
         operator="in"
         result="composite1" />
      <feMorphology
         id="feMorphology4393-1-0-49-8-9-3-0"
         operator="dilate"
         radius="4"
         result="result3" />
      <feComposite
         id="feComposite4385-9-5-7-0-8-0-1"
         in2="result3"
         in="SourceGraphic"
         operator="over"
         result="composite2" />
    </filter>
    <filter
       style="color-interpolation-filters:sRGB"
       id="filter4375-4-1-1-1-9-3"
       inkscape:label="deevad outline effect">
      <feFlood
         id="feFlood4377-7-9-0-8-1-3"
         flood-opacity="1"
         flood-color="rgb(0,0,0)"
         result="flood" />
      <feComposite
         id="feComposite4379-3-8-8-2-77-0"
         in2="SourceGraphic"
         in="flood"
         operator="in"
         result="composite1" />
      <feMorphology
         id="feMorphology4393-1-0-49-8-9-0"
         operator="dilate"
         radius="3"
         result="result3" />
      <feComposite
         id="feComposite4385-9-5-7-0-8-02"
         in2="result3"
         in="SourceGraphic"
         operator="over"
         result="composite2" />
    </filter>
    <filter
       style="color-interpolation-filters:sRGB"
       id="filter4375-4-1-1-1-9-8"
       inkscape:label="Roughen">
      <feFlood
         id="feFlood4377-7-9-0-8-1-96"
         flood-opacity="1"
         flood-color="rgb(0,0,0)"
         result="flood" />
      <feComposite
         id="feComposite4379-3-8-8-2-77-4"
         in2="SourceGraphic"
         in="flood"
         operator="in"
         result="composite1" />
      <feMorphology
         id="feMorphology4393-1-0-49-8-9-33"
         operator="dilate"
         radius="4"
         result="result3" />
      <feComposite
         id="feComposite4385-9-5-7-0-8-38"
         in2="result3"
         in="SourceGraphic"
         operator="over"
         result="fbSourceGraphic" />
      <feColorMatrix
         result="fbSourceGraphicAlpha"
         in="fbSourceGraphic"
         values="0 0 0 -1 0 0 0 0 -1 0 0 0 0 -1 0 0 0 0 1 0"
         id="feColorMatrix333-6" />
      <feTurbulence
         id="feTurbulence335-0"
         type="fractalNoise"
         numOctaves="5"
         seed="1"
         baseFrequency="0.013 0.013"
         result="turbulence" />
      <feDisplacementMap
         in2="turbulence"
         id="feDisplacementMap337-48"
         in="fbSourceGraphic"
         scale="6.6"
         yChannelSelector="G"
         xChannelSelector="R"
         result="fbSourceGraphic" />
      <feColorMatrix
         result="fbSourceGraphicAlpha"
         in="fbSourceGraphic"
         values="0 0 0 -1 0 0 0 0 -1 0 0 0 0 -1 0 0 0 0 1 0"
         id="feColorMatrix435-8" />
      <feTurbulence
         id="feTurbulence437-8"
         type="fractalNoise"
         numOctaves="5"
         seed="27"
         baseFrequency="0.001 0.4414"
         result="turbulence" />
      <feDisplacementMap
         in2="turbulence"
         id="feDisplacementMap439-9"
         in="fbSourceGraphic"
         scale="4.27461"
         yChannelSelector="G"
         xChannelSelector="R" />
    </filter>
    <filter
       style="color-interpolation-filters:sRGB"
       id="filter4375-4-1-1-1-9-30-7"
       inkscape:label="Roughen">
      <feFlood
         id="feFlood4377-7-9-0-8-1-78-41"
         flood-opacity="1"
         flood-color="rgb(0,0,0)"
         result="flood" />
      <feComposite
         id="feComposite4379-3-8-8-2-77-68-8"
         in2="SourceGraphic"
         in="flood"
         operator="in"
         result="composite1" />
      <feMorphology
         id="feMorphology4393-1-0-49-8-9-8-59"
         operator="dilate"
         radius="4"
         result="result3" />
      <feComposite
         id="feComposite4385-9-5-7-0-8-4-7"
         in2="result3"
         in="SourceGraphic"
         operator="over"
         result="fbSourceGraphic" />
      <feColorMatrix
         result="fbSourceGraphicAlpha"
         in="fbSourceGraphic"
         values="0 0 0 -1 0 0 0 0 -1 0 0 0 0 -1 0 0 0 0 1 0"
         id="feColorMatrix333-3-5" />
      <feTurbulence
         id="feTurbulence335-1-3"
         type="fractalNoise"
         numOctaves="5"
         seed="1"
         baseFrequency="0.013 0.013"
         result="turbulence" />
      <feDisplacementMap
         in2="turbulence"
         id="feDisplacementMap337-4-8"
         in="fbSourceGraphic"
         scale="6.6"
         yChannelSelector="G"
         xChannelSelector="R"
         result="fbSourceGraphic" />
      <feColorMatrix
         result="fbSourceGraphicAlpha"
         in="fbSourceGraphic"
         values="0 0 0 -1 0 0 0 0 -1 0 0 0 0 -1 0 0 0 0 1 0"
         id="feColorMatrix435-92-8" />
      <feTurbulence
         id="feTurbulence437-06-3"
         type="fractalNoise"
         numOctaves="5"
         seed="27"
         baseFrequency="0.001 0.4414"
         result="turbulence" />
      <feDisplacementMap
         in2="turbulence"
         id="feDisplacementMap439-8-1"
         in="fbSourceGraphic"
         scale="4.27461"
         yChannelSelector="G"
         xChannelSelector="R" />
    </filter>
    <filter
       style="color-interpolation-filters:sRGB"
       id="filter4375-4-1-1-1-9-30-2-7-9"
       inkscape:label="Roughen">
      <feFlood
         id="feFlood4377-7-9-0-8-1-78-6-7-8"
         flood-opacity="1"
         flood-color="rgb(0,0,0)"
         result="flood" />
      <feComposite
         id="feComposite4379-3-8-8-2-77-68-1-1-4"
         in2="SourceGraphic"
         in="flood"
         operator="in"
         result="composite1" />
      <feMorphology
         id="feMorphology4393-1-0-49-8-9-8-0-1-8"
         operator="dilate"
         radius="4"
         result="result3" />
      <feComposite
         id="feComposite4385-9-5-7-0-8-4-6-5-1"
         in2="result3"
         in="SourceGraphic"
         operator="over"
         result="fbSourceGraphic" />
      <feColorMatrix
         result="fbSourceGraphicAlpha"
         in="fbSourceGraphic"
         values="0 0 0 -1 0 0 0 0 -1 0 0 0 0 -1 0 0 0 0 1 0"
         id="feColorMatrix333-3-1-9-0" />
      <feTurbulence
         id="feTurbulence335-1-5-7-3"
         type="fractalNoise"
         numOctaves="5"
         seed="1"
         baseFrequency="0.013 0.013"
         result="turbulence" />
      <feDisplacementMap
         in2="turbulence"
         id="feDisplacementMap337-4-9-7-0"
         in="fbSourceGraphic"
         scale="6.6"
         yChannelSelector="G"
         xChannelSelector="R"
         result="fbSourceGraphic" />
      <feColorMatrix
         result="fbSourceGraphicAlpha"
         in="fbSourceGraphic"
         values="0 0 0 -1 0 0 0 0 -1 0 0 0 0 -1 0 0 0 0 1 0"
         id="feColorMatrix435-92-4-6-4" />
      <feTurbulence
         id="feTurbulence437-06-9-7-4"
         type="fractalNoise"
         numOctaves="5"
         seed="27"
         baseFrequency="0.001 0.4414"
         result="turbulence" />
      <feDisplacementMap
         in2="turbulence"
         id="feDisplacementMap439-8-0-3-4"
         in="fbSourceGraphic"
         scale="4.27461"
         yChannelSelector="G"
         xChannelSelector="R" />
    </filter>
    <filter
       style="color-interpolation-filters:sRGB"
       id="filter4375-4-1-1-1-9-30-2-4"
       inkscape:label="Roughen">
      <feFlood
         id="feFlood4377-7-9-0-8-1-78-6-76"
         flood-opacity="1"
         flood-color="rgb(0,0,0)"
         result="flood" />
      <feComposite
         id="feComposite4379-3-8-8-2-77-68-1-3"
         in2="SourceGraphic"
         in="flood"
         operator="in"
         result="composite1" />
      <feMorphology
         id="feMorphology4393-1-0-49-8-9-8-0-17"
         operator="dilate"
         radius="4"
         result="result3" />
      <feComposite
         id="feComposite4385-9-5-7-0-8-4-6-59"
         in2="result3"
         in="SourceGraphic"
         operator="over"
         result="fbSourceGraphic" />
      <feColorMatrix
         result="fbSourceGraphicAlpha"
         in="fbSourceGraphic"
         values="0 0 0 -1 0 0 0 0 -1 0 0 0 0 -1 0 0 0 0 1 0"
         id="feColorMatrix333-3-1-6" />
      <feTurbulence
         id="feTurbulence335-1-5-2"
         type="fractalNoise"
         numOctaves="5"
         seed="1"
         baseFrequency="0.013 0.013"
         result="turbulence" />
      <feDisplacementMap
         in2="turbulence"
         id="feDisplacementMap337-4-9-1"
         in="fbSourceGraphic"
         scale="6.6"
         yChannelSelector="G"
         xChannelSelector="R"
         result="fbSourceGraphic" />
      <feColorMatrix
         result="fbSourceGraphicAlpha"
         in="fbSourceGraphic"
         values="0 0 0 -1 0 0 0 0 -1 0 0 0 0 -1 0 0 0 0 1 0"
         id="feColorMatrix435-92-4-7" />
      <feTurbulence
         id="feTurbulence437-06-9-8"
         type="fractalNoise"
         numOctaves="5"
         seed="27"
         baseFrequency="0.001 0.4414"
         result="turbulence" />
      <feDisplacementMap
         in2="turbulence"
         id="feDisplacementMap439-8-0-5"
         in="fbSourceGraphic"
         scale="4.27461"
         yChannelSelector="G"
         xChannelSelector="R" />
    </filter>
    <filter
       style="color-interpolation-filters:sRGB"
       id="filter4375-4-1-1-1-9-30-2-7-6-5"
       inkscape:label="Roughen">
      <feFlood
         id="feFlood4377-7-9-0-8-1-78-6-7-3-0"
         flood-opacity="1"
         flood-color="rgb(0,0,0)"
         result="flood" />
      <feComposite
         id="feComposite4379-3-8-8-2-77-68-1-1-9-9"
         in2="SourceGraphic"
         in="flood"
         operator="in"
         result="composite1" />
      <feMorphology
         id="feMorphology4393-1-0-49-8-9-8-0-1-4-6"
         operator="dilate"
         radius="4"
         result="result3" />
      <feComposite
         id="feComposite4385-9-5-7-0-8-4-6-5-8-3"
         in2="result3"
         in="SourceGraphic"
         operator="over"
         result="fbSourceGraphic" />
      <feColorMatrix
         result="fbSourceGraphicAlpha"
         in="fbSourceGraphic"
         values="0 0 0 -1 0 0 0 0 -1 0 0 0 0 -1 0 0 0 0 1 0"
         id="feColorMatrix333-3-1-9-1-8" />
      <feTurbulence
         id="feTurbulence335-1-5-7-2-5"
         type="fractalNoise"
         numOctaves="5"
         seed="1"
         baseFrequency="0.013 0.013"
         result="turbulence" />
      <feDisplacementMap
         in2="turbulence"
         id="feDisplacementMap337-4-9-7-9-6"
         in="fbSourceGraphic"
         scale="6.6"
         yChannelSelector="G"
         xChannelSelector="R"
         result="fbSourceGraphic" />
      <feColorMatrix
         result="fbSourceGraphicAlpha"
         in="fbSourceGraphic"
         values="0 0 0 -1 0 0 0 0 -1 0 0 0 0 -1 0 0 0 0 1 0"
         id="feColorMatrix435-92-4-6-3-1" />
      <feTurbulence
         id="feTurbulence437-06-9-7-9-1"
         type="fractalNoise"
         numOctaves="5"
         seed="27"
         baseFrequency="0.001 0.4414"
         result="turbulence" />
      <feDisplacementMap
         in2="turbulence"
         id="feDisplacementMap439-8-0-3-0-5"
         in="fbSourceGraphic"
         scale="4.27461"
         yChannelSelector="G"
         xChannelSelector="R" />
    </filter>
  </defs>
  <sodipodi:namedview
     pagecolor="#ffffff"
     bordercolor="#666666"
     borderopacity="1"
     objecttolerance="10"
     gridtolerance="10"
     guidetolerance="10"
     inkscape:pageopacity="0"
     inkscape:pageshadow="2"
     inkscape:window-width="1366"
     inkscape:window-height="745"
     id="namedview4"
     showgrid="false"
     inkscape:zoom="0.48912285"
     inkscape:cx="1557.3809"
     inkscape:cy="3221.1809"
     inkscape:window-x="-8"
     inkscape:window-y="-8"
     inkscape:window-maximized="1"
     inkscape:current-layer="layer1"
     inkscape:document-rotation="0" />
  <g
     inkscape:groupmode="layer"
     id="layer2"
     inkscape:label="artwork"
     sodipodi:insensitive="true">
    <image
       sodipodi:absref="C:\Users\quentinlipeck\Downloads\webcomics-master-ec7d62e6553c2c63bb1cf2e799ee31f9cb9ce5e2\webcomics-master-ec7d62e6553c2c63bb1cf2e799ee31f9cb9ce5e2\ep27_Coriander-s-Invention\lang\gfx_Pepper-and-Carrot_by-David-Revoy_E27P05.png"
       xlink:href="../gfx_Pepper-and-Carrot_by-David-Revoy_E27P05.png"
       width="2481"
       height="3503"
       id="image10"
       x="0"
       y="0" />
  </g>
  <g
     inkscape:groupmode="layer"
     id="layer3"
     inkscape:label="speechbubbles"
     style="display:inline">
    <path
       style="fill:#ffffff;fill-rule:evenodd;stroke:none;stroke-width:1.03815px;stroke-linecap:butt;stroke-linejoin:miter;stroke-opacity:1"
       d="m 753.28487,252.58289 c 0,-44.31088 19.38842,-68.61039 24.23553,-77.18669 4.8471,-8.5763 80.78504,-45.74026 95.32634,-47.16964 14.54132,-1.42938 88.86356,0 114.71478,7.14691 25.85118,7.14692 72.70658,20.01137 88.86358,34.3052 16.1569,14.29383 45.2396,41.45211 45.2396,72.89853 0,31.44643 -22.6198,70.03978 -45.2396,85.76299 -22.6199,15.72321 -95.32639,28.58766 -126.02471,27.15828 -30.69832,-1.42939 -100.17345,0 -127.64038,-20.01137 -27.46691,-20.01136 -69.47514,-41.4521 -69.47514,-82.90421 z"
       id="path1076"
       inkscape:connector-curvature="0" />
    <path
       style="fill:#ffffff;fill-rule:evenodd;stroke:none;stroke-width:1px;stroke-linecap:butt;stroke-linejoin:miter;stroke-opacity:1"
       d="m 940.3125,313.50325 c 0,0 -8.64656,34.5862 -16.21229,50.79849 -7.56573,16.21228 -11.88901,24.85883 -5.40409,39.9903 6.48491,15.13146 23.77801,25.93965 23.77801,42.15194 0,16.21228 -12.96982,60.52586 -35.66702,85.3847 17.2931,-33.50539 22.6972,-67.01078 18.37392,-82.14224 -4.32328,-15.13147 -33.50539,-33.50539 -33.50539,-48.63686 0,-15.13146 28.1013,-89.70797 28.1013,-89.70797 z"
       id="path1078"
       inkscape:connector-curvature="0" />
    <path
       style="fill:#ffffff;fill-rule:evenodd;stroke:none;stroke-width:1.09115px;stroke-linecap:butt;stroke-linejoin:miter;stroke-opacity:1"
       d="m 1127.7045,285.11694 c 6.0029,-60.24121 36.017,-88.04485 57.6272,-92.67878 21.6102,-4.63395 97.1895,-13.31014 120.0002,-9.83469 22.8108,3.47546 98.503,7.51771 120.1133,50.38165 21.6102,42.86393 21.5535,75.67109 2.3445,110.42562 -19.209,34.75455 -67.797,66.13226 -123.0231,66.13226 -55.2262,0 -95.4235,-3.94364 -126.6383,-31.74728 -31.2148,-27.80363 -52.8251,-49.81484 -50.4238,-92.67878 z"
       id="path1080"
       inkscape:connector-curvature="0"
       sodipodi:nodetypes="csscsssc" />
    <path
       style="fill:#ffffff;fill-rule:evenodd;stroke:none;stroke-width:1px;stroke-linecap:butt;stroke-linejoin:miter;stroke-opacity:1"
       d="m 1220.305,329.92782 c -9.7274,39.9903 -10.8082,52.96012 -21.6164,69.17241 -10.8082,16.21228 -55.1821,36.53556 -57.3438,45.18211 -2.1616,8.64655 1.0808,29.18211 20.5356,51.87931 -36.7479,-29.18211 -35.667,-43.23276 -32.4246,-60.52586 3.2425,-17.2931 51.9397,-34.37392 59.5054,-70.04095 7.5657,-35.66702 16.2123,-56.20258 16.2123,-56.20258 z"
       id="path1082"
       inkscape:connector-curvature="0"
       sodipodi:nodetypes="csscsscc" />
    <path
       style="fill:#ffffff;fill-rule:evenodd;stroke:none;stroke-width:0.908189px;stroke-linecap:butt;stroke-linejoin:miter;stroke-opacity:1"
       d="m 412.11325,1130.1196 c 5.86154,-26.2943 32.23849,-39.0861 41.61696,-41.2181 9.37847,-2.1319 57.44313,3.5533 72.09699,13.5025 14.65386,9.9492 26.96311,19.8984 28.72157,30.5582 1.75847,10.6598 1.75847,24.873 -2.34462,33.4008 -4.10308,8.5279 -56.85698,18.4771 -69.75237,20.6091 -12.8954,2.1319 -39.27235,-0.7107 -53.92621,-9.2386 -14.65386,-8.5278 -19.3431,-24.8729 -16.41232,-47.6139 z"
       id="path1084"
       inkscape:connector-curvature="0" />
    <path
       style="fill:#ffffff;fill-rule:evenodd;stroke:none;stroke-width:0.884107px;stroke-linecap:butt;stroke-linejoin:miter;stroke-opacity:1"
       d="m 460.94986,1197.6319 c 12.22058,-22.0303 42.772,-29.8476 62.21382,-30.5582 19.44181,-0.7107 33.88429,-2.132 46.10487,5.6852 12.22057,7.8173 28.88498,17.0558 27.77402,35.5328 -1.11097,18.4771 0.55547,31.2689 -10.55413,41.9287 -11.10961,10.6599 -47.77133,17.0558 -56.10353,17.7664 -8.33221,0.7107 -21.66373,4.264 -38.32814,-5.6852 -16.66442,-9.9492 -30.55142,-24.1623 -32.21787,-36.9541 -1.66644,-12.7918 1.11096,-27.7156 1.11096,-27.7156 z"
       id="path1086"
       inkscape:connector-curvature="0" />
    <path
       style="fill:#ffffff;fill-rule:evenodd;stroke:none;stroke-width:0.894184px;stroke-linecap:butt;stroke-linejoin:miter;stroke-opacity:1"
       d="m 520.57962,1275.8008 c 5.68216,-22.0303 21.10166,-32.6869 40.42102,-32.6869 19.31935,0 47.73015,-2.8426 61.36735,7.8172 13.63719,10.6598 20.45578,22.741 19.88757,35.5328 -0.56822,12.7918 -6.25038,27.7156 -18.18293,35.5328 -11.93253,7.8172 -42.04799,9.2385 -61.36735,7.1066 -19.31935,-2.132 -39.20821,-16.3484 -42.048,-27.7156 -1.54026,-9.3357 -0.0776,-25.5869 -0.0776,-25.5869 z"
       id="path1088"
       inkscape:connector-curvature="0"
       sodipodi:nodetypes="cssssccc" />
    <path
       style="fill:#ffffff;fill-rule:evenodd;stroke:none;stroke-width:1px;stroke-linecap:butt;stroke-linejoin:miter;stroke-opacity:1"
       d="m 596.46743,1302.5188 c 0,0 8.06037,1.6121 6.98565,11.8219 -1.07471,10.2098 -10.74716,38.6898 -16.6581,45.6754 9.67245,-7.523 19.88225,-15.046 31.16677,-6.9856 11.28452,8.0603 19.88225,12.8966 6.4483,38.6898 0.53735,5.9109 1.61207,15.5833 9.67244,18.8075 -18.27017,-6.4483 -22.03168,-15.5834 -19.88225,-23.6438 2.14943,-8.0603 6.98566,-18.2701 0.53736,-22.0317 -6.4483,-3.7615 -26.8679,17.1955 -34.92827,7.5231 -8.06037,-9.6725 -8.06037,-16.6581 -6.4483,-19.8823 1.61208,-3.2241 10.74716,-13.9713 11.82188,-19.8822 1.07471,-5.911 1.61207,-18.2702 -2.14943,-24.7185 -3.76151,-6.4483 13.43395,-5.3736 13.43395,-5.3736 z"
       id="path1090"
       inkscape:connector-curvature="0" />
    <path
       style="fill:#ffffff;fill-rule:evenodd;stroke:none;stroke-width:1.01675px;stroke-linecap:butt;stroke-linejoin:miter;stroke-opacity:1"
       d="m 102.6778,2110.4764 c 26.44638,9.1907 69.78426,39.7416 12.96983,68.157 18.80195,10.3138 75.85461,4.6104 9.72737,60.3356 103.06565,-24.27 88.57768,21.206 58.36422,54.7491 107.77871,-61.5386 89.20361,-30.4235 70.03143,6.2599 80.84118,-51.5953 60.97243,0.416 54.26275,17.2039 42.20265,-27.2022 66.7549,-24.8622 69.17242,14.5253 42.64042,-62.8719 64.27867,-22.3803 81.06142,1.1174 -5.3419,-20.1707 13.32894,-77.2666 78.89978,-11.1733 -10.71279,-47.6833 19.79613,-44.9025 81.06143,-4.4694 -46.94423,-72.6074 33.65459,-39.3845 55.12176,-24.5811 -27.41526,-20.9857 -64.31284,-80.8658 38.90949,-39.1065 -41.48742,-24.0133 -58.57605,-45.1438 31.34375,-53.6318 -40.77637,-15.28 -63.79199,-30.8301 22.69719,-48.045 -26.3266,-5.1994 -89.33408,9.9656 -20.53556,-48.0451 -45.88658,1.8746 -63.81997,-3.3389 -9.72737,-26.8159 -72.67493,10.3166 -93.00682,1.1532 -23.77801,-41.3411 -115.51746,45.1702 -56.23383,-3.3634 -41.07113,-18.9945 -52.36865,24.0547 -88.38109,37.2193 -30.26293,-12.2906 -101.29035,34.9633 -64.5478,-14.7449 -62.6875,-29.0506 -51.84205,63.5534 -56.47856,4.316 -62.6875,-10.0559 -4.83313,49.6961 -11.18902,17.3599 -22.69719,-2.2347 -16.28,21.9451 -32.81186,42.1197 -58.36423,-1.1173 -16.31205,40.7586 -37.52356,22.426 -59.44504,-4.4693 1.8202,60.7066 -45.1974,4.6609 -70.25323,1.1173 19.48149,59.219 -19.29542,30.2494 -50.79849,12.2906 58.97783,74.6018 -32.75724,41.3864 -62.6875,20.112 65.72865,56.5621 45.01751,69.9928 -10.80819,44.693 69.25845,42.8056 -10.63458,62.061 -50.79849,21.2293 50.98676,51.1843 23.61364,58.865 -27.02048,53.6317 z"
       id="path1092"
       inkscape:connector-curvature="0"
       sodipodi:nodetypes="cccccccccccccccccccccccccccccc" />
    <path
       style="fill:#ffffff;fill-rule:evenodd;stroke:none;stroke-width:1px;stroke-linecap:butt;stroke-linejoin:miter;stroke-opacity:1"
       d="m 357.21198,2209.9917 c -73.33356,55.9324 -104.40711,93.2206 -116.83653,150.3959 -12.42942,57.1754 -21.13001,118.0795 47.23179,190.1701 -79.54827,-68.3618 -74.57651,-141.6953 -72.09062,-162.8253 2.48588,-21.1301 16.15824,-95.7066 60.90414,-147.9101 44.74591,-52.2036 93.22064,-87.0059 93.22064,-87.0059 l 6.21471,34.8023 z"
       id="path1094"
       inkscape:connector-curvature="0" />
    <path
       style="fill:#ffffff;fill-rule:evenodd;stroke:none;stroke-width:1.12673px;stroke-linecap:butt;stroke-linejoin:miter;stroke-opacity:1"
       d="m 849.12211,1976.6749 c 52.36448,40.4868 42.72288,58.1616 -31.09517,52.2257 117.68881,62.1696 69.10559,71.4748 -5.40787,72.5358 50.02055,22.7075 105.36758,44.9286 -9.46376,82.6908 66.54593,6.1224 124.52861,14.767 10.81571,73.9865 58.99689,-2.4323 118.47398,-5.1709 47.31879,75.4372 96.57278,-36.2055 163.55739,-46.8567 113.56504,43.5214 48.54125,-26.6164 128.34425,-94.0706 100.04545,-20.31 22.2395,-23.5566 50.5433,-32.472 101.3973,13.0565 -9.9164,-32.8349 -39.7941,-84.8731 50.0226,-21.7607 -27.1521,-49.3832 -32.5582,-76.139 58.1345,-2.9015 -13.5103,-37.2351 -71.7527,-74.47 39.2071,-111.7051 -76.4316,-3.7136 -52.7237,-28.9182 -4.0559,-59.4793 -91.0104,-16.8902 -45.9807,-37.3408 8.1118,-58.0286 -56.372,-7.8855 -99.8621,-21.1653 -10.8159,-89.9444 -98.0149,28.5535 -69.6499,-19.7393 -64.8942,-53.6764 -45.2322,26.9479 -96.3835,69.2455 -100.0454,-11.6058 -60.6773,100.3105 -83.6515,23.6211 -117.6209,-1.4507 -35.33154,119.3604 -115.42461,9.3547 -137.90041,1.4507 45.83522,48.8539 53.83794,70.974 -47.31878,15.9579 z"
       id="path1096"
       inkscape:connector-curvature="0"
       sodipodi:nodetypes="cccccccccccccccccccc" />
    <path
       style="fill:#ffffff;fill-rule:evenodd;stroke:none;stroke-width:1px;stroke-linecap:butt;stroke-linejoin:miter;stroke-opacity:1"
       d="m 1092.4181,2295.1567 c -27.3447,36.0454 -98.19242,124.2942 -99.43532,131.7519 -1.24299,7.4576 39.77412,-2.4859 39.77412,-2.4859 l -60.90418,89.4918 c 0,0 103.16418,-99.4353 109.37888,-104.4071 6.2147,-4.9718 -23.6159,-11.1865 -41.0171,-6.2147 19.8871,-19.8871 99.4354,-99.4354 99.4354,-99.4354 z"
       id="path1098"
       inkscape:connector-curvature="0" />
    <path
       style="fill:#ffffff;fill-rule:evenodd;stroke:none;stroke-width:1.02871px;stroke-linecap:butt;stroke-linejoin:miter;stroke-opacity:1"
       d="m 1344.6207,2035.1826 c 54.8185,22.6029 73.291,-16.8143 85.9865,-66.0891 -2.3574,120.4972 75.0174,69.1387 161.9741,-2.8734 -25.872,88.24 43.0846,94.0692 128.9241,44.7176 -9.7086,42.5691 24.5151,59.4784 115.9766,21.708 -27.6328,48.055 -80.6364,92.521 117.8332,34.7956 -58.1094,32.2088 -149.5875,72.9094 -22.7876,101.4279 -114.1853,12.5719 -143.3792,71.4443 -113.5944,99.3403 -54.3995,-56.4583 -101.5757,-47.1726 -80.375,42.8949 -54.719,-42.7627 -99.5613,-71.6473 -109.9826,-22.9875 -98.6398,-126.238 -77.6298,39.4926 -75.9879,143.672 -27.8902,-121.9469 -60.4172,-242.3518 -145.9768,-110.6274 -0.6046,-46.6615 -21.5996,-79.9885 -61.9902,-56.0321 z"
       id="path1100"
       inkscape:connector-curvature="0"
       sodipodi:nodetypes="cccccccccccccc" />
  </g>
  <g
     inkscape:groupmode="layer"
     id="layer1"
     inkscape:label="txt">
    <text
       xml:space="preserve"
       style="font-style:normal;font-variant:normal;font-weight:normal;font-stretch:normal;line-height:0%;font-family:Lavi;-inkscape-font-specification:Lavi;text-align:center;letter-spacing:0px;word-spacing:0px;text-anchor:middle;fill:#000000;fill-opacity:1;stroke:none"
       x="936.53223"
       y="223.78159"
       id="text4246"><tspan
         sodipodi:role="line"
         style="font-size:45px;line-height:1.2"
         x="936.53223"
         y="223.78159"
         id="tspan162">musi anu seme? </tspan><tspan
         sodipodi:role="line"
         style="font-size:45px;line-height:1.2"
         x="936.53223"
         y="277.78159"
         id="tspan156">ala. ala!</tspan><tspan
         sodipodi:role="line"
         style="font-size:45px;line-height:1.2"
         x="936.53223"
         y="331.78159"
         id="tspan825">ike mi.</tspan></text>
    <text
       xml:space="preserve"
       style="font-style:normal;font-variant:normal;font-weight:normal;font-stretch:normal;line-height:0%;font-family:Lavi;-inkscape-font-specification:Lavi;text-align:center;letter-spacing:0px;word-spacing:0px;text-anchor:middle;fill:#000000;fill-opacity:1;stroke:none"
       x="1285.011"
       y="265.11826"
       id="text4246-3"><tspan
         sodipodi:role="line"
         style="font-size:45px;line-height:1.2"
         x="1285.011"
         y="265.11826"
         id="tspan825-5">aa a! lon!</tspan><tspan
         sodipodi:role="line"
         style="font-size:45px;line-height:1.2"
         x="1285.011"
         y="319.11826"
         id="tspan858">ni li musi </tspan><tspan
         sodipodi:role="line"
         style="font-size:45px;line-height:1.2"
         x="1285.011"
         y="373.11826"
         id="tspan160">ala a!</tspan></text>
    <text
       xml:space="preserve"
       style="font-style:normal;font-variant:normal;font-weight:normal;font-stretch:normal;line-height:0%;font-family:Lavi;-inkscape-font-specification:Lavi;text-align:center;letter-spacing:0px;word-spacing:0px;text-anchor:middle;fill:#000000;fill-opacity:1;stroke:none"
       x="485.27716"
       y="1156.4937"
       id="text4246-0"><tspan
         sodipodi:role="line"
         style="font-size:45px;line-height:1.2"
         x="485.27716"
         y="1156.4937"
         id="tspan4252-9">a...</tspan></text>
    <text
       xml:space="preserve"
       style="font-style:normal;font-variant:normal;font-weight:normal;font-stretch:normal;line-height:0%;font-family:Lavi;-inkscape-font-specification:Lavi;text-align:center;letter-spacing:0px;word-spacing:0px;text-anchor:middle;fill:#000000;fill-opacity:1;stroke:none"
       x="535.16223"
       y="1232.2852"
       id="text4246-0-3"><tspan
         sodipodi:role="line"
         style="font-size:45px;line-height:1.2"
         x="535.16223"
         y="1232.2852"
         id="tspan4252-9-6">a...</tspan></text>
    <text
       xml:space="preserve"
       style="font-style:normal;font-variant:normal;font-weight:normal;font-stretch:normal;line-height:0%;font-family:Lavi;-inkscape-font-specification:Lavi;text-align:center;letter-spacing:0px;word-spacing:0px;text-anchor:middle;fill:#000000;fill-opacity:1;stroke:none"
       x="581.47876"
       y="1302.325"
       id="text4246-0-0"><tspan
         sodipodi:role="line"
         style="font-size:45px;line-height:1.2"
         x="581.47876"
         y="1302.325"
         id="tspan4252-9-62">a.</tspan></text>
    <flowRoot
       xml:space="preserve"
       id="flowRoot1004"
       style="font-style:normal;font-variant:normal;font-weight:normal;font-stretch:normal;font-size:0.666667px;line-height:0%;font-family:Lavi;-inkscape-font-specification:Lavi;text-align:center;letter-spacing:4.29px;word-spacing:-79.64px;writing-mode:lr-tb;text-anchor:middle;fill:#000000;fill-opacity:1;stroke:none;stroke-width:1px;stroke-linecap:butt;stroke-linejoin:miter;stroke-opacity:1"><flowRegion
         id="flowRegion1006"><rect
           id="rect1008"
           width="15.723214"
           height="1.429383"
           x="606.05841"
           y="1290.3149" /></flowRegion><flowPara
         id="flowPara1010" /></flowRoot>
    <flowRoot
       xml:space="preserve"
       id="flowRoot1012"
       style="font-style:normal;font-variant:normal;font-weight:normal;font-stretch:normal;font-size:0.666667px;line-height:0%;font-family:Lavi;-inkscape-font-specification:Lavi;text-align:center;letter-spacing:4.29px;word-spacing:-79.64px;writing-mode:lr-tb;text-anchor:middle;fill:#000000;fill-opacity:1;stroke:none;stroke-width:1px;stroke-linecap:butt;stroke-linejoin:miter;stroke-opacity:1"><flowRegion
         id="flowRegion1014"><rect
           id="rect1016"
           width="10.005682"
           height="2.8587661"
           x="608.91718"
           y="1290.3149" /></flowRegion><flowPara
         id="flowPara1018" /></flowRoot>
    <text
       xml:space="preserve"
       style="font-style:normal;font-variant:normal;font-weight:normal;font-stretch:normal;font-size:19.5098px;line-height:0%;font-family:Lavi;-inkscape-font-specification:Lavi;text-align:center;letter-spacing:0px;word-spacing:0px;text-anchor:middle;fill:#000000;fill-opacity:1;stroke:none;stroke-width:1.95098;stroke-miterlimit:4;stroke-dasharray:none"
       x="450.68362"
       y="1960.8077"
       id="text4246-6"
       transform="scale(0.9428475,1.0606169)"><tspan
         sodipodi:role="line"
         style="font-style:normal;font-variant:normal;font-weight:bold;font-stretch:normal;font-size:73.1619px;line-height:1.2;font-family:Lavi;-inkscape-font-specification:'Lavi Bold';stroke:#000000;stroke-width:1.95098;stroke-miterlimit:4;stroke-dasharray:none;stroke-opacity:1"
         x="450.68362"
         y="1960.8077"
         id="tspan4252-1">IKE A!</tspan></text>
    <text
       xml:space="preserve"
       style="font-style:normal;font-variant:normal;font-weight:normal;font-stretch:normal;line-height:0%;font-family:Lavi;-inkscape-font-specification:Lavi;text-align:center;letter-spacing:0px;word-spacing:0px;text-anchor:middle;fill:#000000;fill-opacity:1;stroke:none"
       x="431.29309"
       y="2142.8376"
       id="text4246-8"><tspan
         sodipodi:role="line"
         style="font-size:45px;line-height:1.2"
         x="431.29309"
         y="2142.8376"
         id="tspan1038">len mi pi tenpo sewi li </tspan><tspan
         sodipodi:role="line"
         style="font-size:45px;line-height:1.2"
         x="431.29309"
         y="2196.8376"
         id="tspan165">jaki! jan pali len mi li pana </tspan><tspan
         sodipodi:role="line"
         style="font-size:45px;line-height:1.2"
         x="431.29309"
         y="2250.8376"
         id="tspan169">e toki ike tan ni!</tspan></text>
    <text
       xml:space="preserve"
       style="font-style:normal;font-variant:normal;font-weight:normal;font-stretch:normal;font-size:15.5864px;line-height:0%;font-family:Lavi;-inkscape-font-specification:Lavi;text-align:center;letter-spacing:0px;word-spacing:0px;text-anchor:middle;fill:#000000;fill-opacity:1;stroke:none;stroke-width:1.29886"
       x="1346.9668"
       y="1927.4419"
       id="text4246-9"
       transform="matrix(0.92146908,0,-0.09009126,1.0852236,0,0)"><tspan
         sodipodi:role="line"
         style="font-style:normal;font-variant:normal;font-weight:bold;font-stretch:normal;font-size:58.4488px;line-height:1.2;font-family:Lavi;-inkscape-font-specification:'Lavi Bold';stroke-width:1.29886"
         x="1346.9668"
         y="1927.4419"
         id="tspan4252-2">ILO IKE A!</tspan></text>
    <text
       xml:space="preserve"
       style="font-style:normal;font-variant:normal;font-weight:normal;font-stretch:normal;font-size:13.8497px;line-height:0%;font-family:Lavi;-inkscape-font-specification:Lavi;text-align:center;letter-spacing:0px;word-spacing:0px;text-anchor:middle;fill:#000000;fill-opacity:1;stroke:none;stroke-width:1.15414"
       x="1071.7494"
       y="2170.366"
       id="text4246-02"
       transform="scale(1.0048528,0.99517063)"><tspan
         sodipodi:role="line"
         style="font-size:51.9363px;line-height:1.2;stroke-width:1.15414"
         x="1071.7494"
         y="2170.366"
         id="tspan766">mi weka e </tspan><tspan
         sodipodi:role="line"
         style="font-size:51.9363px;line-height:1.2;stroke-width:1.15414"
         x="1071.7494"
         y="2232.6895"
         id="tspan153">pakala, lon </tspan><tspan
         sodipodi:role="line"
         style="font-size:51.9363px;line-height:1.2;stroke-width:1.15414"
         x="1071.7494"
         y="2295.0132"
         id="tspan157">tenpo ale a!</tspan></text>
    <text
       xml:space="preserve"
       style="font-style:normal;font-variant:normal;font-weight:normal;font-stretch:normal;font-size:26.5626px;line-height:0%;font-family:Lavi;-inkscape-font-specification:Lavi;text-align:center;letter-spacing:26.9114px;word-spacing:0px;text-anchor:middle;fill:#000000;fill-opacity:1;stroke:none;stroke-width:0.924506"
       x="2186.3669"
       y="2013.2815"
       id="text4246-6-6-3"
       transform="matrix(0.91674667,0,-0.2119342,1.0908139,0,0)"><tspan
         sodipodi:role="line"
         style="font-style:normal;font-variant:normal;font-weight:bold;font-stretch:normal;font-size:99.6099px;line-height:1.2;font-family:Lavi;-inkscape-font-specification:'Lavi Bold';letter-spacing:3.69802px;stroke-width:0.924506"
         x="2188.2158"
         y="2013.2815"
         id="tspan4252-00-4-7">O PINI!!!</tspan></text>
    <text
       xml:space="preserve"
       style="font-style:normal;font-variant:normal;font-weight:normal;font-stretch:normal;font-size:40px;line-height:125%;font-family:'Cabin Sketch';-inkscape-font-specification:'Cabin Sketch';letter-spacing:0px;word-spacing:0px;fill:#000000;fill-opacity:1;stroke:none;stroke-width:1px;stroke-linecap:butt;stroke-linejoin:miter;stroke-opacity:1"
       x="1263.3837"
       y="254.65823"
       id="text770" />
    <text
       xml:space="preserve"
       style="font-style:normal;font-variant:normal;font-weight:normal;font-stretch:normal;line-height:0%;font-family:Lavi;-inkscape-font-specification:Lavi;letter-spacing:0px;word-spacing:0px;fill:#000000;fill-opacity:1;stroke:#000000;stroke-width:0;stroke-linecap:square;stroke-miterlimit:4;stroke-dasharray:none;stroke-opacity:1;filter:url(#filter4375-4-1-1-1-9-8)"
       x="787.65729"
       y="1584.5073"
       id="text4580-7"
       transform="matrix(2.7819933,-0.1626793,-0.94551619,2.9284614,887.83592,-4228.9016)"><tspan
         sodipodi:role="line"
         id="tspan4582-7"
         x="787.65729"
         y="1584.5073"
         style="font-style:normal;font-variant:normal;font-weight:normal;font-stretch:normal;font-size:70px;line-height:1.25;font-family:ComicSpice;-inkscape-font-specification:ComicSpice;fill:#ffffff;stroke-width:0;stroke-linecap:square;stroke-miterlimit:4;stroke-dasharray:none">W</tspan></text>
    <text
       xml:space="preserve"
       style="font-style:normal;font-variant:normal;font-weight:normal;font-stretch:normal;line-height:0%;font-family:Lavi;-inkscape-font-specification:Lavi;letter-spacing:0px;word-spacing:0px;fill:#000000;fill-opacity:1;stroke:#000000;stroke-width:0;stroke-linecap:square;stroke-miterlimit:4;stroke-dasharray:none;stroke-opacity:1;filter:url(#filter4375-4-1-1-1-9-30-7)"
       x="787.65729"
       y="1584.5073"
       id="text4580-9-6"
       transform="matrix(2.0062568,-0.28085132,-1.1064232,2.8181271,1835.0399,-3899.3548)"><tspan
         sodipodi:role="line"
         id="tspan4582-26-4"
         x="787.65729"
         y="1584.5073"
         style="font-style:normal;font-variant:normal;font-weight:normal;font-stretch:normal;font-size:70px;line-height:1.25;font-family:ComicSpice;-inkscape-font-specification:ComicSpice;fill:#ffffff;stroke-width:0;stroke-linecap:square;stroke-miterlimit:4;stroke-dasharray:none">A</tspan></text>
    <text
       xml:space="preserve"
       style="font-style:normal;font-variant:normal;font-weight:normal;font-stretch:normal;line-height:0%;font-family:Lavi;-inkscape-font-specification:Lavi;letter-spacing:0px;word-spacing:0px;fill:#000000;fill-opacity:1;stroke:#000000;stroke-width:0;stroke-linecap:square;stroke-miterlimit:4;stroke-dasharray:none;stroke-opacity:1;filter:url(#filter4375-4-1-1-1-9-30-2-4)"
       x="787.65729"
       y="1584.5073"
       id="text4580-9-9-3"
       transform="matrix(1.6478956,-0.12375314,-0.87637078,2.5734869,1811.3927,-3600.7784)"><tspan
         sodipodi:role="line"
         id="tspan4582-26-1-0"
         x="787.65729"
         y="1584.5073"
         style="font-style:normal;font-variant:normal;font-weight:normal;font-stretch:normal;font-size:70px;line-height:1.25;font-family:ComicSpice;-inkscape-font-specification:ComicSpice;fill:#ffffff;stroke-width:0;stroke-linecap:square;stroke-miterlimit:4;stroke-dasharray:none">W</tspan></text>
    <text
       xml:space="preserve"
       style="font-style:normal;font-variant:normal;font-weight:normal;font-stretch:normal;line-height:0%;font-family:Lavi;-inkscape-font-specification:Lavi;letter-spacing:0px;word-spacing:0px;fill:#000000;fill-opacity:1;stroke:#000000;stroke-width:0;stroke-linecap:square;stroke-miterlimit:4;stroke-dasharray:none;stroke-opacity:1;filter:url(#filter4375-4-1-1-1-9-30-2-7-9)"
       x="787.65729"
       y="1584.5073"
       id="text4580-9-9-6-3"
       transform="matrix(1.7863953,-0.07100102,-0.69940041,2.1802978,1477.4386,-2984.9193)"><tspan
         sodipodi:role="line"
         id="tspan4582-26-1-5-0"
         x="787.65729"
         y="1584.5073"
         style="font-style:normal;font-variant:normal;font-weight:normal;font-stretch:normal;font-size:70px;line-height:1.25;font-family:ComicSpice;-inkscape-font-specification:ComicSpice;fill:#ffffff;stroke-width:0;stroke-linecap:square;stroke-miterlimit:4;stroke-dasharray:none">A</tspan></text>
    <text
       xml:space="preserve"
       style="font-style:normal;font-variant:normal;font-weight:normal;font-stretch:normal;line-height:0%;font-family:Lavi;-inkscape-font-specification:Lavi;letter-spacing:0px;word-spacing:0px;fill:#000000;fill-opacity:1;stroke:#000000;stroke-width:0;stroke-linecap:square;stroke-miterlimit:4;stroke-dasharray:none;stroke-opacity:1;filter:url(#filter4375-4-1-1-1-9-30-2-7-6-5)"
       x="787.65729"
       y="1584.5073"
       id="text4580-9-9-6-8-9"
       transform="matrix(2.0241923,0.10781681,-1.2082941,2.536771,2181.4743,-3672.0484)"><tspan
         sodipodi:role="line"
         id="tspan4582-26-1-5-8-2"
         x="787.65729"
         y="1584.5073"
         style="font-style:normal;font-variant:normal;font-weight:normal;font-stretch:normal;font-size:70px;line-height:1.25;font-family:ComicSpice;-inkscape-font-specification:ComicSpice;fill:#ffffff;stroke-width:0;stroke-linecap:square;stroke-miterlimit:4;stroke-dasharray:none">!</tspan></text>
    <text
       xml:space="preserve"
       style="font-style:normal;font-weight:normal;font-size:40px;line-height:1.25;font-family:sans-serif;fill:#000000;fill-opacity:1;stroke:none"
       x="596.46741"
       y="1302.5188"
       id="text152"><tspan
         sodipodi:role="line"
         id="tspan150"
         x="596.46741"
         y="1302.5188" /></text>
  </g>
</svg>
