<?xml version="1.0" encoding="UTF-8" standalone="no"?>
<!-- Created with Inkscape (http://www.inkscape.org/) -->

<svg
   xmlns:dc="http://purl.org/dc/elements/1.1/"
   xmlns:cc="http://creativecommons.org/ns#"
   xmlns:rdf="http://www.w3.org/1999/02/22-rdf-syntax-ns#"
   xmlns:svg="http://www.w3.org/2000/svg"
   xmlns="http://www.w3.org/2000/svg"
   xmlns:xlink="http://www.w3.org/1999/xlink"
   xmlns:sodipodi="http://sodipodi.sourceforge.net/DTD/sodipodi-0.dtd"
   xmlns:inkscape="http://www.inkscape.org/namespaces/inkscape"
   id="svg2"
   version="1.1"
   inkscape:version="0.92.3 (2405546, 2018-03-11)"
   width="2481"
   height="663"
   sodipodi:docname="E07P00_092.svg">
  <sodipodi:namedview pagecolor="#ffffff" bordercolor="#666666" inkscape:pageopacity="0" inkscape:pageshadow="2" inkscape:window-width="1813" inkscape:window-height="955" id="namedview70" showgrid="false" inkscape:zoom="0.4" inkscape:cx="1284.4231" inkscape:cy="2618.6204" inkscape:current-layer="layer1" /><metadata
     id="metadata8">
    <rdf:RDF>
      <cc:Work
         rdf:about="">
        <dc:format>image/svg+xml</dc:format>
        <dc:type
           rdf:resource="http://purl.org/dc/dcmitype/StillImage" />
        <dc:title />
      </cc:Work>
    </rdf:RDF>
  </metadata>
  <defs
     id="defs6" />
  <sodipodi:namedview
     pagecolor="#ffffff"
     bordercolor="#666666"
     borderopacity="1"
     objecttolerance="10"
     gridtolerance="10"
     guidetolerance="10"
     inkscape:pageopacity="0"
     inkscape:pageshadow="2"
     inkscape:window-width="1920"
     inkscape:window-height="1025"
     id="namedview4"
     showgrid="false"
     inkscape:zoom="0.49558217"
     inkscape:cx="1045.7327"
     inkscape:cy="285.49504"
     inkscape:window-x="0"
     inkscape:window-y="26"
     inkscape:window-maximized="1"
     inkscape:current-layer="layer1" />
  <g
     inkscape:groupmode="layer"
     id="layer2"
     inkscape:label="artwork"
     sodipodi:insensitive="true">
    <image
       sodipodi:absref="/home/deevad/peppercarrot/webcomics/ep07_The-Wish/lang/vi/../gfx_Pepper-and-Carrot_by-David-Revoy_E07P00.png"
       xlink:href="../gfx_Pepper-and-Carrot_by-David-Revoy_E07P00.png"
       y="0"
       x="0"
       id="image10"
       height="663"
       width="2481" />
  </g>
  <g
     inkscape:groupmode="layer"
     id="layer1"
     inkscape:label="txt"
     style="display:inline">
    <flowRoot
       xml:space="preserve"
       id="episode-title"
       style="font-style:normal;font-variant:normal;font-weight:normal;font-stretch:normal;line-height:0.01%;font-family:Arial;-inkscape-font-specification:Arial;letter-spacing:0px;word-spacing:0px;display:inline;fill:#244440;fill-opacity:1;stroke:none"
       transform="translate(-748.44912,-120.8471)"><flowRegion
         id="flowRegion2989"><rect
           id="rect2991"
           width="2405.8"
           height="107.55731"
           x="739.22333"
           y="644.36664"
           style="fill:#244440;fill-opacity:1" /></flowRegion><flowPara
         id="flowPara2993"
         style="font-style:normal;font-variant:normal;font-weight:500;font-stretch:normal;font-size:72px;line-height:1.25;font-family:ComicSpice;-inkscape-font-specification:'ComicSpice Medium';text-align:center;text-anchor:middle;fill:#244440;fill-opacity:1">Tập 7: Điều Ước</flowPara></flowRoot>    <image
       y="-186.08438"
       x="132.00197"
       id="image4148"
       xlink:href="data:image/png;base64,iVBORw0KGgoAAAANSUhEUgAAB9AAAAPoCAYAAACGXmWqAAAAGXRFWHRTb2Z0d2FyZQBBZG9iZSBJ bWFnZVJlYWR5ccllPAAAA2ZpVFh0WE1MOmNvbS5hZG9iZS54bXAAAAAAADw/eHBhY2tldCBiZWdp bj0i77u/IiBpZD0iVzVNME1wQ2VoaUh6cmVTek5UY3prYzlkIj8+IDx4OnhtcG1ldGEgeG1sbnM6 eD0iYWRvYmU6bnM6bWV0YS8iIHg6eG1wdGs9IkFkb2JlIFhNUCBDb3JlIDUuMy1jMDExIDY2LjE0 NTY2MSwgMjAxMi8wMi8wNi0xNDo1NjoyNyAgICAgICAgIj4gPHJkZjpSREYgeG1sbnM6cmRmPSJo dHRwOi8vd3d3LnczLm9yZy8xOTk5LzAyLzIyLXJkZi1zeW50YXgtbnMjIj4gPHJkZjpEZXNjcmlw dGlvbiByZGY6YWJvdXQ9IiIgeG1sbnM6eG1wTU09Imh0dHA6Ly9ucy5hZG9iZS5jb20veGFwLzEu MC9tbS8iIHhtbG5zOnN0UmVmPSJodHRwOi8vbnMuYWRvYmUuY29tL3hhcC8xLjAvc1R5cGUvUmVz b3VyY2VSZWYjIiB4bWxuczp4bXA9Imh0dHA6Ly9ucy5hZG9iZS5jb20veGFwLzEuMC8iIHhtcE1N Ok9yaWdpbmFsRG9jdW1lbnRJRD0ieG1wLmRpZDpCQjYwQzBBOTVGMTVFNTExQkJFQTkwQTBCRTA0 NzBBNyIgeG1wTU06RG9jdW1lbnRJRD0ieG1wLmRpZDpDOTI3NDFCNzE3MDcxMUU1ODc3RUU5QTM0 OUFEMDJFMiIgeG1wTU06SW5zdGFuY2VJRD0ieG1wLmlpZDpDOTI3NDFCNjE3MDcxMUU1ODc3RUU5 QTM0OUFEMDJFMiIgeG1wOkNyZWF0b3JUb29sPSJBZG9iZSBQaG90b3Nob3AgQ1M2IChXaW5kb3dz KSI+IDx4bXBNTTpEZXJpdmVkRnJvbSBzdFJlZjppbnN0YW5jZUlEPSJ4bXAuaWlkOkJDOTg3NUMy MDcxN0U1MTFCQjYzQjlFMzZFNEJGREI3IiBzdFJlZjpkb2N1bWVudElEPSJ4bXAuZGlkOkJCNjBD MEE5NUYxNUU1MTFCQkVBOTBBMEJFMDQ3MEE3Ii8+IDwvcmRmOkRlc2NyaXB0aW9uPiA8L3JkZjpS REY+IDwveDp4bXBtZXRhPiA8P3hwYWNrZXQgZW5kPSJyIj8+Cel8cgAApURJREFUeNrs3Q2QZWV5 J/AHEFAEGQ1RIH4ggyHUhgSIWRVdnDGGVKJuhIgmZhN1DVsbywyp0lQpW7WWJgtustkVNlUxgQQk KSkzLOBm3dUEZSSKXwgotVEUFFABIwZQQIGB3vd5z+mlGaZnuu+95957zv39qp4ahum+3fftc2+f 9/2/H3ssLS0FAAAAAAAAACy6PTUBAAAAAAAAAAjQAQAAAAAAAKASoAMAAAAAAABACNABAAAAAAAA oBKgAwAAAAAAAEAI0AEAAAAAAACgEqADAAAAAAAAQAjQAQAAAAAAAKASoAMAAAAAAABACNABAAAA AAAAoBKgAwAAAAAAAEAI0AEAAAAAAACgEqADAAAAAAAAQAjQAQAAAAAAAKASoAMAAAAAAABACNAB AAAAAAAAoBKgAwAAAAAAAEAI0AEAAAAAAACgEqADAAAAAAAAQAjQAQAAAAAAAKASoAMAAAAAAABA CNABAAAAAAAAoBKgAwAAAAAAAEAI0AEAAAAAAACgEqADAAAAAAAAQAjQAQAAAAAAAKASoAMAAAAA AABACNABAAAAAAAAoBKgAwAAAAAAAEAI0AEAAAAAAACgEqADAAAAAAAAQAjQAQAAAAAAAKASoAMA AAAAAABACNABAAAAAAAAoBKgAwAAAAAAAEAI0AEAAAAAAACgEqADAAAAAAAAQAjQAQAAAAAAAKAS oAMAAAAAAABACNABAAAAAAAAoBKgAwAAAAAAAEAI0AEAAAAAAACgEqADAAAAAAAAQAjQAQAAAAAA AKASoAMAAAAAAABACNABAAAAAAAAoBKgAwAAAAAAAEAI0AEAAAAAAACgEqADAAAAAAAAQAjQAQAA AAAAAKASoAMAAAAAAABACNABAAAAAAAAoBKgAwAAAAAAAEAI0AEAAAAAAACgEqADAAAAAAAAQAjQ AQAAAAAAAKASoAMAAAAAAABACNABAAAAAAAAoBKgAwAAAAAAAEAI0AEAAAAAAACgEqADAAAAAAAA QAjQAQAAAAAAAKASoAMAAAAAAABACNABAAAAAAAAoBKgAwAAAAAAAEAI0AEAAAAAAACgEqADAAAA AAAAQAjQAQAAAAAAAKASoAMAAAAAAABACNABAAAAAAAAoBKgAwAAAAAAAEAI0AEAAAAAAACgEqAD AAAAAAAAQAjQAQAAAAAAAKASoAMAAAAAAABACNABAAAAAAAAoBKgAwAAAAAAAEAI0AEAAAAAAACg EqADAAAAAAAAQAjQAQAAAAAAAKASoAMAAAAAAABACNABAAAAAAAAoBKgAwAAAAAAAEAI0AEAAAAA AACgEqADAAAAAAAAQAjQAQAAAAAAAKASoAMAAAAAAABACNABAAAAAAAAoBKgAwAAAAAAAEAI0AEA AAAAAACgEqADAAAAAAAAQAjQAQAAAAAAAKASoAMAAAAAAABACNABAAAAAAAAoBKgAwAAAAAAAEAI 0AEAAAAAAACgEqADAAAAAAAAQAjQAQAAAAAAAKASoAMAAAAAAABACNABAAAAAAAAoBKgAwAAAAAA AEAI0AEAAAAAAACgEqADAAAAAAAAQAjQAQAAAAAAAKASoAMAAAAAAABACNABAAAAAAAAoBKgAwAA AAAAAEAI0AEAAAAAAACgEqADAAAAAAAAQAjQAQAAAAAAAKASoAMAAAAAAABACNABAAAAAAAAoBKg AwAAAAAAAEAI0AEAAAAAAACgEqADAAAAAAAAQAjQAQAAAAAAAKASoAMAAAAAAABACNABAAAAAAAA oBKgAwAAAAAAAEAI0AEAAAAAAACgEqADAAAAAAAAQAjQAQAAAAAAAKASoAMAAAAAAABACNABAAAA AAAAoBKgAwAAAAAAAEAI0AEAAAAAAACgEqADAAAAAAAAQAjQAQAAAAAAAKASoAMAAAAAAABACNAB AAAAAAAAoBKgAwAAAAAAAEAI0AEAAAAAAACgEqADAAAAAAAAQAjQAQAAAAAAAKASoAMAAAAAAABA CNABAAAAAAAAoBKgAwAAAAAAAEAI0AEAAAAAAACgEqADAAAAAAAAQAjQAQAAAAAAAKASoAMAAAAA AABACNABAAAAAAAAoBKgAwAAAAAAAEAI0AEAAAAAAACgEqADAAAAAAAAQAjQAQAAAAAAAKASoAMA AAAAAABACNABAAAAAAAAoBKgAwAAAAAAAEAI0AEAAAAAAACgEqADAAAAAAAAQAjQAQAAAAAAAKAS oAMAAAAAAABACNABAAAAAAAAoBKgAwAAAAAAAEAI0AEAAAAAAACgEqADAAAAAAAAQAjQAQAAAAAA AKASoAMAAAAAAABACNABAAAAAAAAoBKgAwAAAAAAAEAI0AEAAAAAAACgEqADAAAAAAAAQAjQAQAA AAAAAKASoAMAAAAAAABACNABAAAAAAAAoBKgAwAAAAAAAEAI0AEAAAAAAACgEqADAAAAAAAAQAjQ AQAAAAAAAKASoAMAAAAAAABACNABAAAAAAAAoBKgAwAAAAAAAEAI0AEAAAAAAACgEqADAAAAAAAA QAjQAQAAAAAAAKASoAMAAAAAAABACNABAAAAAAAAoBKgAwAAAAAAAEAI0AEAAAAAAACgEqADAAAA AAAAQAjQAQAAAAAAAKASoAMAAAAAAABACNABAAAAAAAAoBKgAwAAAAAAAEAI0AEAAAAAAACgEqAD AAAAAAAAQAjQAQAAAAAAAKASoAMAAAAAAABACNABAAAAAAAAoBKgAwAAAAAAAEAI0AEAAAAAAACg EqADAAAAAAAAQAjQAQAAAAAAAKASoAMAAAAAAABACNABAAAAAAAAoBKgAwAAAAAAAEAI0AEAAAAA AACgEqADAAAAAAAAQAjQAQAAAAAAAKASoAMAAAAAAABACNABAAAAAAAAoBKgAwAAAAAAAEAI0AEA AAAAAACgEqADAAAAAAAAQAjQAQAAAAAAAKASoAMAAAAAAABACNABAAAAAAAAoBKgAwAAAAAAAEAI 0AEAAAAAAACgEqADAAAAAAAAQAjQAQAAAAAAAKASoAMAAAAAAABACNABAAAAAAAAoBKgAwAAAAAA AEAI0AEAAAAAAACgEqADAAAAAAAAQAjQAQAAAAAAAKASoAMAAAAAAABACNABAAAAAAAAoBKgAwAA AAAAAEAI0AEAAAAAAACgEqADAAAAAAAAQAjQAQAAAAAAAKASoAMAAAAAAABACNABAAAAAAAAoBKg AwAAAAAAAEAI0AEAAAAAAACgEqADAAAAAAAAQAjQAQAAAAAAAKASoAMAAAAAAABACNABAAAAAAAA oBKgAwAAAAAAAEAI0AEAAAAAAACgEqADAAAAAAAAQAjQAQAAAAAAAKASoAMAAAAAAABACNABAAAA AAAAoBKgAwAAAAAAAEAI0AEAAAAAAACgEqADAAAAAAAAQAjQAQAAAAAAAKASoAMAAAAAAABACNAB AAAAAAAAoBKgAwAAAAAAAEAI0AEAAAAAAACgEqADAAAAAAAAQAjQAQAAAAAAAKASoAMAAAAAAABA CNABAAAAAAAAoBKgAwAAAAAAAEAI0AEAAAAAAACgEqADAAAAAAAAQAjQAQAAAAAAAKASoAMAAAAA AABACNABAAAAAAAAoBKgAwAAAAAAAEAI0AEAAAAAAACgEqADAAAAAAAAQAjQAQAAAAAAAKASoAMA AAAAAABACNABAAAAAAAAoBKgAwAAAAAAAEAI0AEAAAAAAACgEqADAAAAAAAAQAjQAQAAAAAAAKAS oAMAAAAAAABACNABAAAAAAAAoBKgAwAAAAAAAEAI0AEAAAAAAACgEqADAAAAAAAAQAjQAQAAAAAA AKASoAMAAAAAAABACNABAAAAAAAAoBKgAwAAAAAAAEAI0AEAAAAAAACgEqADAAAAAAAAQAjQAQAA AAAAAKASoAMAAAAAAABACNABAAAAAAAAoBKgAwAAAAAAAEAI0AEAAAAAAACgEqADAAAAAAAAQAjQ AQAAAAAAAKASoAMAAAAAAABACNABAAAAAAAAoBKgAwAAAAAAAEAI0AEAAAAAAACgEqADAAAAAAAA QAjQAQAAAAAAAKASoAMAAAAAAABACNABAAAAAAAAoBKgAwAAAAAAAEAI0AEAAAAAAACgEqADAAAA AAAAQAjQAQAAAAAAAKASoAMAAAAAAABACNABAAAAAAAAoBKgAwAAAAAAAEAI0AEAAAAAAACgEqAD AAAAAAAAQAjQAQAAAAAAAKASoAMAAAAAAABACNABAAAAAAAAoBKgAwAAAAAAAEAI0AEAAAAAAACg EqADAAAAAAAAQAjQAQAAAAAAAKASoAMAAAAAAABACNABAAAAAAAAoBKgAwAAAAAAAEAI0AEAAAAA AACgEqADAAAAAAAAQAjQAQAAAAAAAKASoAMAAAAAAABACNABAAAAAAAAoBKgAwAAAAAAAEAI0AEA AAAAAACgEqADAAAAAAAAQAjQAQAAAAAAAKASoAMAAAAAAABACNABAAAAAAAAoBKgAwAAAAAAAEAI 0AEAAAAAAACgEqADAAAAAAAAQAjQAQAAAAAAAKASoAMAAAAAAABACNABAAAAAAAAoBKgAwAAAAAA AEAI0AEAAAAAAACgEqADAAAAAAAAQAjQAQAAAAAAAKASoAMAAAAAAABACNABAAAAAAAAoBKgAwAA AAAAAEAI0AEAAAAAAACgEqADAAAAAAAAQAjQAQAAAAAAAKASoAMAAAAAAABACNABAAAAAAAAoBKg AwAAAAAAAEAI0AEAAAAAAACgEqADAAAAAAAAQAjQAQAAAAAAAKASoAMAAAAAAABACNABAAAAAAAA oBKgAwAAAAAAAEAI0AEAAAAAAACgEqADAAAAAAAAQAjQAQAAAAAAAKASoAMAAAAAAABACNABAAAA AAAAoBKgAwAAAAAAAEAI0AEAAAAAAACgEqADAAAAAAAAQAjQAQAAAAAAAKASoAMAAAAAAABACNAB AAAAAAAAoBKgAwAAAAAAAEAI0AEAAAAAAACgEqADAAAAAAAAQAjQAQAAAAAAAKASoAMAAAAAAABA CNABAAAAAAAAoBKgAwAAAAAAAEAI0AEAAAAAAACgEqADAAAAAAAAQAjQAQAAAAAAAKASoAMAAAAA AABACNABAAAAAAAAoBKgAwAAAAAAAEAI0AEAAAAAAACgEqADAAAAAAAAQAjQAQAAAAAAAKASoAMA AAAAAABACNABAAAAAAAAoBKgAwAAAAAAAEAI0AEAAAAAAACgEqADAAAAAAAAQAjQAQAAAAAAAKAS oAMAAAAAAABA8ThNAAAAALBrGzefoBFYzYb2z2PaP19Q6uD2vw8pdco6H+8bpS5Z8fdtpe4sdXep r5e6v9QPNDsM8n1kd7z+YYpuvPwKjQALSoAOAAAAALuXAdezSx1WalOpk0o9o4Ovk4+5ZcXft6zy cVeWuiqasP2bpb4VgjWYx/eNtOMEm1Em1+xoebLN7aU+1b4P3FHqLs0OAOPZY2lpSSsAAAAA7IIV 6Atnj2hCrueX+rUYP+iaprOjWbX+6WiCNYN/DFWG0xlMH1Hq6F183HWlbmj/+/poJprcPaHXxo4B +Untn1tm3DZbS/1d+15wU6ntLhdYPyvQYYE7AwJ0mD8bN5+QHfWNpZ6+k39enk2aZjGjNL+3A1f5 t3sGdkO+YUUHaEfXzvg5r7a1l628AHSgAeimn6YRhu8JpZ5X6k3Rr8B8dzJIu7DU5WFlKsOwqdQF MZkdIM5u/9wWzVEJaeXYW1oeG3py+7XTlp61We5YcV6pD5W6zSUE+v/ArgnQYY60wfkrS108ws3+ jts1jTqTNo922D+abekyKF/vzNm8IX9dPDKzt482tB2K49fZEbmq7XDlmXRfKXXfqO/NbdsfFM0k iuXtvda6PWBu4fWbpT4eVhrAzl5fOfjxek0xNZcM7f1IBxpgYftrGmGYsv/3qlJvWGcfsK+yv/iu EKLR3/7cB2JYE1xm+T5wUZhUA/r/wM5vOgToMB/a8LyLTsDWFZ3ibfHIbNq0cour5054sODkaEKT vsk2+eqYj/FwqY+Wek00ExkeXuXj9iz1s+3H7RWTOf9qpZxYcZpXF/x/uaLosliMgdF588lSPx8D 2SFDBxpgYftsGmE4cuL4K0q9dcHvDYXp9M2maHZSYHJyQcibo9lpUVAA+v9AS4AOc2Lj5hN+q/xx zsCe1t7Rry3dcxDlwQk9Vq5CP7XUFW0b7Phmm+F5bg14bqmjoplF3YXnRL93A4CJ3fOUujkms8Uf 65OTiHJnlD8p9QcxgEEZHWiAhe2zaYT+ywnTvxP923p5GjJMzwnYfxvOSmZ+3aJP1+l7gN0MQf8f aO2pCWBunDPA53R0z77fF03wsQ4t9dulnhnNRII9VlT+PVeb57l6h0V34XmyrRk03hYGWmYhB16+ XerSUv8QzUQlAIBpyv7WsdHsiJO7jQnPdy7vlfM4uZxUflY0kw1gHq9TumvbXN2fE883RbdjVQAw 9wToQJcOXODnvm+pE0v9YdvxeGrbHj8SzRaB/7nUL5Xar+Pv42CXIdRzLc/QDDNxXzQrGHKS2Cdi crt8AADszh5tXyzDoKvDMT7rkZMMcrJBTjo4IgRpsEhWBukm0gCwsKwCgvnxjTCTdmgOKPWyUsdF s416nj+fIfrGaFaoP0ETwVS8ShPMRK4+/06pj5T6StgKFACYjgx7X1zqAn3sseWkgwzSbe3MvNga dtqblme0r/+zS71Ffw6ARWMFOsyPPx3gc7q7Z9/vZzp4zFyJflipnyt1cqmXRhOgC89hOnIA9RzN MDP/VOrrpe7RFADAFORqyVw1masnheeTs7wi9RNhRSqzdZommLrckeJr0RyFAQALwwp0mB8ZoA9t i+Ev9+z7/UF0N5s5Q7y9ZvCczvfSYsFt1AQzk6uTcsv27WGlEgDQrTyy589jflemnr3iv6+LZoey nTlph7/P23ntyyvSs9/870rd5dJjym4r9Zz2OmR6chJNHoVxeql3698BsAgE6DAnbrz8irs2bj5h SJ2AU6MJpPvmdaWeH8NYrZDb7F3r1cWCs73f7OTEoRzMfkqpfUrdr0kAgA7uN15Z6uI5+F4yVL6m 1Kfaftj9I/SJt+3w9+XVtrmDWe5udkw0K8BPnPF97ilt5S5rl4YwjenKCSh7l3p9qf8Y/Ri/ubLU eaU+H80OXenunbx2cqx+//a/Dyr19FIvKPXyaCawzNoZ7ffy0ujnmB8ArL2jsbTkHhfmycbNJ2TY 8M6Yv5nma7V8Ntq2Hv8YssPyxz3+GaScFfxH4YwquCVs3zlL3y31Z6XOjWY71YeH8KRuvPwKP1mA xeyraYT5ckg0x3DN6l4vA/MLS3261O0xmxA5xw8yVH9TzC5Q/9v2a5ssyazkBJMfiyZsTjnJ5OhS z43Zh845NvOemEzYnBOGDo5m0cdbZ/zccuzvJbH6bhowGPr/sLgE6DCnNm4+IUPcF824I7yeG+d3 RROa3xjDmX2enbBfj37MaF6ezZw/g5tCcA7Lr+H7NMNMPRTNNqXvLfXhaLZcfLD9t97+rtCBBljY PppGmA8ZIr2x1Dkz+NoZmp/Z3t9sn8N22diOH0zreLi8r/tIqbeV+sewEp35fL+Y9usi5TjZ89r+ T5f93VmPWeVOmkJ0Bk3/Hxb4JkKADvOvDdMPm8EN/66c3g4e3BSLEdbm6oZ5mOW7sjOWkxY+1HGH DPrs2aW+Et0eWZOvxUt2+H9bNP2j5GqkL0WzOumTpe4otWc0R5b08txMHWiAhe2XaYTZy8Dosin3 yfJ+77T2XqYvfd+8/80VuH/ScVvlbkO/H81k7u+5POnB6+L3YjrjavvF9LY4z0kCx0zh9b4aITqD pv8Pi0uADj2zYmX6BTGbGaa2Bm/C9JxhP6uQzDlzsDbPbl8rR0ZzZuQk3v9yFXWeWXf3Gl6DOcCb 22rO0+SbHeVEqJyEk6uoVg565Dl7uT3gSRP6XbO9bbNbS/1zNGcW/lU0K9N1oAHoS19MI8zWsaWu nuLXy12+Xhf9D4ZyO+v3dXQv+uVodgP4XDyyyxD04TXx1Q4f/9RojrCatgzSXxyzGS8UojNY+v+w uATo0FNtkD7Nc7qdb/RYGYz9eUxvi/38GfxU9HTFJszAU0q9utQb2tfO40d4jOWB00kcT5HvGe+M 2a5QH2X3iuVdUDbF+NsDLq1ox2+VeqYONAA96oNphNmY9pbtQwnOdzTpID3v6a5o77VvChO86Zfs 21ze0WMfGrPdKXCaK+1XEqIzSPr/sLj21ATQ21/euZovt5E7dQpfLgOXI90IP0YG2a+Z0s8g2p+B 8BzW7s5oVqDnQGFu5b7enTM2l3ph+943iQHBu9r37ee076vTls/nWdGshljPgM72tg3ObT8/v/8r R/we9mjvP7MyiH+cyxQA2M29wwdiOuF53p8dt+L+b2huaJ/b5gk93sPRbNt+fwjP6Z9tY/Rpduf2 GT+37L+d2b6fTVOu6t/g0gJgKATo0H/ndnjTv+yXY3pnN/XNUvszOL3jr7PZzwBGen3+UzTbrv+f aLYOX4scPH1yNIMqXcjByyNjeiH6yuezNIE2neTg6/4uUwBgFXkczs0xnR2/sj+XEwWvWYB2zXvC PJ956wQea48VBX3zXzrsh86Da9rX+jQnb38xTJIGYCAE6DAMr+vwsb8RizGIMK53d9wp+YQmhpHk yphvRjNQmGc0rmUV+jSOSsgJMb88pTboaveKbNNxB2SOcYkCADuR4fn10f05vnkfk9st52rNRVpF nfeiedTRyWM8Ro4pHlhq3xCg009dbOG+dQ5f64dP8fvK9+z3u7QAGAIBOgxDrgbsahX6uzTvmix1 2FbZ0dmuiWFkD0QzAHtVqXt387G5qnpaRyVcE93vINL17hX52OOspj/C5QkA7OT+4L7oPjxfXnV+ 2wK39SUx+vFCGZo/LZoJCFac0kd3d/CY8/h+kuNJefzgtEL03DVkk8trEHJL/t8qdVY0457LdVZb J7W/s/0OAAZJgA7DcV5Hj/shTbtmXZ2Td6GmhbHlVu5fil0PkmSYvW3K31eXO4hM6/mMs5r+aJcm ALBCDsR/dczHyMH9h6LZiWg1Oclw0Vad76ofO+qEyINKPS+aHQOgb5YW7Lm+NqaznfuDpS4otY9L rLcOKfXJUneWOqfUlh3+fUtbF7e/s/NnnoH6Bk0HDIkAHYZjW0eP+x1Nu2bXdvS412laGNsPownR 74rVB0rePIPv66YOH/s/TPF55Gr6s0fsmAMApHHD8xzA/1apT5X6cKmPl7oxmtXsy/d/y1u2b9Pc jzLqrkIHlHppqWeGFYj0U77n3BuLEaZvj/F2D1vre8lnS/1BNEc80C+5s8jbS91a6vh1fm4G6ne2 n+9YD2AQ3NzCcNzR4Q02w/zZwiLJFUg/bGtplQ7dtTP4vrp8j/3ElJ/LW+KxM9N35xSXJgAQzaS6 ccLzDMlz952/jubYnnuiGfPKsOhXS51Y6v5SPxHdHm/TZ8sh+nrOnt+71LGlXlHq223f9WFNSY9s afskvxjNkQR7LsDrPHeNuLWjx84+aE6szglM97q8eiV3Erks1h+c7+iM9vdCHhtglxeg16xAh+G4 SxMA7NIeu7j3OX2GnbuzO3jMHECe9gSo/HqnuswAgHXKQfvPjPH5D7b3Prni8dJoju25pdTXSn2s 1O+Xel804bDwfNeyfX5qnZ+T27hnAJkh+oYw1ki/bIvmOIdLSn13QZ5zntO+uYO+YE5If2+py6OZ xGQyTb9+D+fkqeMn9Hj5O+GVmhXoOze1wK6crQnmgskRML69otlicv/Y+erzDw/s+V41o697kUsN AFiH5UH7Z4zxGHlMT563m0fKfC+a0Gaprdx9KIP0t7f/zdr6n8et8z47V/bnRMpccTi07dzzGt3U XkN/s+LaWll59u+xYafPPsr3ha9Hs3tFTr55YEGe97aY7Jhfvg/nJIQ8N3vlsRksxu/hnTlL0wJ9 J0AHmOxAAzCfnlTqWdGsitlZgP7lgT3fS2b4Pnilyw0AWIO8J8vtYscZtM+w/KZoztxd7Rzjh8JK yPXKyQinr+PjH1/qmFJvKvXmUr9U6vBS+0U/xx7z2twUj4SBuaI2tyVe7fih3Ab86lI3lzrU5dM7 +R7xhWgC9PsW6Hn/bkzmPPTcBeTa9vXynRCe90lX4Xm0j/kETQz0mZmRAMAi+LFSP13qwJ38Ww4a 2M5zcnLQ9GrN0J2Nm0/ow7d5RDSDzAeXur3U1lI3+OkBsMIHYvztYjOoyW2XbRc8ee8u9fJ1/Iz2 LXVU+7v/+aW+GM259nkuep4//zc9ed7jnAOcW2M/MZpV+Q+5hHrlB+21+uACPed8/3xJ+zodx/dL fS6alfzeh/sjc6GuwvOVvxeMtQC9fqMEhiO3nnq8ZgB4lNy2/bi29t3Jv//pAJ/z9TP82te65Bba IdFs5b/joHOu2srdCV4VzeAyAIvtpFh9Ne96LQeWTFaGay8rdec6Pid/Dnkmeu76lGep55b6Ga5l KNmHAH2c1ZjZXrmN9d0hROyjvHb3W8D3kpzgmlu5bxnjMe5sXzf/7DLqjdxl4/3RbXie7tHUQJ/Z wh2G5So3JwCPkpMFj45m9cyzVrn3GdL55zlwtz1mu/Vgfg+nrvFjbfc+HDkIk2eD3hqrr9g6vv33 t8fOj1IAYDHkZKuLJ/RYGXblmdvPKbWPpp24PJ7n5BHvwQ+IZheoI0v9ZE+e7zhHCjzc3oM/HLaw 7qN8H9kYi7nl9DvG7PvlpJEMzx9wGfXGG2Nyk9hWkzv9bdfUQJ8J0GFYctbo52OxzmwCWE0O3OVg 3W+UemE0q5N25rqBPN8csMhVL1+Yg47q+Wv8uPNcpoOQA425De8Za/z4/LgLQ9ABsKj3Z5+Z8GPm mdOvjSaYtxJ98i6N8SY95qS5T/Xgeeb1M+6RAvu0z9dEwX7Jlec5USQnXu+7gM8/J8qcPcbn5xEN ucuEiSP9kEdtnTOFr/MuTQ0MoeMCDMf/jCYgelI0odHemgRYUDlo9a9K/VqpXyj11Nj5QNbp0f9Z 0cuz/nPbvG2lLo/ZnzOWbXrqGjrmF7lUey+3aM0zTte7WuvV0QTvuYWvbU4BFkcXW8Zm+PWL0Rxp 9p4Y/zxfHnuvmUew3DrGY1zVg+d55Jifn4uUfrS9HvcIYWJfHF7qV6KZhHNoLO5is1yFvmXE94cc e3yc674Xsv/1sSl8nVx9fr7mBvrOCnQYlpz1mVsRfzSaM4jcuPZb/vx+qBlg5NdPBsr/OpqtI/da pVP3RwN4nneU+rtS/6nUu0t9JOYjkPyL2PVqpVzlcJdLtdeOaO83RglCcoDtp0v9XFilBbAoNkU3 W8bm75GnRbPj0C2auRO3xXgrVBdBXocHt/dHFiz1R17Xbyp1VCzm6vNl2S/bOuJ1n4t4DnTd98L7 ovtzz3Oc5SVh+3ZgAAToMDy3l7qi1I2lHtIcvZXhV4YSn9MUMLJcJfP0aAZqr9yhQ5erow8fQKcu z5r7+1JnRTOBap4C6Qz3Xxw7H2zNlf+/6xLttRwcHneF349EE6AfqDkBBi9XvV3e4ePn+NYboplU Tjfeogl266D23ubxmqI38ueV55/vqynizBE+JwP0p7R96w2acK5tivVNYltaUWuVff/czeMGzQ0M gZlhMEx5nu+XotnG/QDN0TsZnuc5xjnA9H7NAWPJgPyStoYmt2n/bKm/jGayzYNz2v6nRTPgun/7 /+4Js9H7bhLhecow5edLfbDU50s9oGkBBut9HT9+Dtpfo5k7v69byxE9fXX9hO5tfqG9t7l6Tu/P eTSTHR5x3Yifl/2855a6rNR3NONcWusktofaPtm97XhDvoft2X7+fu3rJfOk/77ic3Ks5ZulbtLP B4ZGgA7DdFt745I3PAL0fsmZnd+NZkXpe8MKdGD194pvlfpf0QSP8z44lx1p27UPw6TC85RHK/x4 qX8bzZa7ef/iPHSA4dkU3Wzdvix3F7I6ejrOj9EC9D5MZr29vZbG2d54+d7mje1j3e7ehh7JPtvW Ed6vc/X+z5T62Wh2w9Tvmz+7m8SW71PfL3Vzqa+U+lo0C3vyWMnMj3KXgRxf/utoJqs5MhRYCAJ0 GKacLZjbf9/X3tQ4W7Q/cobnVaUuiPldUQrMXm5P+oVoVqAboGBaJhmeL3tiqZe39y3/rdS3w0Az wJA8ru3bdOk3w6q3aRl1FfoLSm2b8+e21F5L4x41sPLe5r9GsyLXvQ19cWGsP0DPMcdDS50cTfj6 D2Esa54cu5ufaf6svtH+3D4WzZhkTm6+r33vyp9vrkJ3TCiwkB0ZYJge1Embidw6cMuIn5s/rzyz +X+3N6w6HMBqcnZ4zvy+WVMwJblt31c7eNwckHlqqV+PZvvHHJDP7SMFIQDD8PoYb0Xv7lwZ8x/M Ds35sf4A/diePLePx2grcHe8t3naDvc2/1f/np4YdRv3XIX+L0v9+2gme3/WNT8XMvv54C7+PX9G eXxFTpz4H9HsILBjPywnF81jeJ790+et+Pvdpb4czcIkgIm9iQLDkx225XNprD7vjwfazooVpcCu LLWdw5u8VzDF+4rrO3z8XNFwcKnXlPoXpT5S6tJS/6jpAXptQ3R/XvbLNPPUjbIK/ZT2fmLet/1d au9HMky6eMx7m0NK/Wqpnyz14VIfjSbcuSceWeyQ4zb3h+2QmR93jPG5Tyr10miCzb+MZjcH/dXZ +r1YfRJbvg/lVu3nlfqraI6T7MtCrF3tjJYLm94WgnRgAgToMEzZCTsomq3D6I/sSH+x1Nc1BQNh RnB3cgX698KsfqbjPdHt6sGUA81PLvX8UkeW+pVSZ0SzEgKAfnpnx4+fg+TCmdk4P9Y/OSIny93W g+eWYXae2b53qReVOilG22Vux3ubV0WzLfLtbX9on1I/WurT0RxjA/PgnjE+NyfJ5MSpzaUOi2ZH h5w8cnU0Rxnou07XIW1/ajV5zEROFHp/9Cs8zzxrVzuj5fv1c0u90CUATOINBxieZ5Y6vNR+mqI3 lleU5nbMBoEYAjOCu32/eKitPqzkod82xehHk6xXXs85mJxbuudEwFwJcUOpL/gxAPTOhin8/nib Zp6ZUVah524B5/bsOW5r67QV/z/HUg8r9TtruMZ3vLc5qn3c5XOFM6Q/qf0a17ismJPrftz7+Se2 13pOwD0xmvO187jC77f//tZS92rqzl20i3/LsYTr2o+5I/p1BOgr1vAxx0czJnWDywAYx56aAAZn r2jOF/uJaFai0x/ZgbCilCFYy4zgyzTTyHLQYd/2Pd4xHXQpw4/LZ3SN5/1M7mJxbfsnAP3yoY4f P8NbkzFn66J1fvwbBvK8M2DMUCZD9VxhvnWd9zYHlDowmu2u8+8Zon8wLHJiWPZqr/ON0ezkkLtL /UZbrvXubYomRF5N7jTw99Fs4b69h89tkh8HsCoBOgxLdsoOi2a7pGe3N6z0Q64gfTgemYkOfbae GcGM9l6fgxG5imVfzUFHcmDri2N8/umljotmYPm49u+juszvRoBeOSJ2PXA/Cedr5pnLndPOXsfH Hz/A3+fZBq+OZgxmHLlS949dUgxQZg+5C0NOFtk/mtXp7uu7Hy+4YDcfk1vqX1nqvh4+v7XubnOi SwGYxC8xYDhypdgrS704mnCFft3gLq8o9d5M322a8MfxWPke/+PRbAcJXfxOyrPwRjn3PFcE5kqq M6PZivSu9s8z299vowww54D7e/xYAHrjjI4fP0Pb7Zp5LrxjhHvYIdpW6tBotqoeVYZCJhgza1aH 99+Ld9OPywU8t5e6ZeC/S09xKQDjEtLAsLy21L+JZhW613e/ZFiRW7hlGGarWvrOjODu7VfqZ6I5 rsMgB5P2xlj/gEOuYMjV5nm26WoDMTlYsy2agH3rOh8/31dO8qMBmHsbovtB63do5rmx3lXoQ3Zb qSNjvBD9Y2F1LrO1vybotbWsPl9q37vzGJSHNRnA6gRsMCy/Xeqo/8fem4DrVdX3/r9AGBKBhEkJ EKYEwQHLYKsGGs5BtLTUq0GidbgMBWzprcFe7C3g/+qVfw3cf7WV4KNXAxW8FcXwEByo1Co5IKIo AoXWmpIwCDIolYBAGJKc//qy1jYvhzO8e79r7fHzeZ7fk+TkvPvde+21115rfX+D+fRI0DwkoCui dDeaAjoCHsHFkQD5SmcLne1hbLRBPA5xtjznZySGq7bhuj5/XwK70p2elvN7rjQiswAA6s5HEx9/ RY73DZTDWTTBb5AgNYiIrqjRt9GMAFCQqaLPRVZC0thHAACYHAR0gHahSETq4TYXRZ5LuHiV4QQB AFOzk7M/cHa0+chfFr8wKHOc3ZLzMxLBJYaPFvg+RasfmvMzdxqZWgAA6ryeWZL4O86hmWuHROPj +vzdZzrSHoOI6Fcy14EK2ZcmaDQf6+N3tG+gTANbF1zDAQB0BgR0gHaxJU3QaJSGWRHoQ872ZowG gD7GDDlO/bGzt5gvAUE6dyiKNmpvyvkZiecXDfi9qo++f87PrKavAwDUkvckPr4EybU0cy25yqYu z6JU7+s70h6Diujn06WgImaV8B1P0MxJUAmVBX38nvYaX+bsSZoMAGDqARMAAOo14VVd6N83L4Yx TgPAZGxrPoJX0V4nO3u1+Wh0gDwoCuHbNnW6v15iiOcZayyfiK7zvMzIugAAULd3yYcTf8e5RrRc XdF9eadNXA9dP/9Ax9pkEBF9SdgbACibRSV8xwaaOQnDOX5XTjqP0GQAAJODMAMAUC+URWCes/9q Pg3enjQJAEyBRPTXODvDfMq2U4zoXMjH5dZftEJGTPE8I6+IvtiouQoAUCe0hpmb+Du+SDPXmtEw H5Uz53CPzQw/76LzwyAi+tV0KaiA1AL6jTRxMoZyrOX+geYCAJgaBHQAgPqhOvYHOfvTMLEFAJgK Cea7OXuTs7PNb1QC9MOp5sXofkkhnmfkFdGXhvMHAIDqWZr4+BJd1tPMjWCds5Ee6/p9Kyqiy7lx Pt0JSl5TpnaEuplmTsaSPn5nOOFarqw+CgBQGgjoAAD1RCL6K539CU0BADnYytlOzPEGQvXgXmHd SJt5iLPlOX4/pXiekVdE1/mzuQwAUC0zLJ8zVhE+TjNDg5GI/poCn7uUpoMS2aeE71hJMydj2RT/ rzXWSMOvcTtuMwCUCZurAAD1Rencd6UZoGHgEQxNRg4IKp+hlJmPOvuZ+QjnNvbrOc5uyfH7ZYjn GXlF9DuNOqEAAFVyTAnfcQ3NDA1nXc75jVjAHAdKZHEJ33EbzZyMCyf4+QrzGerW0EQAAPlAQAcA iMsSmgA6Dh7B0GR2cLZ7Tz9WCkNFOD9nvh7gtJZcpxwCbsrx+9p0ubjkc9QGT54yJrcbDjwAAFXx wcTHJ307tIW8ToLidJoNSkDrnKUlfM86mjr5+HKO+ZIRy8K/38E7FACgGAjoAABxFxwAANBc9nV2 oI3vCHKls8utHSLtZdZ/fUOJ5+90NlrBeSrivV8RfW64LgAAKBelb1+Q+DtI3w5tIq+ILlGTvQZI zcElfMc5NHMp48t5zvZydoYRdQ4AMBAI6AAA8ZhHEwAANBaJ5oc5e6WzbSb4HaU1vGve8MIZDb7O RdZ/esYqxfOMPCL64nB9AABQHmWkb/8BzQwtI6+Izl4DpOZTJXzHCpoZAACaBAI6AEAcJKZcSzMA ADQSRZX/lrOjzUcyTzZH1v9fOm94YRMjgVRD88o+f7cO4nmGRPR+I1auNGqFAgCUyQdL+I6HaGZo IXlE9CGaCxIy39JnErnPiIaGwdmFJgCAMqFOIADEHlO6VP9YE7c9zUe7UfscAKC5765Xma8N9/o+ 32OKdL7VfHq8JnF1n7+nDa4TrR7iecb5zg6x/qLndZ2H07UBAEp5h6YWXZbV7H0EEJNMRL9zit87 iKaChFxawnecQDNDBPakCQCg7MUOAEBRFOF1vLM3W//pYAGg3eARDE1CYvlrzEda/6Gz3az/GpNL 5w0v/MzaVdeva8i19htZUqfI8150PnJyONXZ8il+d0G4XqJcAADSUoaot5Jmhpaj+cruzm4yn+kI oEyGrJzo8+toagAAaBqkcAeAIkhcuMDZo+Y3sRHPASADj2CoEzuYd/basudnciDd2dmhzt7l7Axn xznby/I7l360QW3Rz7u6ruJ5L/3WRGduAgCQnt8r4TtW08zQAR50doBNXCP6DpooGU8722DdzHSh UoSrSvieE4xMIhCHHWkCACgTItABoAifNFKWAwBA/ZE4rg0xbUo+FX6mqHM5erzSfOScIn1eYsUc S5fMG1545tpV129oQFvsNsX/q8a40qQ3YXNLIrqitVYNcL0AADA4v29efNo24XdQ/xy6wnrz2XaU RUcptRf0zNEupnmScXVYG+xh3slW49m0Dlz3NCsndfuNRvR5LDQ2LA7rHL0bV1j3Mm4N0Q0AoEwQ 0AEgL4rkQzwHgInAIxjqNM/9K2e/DvZ0+PlMZ9sH28YGz8gkEf7WBrTHyATvb6VUfGtDrmHs9Wi8 0abneGknidQCAEiLxBeJehudvTa8V2Mj4YWoRegaEsQOpxlK478628fZQmfHOPttZy91tlXLr/sU Kydj07GM4wMzx9kV46x5lob3pEprPkgzAQDEhxTuAJCXg2kCAJiEIZoAaoIizRVZLg99eeu/Otg8 85tiMyLNhY9pSHtcZS9MfX5f+Pd+1jzxPEP1549wNmx+8yhD10WkFgBAWiSIfNnZ3zj7nrMnEnzH N2hmAEiMIv//3dlnzWev+rT50hFPt/iaTzVfjjE1x4X5OhRDjmpnO3vAJq5TvyD8/9nWjcwJi+gW AFAmRKADAAAAQNtJuZnQlFThEjouCtYmdF0jRqQWAEAVPOvsO+ad0nYwH4m+dcTjf58mBoAS+Zmz vzMv+v6JswMjj2l1oCzxfJmzlXSpwui9qhT7/WYJUDT6a5ydbO12/phL1wCAMiECHQAAAGKCRzAA AABAd5CIfr35aPFfWtxUvbfRvABQMopI/7yzy5z93NmmllyXHIrLEs9Vm/sDdKXCqHSmsiDkSbGv d/GrnP2xtVfvmUHXAICyQUAHgLyspgkAYBLwCAYAAADoFo+Yjxb/N2cbIh73CZoWACpAIvqXnN3k 7MkWXI8y0F5u5Ynn7zTqnhdFpccetXz7KnLyuNt8prFLrT1OH2OZTfcAgLJBQAeAvDwYJsQAAGPB IxjqRFn19h6iqQEAAOw/zEeMxxS9N9CsAFARSuf+z84etmYLkoc4u8vyRTMXBfF8MCSe31ngc3Ly kLPH16wdDh8TcQBdBADKBgEdAIpworMbaQYAGAMewVA3lpXwHdfQzAAAAM9HoUukeTzS8XDaBoCq 0b6XInufa+ja/AJnt9hgWeLkPKCa2oqK/k9nj5lPFz5WJD/HEM8Hoah4PhruyU+d3dfyNqJcIACU znSaAAAKoHRWRzg72NlJzpbQJABgeARD/biwhHfUHTQzAADA8wKTsr/82vyG/rQBj/cgTQoAFXOv +Uh0CcbbNOScJZwfb3HStSsLiLJt/av5LCMa33dy9gpnr3S2i/ngvGFnI3SXwhQVz3vfv7o3m1re Tuw9A0DpIKADQFG0KXJrsDPMb5DMavk1a3GwZ/i7PB9f62wBXQHgN+ARDHVjjfnIkVRj9bK1q64n vSwAAIBH78SNkY41QnMCQMUo8lrZNZ5xtn2Nz1P7+wc5O9vipWqXKKvo+39w9uXwd43vciR4lbP3 ODvc2dsMh6dBGFQ8117s1s52CP3guZa2E9kOAaCyFywAQAwkqK9r+TXq+taEv4/0jKOKxv+CDZYW C6AN4BEMdUQRGA8kOvZZNC8AAMDzZJv4023w6HPxKE0KADVgvHTlg46Vu9kLs7cpBbcE6ifMOyJN xQxne5gXzd9l8eub63qVrv1Lzv7WXlhXW04FCqRZHX5Oyvbi6D7eGeE4CmaSU8M+5vcsR8fpcxKg f91n/6ojw3QXAKgCBHQAgMHQ5HMkLH60gEBEh66CRzDUFUVEHOfsysjH3X/tquvX07wAAADPI/Fc qX13iHS8+2lSAKgYCY8SObeIdLxDnH3Vpt43Ugatm8f5eVkO69rnUsr2y+yF4nmGUoU/QfcYuG+t jnSslzh7nfmMgJ+1zaVUMrY1n0FT2QL+3Jrp9PBBugwAVAECOgBAHCSiHGVxvEcBmggewVBnVjo7 zeLUAhQSz9fQrAAAAL/hpeZT0cYS0B+hSQGgYiRMvszi1D+XuNmvQ+8Cq7ZcoNKAr3V2F10gGZ+0 eAE4EuP3dnZy6LOXO7vXvFC+o7M3OjvJvMgu57TzGtZWs43ymQBQEQjoAADxSF1rF6DO4BEMdeei ME6vGuAY9zk7CvEcAADgBSg680BnB5vfvAcAaAP7mxcmtx7wONp/v7JB161a50+FPyE+QxY/m4D6 2Mudvd/ZW80L6Co/IAeQec52dbaVs6XOrjGfhr8pHE+XAYCqQEAHAIjLxxu2MAKIAR7B0BRGzHvh X12gzyqC/RJrbt04AACAFGT1fH/X2Sss3j7TYzQtAFTI9DCuSUDfasBjHdTAa88E12fpClHR3smq RMfeIqx1dwx9bjT8bNqY37vF2UzzmTSb0BeX020AoCq2oAkAAKJyB00AHQSPYGgS65wd7mx3Z+eY jyqfCGUVUf10bR4pgh3xHAAAYDPalFfE+dHOjnW2S8Rjj9K8AFDh2HaAszeZL08xbcDjzWrY9auO 9qmGeB4bicG3D/B5rV0PNS+QHxr+PRHSfLacpO9+O0K/LoO/pNsAQNUDNwAAxINafdDFuQQewdBE HjRf/002w15c21CRb2zeAwAAjI825yWe/4F5oUXR51vSLADQcCQq7uzsRGeHhXVCV1DGrS9aMyKT m9ivLrNidc/Hy4R2a7DznR1p+aPalY1NddjPqHGbKVp/KV0HAKoEAR0AAAAGAY9gaAPrjY0iAACA fpAIoHrAc5y9xdl7zaeK3ZamAYCGo33ynZydbj7L2q4duGZl4zrB2Q1Gtq2UnOJscc7PKBuasrus m+R35PA9Yj5j2mU5v2NJ+OzKms41bqPbAEAdJgYAAAAARcAjGAAAAKBbKOr83c5+39nvmE9vzN4S ADSVaWEMUzaql5uPPH+rsz0sXlaN1TW87hXmU4CvoQsk5xDLn7VP9+ed1n9GNDk/vMN8Rpg833Wl s/1r2A+WhPnGqDUj1TwAtBQWOQAAcdHkbqORvhDajxYxt9MMAAAAAJ1CqdrlQLmD+Yi3FCyjmQGg JCSUz3M25Oz3nL0yjG8xRTuVjlIa7qpLnynaXCm7rzGyb5WFsrXckvMz6isXFfw+fe7HOb/zTmcz a9QnVCJGgv4d5lPNb0M3AoAqByQAAIjHs2GyqhRLm2gOaCnaTLjcitXvAgAAAIDmoogw1QfeiqYA gBbwZWd/7+xM81k1ZlmaiFcJmzuaj/quAn3v3ubTdSOel8MMZzfl/Mwg4nmGaqPvn/MzypJQl0BL 7aX+wLwTwK/pRgBQJQjoAABxecbZuebFxXucPUeTQAspUr8LAAAAAAAAoE4ownU/Z9tb+kyCCrQ4 z3y0b9mZNvS9o9zu0pATxrctX9BBDPE8QxHceUR0nedlVp906Y86u9/ZE/RbAKgSBHQAgLjIU/La sBj6orO7zdciAmgLeWtqQfmwwAQAAAAAAJiaKgRDRYArlfqhJX7nbG51qSioZkGO348pnmfkFdEV JHFWjdqQrJ4AUDnUQAcASLMYUvqjS51t7exdzvY0nJag+RxiiOd1RYtLeWf/wtkjhuMOAAAAAEBV KHWzBMsDzKftHgo/f631J6qtMF83WzWAJYJpf+GXzPFbx62hf9xu6cujfc7ZO2jyUlDQQZ6MfSnE 84xMRL+zz99fGsaaiypuQ5VS2N18toZpdCkAqAoEdACANGw0n8JdC999nP2+sx1oFmj4IhDxvJ5o I+1n5lPEjTj7ubOnaRYAAAAAgORMD2v+IWdvtjilriY6xn3OPuPsGvPiOoJ681FadzlayEkipYi+ OPTREZo8KXmDDlKK5xl5RfTloZ+sSXQ+EsR3MR9kJOf/jWP+fyvz2RnUlttH+C4y9AFAYYiGBABI hyaBP3G2ynztno00CTQQRU58xRDP64oiz7WR9mVnFzr7mrMbjM00AAAAAIBUzDHvYPw9Z8+ZF6a0 Xlqc+HslsCpC9JbwvVqnzTciNJuOshgeENZ1KdHe1AyaO+m4cEuO3y9DPM/Im85dY1rMtP9yNJIg foH5vYrvOjvF2StCn9QYtkX4ztc7+yNnr3G27YDfewp9HgAGHbwAACDtQuhH5r2J92XiBg1Bi5d5 zt7vbEkJ34VHcHGedHajsyud/bvhqAPVoI0ORRGoXMmi8LN+U5Rqo3Bl+PtDzr7v7DFnd5svS4Az CAAAANQBiWPHOvuwpU+33S+Lg2k+pZraX2fu1FgyET11JLpKDZLKPT7SWG7K8fvKVnlxyecoEV2i fb/BESotsN+AY4rWiaebd/zpRcc9wdlezn5oPm28BPR9nB1pXkTf1QZ3DlpuEYJB5g0vzP6qvZeP O7tq7arr2ccC6MjgDgAAabkrTFSfMgT0VFBjLs6c4CBnJ1l60bwXeQR/MWwYQH4edfbj0GcRz6EM tImxm/lNjXfZ4JFWc6cYczKBfcTZD8yL7GxWAAC0m9fSBFCjeY/EnI/1ua6sCs2nrgx/H3Z2HfOl RpKJ6E8l/A5SuafhMuvf8UH7T++s6BnNIt77EZXnhusq6nChfrZqgv9TmnZlz5Bj0tHOHjcvoO/s bCfbHJVeNxaEsfbGecMLj0BEB2g/COgAAOn5tbOHzUeK7kxzRHl37WPUmIvFRB7BZRHFI7iH33gE W/s3jXR9itD9haXdZAHIslIsrmCsyAT2XpFdm06fNh/lgfMNAEC53F/CdyygmaEGcx8J51+w+kSb 98uqsI59nXkncWgWmtvmqVddtI/MZB4djUXW/75UleJ5Rh4RfXG4vpU5v2O6TSyeZ2zpbAfzdc5H w7jblHIUmqecYuWl4AeAiqAGOgBAelSjWOL5s4YXeFGoMZeGIfMRzEtb1Fcyj+AbrBu1ALewbjtE ZrXUhnpM4wXZPuKNvWeH99idNRorNPZrQ+ap8F4YMhyDAQDK4hGaAFqO1nv3hrnG3IZeg877gbCG pj5681BWvOMSf8elNHMUFJBwZZ+/WwfxPEPC7zl9/u6Vlr8e+hE5fjerf960serDdH+A9oOADgBQ Dlsy5uYmE81/Fhb/EsyrjkaRaCMRSRsq8sJtsmDTj0dwk8k8gtvMtLCQ3dt86YIuMS2MD3JsuSX0 5cw0XkhY1cbEBebF1dmTLMinh//PhPgLgo2OMf1sRkfaVhvH3wttubQBz/qq0BfOtvybOwAAAADZ HOjssN6b25Jr0hr6csO5tIko4ndFwuNnqdxhMK7u8/eUFeJEq1dQzfk5+tjV3OoXMZcmAGg/RGoA AKRHtX2Ulmhbw/t7KqgxVx5HdKA/ySO47Sm1ZodnRamsJSI+25FxQhuB/WSgGJv6WywLfy7Kuehd Ej6zn7WznIMYsmamKs1YGkz3+CPO1vFaTb6WPMjZMc526/m56tR/39lqZ79s8fMC0FWeoAmg4/PL pqFrer352tqk7G4WJ4Z7l2purvXjVszVCjPf+tu3ihF5rjFq1gTv5KL3T+ej+uZyTJ8qnfuCcL1r OnaPR3vuG0FRAB0EAR0AID27hAXPS2iKSRcD1JiD2HTBI3gbZ4ea31zRvO4H5tPyb2rxNWusGGRz c8mAfeovnZ3XsjbVZojSOLal5mzmOKG0hH9j1W8K6tncx9mePT+TuKxN7JgivxxqDg5/vyHhdeud /TbrP12l3pGfMS+q3+bsMSu2gTgjjHlmOEcAVElZY+p0Q9SB8viktVM8753Dau6BiN4sdK/eaj7j Vio+4ewMmroQ/YwZ/YjnmTiuebwyyw0VXLfe6OxmZ3eYF7r7nXf3WxN9cY518P0Nv7cKTHjY2V3m S9fMDOu5bG93WmhvAGg5COgAAOl5RViokjZtfCTcXGvNFjuzGnOnObvYqHUP5aGF287O3mS+7MEt YbH6aWfPtPSav1Dx9y+dN7zw/LWrrm/Dc673klL3LWlpX1E0+unmNx5vrej5VCmJqTajJDArTWe2 2aVn+JHwDK+f4v4daD4CfLxU+9qASyE05xHPs3fk0gmuOYtWn2yOcNA4fbRONSQBIA3bGc4yUA6H tHguNPZ9jIjePDSHXZawj+q4F1r3IotjsNsU/39OWGuNna/2ZnH6Q4vnxLxggmNp3vwl88EfE71X Lwp9YNUA19vL2jDfb+I+35POvuvs78M6RVH+Ksv5cmfvCWtL7b2cyCMA0H4Q0AEA0rKTs8PNbwBv RXO8AAkLZ1n96+vmQSLJm8NEuu6bEvd3oI91xSNYqcQkor8hLMS1wJMjR1sF9DoswmdZ8zf1h2zy DZI29Rc5lmjj8QNWruDabypYneNUm6KZ4JzRzybq1WEOEnv9eGWk+zLIRrDa9VvW/jIdAHUlpZgD UDafSrwe+bxtjgY1e3HK5dnhz33NC2qnJ5zvZiJ6m0sStZGzEo+5CmjY23BMzMvIBPdF8/axDrwz wvP9QSs/69finjWJzu1cZ1+0F+9Z6Xp2DGuI8c7xjhzfqb50lLM7G3ZPtYeiTF7/y9nt4d/Zc/Ej 8xHp+tkta1ddj9MJQAegdgMAQDokmC8Mk8aXGvXPe8lqzC1t4bUtDpsSdc84kHkEt5kTO/ZMKbWx hPS9mOMl5+AGn7vGpq9YN8TzXrS5dW+JY/N8i5sKNhOcM+sHbXzNiXxd29Xoni5nbgVQGQ+V8B27 0MxQ0rwotpilqNP9w36AHNnk7DVi3vlSNla4zn4use28MJff3byjSgo0p7iMW98oJHQOJzy++sQp NHNurjKfhTDjvvDv/cLzPC2sCbT2esq8E2rVJbPmhjn0U+G85o8zHh0R+ltvQEKWbTEPa8JY1qTA hl84+7/OfuLsafOl8UaVfc7ZhvD/Z7m/f5HuD9ANiEAHAEhDJp4rvY8iQrelSV4ANeaqp6kewf1y mnU3DV3bBaUbrT21usumipIZShn4oL0welosCn/OKfF9kI3NR5UwPuxZk3v++nHavk20IRsEQBP5 fgnfsaeRUhjSs03E+emHzEcuxojs1txJdak/4uxzCeZKi8NcbCVdoDGMJF4HSVS9gnlVLrSncpG9 OCOS1uND5kuP1TmFeRaZrn51Ys87dzT0txiZrB4Mx5GzkrJtHDDF72tcipltIbu2R/r8fY3f2sPb ON5/hjJuz9H1AboDAjoAQHyUtv1I8+L579rmlGzgocZcfcg8gq+w9giSivi4JCzUoJ1oc3IVzZCb k8ynEE2NNik+bpPX2BMj46xLdjUv+L7L0onqGpvlOLS/dUOYGbK4m+NP1Oz6Dh6nLzWd2bY5y8Wi Mf+n+dOz5qNivhDe3yrJMlXKVQmRb3d2grNXWTzBqEo01twc+vdNRj3fsimjFNCONDM0ZCw6MeGc QnOpd5ovW7I88rEVDTuT8bNRHOvs0YTHT1H+p0tIOD/S6i+cj2VBWB9pPDve0uylrA821bFHwvw3 Vvt93nDGA4ABQEAHAIg/rv6F+Q1rbVAqMopUyi+EGnP1omkewZOBt3w3uM58VPNimqJvftvZXyf+ DmV9GCRqZYNtjlRfGd6nSh/4MUvj4JNaRL+tJvde4/UZEY+n+3ScxamDDi9kjvXn0LZ1mGP+Wfjz O+aFZAmaSjWZienbhnnIa81nXdCGrtICb9OS9loQLJuTyIHufKN+a1k8UsJ3DBnRsZCexwp+brwa x6nIolxFbBH9/MjzBEjLujDnXp7o+AvC2DtCU+dGeylXW7MDE3TuD5gvH3GmVbeHtdLi7TkhngPA QCCgAwDERZuVJ5uv2acNTmpzvpBUNeYkpt3T5wQ/E3dutc115rRpfZaliYzXsS80L9TXGTyCoSlo E1GROJ+2dOJqm5ATlxyJVK929wTvJW3iXWLxN1g22ObUgUo9f2mCe51SRF8Xjl2HMhnTLK6omNV7 XM7jFQ1tuj6Q4/dVKkjOecraIIH8P5zdbV7UfDb8v+aichaUY5yE8x2cbdniNlwa/jyP7lQKZTgt zqGZoaR5Zd53WlUOOylEdK1/P2I4IjcJ1aH+sKULAlgV5hEbaOq+59mntGxerHFBez5lOQkBANQW oiIBAOIixyQJFNsY4vl4xKwxNxwWdtooXTPgAi+rMadUkSsiXq/Oaa2zXzjbrkX3MWY0EOI5FKG3 LptSTx5qfjPzRppm3Lb6tbNfOtsU8bgrwph5kaXfYFsT7vVwgmOrJvyMhOet/nlaxX1gVoI+dVG4 tuN47qJwcMG1vO7tq82ndP1j8xueHwh/nhJ+/urwrG7ZgXaUiD6f7lQaKxIfn0wzUBYX99mf7wtr /fOsumwXFyV49k6nCzRubn9U4u/4BM3cF1pD3GDtdCqVg8Ytzi4w9jYBoMMgoAMAxIfJZTq0Sa+I PgkpIxZftMlqzMUQOyRU3Wt+Q+ZvnT3J7Rt38U+qVRgUZU7IsklkgrpEvfsSfuf9DXzWno14PAnZ 77Dyo5VGwv2NKdhmpTamJeyfF4Xj7xjablmLnr2V4bnbouf69PytMMjD6gE+u2V4LhRxrlrne4c/ 9e+XWDeE814upTuVxrdK+A6yJkJZ86R3hHfYRPPH48L4+mANzvd9kY+3lGetcaxJPJ+UIx5ZQCZn fpi/tT0bmvqC9rVmcMsBoIsgoAMAQJkMUmNOEaaHW/qI5Syy7rQI16papvJGftwQisey0dmj5lNL A8QkE/W0yTmc6DseaVB7TAtz/hiZUSRcS6gbqfj+qjZ6TIFWIvrlJZz7utB2Z4R7IoewMsT0XUr4 jtGe69Pz946eayRCfWoejNhO06zbzpzayGaTtxx+XMJ3bEczQ4noHaaSF7uHOeRwWINuFd5tdVnP 6X17TuRjHsTtbxxnJT7+FUZwyERIPL/T0qXRrxu6zqeMLD8A0EEQ0AEAoEyyGnN50OaAhLCyay8N IqJLHL7DfBTUrw3xfCzPmK/X+mVnP6M5IOF4M2JewOsy2vhS7eNdB5z7ayyWcL2+JvdW2UJiiuhK Fbyo5GuQQ5jE9K0sbZr3PSu8T1n6/UMZkqbkRJogGgfSBKXw0xK+42CaGSrgwTCHHAlr0DrWgr4k 8vGO4bY3Ds3JhxMeXw5pR9LMLyITz1NyX1h76f4qw9NM2+wgOda2Cr9zaFhPpHRc1XUP0QUAoEsg oAMAQNl0ocac0rVf7ewu82I6bEbiuZwLPmU+XeAvaRJIzBrrdjppRZ6/wtluAxzjuIrH4vFIIaJf 6Wx2BdeyIbxvtPnV1mhtCRBdd2bpZ6w6h2aIwmE0QSmst7TlUgTRbgDj82Dk54866M3kusRzx1VG Vpex76RU4rmeZwng2gPbK6y9RsxnnFg/xTpiXZhraz2RuqSZ+sSpdAUA6AoI6AAAUDZdqDH3cFhY bOB2v2hxp2glied/7+znNMnzPGdkKUjNeR29bkUlbO/sKPPibBEkeq6s8fvkRIu7OXR1hdejza/Y 6enrxJrwfoeJOd/SC5JdgFTE5fGZxMd/M00MUMrzN5fmbCSaCx9fwtwE0onnmvdpb0z7XxLAY+yB ZSXN9rI05ZRUphARHQA6AQI6AABUxYi1s8aczvsB89Hnm7jNL0B1o//BfK3hp2mO37AmtA3ZCtJx dwevWeK5os+V/lYC+rYFjrF/6J91Zn24vlgoXeVQhdeTOQW0lasYjqa8/6+hGQbmtTRBaVyT+PiL aWKACfl+5OPNpkkbiQTXZQmPv8TIBqIo/BTiufaZ9jO/N5Zq/ysrpzRZAEsRENEBoBNMpwkAAKAG C74Ha36Ol5hPN94PWvhIDF1vRBX3oijrm519yRDPx6IFszagj3b2MsPBMQWPdex6p4V+pEiGP3W2 T/hZHpognmdkqa+XRjreF8xvZlWVRUTvD0Wht1E4Go18r9qIHPcUqX8lTVGYBTRBaZRRB312eC4A 6oQEtcxRUUhgnCz7xR1hvrLafAmrGHOM+7kNEDjT2SJLl0ng2rCu6OL+xrTw3MZGwSO3lrznoPXN ZRHXGMvDuDbCIwgAbQUBHQAAYGqyGnP9LEi1qNzQs9hCRPc87uxrRtr28ZA3+2fNC56/52xnyy92 wtTPZVdQ39nS2b7OzjYfbbBNzmPoM2sadt1KL3m6xdk41DFOMp9GsSo+be2NvPy+wVQoE88KI/oW 6o8cfpQaNqXTgt5nt9LUUCESyw90dpj5sgIxxmY9Nx939gMr7kz+CLcGAtp/OMF8GbkUaG78Nqtv WaeUfNLiOiZoX+kAm7yuecp+onKKihxfHumY6nNNcrwGAMgFEU4AAAD90W+NOYlX2xlOar1IvNTG 0HU0xbgodfsPzXuD325E6EN+ptlm4fwl5utoS1B+q7NZOY+lFJAjDR1nToh4vOWM48lYTRP0hVL5 Uw8dmsDHEx//92hiqIA55kWm7zl7ytktYW4Qy7FJTifKNPJA+I5FzDtgQDR/vzHh8dVfZ3SsTYfM p7CPRZXieS9yEj404vGu7WDfAICOgIAOABMhz0REHIDN9Bsxp3erNlx2MqKIMyRsKcXgz2iKCVGK e214yIP7l0bmAuiPrZxtbT7CXOn/VQZAqbH/j7NjLX8tS23qfKDB7XGdxRUc30IXS8J6mqDvdnor zQAN4AeJ55DH0cRQEhKwF4U1i4RtCeZllITIxHStB842apFDcY5NfPzzO9SWMyx+RP9rajQPVmaX /SMdSxH637b67X+NGvsqABBhcggA0IsiIVUrVtFBN9EcUKPFS5NqzO0WzlXpyjdx+55vg18ZTjlT ofqeikA5KvShrWkSmASNMR8yv9k6M/SZPZztEsbLIhsYRzV8kyGLQo+12XWBs6uMjReoDm1uUjMe 6k6eUkd5kdBwt3kHVebUkAoJ1h+1uJGmRVkaTBmBzrJyxDbNc55hvtOa9WTKeYOekQutG+m6L418 vEPD/akTuo/DkdZOC8KYdV7F16Q97adDW2sP6tcMCwAwCAjoANDLs+Y3KL7l7J+NGpVQDW2oMafo 8z9w9t0wae/6ZoSuX5ue1ISfmn83XxNdC2wEdJgIPUsSdvfs+fegmaW0UduGzbAbIh5LYtA8o6Yf VIuivU63NOIkQCzOtXj1VMfOv683sjpBGuoknI9lSbDjLK0zn4QmOX3fZDg7M2/oD6Xr3rvl6/pD LF65BiGnhltreq0jzk6L9A6X48YlVnzPbRDUH59wtjaMZyq78bPwbwCAwpDCHQAyJJ7/NEx2VOtZ AvojNAuURNtqzCn6U568h5sXQbu+6af5xg6G414//Kf5TSxSHMNkHGl+42rLYDHm9B9pSdso48iK iMd7P90NKkYbgq+hGaDmXJ3gmFkGo/uM6HOIi9ZmSpX+qNVTPO9Fa9jLE6yj9G5RhKYiT//afNTo s3SN1swbUpaAkTD/tpaPD1+NeDy9w/6m5td8sfmgkxjcZOXvfynqXHsocjb6mLO/DeOm9rUfY0gA gEFAQAeAbLJxj7MvB/sPw/sY0tPmGnNaMOzl7H3OXmm+TnGXRXTNN3Z3tivdfkok/j1upFGEyflY 5OMp+nxdi9rn0xGPtcSa6fyj8UMOadq0e4JHpvHo+aQONNSZLI17irEM8Rxi8hLzIsv/atA5y6n8 rojzkUw8v8Z8xKjWxv/K2qNVKNp5RcLjX2ntdY6Xo3LM6P23WpySgqnXDUdHOlbZDhbaz9ae4lec /Z2zb5rf034s/B8AwEAgoAOAkFjzHWdfM7/xwSQDUiLBWnVlnwsLrypTkmrD4NFwPjMiH1uR579r vg7Ub5nfrOmqiK7rloD+23T/XItYgBcxb3ihMnbEdjY6v2XNdFvk4+3TsOuX2PQLZ//k7H+bL8/D WNl8JPisMID6ckaC+eMsZy9zNpPmhUjMCO/Ipxp23lozXxbpWLp2lUaQ2KQSZ4/TLVrJ+xIf/xMt bDO9d74Q8XiK6r61IdeuDHixnDXLcrAYDeP5N8xH0d/u7EkefQCICQI6AEgsV71dCehrDfEc0pEJ 53VMlbckbCQssrgit9KW/7752nqqib6vdTeV+Y7O3mJ+IxQmRn1Dzhak/oeJODby8bSx82DL2ih2 NP3iBl27NpJUCkLRF9rY/KL5FMhtZL11q9yF7u2JDIFQY74e+XiaB+3i7PXO5jEvgkjonahUv09b 85ywNB+ZM+AxtN+jaHaJTSqbtoEu0VpSZ69ZEqE/1o2DLW6AR9PmbXLWjJVN5qQSzld7eD82n659 tbGfDQAJQEAHAG08yiPyX4207ZCGrteY297ZG83Xlfuws7ebj8TesmP9YFtnQ6EtqIU+MXI0UbQ+ kVYwER+OfLyP06RTcnqDzlX1S//N2Zec/dD85mnborR1PRJA/tG8CNC1efuhCY4rR5rTnA2bd3ir 2vQePGfA64HykRC3LPIxtwvzR4lAr6aJAeyAAT+v6MwRZ9cZ4nkXiCmIjofSZrfJuelTEY+ldl/b wDn2CZGOpRKN0xOf60POrjWffQzxHACSwAY2AKguzE+sfdFnUA/mhwnt3Aadszz7Femyn8XbVNg6 HE8bwsc4e9jZ4daturRaWO9pPpWcxpsfGZs24/Hy8NzMoClgLPOGF85IMJ5e09LmkogTy2lrblg3 NWHM0nvl9jDGPtfC+5qJ59oQ/qR557yucWvk/n2o1S+9qBw/5HiolPV3Fvj8zbwxKuNCi+swq6CP fZy9x3yk4wed/ZpmhgHYydke5p17Ywp/EstWmhen9W5SNGSWJUXzNwnfchAasuqcyrN0x8pSQ9r2 bqB7flTBd+lUbAzj84HO/r0FbSVH9phlss6wZjqxXhfGsxhrziPCmJiCZ0K/ltMkadsBIBlEoAMw mdbC6SEmHBCZLOr8TmuWeJ4Rs8ZcL9qoUR3Hg6ybTmzbhEXpX4Y/Sef+QhRl9QbzAvrWNAeMw4GR j6fNkfU0a1/zpV0acp7KJiQnpcdaei80X/1n85kTtFnb1WiTD1iciDJFnde5NucaGywSHaq5Z7Gj HTVnliPqH4W+D1AUza9/N6zFYmR7knBzXDjWXuYFs0xE17t4XbAHw89Wht/RXuz+Bce31QOc78bw fN5GV+jcuBw7O4jmnAoKkEPjti1pp+MjH6+pTsq6t+dGOtYXEp6n1jzKRHUnjzgApAQBHQCy+pGk u4FYyMNeadCXNvw6YtSYm4gu13CUSPwm82motUh9CY/M82hz+LXmIwR2M+p8wvgcE/l4n2lxW8Ua vxXd8NMwdtWdacHaWiJEc1VtAn/O/GZZl+eu2tx8XYTjXN2Aaz3f8guyK3ldVMoJCY6pvasdnH3U yKQIU6P1xStsc5S5+s/OYZ6tbAbK+LTVAMeXGKlo8sPDeJPXGXE0vM/OC+dxWp/jnH5vkMyBG8Pn f0kX6RxnRT6exEs5Ymjf546WtFHMMlk3WrOdlL8Y6ThzLd2emtpXwWCP8XgDQEoQ0AG6zWjPghKx BmKgtFfyil/ckus5gFsaHY01EqIU/fE/ne1Nkzw/BisSRpFVSqVL+naYiEMiH6+t6dunRXoPaUPm a87+zNnPG3LtWRTcri28r0pPr+jzmwzHTyER5LgBj9EEJzatV87I+Zn76R6VckPi8f0tNDFMgubR XzefJl3OHG939k5nf+rsv5tPoT7Liu1/SBTbPYxJ6yKdr8rDXBTWRFoHrJjge4fD7w2C3p2PG2W0 usj6CHOGXtSPVDLoX1rSn2KXyfp8C/rLjZGOdWyic3w2rA1YEwBAUvDcBeg2WjRq42y7MB48R5PA ACjtdFnpk5pQYw4mRykUJfLsQlM83w6nmI8u3sVwaIKJie2cdHdL5zanRDiOxHNtYiubygPmN2ma gOZ1Bztb6OyrDTrvqdhkPlWonD6eYij4DVeFflp0bNA8aU0DrvPrlq8e58/pGpUiMUWRsssTHf+C 0PdHaWoYZw7wbfMZOiRGv9m8wKK9DtU+l7P3NgXn2kq3fn7CfqfjqqTGO8L5ZplvnrG4kaxZ8ATP TzfnDBJFF0Toq+vDvOyJlrTN6yIfb6QFbfJ5i1MTXpH9F0U+t7HBYIxnAJAMBHQAFpjyvt7T2fbO fkWTQEHKEM+12FPN02um2ETI6swJieyqlTjP/OZy3rTyq7m1yccgsuH4iJJFzl5m7U29DAMyb3hh CseKx3I8qxpHlSlhqMbNpDIIMTZ6tFn9T87+2nwkq8TbpmzMKBWsUtMqRe1z4d35S2v+xtLGcC/u YDR4AbqvJ1pxAV2bmhc3oH9IkFUk6ao+54vr6RqVc4mlE9DnhnfSGpoZxnBWzzxA+xw72GahZZB5 lObqIyWPeesSHFfrDDkSyIngabpLJ+cMKqH2QKS+ND2s5dsQAaxx41dhzIihlbTBkS/WmKd39ozI c7NpYRybFdY+z/J4A0AqENABQML5q8OkBgEdiqCaRinFc9WY+8gAmwi9Neb+xtlJ5jeMp4piGrTG HEC/vCI8R0Sew2TMSnDMfkQz9c2bLG5aw7qzNrx7miaeZ2jzTxHoysTy+nAtDzT8nmwK72Tmqi9G G5KKtLylwGf1XJ8V5kh1Z8T6i7Y/ni5RC1JHoV9qvv40QIYcusc6Sw8qnIv9rT3OGtoDVvDEHmGu A93jwTAvHCRLX1aSbV/zJYMeakG7fCXMMf/Q2W8729kGc2xvgyPfPRGPdaD5DBsxmRnGM/VBMg8B QDKI+gKAbc2n+tTG2/Y0B+REnqQ3JTp202vMAfRL0VSSAIOwrI/fkXgu4bVL4rkisr7p7MfWTPE8 W+MpTa3SUZ7Skvun6CbqHE7MrX0+0+OxNDzrTeCdE8zdhFK8S+jC+bE+XJLw2IoWnE8TQ0Dz6GsT HFc1o9uU6UCCoMRznE+6zZkRjiEB/TBnR4a1bNORQ8lnnf2p+ayH/2Y+I1URVrSkn8SsbX9YgvPb Nsz7Xs0jDQApQUAHAI0DEhN/L0w8yEwB/ZLVmEuxMa8ac0dYuk3Q3hpzSvm0Y7CZYUNhhNsLAPB8 ndmuoXTnV5tPBdjktOdZasNdzDu7tWHOMd1wNpoMlay5r+Bnb2pI246GuZs2TJf1mBwf9zNSeteN LAo9FZfSxBA4MsGaVGPLyha2lVK4/4E1x3EK0ozNwwMeQ3soiipWeZW32eZSZNpf3N6at684GkyR zJ9y9nfO/tWKpQZvkyPfskjHOSjBuamPKQuCsm7tzGMNAKlAKAMAIe9RiYYPO3vKvLflBpoFpqC3 xlxM2lJjDgCg6Szu4DVndbZHuf21QpuyStGoaBPqW4+P+qyyDhRJ1y/h6ZPms/40gTUNOtemoz2j k5yd3DPvl6PGuc4u7mOsvMTSpXHPotBxnOg2cv5ZFfmY6uNntrS9ZoR3xdvNZ1yjFno3GTGfeW+Q /RyVDNI+osRLiZj3OnvO2UudPW7NKA8z3lxKz8Tlzl7i7M+dvdzyBSCO0L1exKIE8zaN/XIUlgOV yhh93aiFDgAJIAIdALKJx27O3uLsVGdvMC+qA0zEeDXmYrA/Cw4AgFJYSRO8CG2aqY7jYzRF7cjq tu5NU0yKop6KRvyqHuohNCH0IKHtLvMCeK/IMjf87F6bOsOFHFWPS3iOlxqZKbrOkQmOeYK1N6BA +8CKPn+veVFrW7pQVDYFawLHDvh5jb2zzJfGe5ez95sXSf/Y2f9s8JwiE9GvMl8aIu+64FHWiy8i VTmprZ290tl7zDtxbM0QBAApJk4AAGJ6mNRog+O/m48yYJMSJlooUWMOAKD93Nex69WG51PW3Nrn bV+3asN/iKaYEkUF31jws1+1dqT8hzh8wCbf9Nb/9SNgX5XwfSJh/0huVaf5WIK5z3UtbzOVeFH5 vj8zL6TvRjcaGEVePxTev//SkHNWFr5zIhwnK4knR8e9zEegzwhziqY6OGkdoIw+I87utuY4RdSZ aYmOKScOlX883bxTCOncASD6RgQAQIZEdG1OHu3svzl7M00C40CNOQCAbnBuB69ZkQvTjIjGOjLb fN3WvWiKSRkNc/kiZIIogOgn29Rim1rAVp98a8Lz/IJRnrCrSKSLXVLsXOuGE91MZ4eZjxr+q/CM skdcjGec3ersr81HYjfpPXq+xXVwmjZmTnFKw+dTuq8/McoHxWBWouNq3JJorlKQfxHGNM2Ddzci 0gEg0iADADB2wqv07UqlfQDNAeP0D2rMAQB0g0usW1HoWhtlUTNQP5RmVpv97+UeTYk2eocLflaC 6BBNCDn4gk3tdCQRYkWi75dI85fchsatKTXOXBBMZeSKOEG8LsG5fbFD90Dv0leG9+rZRjr3IijV vwTWC81ngLnfmuWAkdrBaXnD52w/Nx+B/hRdvfZrODna/o55p40POftwmBvsQfMAwKADDADAROPD VjQDjIEacwAAFbB21fXrIh/yDX38jsbm/cxnCekC2kxW+sn96XG1vT+7mo/uOtEQ0adiZIBnV86S s2lC6BMJ2PP6+L33JTwHRcvP4VY0At2ne8M4sySYRLa7CtzDRZHPTU6DXYs0lePCLuYd1Nj/yc/j zr4T+vPTDb2GlA5O4vwG319lF/hPZ0/S1RuxTlB5CgnmykzyR+bLVMylaQBg0IkSAABAv1BjDgCg HfRb71Ii+hnmM4XsY15gbjMbzW+UUQO9nmhzf76zP3W2vXnRZR3NMiF6biUwFdk8vNp8TUmehe5y WnjG+kGZC86b4nf0rB7n7MpE53uTs73ps7Xm1En6lMapK5wdnuN4SyKfX5dLiml/mPI1+dBY84j5 CPSHGn4tJ4ZxPAV6ThWhv6ah9/jZsD4Y5RlpBLpHWwfbwcisAQARJkgAAAD9QI05AIBqUXRIrM2t 1+b8fQnpa6yZm1/QLrQR9grzIro2rP8vTTLpc6sUxw8U+KzmfEqDeRHN2FkkZvYroCsC/Lw+fu8q ZzcmWFMICbBn9XkeUC7Twr1Z2se4M7/PuUYKIWsltwpyoghlRSdvavh1KPNCSgena625Dk5y3iSD b5xnpYp3DwDAQPACAACAfqHGHABAtdwa8VjapGZTAZqKokr2cfZqmmJKHjQfSVwEiaekxe4uihjP Uwagn7IKEk+OTXjOEmgP4dbVCs01LrepxfOM9/f5e7NoWqhB35ZT33bWjv31zMEpBXJwelsD20Qp wXd29pIc66b5LerjO0Y81noDAGggCOgAANAv1JgDAKiW70c+3m40KTR8LUtaxv642IpviistNs42 3eUjOX53mz5/L0vlnoqvWn9iPqRHWS8lnufJnlNlKuzbuGWQE9WPf5Wz3VvwrpSD0/EJj3+lNS8T rupp7+tsZo7PHNSi/j3EIw4AXQcBHQAA+oUacwAA1bI68vFeT5PWlvtpAoiINsWPLvhZRY19kibs LBK7U0Qkah2wItE5q89+23D8qBo5Mdxl+UvPrKDpoEGoxvIbg80M406Txx5lrVmW8PifaFh7HGy+ bFAeh802Ze6JdS33MVQAQFNBQAcAgH6gxhwAQPXEjsr6IE1aWx6hCSAyyvozXPCzcqIkLXZ3uTnR cd9t6TbVVaYEx4/qUApjOf3Nzfk59Ye1NB80iC3NC6x/7uxU8+Vlmr7XfmbCsVnziaYIzLuHedN+ 4T73y+IW9e9Br+VZ8454n2eoAICmgoAOAAD9QI05AICKWbvqekWRxozMksAwm5YF6AwjVjyyjLTY 3WVRouNucPa6hOctoeZUbl/pDDm70/KL5+Io8xkzqoIxDoqwtflI5Q85+7KzExt+PRqbT0h4/Cus /lH6ijh/WxiTZhU43zaMJYNcg8ZxCee3OPuS+fT9AACNBAEdAACqghpzAAD5+VLk4x1PkwJ0iqKR ZRLDLqX5Osd0618IfaLA8ZUu+NCE57/cqOFaFhKYzna2quDn5dyzpuJrOIDbCAVRhPKuzn7H2Wta cD0jlq6cghx4j6zxtUs8f6ezky1/9HnGHi3oA4Ncg8Tz7zr7W2f/y9ntDBEA0FQQ0AEAAAAAmsOq yMeTuDCdZgXoDIosO6rgZ5XKc4gm7BT79Pl794W+VYRbnZ2W+L05n1uZFEUq3uBsacHPq/98gGbM zS40QS2Z1pLreF/icbmO6w+lbVc6/r9w9mpn2xQ8ThvmSkWvQWnb/83ZJc6+5uwXVm1mEQCAgUBA BwAAAABoCGtXXS+P/th1CU+iZQE6haI8zyn4WW16U/qhO/QriH5mwO+5yNJFOwqlFEdET8Mhzp4y H1VaFEXs5hVY1iW4lkUNa/s96X6QED1jxyU8/idqdK0SyuUw8FlnH3T2KvOR6EU5uQX3v+g1PO7s h86+5+wZHiMAaDoI6AAAUBXUmAMAKMYZkY+3nDEZoHOc7+zGgp+92toTYQcTM8d81oF+uCbC9yll LiJ6c9AYcIH5GreDsL+lEcOL8NqG3QP6M6TmKovvuJuxJLxn6oAyqMhh7PecvdQGj45f0PC11Qwr 5hQlR6hfO7vb2SM8PgDQBhDQAQCgKqgxBwBQjGsSHJPaxgDdQpucxxb8rDZVT6EJW43E0Zty/P4d kfpkGSL6ELd3YCR63WteABuEYRus7vmyyNelsa1JZW3eTFeEEuYKr0t4/CusHg55G52tdrZVxPM5 psH3/ZgB21IOCZtqci2LeIwBYBAQ0AEAoF829VgXocYcANSF9RZ/05jaxtBEltAEA6Goz+GCn1Xm ijk0YSuReHC5s7l9/r7KAWyI9N2ZiH5fwutTGYJTuc2F+8bZzh7I0T8mQnXvRwY8xh0JrvGghtyL 6dZ/hgiAQXgwwbojQ04rR9bkOj8U+XgfbPA9v2CAd8RMZ7s6e0mbHoJ5wwunOZvvbMjZIc6mMzQA dAMEdAAA6AdtsN7g7Lvm0/TdFX42yGZZF2vMjfYYNLMfANSFCxMcU6ICqdwBusWIFY/4VYQyqdzb RSae5xHmPhP5HDRPVqaqGxNepxxAvkL/zYVqnSvqfGmEY0k8vyjCcX6c4DrPbsj9OIguCSVypqVz bNL6ow5i5A2RjyfngCaWWdA5D+IgNcvZwebryG/Zkv4/FN5/d4b++vyeqAR1hgaA9oOADtAeUmx4 v5Zmzc2+CY5Zl40dLZrkRfsXzv7KvHhznbOHrZiQ3qUac2qfXzn7qbMfmY+W2MTjEv05mR8WN4dY s9IvAhRBKU9TiAurDUGhDjxDE0CJvLvg57TB+kmarzVkabnziOeKSkxRv1qZVo6wtOncF4frxXFs cmabdza4xQaPOhexxHMLa6sU/WJ2A+7Lp+iaUCLaz3hrwuN/oibXeE7kYy5t4L0etKyX3qna6zve igvoIzVpixnh/bdqnPef/n3nvOGFzCEAWg4COkB72CbBMRfQrLmZ1ZBjFuFm817+EmyudvZ/nJ3r 7HPOfuLs6QL9qws15iSC3B7a6yPO/mcwxJF4DNk4HsHWHI9vnJWgKCcmOKY2AxR9iIheLetpAiiR 7ay4UKk0+ofQhI1G8/GiabnPSnheZdRE1/U+ZZQwmahfKNX9oxYvVXhM8Tx7V6ZwJvxoze/NfEuz V7Mv3R4m4daE47HmEnUoCxM7o8pia1YUeoyxRVrT7s4Od/ZcwWM8GvGaimY8HArzg6nef+9haABo NwjoAO0hVX1mahvmn3C2eSGrjSxFTmuzQptsP3B2cVho/IvlF4XbXmNOXsyKNld0zmedXeXsn519 w9mzDe7nIzU5jyk9gq0ZUUU4K0FR1liamoQa7xDRAdrFbNucqeWCYFlZmUEFsq8aUbxNRPdMAqk2 uItEyR1n6Z19MhF9WeLvWRXmlPTjzcK5+sXyiMc91OKK5xmfT3DMuoh546G52aWJjn0Y3T8KbXaO PjHhsa+owdpjXYL3zaUNWVPpHK+N+B4524qXLnws4nXNLdAOF4R5QT98mCEPoN0goAO0hz0THfdY mjYXb05wzDrXYZMIrFpYV4WFgVL/bmjJtfVSVOjXhrQ24xSxf7/5jajMCaHJddDxCI4HG7W086B8 JNFxEdHbA/X5uoee2znhHZsJ5Xp3Z5lalgSLxVxrzgZx19Gm9iFhfqp5VFGB9MYw/y8D9d8zzEcv p2SxbY5Gn9bRvtGPcL6pwFpmf/PRqym4ItFxb6ppPzjF0jnfnswQGYWmZdrLg5ymhhO229tqcI1n tfS6+hlb5kY6lvYIrx/g83dHvrZ+y3JkpWzyzJHnGgC0GgR0gPbwZ4mOu9yoJdwvWmAvTnDcxTW/ B9pA+YWzf3L2j5ZPXG1zjTltKv3M2bfNezK3qeY5HsHxODDRcRHmX8g2Lb42jS/HJTo2Ino7OIgm 6ASZMHpBmHMoU9CVFlcoZ7xoJpprD5kXzSWO3hJhzXK0le8Mqujl/Uv4Hs0xb7DuOB+pf5xtkwvn GlMed/Yfzr5v3oHip2Hdt3GSY0tEmWk+Y07KeVCKNO51LGkz3+JmBRjLAsPpLhZHtPjarkv0zFmY t1S9jl2fYG11pdV732tO5LHlhAHnCE9Evr6Dp/j/aVa8lA0AtBwEdIB2UDS9dL98gibui3kJj/2X Nb92baoownrE2b9bvij0ttaYU5s8bN65YGPL+joewfH4VKLjvp4hOSm71Ox8FAWYaiMrE8Wa7kyn 8WMomMb1Joh890U6zhJrt6jZZYehaaE/SzTPhNElFZ4PIno9+kQmmPdmH1gVcb0oEXt9RdcnIXZm xPFxIjT3V8aGr1gznH2L7B/I4eZ7oX9MlsJ/Q5j7f9G8wHBmMEVpqpTXT238Oreqlbx3SX0lVVpp PTOn1GhNemcJ33Ntx8bwVKn6v9Di+YneKykzVV5ag2u8KsF75vaarqfUT2+KeDytSUcGPMaGyO3/ hQnGtelhvnSvFStlI04zAGg1COgA7eCkxMfXRtypNPOkpKxFZmEyV3dvcKVzVwr3H5lPf5inf7W1 xlxb37N4BMdBG7KpUjB+kGE5Vx/Ly541u77UG1naQL7LmiciaOwYMp8NROPHqmDagNZGSd03NldG PNa8Fj/fbc4wMRFZquV7Q39eUqNzy0R0SD+HyITyLFW/xjo5cGaCeYp+oY3iNRVfuwRZCbPLSurP as/vWfMjc3uzVGQON1PNQ9WfJGJ8ydmFzr7p7IdhvfctZ591dknoE70Ow4refIeVl6VgraVzqlge 2qxKUbks8dysnpH3KTkrYTuutvaK6KkzYFW9/6ix63UJ+sRlNXu2sv2umHsssdakKyO3/Q3hHZjN nbLMK6sGvP5LmJICtBsEdIDmkzqNV+/C8StGOveJSFmLLONOq//GzS/NR6Cvy/m5NtaY0zt2d/NC 21Yt6+94BMdZrF6d8PikYHzxu7LOx4tByo2sbOPh0fBM1p1pPWPHRJsi2cZmV+Y1lzIMtIKxqZbr 6lSmze9DOn6fitghtjlTRmYSES4IJhF31DZHlWdCeZaqP3V/0Jzqopq0cVYX/dCSvi+LSP9ZuC9N eXfMsM0174tkqZBTtKIJJWQoffv6nj74tPnI9G+Yj1r+dVgf7GhxhY9++8NbEx5fbXaDlS+GTgtj wJ0lf29Xsomcamkd0LK5ZlvfhykzYC236h2XHkywtqrTszUtnEvMbKbHWf69wImI/R5ZEN6B2dxp aYRjHrp21fUbDABaDQI6QEOZN7ywisXU4rDwPtUQ0ns3Jb5i5TgxWLjfZ9e4/bWR8nCYlOaJOGhj jblp4bre4mznCd65Td6UwCN4MMpwurnWqIWecXLk4324xs9l6og8PZMX1PQ91I9wPnbseUuN++0d EY+1wMpzfphumwXBMt5z+3ZkvnmBTZ1quU58qiVtn/Xn+bZZ1D7bxhe1x4rbee0W25wpIzPNRZcE W1BhOygd98U1vD+3mk/pvqKk75sb7stzYQ14SM3ehxpz54T1uvrmUzZYzftfhTaWCDheSaqN4Z37 o/BcKDPAugr7Qsp+sCC0Z1nv0tlhfbS8ovZcHO5tXTPFDdq2Ze3hzA3P4PdqOF4MSuoMWL2OS4sq WteuTDCu1KE8VgrxXO10VcTj3Vbz/n/a2lXX38o2C0D7mTY6OkorADSIecMLNck6wnzEZtVRJ+eE SdJaKy89W50WXccXWHSpnTbZ5g22LYIV2WBWFIhq0a2vUbvoOt7o7K+d/bbld9SqS2RLrDR5utfa cPp789EZitJ4NrTLS539jrOvNfT5GTK/gVhnFJVUt0WNxvDLIi9WJ0ORQG+tYTs08Xkey/5u0VxJ Gls3F5hqHNaGaxlCy7Cz62owhumajyw4N5LDwRk17bvaaL0l8jEVGbgu0T1QqYSzx4xvGoP2M5+5 pHcO9WjE71b00+FtXa+bd7ha3uDzb8p5zjLvjLFPmOO81qoVrOuExskPNGC+WuXcVGviL4XvL1tA nh3G3z+LPL/U/VZ98/Od/d9J7v+0ML99rgZ9QALbUyV8j947qrueYh6otjypZuO+xoCPWHXOETHa dLswxp9d4jpssv5zs3lHybF96LGwZ/DEmLlTnZG4fWXP/ke2zzUtUdv9eWi7ston1dpKc+TXVPBc aZz8duTr0bUcYPH3Jn9m9cy2JPH8IgOAToCADlBz5g0vzBbEb3D2h1bfjRyJ6ZeYT3PUNrTg2sd8 Ku5FwfJO4uSd/6SzX4TJpVKdPx0mr7uF4+3i7CUFFhpaRHzefDroh6zazS2d+5vMC+iHWbFMJ1Vv 0sUW254Li+DvhoWeFkjbOnu5eWcYbUydZM0T0WMLINEXNVafNKPZOKL7XNVmWMqNvjqjMXZ1ooX3 8xsFbvFcuhPTFAJ66uuuU9+K4VRYZwE9hRAQe4OrH+eFseNxiveH5qHnW7scOuVA8VWrb5r2fvtH XZ+tA50dU/P1FfOpYu+FT1jatMz9kAnq94R1wGORxif13T2cHeTsXZZWCBwNa6L/Hdb5mxrSB4bM Z2HaaJvFPLGlbXZejz0HihFQoHv7Hqu3w1QV4mU/a/eDrJ2OTyvC/Kbu6ze96xUwoP2fn4dnb1fz GSl2snTl7E4LY1MZfTHl2kppz68qaQ6r5ySFo1kqB91TazgmIp4DdAwEdIAaMm94YRMWTxOhjdkT rB4RaTEWY0sH3JhQG8h7WHXBtQn6T+YF0yfDQkO2XVj0/YH5FFgvt8HSU2WZAaoSM/6Ls4+Z36Av unGqxfnRVm50fcoor02hH0gwkBiydVhkbB8WlLpf72zgM1Nbj2Crx2bv9PBs1yHSoXeMPtfq4XCT uu1PKuk9qk2Pr5dZ/6wPAd2sXBE9G7e1qXpbCf1qfnimYqSyVhT9SI37slJ+ptgMjpGhQ/fh2j76 2FgnhVQOWG1xFNKze2mN3htFqZNzSuYMqzY93ZrtlFAmer+tbOi5K+30FVY/MS0rszLSMw5mEadj x4EDwt/lSH9IRWOCnL8/Z75cwSMNuv8fDmvJB8MaTOK5BL09Qt+YHdZjMefXnwlrunusf0EvVfaA suZ9HzIfmVuFmJ4iipb3aXG0pyEB/d7w753DHPuPwpxz24TfXdZcPuXaKvUcdnZY/6d4XvZPeN5l ZRXpF8RzgA6CgA5QM+YNL9SC7oEWXErT0wZ/JcIiVqKp6oErndWFYbI9GVrYK4XTX5gX0iWwDhK5 k4kZZd6DHcPE/6/MR9Y3ZTGUckExluzFO22cZ+Z11qwsDrX0CLZqxXPd13k2uPNNWVTpcBP7GVZa Rm3cnGzVbKZpc0tCgwTkJ1IK6n0K6FVuOsQu8ZI9V0PmN8VjbVxp3N3b6u1IouhuOd9lkXRierAt B5wnqM+eafk3vvW8fS7HGDfexm/KNq9jhFy/qI/XpTxKJvStHDPPG+r595IJnis5al1c8bNVRye2 Jq3jjrJ2ZK1Rf61D6bOm8ox5R66/c/Yt86WomoLKMjwR3p96V24b5opDYa2tOePOlq4O8XjOEtkY Oqdl41IVzoipHAxp48Hm6xlbhGfwjWGueVjCZ03z4/eFeUdqUjsox3RILmNfIqV4nnGBVZ9VRiCe A3QUBHSAmjFveGFTFwJZbW8tqjeEv2vCpl3+f2nYtcRI4Z2J55rEK6XokzkmuUrlLoHgPWGRPfBE z8oTFF/t7INhgj4z4iKCGnP1pHYewVateN7kdLtNzB4SMwo5VZs+H+3vFttRHWNyCOhCYuftFfbL zLFgdRjXpsosktUi1rswdYraVOkGo67XzJdp2RjGW0X4KIpOZWUUSafN/21sMCG9nzI8mRj5qQLz 1PE2fcsaZ+TI8WnzG5Hran6fP2nVbhCqH1xjPlPSemsm2Wbx+60em61NZEWYd69v0TX1U2oCJuY/ nf0P83XQn2vJNc0N8953hzFjG25zo9ZhbQk6ybuu2KuBY6+CKuTc/IEwf03FhvBcP1TSHkgZmYJ6 nbP7ncNmTuXHlLBGLkM8z66p6tKB+7v1fNdK4QFA9jJDQAeoDyF1+1MNO20NIs+GCd395lM6SzjW psvWYZKshenGBl3T2REmm+vCJoOO9WTOz04L7ab6fUqdGEOILkMkUCr6t5mPPn+lxa0vJ6gxV09U F/G08Pctw3O/Vbj/ZdY+rVo8H7L6RA0OQuz6yKk41ZpV5kQbIB9wC+8oE++cAno25pWZzr0fJNL0 CrZl1q1sWsYPidebbLNzoqLo9gvjjjbIDgvzhumR7osy13w//HvQ1MF6lx0xznu7ikVob4rdOm2C VenkUmbphdTPyFvMRykhkBanzDqsVYCQXmz+0hTH3iJzo5PMl3U4wOKmdO8qW5W0bm3LuisvOzbw WVSfODrsGbw64f6A+t3/E76nrPfJ5VZuJgnNYycqq7KoxPdaFeuoGHu0Ra9VWULXuXU8IzxAR0FA B6gR84YX1sGzLg+bwgReAt81YRGjWt9P2As3eTXQPN2g6xo0RZA8839ovp726oLHkBCpDWtFncUQ oxVVdF7CNtPGpTbws/Tz2yWexFJjrj7IwePc8Jzv4Gx3897x+nNWWDSnpizv58kW0Jta9DrSs/WO Gp/foFlC1Fd702FvYelSCvYy7BbeI5HmC0U+VkcRvar+3aboyn3MCwDvNC+q10kAmMwhZ7QG51aH UkOa691Swfe2RRTT3O54a5ZDVV3nmcdaO0XSyeYSiiBcwO0fFzmmXtGBPqG5kTJW/El4n27BrR+I Q0t6rw4ZAnpT0DpZjpTai3pDwmdsQ7AZJV+fhOsrOzZfOLqCdZT60b0lr2O1Znx36FeGgA7QXabT BABQEAkP8jhUlILSlP+rvTil26i1K/1fvzzu7OtWXDwXEnd+4uyb5jfEB41C3y3xNSuN7Hud/a6z lyT+Lk2al9oLPVDbXmNuQc8mQd3qnylrxgfDoiZLLfxb5uudKcrn5eYdKlJ4m//GI7jiNpjVsjFs cdh8qOv4/f4BPitnLqV8lACvFH8SG/cxn75zp8Rz4485O7zCdtP9VL3vsqMl6kQboyvvMR9to3Hw T0Jf3qoG5zVVNosbrVrhSnOJW8L8qqqxropMGm0Szj9qpGmPgeaVTSrfEos14Z2ME8YLx22lNa+j w27KudGXwnpi54bN6TMnhzqNhbN4jGAMWanHbUv4riocYBQRrsCBm6z9TsoKyjm/ovnCaBinH+3j 9zaGd5j+vmVY3+ftG8fZxNH+ANAxENAB6sUzDZoEK037F539rbNfWruiLwepm6TJmhwLvhXhPJQa XwK6osrqXu9KGy5Kv/tSKzdtd8aSMX+2GQnpVacrn2hcUJ/9eTCJI981H+kpr/OdIi9qX+AR3EA0 VjwX/sycD6ZX9PyMh2pBts0B6tehTyqzx4izX4X23juMs3/k7EBLF8G7oCbPqbILdC1aQqLhWdZe pz5d12fNZwF5n/mNvCrHkn7G55tr8ky8p4L3aRVpP/VOPt6aU7Zgsv2LkwyxM9a4eKZ1RyidiHVh DJBDuByQ3m/dc8w4x+pX2qLsdew/m8+mtr3VPwp9rCPUyg722ZsqmNc8aJsFtUHL22RsCutBOfg+ 07Mu1Dps27Am2bLn9x9r6P36nvn06t9MdPxNPc9yFahvKOjlEy19FuuStUljnjIPTpSJbkNY368N pvWRgjvk0Kv91H4CfbqYkQcA+liAAkBNWLvq+vXzhhdWHZHTD6rp/Q3zqc7bJp5nC6Si9XW06FEd +P+IcB46llLiK1pyrg22GX5+4jZTHzjKSA9cFto4vsTqvempRcc/OvtP88L6m8xnBYhB3TyC8zg/ ScCUkHt3eF40hioCUpu2itbfhflZEtQHf2A+Ule1nXszptxlfjNS2RRU4kFpXduewrMr0RKaU8mJ pwuigDaJVNf30DDezqzoPPrNkvJQTdpN79MyBfQqxPM2RBhntau7mLI3Nm2uaT0Io+FdcYZ5x4J9 wnO6tKXXq/WuUirfYThRWJgj6v7LqXJGTc9xojnN6hqd4/0lznk0lqUSKyUYqkTZ1WG+Mvb92TvP mR3es+/K8W7X8Z4Mx7472C/MC+nTw3pQgp9E2T3NO3b8acPf4yr5KIfxlCJzleP1hvD+uMTZV/tY X432zG/qjBys/qZG74k1E6xhnwtr+i+bD/TSM7UxPDtyePljm3o/qo2ZygAgAmzQAtSPoy2tCKmF 183h74oYzivWbwrnJy/9Norn2aRMEb5FolvUHg+HBVEMsoWVjrtlwWNoIlhGxNH6sMi7zLqbHrhM DrLqvYCn4tmwuJkRFitK8T9I+ra6egSvt/7TEcsr+pthDL05PONbhmdHEZuKhK5DCuYnatyvtDGR d+PlEfMR13fYi8uNZGOtNjskPs4Ji+3Y3FezdtR7QRvFp1j7ojm7JJz3co+zfzIfFTWo411e8kb5 f79GfaUsyhbPV4TnoOmZFyROXG3tqVVd1aa5ntHzrflZCMpgQ3h/nBfaTKWwXm/5BLK6oTnIZ8K4 cI8hmo/lZ8GesfoJ6FPNaR4suHeR7QuNmE+LnJU/K7JHZOEcypx3ac6xyOLtm/WK5nnGSa1LVwbT HvtbzJc3m6gNJeppf+eHzr4d7sPasBbZZJsj0HVdv21+f3BmWDu2YWyVyCwnrtilBzS2fb4G13jr BOurLNuA5mRPh30S3eutw5izbVj/10VQV3u+z+rpbDc24l9tqwyIciS+wF64F6vymt8Jn1Fb/354 vsaOXZfwXgSACRfxo6M41gDUjXnDC2eExXqRCeV9YfI+EhbHd4eF4GSbZ5qkqV6VPF3l4TpZSqon w6Tkf4fJSJsZCpOwPIsyRTBe6uy/2eCei7ovqh2tyKi3W34Bvap0ndPCgrZNERt1rDFXt1rok6HN 7/c6+wtn+xZcGNbdI1ii6wN9jA9fd/bhsFGyccz/K63YmaG/7VHhAlpjx+E17k9qF9Xn7HdzT4vq H5vfzLrBJnb80hj7P8L4vUeKZ3btquujPLNunpDiGf2cNd/5qavCeS+vcvZ/nL3OynHE0bzzqAJt PiOMiVWze0nzpLLF8zbUblSbvc2aX24iq8f5dFhHPR3eQxJaZgbb2oo7yk6FoscknBJxHq9fSlBX SthFVt90vdmegOw27n9f91Xzc0X5vszqIWLJ6eXCHO9X7V2sitQfsn7ej+NIlemdNY4OGtGcqoSB 1obHhn6V7SfpXXBX+D4FHShr4XNTHEdl0H7V0ududqT9lU86++813CdQ//x4WNs/HNb/d4U9gyds 8z6s1p3zwj7JS8OcYFpDxp069KEPmc/kd+Yk5619VYnniqbf2zY7zFxifQrnbh3PmxKgq5NEBHSA +jJveKEmXIoyPSz8OZYR897Cighfn2hhPCNMSrRJMD9M7uSVe7t5r8kuMKdnk2Qs8h5WFJXqUd0d JsKxPRe1oaZoyINts2e4TbDQ0GLsW5bfczoFky3im8LYNJd1uqYmCehCYs5ZNr7X72Q0ySNYY+RE NblGwxghr/vv2MROTVr8XRD62rYVXcfuVv8INb2bFLXRj4guoUK1zyWO/8gm31zZM9i7en4WI7rl OLfojiZmJRDQe/vwpTZYpOfY9i1jA4jIys1IjJPj3VstbRp3bTydYIOlBr/A+ts0HRslZz1zsqLP 533hvdQ28bzM60pJW6LOs3qc94T12r3h3xvDXEi1OfcL735t6GqDd4tI/UDzja8bEVVlMN0211md H9btMSNj+x0jNc9QCu2fW/MzT1SBnr+Tw7upKvEqe3avKXgPs/2jWeHfsfpDJvTt23NsC+NaHd43 WhccY/1lidB+yZfMp+0v69y1nyRnhDeG71Rk8iPWzmyORcfQt4RnL8+42RTHWQnirzC/p7c6zGU3 hOcqe3+80tkR5vd4Xh3mQWWWFMsCRprqbLVFWI+MTjKGySlIe+s/LvLsI6ADdBcEdACAhpJQQIm9 mC2aTaFKJlqM9RNlXBb7W7OiLOVNraiO95vPdjEZuT2CG9DntUFyfVicrp1kcafFn8QPOc7IQeeR 8PN1YxaA2eZVljkk1oZtk6IWs5q4U2UK+Yr5jeXlA24K9Lb7wT0/XzTB798RFuh3uAV31H5cwviv /qQsInlqOcqpThu0ciR7OvxMEdDakJaQu43FjbDUOK2oDgSiF/fTT4Z32KxE78c/Nx/BNhrpGf6Y bRZKe6PkVtv4tUcnGnt7HT41Ho6XhnZZeLfEOP9+r7Es8VyiwLtb8DwMWTtqnT8Z5mm6lhHzzsea Qz4T+sUWod/uHfqqMjn8bninF8keUTT9MKSfF24T/jyg5+fK+LZbjuPc0TPvvz/MD6fKMgfFyETo s0sau7P5zA94dqM/d73wvDSDzNlgMmeIVFkDqkbz2IVhLndk2D9JKaJn7bjWqPs9JQjoAN0FAR0A oKE0REDPiBHVWAb9eDGfavWoMXdR0+Yc5r2pVUvrv9mLIzskamhzsC0bv9nmm6IhtEEqAf3fwyJ1 XQmLVC3As83aTEwS4zmzZJvuTfY6H2+j7LFU7Vz1ArrE8V/t+h57YfrJXtS+2pD8hfk0lD8N/emx 0OdnhP6vtIQHmheKFH1RdDNIY+nnDYFoqrH2/wvvqtkR341q9y8am89570VZ4nkT5wXjtVdbSgDJ kUgOVHLw+mYf45UEc0Wiq/SSRIOXW38iOsIbQPr5/D5h3XZypLVsljFO68J7DCdAgDxrvGTru5qg d78crBR48CZnO1u8jBjZfF5jD6J5w9b/AFDhIhUBHQCgmTRMQM+oq5BOjTkAaMwCuqLxP6vlmG0g bwrjmxxflE5fmzJyElFU3HO2OcJSEegSzpUyTxGWh1u+CMtlYTy9yRBv+0VtK+ed/2rFxFvdy2+Y TyH7U9q9MEUc7orQtIw045GnLEfd0fPy4zCv/Kp5J6N+0HipjXKVRnhfmDOPdTZCeAOolulhXjO2 tNp4ZKXeLKwJiYAGgH7HmTc7+4D5tO4zcn4+24/KMpdo/Gm740Hr1/8AUB0I6AAADaWhAnqGhJiT rNooI2rMAUAjF9A1GP81/ikifdcw5mns+9UUn9nWfBS6ygS83bzoN1ZEzzJRSHy625qbEaFW673w LsnKPYzHY6G9jTaPxpCVk4a8DeK55oQ3WXn1olOi2uaK6vo781Fez+T8vARzpWx9m7O9nP3IvFDO eAgAANAttN6aGeYGY/eGMm7r+TtOOi1e/wNAdSCgAwA0lIYL6L2LAmrMAQAL6G6M/xJzlYbxZeHf j4U/EYagTUgQfqCE72mDeK4o6ztbdO8fNx/1dTbzTAAA5u8AAADQbKbTBAAAUCFKPal05O8waswB ALQdee4+7exemgJavL6+qYTvaYt4/uOSvkvzwbGCtuaGj0Y4dm8Gh01hjHuWRwEAAAAAAKD5C3wA AIA6IHF7TbCLjBpzAAAA0Cwus/SpyA+15ovnWapyldN5VcTjZuV5VAriESO7BQAAAAAAABQEAR0A AOqKBHVtfI6Ef6+kSQAAAKCmDFn6cjSnmc/c03SUjUJR2/c7e4V5QX0QVKLnRGu+YwEAAAAAAADU BAR0AAAAAAAAgOLMcLYq8XcoDfnFLWozpTtXqvPRCMf6ubM9g4nV5p0wyUYEAAAAAAAAhUBABwAA AAAAACjO+SV8hyKsR1vSXoo4V3mel9rg0edisY0f/a+U7uc6u9peXAMdAAAAAAAAYNKFKwAAAAAA AADkZ76zJYm/Y9jaE009zdn2zhY62yv8OxWqR7/c2QPOvhfuFQAAAAAAAMCUIKADAAAAAAAA5Efi 77WJv0P1va9rQTvJlAFvF2dHOHuvs11LPIcFzu40L6TPoesCAAAAAADAZJDCHQAAAAAAACA/R5qP ck5J01O3Dzl72tlz5iPPD3b2dmeHWTX7ERLSFZF+jvnU+6N0YwAAAAAAABgLAjoAAAAAAABAPhRR /YXE36Ho8zUNbqP/4uxC8/XHn3I229nuzna26vciljo73dkB1p70+AAAAAAAABAJBHQAAAAAAACA fJQVfd5UZjj7avj7nuHPLJV7XdD9k7C/vzXbUQEAAAAAAAAiQw10AABoK9q4XeTsAvPpOXvtK+H/ ZtNMAAAAkBOiz6fm/J6/bxFsWk3PVbXR59OtAQAAAAAAoHchCwAA0CYkiks0V0TRlc6WjPM7i8P/ PRp+FyEdAAAA+mWepY8+/1CD22f+BPOvOoOIDgAAAAAAAL8BAR0AANrEkHlRPM+m7ZLwmSGaDwAA APpgaQnfcUOD2+fSyMdTNP6yYDcmPG9EdAAAAAAAAHgeBHQAAGgLpzpbNcDnV4VjAAAAAEyESsQs Tvwd5zjb0ND2meNswYDHkFB+qLOZ5tO+H+7sjGCHh59tZb52+WnO7ot4/ojoAAAAAAAAgIAOAACt QPXMl0c4jo5xCM0JAAAAE3BMCd+xosHtc9YAn5UYLmFcQvmtztZP8rtyMFCN+Iuc7W1eTI8VnX6t eUcJAAAAAAAA6CgI6AAA0HQU6XRlxOPd4mw6zQoAAADj8MESvuOehraN5k9Fap/LYUDR5hLDi0Te j5oX0xWdrsj1QSPSVd9+tflIdwAAAAAAAOggCOgAANB0rkhwzL+kWQEAAGAMikpekPg7JCY3NX37 QQU+o6jzd9rk0eZ5UOS6ItLPGfA4EtE/SZcHAAAAAADoJgjoAADQZFSjMsVG9lIjCh0AAABeyIEl fMeXGtw+Z+f8fYnnijofjXweOt555tO6D4Ki6SntAwAAAAAA0EEQ0AEAoMksTnjsg2heAAAA6KGM +uc/aGjbTM85L1OE+EWJz0lp3ZUafpCU7l81nCoBAAAAAAA6BwI6AAA0maUJj30SzQsAAAA9nF7C dzzU0LbZJ8fvStA+v6TzUmr4A6y4iK5U7pT2AQAAAAAA6BgI6AAA0FRmJD7+IpoYAAAAAopCnpv4 O260+OnMyyJP5p6jSr7OQUV0OWzO5hEAAAAAAADoDgjoAADQVLZJfPy5NDEAAAAEdi3hO25ucPsM 9fl7chJYU8H5DSqif5RHAAAAAAAAoDsgoAMAAAAAAABMzgElfMfKBrfPkj5/788rPEeJ6K8Z4PqI QgcAAAAAAOgICOgAAAAAAAAAkzO/hO94rAPteEfF37/O2XDBzx7PYwAAAAAAANANENABAKCpPJH4 +DfSxAAAABA4qITvuLuhbdNvZLbSp2+owfmOOFtR4HPLnU3nUQAAAAAAAGg/COgAANBUtAGbp47l aLB++QZNDAAAAIE5NMHA1ClF/fsKfu4gbiMAAAAAAED7QUAHAIAm85lJ/m+j+VqX/+nsfmf3mhfc f2E+en2qCKhraF4AAAAILC7hO9a1vA3vqNG5qK2XFfjc2TwKAAAAAAAA7Yf0YwAA0GQucbZ0zM82 mRfIJZbf6Wyts186e9rZls52cra3s/2d7Wc+7ehW4xz7DpoXAAAAIBpranY+H3G2JOdn5EihfZQN 3E4AAAAAAID2goAOAABN5kHztcoXhH8/5+zn4WffcfYjZ/c4e9K8sD7N2dbm07D+lrOhYBLTZ4b/ F6cZG6MAAAAAbUZR6KqFnje7gNK430rzAQAAAAAAtBcEdAAAaDrHOnvUvHiuiPPLnV0R/v7cmN9V DfRnzIvqsh84u93ZCc4Oc7a9+cj1S2hWAAAAKJH7OnCNi5yN1OyczrH8AvoxhoAOAAAAAADQaqiB DgAATUfRQ9qQvcfZpc4+6+yn9mLxfDwednaZs0+b3wh9ytlRRvQ5AAAAvJB7nf3KvCPepgTHX9ng tnmmz99bVMNzX1vgM6fzOAAAAAAAALQbItABAKANXGU+nbuit1TvPM/GtjZ9v+ZsR2f/r9WvPicA AABUz8ed7eXsFcF2d7atbS7/0mXW9/l7c53Nr9lcS9mJ8qZx13VQBx0AAAAAAKDFIKADAEBbuMl8 ZpUiUWES0S92tpFmBAAAgHFQhpudzAvAr3f2JvPlX+SAtyXNYzc6W9DH7ylb0BHmheu6oExEedO4 72reeRMAAAAAAABaCAI6AEBDWbvqehrhxQySUhXxHAAAACZCpWEeDvZvzv7V2XudvdHZy4zyaJ+3 /gR0/c4pzi6q0bnfVuAzBxgCOgAAAAAAQGtBQAcAAAAAAADon3XOrnX2pHnh/M3OdrZup3MfyfG7 y8OfdRHRHyvwmfk5rxkAAAAAAAAaBAI6AAAAAAAAQD4Uka7yMbOczTGf1n3GAMeb0/D2WOvsPvP1 wfshE9FVQqfqdO5Fvv8gHgEAAAAAAID2sgVNAAAAAAAAAJAbiejfMx+J/EsbTAhe3PC20LWfm/Mz EtEvt3pE7i/L+ftz6P4AAAAAAADtBQEdAAAAAAAAoBhK5y4R/S7zgnqXuaTAZ+Q4cIM1L/39Yro+ AAAAAABAe0FABwAAAAAAACjOT5ytcfb0gMdpeg31Dc6GC3xugbNTKj73h+jGAAAAAAAAkIGADgAA AAAAAFCcR5z93Nn6AY8zqwVtMeJsRYHPVV1T/Pt0YwAAAAAAAMhAQAcAAAAAAAAojiKvH3f2jA1W B31GS9rj3c7uy/mZO+hGAAAAAAAAUBcQ0AEAAAAAAAAGZ3TAzx/QknbYEK4lj4h+Cd0HAAAAAAAA 6gICOgAAAAAAAEBxpjvbztnWNlgd8ze0qE2Uzl4iej/p3Pc3L7oDAAAAAAAA1AIEdAAAAAAAAIDi zHa2uw2egv0PW9YuEtHf4WzY2Y3j/P8yZzOdranBub6BbgwAAAAAAAAZ02kCAAAAAAAAgMIo0no/ G1xAX2A+gn20Ze0z4uzw0D7bhJ89YfWKOt+NbgwAAAAAAAAZCOgAAAAAAAAAxdjevPA9z3wK90GR kPtgS9tqfbA6Mifn799I1wcAAAAAAGgvpHAHAAAAAAAAyI8c0l9rPkW5hO9pEY55LM1aCYtz/v7N NBkAAAAAAEB7QUAHAAAAAAAAyIfE84Oc/ZGzQ2zw9O0ZJ9O0pVPk3t1BswEAAAAAALR70Q8AAAAA AAAA/aG07RLP3+PsGGe7WJzoc6F08BJ019PMpbFHgc+sodkAAAAAAAD+f/buJsTOq47j+C9tKkYK RqigYnBhpLhQbDbiC9KiC0WEpjQUV1lodpq40EWzKVRIBRFMXBRsRUW01Ei1C6G7hIKpgralK2NT pLTaRQumaFtfquM5/+cOrfZt7stzM3Pv5wN/Okm588ycyWbmO+ec1WUHOgAAAGxND+U3tvlKm4MZ 4uvlC37Gpy3zUl07w2setmwAAACrS0AHAACArdnIsPv8MxnuPb98hGd81TIv1SzH5j9r2QAAAFaX gA4AAABb96M2V2Zxx7b/v36M+17LvBR7Jus9jdMZfpECAACAFSWgAwAAwNYt4/juGy3zUsxyXP5d lg0AAGC1CegAAACwdX338fGRn3FHm92WenSzHJf/a8sGAACw2gR0AAAAmM7tS3jG5yzzqPZn+uPb n2jzlKUDAABYbQI6AAAATOdihruwx3Qy492zTvLlGV5zq2UDAABYfQI6AAAATG/sY9z3tbneMo9i b5ujM7zux5YOAABg9blTDQAAAKZ3oc25TH8M+DTuaXNFmxct90J9d4bXnHrszP0vWDoAAIDVZwc6 AAAAzObwEp7xNcu8UNe0OTTD675j6QAAANaDgA4AAACz6bvQT438jBMZjhxnfv0UvntneN25ydca AACANSCgAwAAwOxuWcIzftlml6We27cy3C0/rcOWDgAAYH0I6AAAADC7i22OjPyMfs/69ZZ6Lv3o 9qMzvK6fMGD3OQAAwBoR0AEAAGA+32vzxMjPuCeOcp/VnjYPzvjaWywfAADAehHQAQAAYD4bbT68 hOc8Eke5T6vH8/MzvvaGDCcMAAAAsEYEdAAAAJjfU22Oj/yMfn/3ty31lvVfNvhhZrv3/FybX1hC AACA9SOgAwAAwGJ8I0N4HVO/x/ugpX5DPZ7f3ebQjK//bIaTBQAAAFgzAjoAAAAsRg+un1rCc/p9 6Pst92uaN55fF0e3AwAArC0BHQAAABbnhTbvW8JzHs1wvzf/a9543o/hP2sZAQAA1peADgAAAIt1 oc2RJTznfET0l+tr8Xhmj+enMxzDDwAAwBoT0AEAAGDx7sywm3lM+yKib3rnZC32zfj6J9ocjnvP AQAA1p6ADgAAAOPou5lPj/wMET25ts2fM188vzrD8fsAAACsOQEdAAAAxtF3M98UEX0su9ucbHNm jvchngMAAPCKbzYBAACAcWxG9O7QiM/ZjOgfbHNxDda1H9n+m8y+67wTzwEAAHgFO9ABAABgXMvc if6XNvtXeC13tbk58x3Z3onnAAAAvCoBHQAAAMa3rIjePdrmixli8yq5ps3jbU7M+X7EcwAAAF6T gA4AAADLsRnRTy3hWXe0uTurcS/63gx3nT+Y+Xadd/0XGN4T8RwAAIDXIKADAADA8vSIfqzNkSU8 q9+5/nyba3foWu3OsJO+H0t/dAHvr6/5TZOvAQAAALwqAR0AAACW7842B5b0rDNtfpphJ/dOsBnO /5VhJ/0iHJisuXgOAADA6xLQAQAA4NJ4qM3bMtzJPba+G73v5L45Q6DejvZOPr5FhvNzbd4yWWsA AAB4QwI6AAAAXDoXM9zJfWpJzzuRIVD3Hd7bYUd6j/nXtPlVhsB/YoHv+4Y2H4/7zgEAAJiCgA4A AACX1ua96AemfM1/JjPLseR9h3cP1v1o9x6wdy3x892M5v3ZPeY/2OajC3z/fdd539n/8ziyHQAA gCkJ6AAAALA99GPG+3Hjr7cb/Z9t/tTmgTb3tbm/zR8z7LKeJRb3o917wO4h/mSGsL1nwZ9XD+b7 2xzMsNN8M5ofWvBz+lH417X5WIad/QAAADC1XRsbfhkbAAB2ivde9wmLAOuhh+x72+x72d89lyFA /6TN7yZ/7nH6/W0+3+aTba7K4naT95B/NsNO9Ycnf/ePvPJI9P4xXDl5u8f3qzME8w9kiOb7lrBe R9r8oM2LYz3gsTP3+1cJAACwBnZbAgAAANh2+m70fjf6FzIct953bfejyb/e5pE2f8tLO86fbPOH DHH7+jZvXdDHcHQy29nxNt/MiOEcAACA9eIIdwAAANieeiC/s80VbQ5n2GHdd4L/NS/dfd6n7wh/ tM3321zIesTkvuO8H3d/W8RzAAAAFsgOdAAAANjeeiC+Ky8dzf5qd7H9u81v25zPcKT7Kn6/3+84 vzUjH9UOAADAehPQAQAAYGfYeIP//3ybZzIc975K+tH1X8qw+37DPwMAAADGJKADAADAaujXtO1p c/kKfC6bu81/1uaiLy0AAADLIqADAADAanhzm7+3edMO/hyOtznd5rHYbQ4AAMAlcJklAAAAgJXw XJujbfa2OdDm1A74mPtO8yNt3pXhZxS3tbkQ8RwAAIBLxA50AAAAWC0vtHloMscyBPUPtTk4mX2X 8GPrwfz2Nve1+f3kYwUAAIBtQ0AHAACA1dbvED87mWOTnwW8vc3VbT7S5h0ZJ6z3o9h7xH+gzfk2 T7d50ZcDAACA7UxABwAAgPXSI/ZTkzk7+btjk//2nxNcOXn7qjbv3uL7fLLNM5O3n40j2AEAANih dm1s+J4WAAAAAAAAAC6zBAAAAAAAAAAgoAMAAAAAAABAEdABAAAAAAAAIAI6AAAAAAAAABQBHQAA AAAAAAAioAMAAAAAAABAEdABAAAAAAAAIAI6AAAAAAAAABQBHQAAAAAAAAAioAMAAAAAAABAEdAB AAAAAAAAIAI6AAAAAAAAABQBHQAAAAAAAAAioAMAAAAAAABAEdABAAAAAAAAIAI6AAAAAAAAABQB HQAAAAAAAAAioAMAAAAAAABAEdABAAAAAAAAIAI6AAAAAAAAABQBHQAAAAAAAAAioAMAAAAAAABA EdABAAAAAAAAIAI6AAAAAAAAABQBHQAAAAAAAAAioAMAAAAAAABAEdABAAAAAAAAIAI6AAAAAAAA ABQBHQAAAAAAAAAioAMAAAAAAABAEdABAAAAAAAAIAI6AAAAAAAAABQBHQAAAAAAAAAioAMAAAAA AABAEdABAAAAAAAAIAI6AAAAAAAAABQBHQAAAAAAAAAioAMAAAAAAABAEdABAAAAAAAAIAI6AAAA AAAAABQBHQAAAAAAAAAioAMAAAAAAABAEdABAAAAAAAAIAI6AAAAAAAAABQBHQAAAAAAAAAioAMA AAAAAABAEdABAAAAAAAAIAI6AAAAAAAAABQBHQAAAAAAAAAioAMAAAAAAABAEdABAAAAAAAAIAI6 AAAAAAAAABQBHQAAAAAAAAAioAMAAAAAAABAEdABAAAAAAAAIAI6AAAAAAAAABQBHQAAAAAAAAAi oAMAAAAAAABAEdABAAAAAAAAIAI6AAAAAAAAABQBHQAAAAAAAAAioAMAAAAAAABAEdABAAAAAAAA IAI6AAAAAAAAABQBHQAAAAAAAAAioAMAAAAAAABAEdABAAAAAAAAIAI6AAAAAAAAABQBHQAAAAAA AAAioAMAAAAAAABAEdABAAAAAAAAIAI6AAAAAAAAABQBHQAAAAAAAAAioAMAAAAAAABAEdABAAAA AAAAIAI6AAAAAAAAABQBHQAAAAAAAAAioAMAAAAAAABAEdABAAAAAAAAIAI6AAAAAAAAABQBHQAA AAAAAAAioAMAAAAAAABAEdABAAAAAAAAIAI6AAAAAAAAABQBHQAAAAAAAAAioAMAAAAAAABAEdAB AAAAAAAAIAI6AAAAAAAAABQBHQAAAAAAAAAioAMAAAAAAABAEdABAAAAAAAAIAI6AAAAAAAAABQB HQAAAAAAAAAioAMAAAAAAABAEdABAAAAAAAAIAI6AAAAAAAAABQBHQAAAAAAAAAioAMAAAAAAABA EdABAAAAAAAAIAI6AAAAAAAAABQBHQAAAAAAAAAioAMAAAAAAABAEdABAAAAAAAAIAI6AAAAAAAA ABQBHQAAAAAAAAAioAMAAAAAAABAEdABAAAAAAAAIAI6AAAAAAAAABQBHQAAAAAAAAAioAMAAAAA AABAEdABAAAAAAAAIAI6AAAAAAAAABQBHQAAAAAAAAAioAMAAAAAAABAEdABAAAAAAAAIAI6AAAA AAAAABQBHQAAAAAAAAAioAMAAAAAAABAEdABAAAAAAAAIAI6AAAAAAAAABQBHQAAAAAAAAAioAMA AAAAAABAEdABAAAAAAAAIAI6AAAAAAAAABQBHQAAAAAAAAAioAMAAAAAAABAEdABAAAAAAAAIAI6 AAAAAAAAABQBHQAAAAAAAAAioAMAAAAAAABAEdABAAAAAAAAIAI6AAAAAAAAABQBHQAAAAAAAAAi oAMAAAAAAABAEdABAAAAAAAAIAI6AAAAAAAAABQBHQAAAAAAAAAioAMAAAAAAABAEdABAAAAAAAA IAI6AAAAAAAAABQBHQAAAAAAAAAioAMAAAAAAABAEdABAAAAAAAAIAI6AAAAAAAAABQBHQAAAAAA AAAioAMAAAAAAABAEdABAAAAAAAAIAI6AAAAAAAAABQBHQAAAAAAAAAioAMAAAAAAABAEdABAAAA AAAAIAI6AAAAAAAAABQBHQAAAAAAAAAioAMAAAAAAABAEdABAAAAAAAAIAI6AAAAAAAAABQBHQAA AAAAAAAioAMAAAAAAABAEdABAAAAAAAAIAI6AAAAAAAAABQBHQAAAAAAAAAioAMAAAAAAABAEdAB AAAAAAAAIAI6AAAAAAAAABQBHQAAAAAAAAAioAMAAAAAAABAEdABAAAAAAAAIAI6AAAAAAAAABQB HQAAAAAAAAAioAMAAAAAAABAEdABAAAAAAAAIAI6AAAAAAAAABQBHQAAAAAAAAAioAMAAAAAAABA EdABAAAAAAAAIAI6AAAAAAAAABQBHQAAAAAAAAAioAMAAAAAAABAEdABAAAAAAAAIAI6AAAAAAAA ABQBHQAAAAAAAAAioAMAAAAAAABAEdABAAAAAAAAIAI6AAAAAAAAABQBHQAAAAAAAAAioAMAAAAA AABAEdABAAAAAAAAIAI6AAAAAAAAABQBHQAAAAAAAAAioAMAAAAAAABAEdABAAAAAAAAIAI6AAAA AAAAABQBHQAAAAAAAAAioAMAAAAAAABAEdABAAAAAAAAIAI6AAAAAAAAABQBHQAAAAAAAAAioAMA AAAAAABAEdABAAAAAAAAIAI6AAAAAAAAABQBHQAAAAAAAAAioAMAAAAAAABAEdABAAAAAAAAIAI6 AAAAAAAAABQBHQAAAAAAAAAioAMAAAAAAABAEdABAAAAAAAAIAI6AAAAAAAAABQBHQAAAAAAAAAi oAMAAAAAAABAEdABAAAAAAAAIAI6AAAAAAAAABQBHQAAAAAAAAAioAMAAAAAAABAEdABAAAAAAAA IAI6AAAAAAAAABQBHQAAAAAAAAAioAMAAAAAAABAEdABAAAAAAAAIAI6AAAAAAAAABQBHQAAAAAA AAAioAMAAAAAAABAEdABAAAAAAAAIAI6AAAAAAAAABQBHQAAAAAAAAAioAMAAAAAAABAEdABAAAA AAAAIAI6AAAAAAAAABQBHQAAAAAAAAAioAMAAAAAAABAEdABAAAAAAAAIAI6AAAAAAAAABQBHQAA AAAAAAAioAMAAAAAAABAEdABAAAAAAAAIAI6AAAAAAAAABQBHQAAAAAAAAAioAMAAAAAAABAEdAB AAAAAAAAIAI6AAAAAAAAABQBHQAAAAAAAAAioAMAAAAAAABAEdABAAAAAAAAIAI6AAAAAAAAABQB HQAAAAAAAAAioAMAAAAAAABAEdABAAAAAAAAIAI6AAAAAAAAABQBHQAAAAAAAAAioAMAAAAAAABA EdABAAAAAAAAIAI6AAAAAAAAABQBHQAAAAAAAAAioAMAAAAAAABAEdABAAAAAAAAIAI6AAAAAAAA ABQBHQAAAAAAAAAioAMAAAAAAABAEdABAAAAAAAAIAI6AAAAAAAAABQBHQAAAAAAAAAioAMAAAAA AABAEdABAAAAAAAAIAI6AAAAAAAAABQBHQAAAAAAAAAioAMAAAAAAABAEdABAAAAAAAAIAI6AAAA AAAAABQBHQAAAAAAAAAioAMAAAAAAABAEdABAAAAAAAAIAI6AAAAAAAAABQBHQAAAAAAAAAioAMA AAAAAABAEdABAAAAAAAAIAI6AAAAAAAAABQBHQAAAAAAAAAioAMAAAAAAABAEdABAAAAAAAAIAI6 AAAAAAAAABQBHQAAAAAAAAAioAMAAAAAAABAEdABAAAAAAAAIAI6AAAAAAAAABQBHQAAAAAAAAAi oAMAAAAAAABAEdABAAAAAAAAIAI6AAAAAAAAABQBHQAAAAAAAAAioAMAAAAAAABAEdABAAAAAAAA IAI6AAAAAAAAABQBHQAAAAAAAAAioAMAAAAAAABAEdABAAAAAAAAIAI6AAAAAAAAABQBHQAAAAAA AAAioAMAAAAAAABAEdABAAAAAAAAIAI6AAAAAAAAABQBHQAAAAAAAAAioAMAAAAAAABAEdABAAAA AAAAIAI6AAAAAAAAABQBHQAAAAAAAAAioAMAAAAAAABAEdABAAAAAAAAIAI6AAAAAAAAABQBHQAA AAAAAAAioAMAAAAAAABAEdABAAAAAAAAIAI6AAAAAAAAABQBHQAAAAAAAAAioAMAAAAAAABAEdAB AAAAAAAAIAI6AAAAAAAAABQBHQAAAAAAAAAioAMAAAAAAABAEdABAAAAAAAAIAI6AAAAAAAAABQB HQAAAAAAAAAioAMAAAAAAABAEdABAAAAAAAAIAI6AAAAAAAAABQBHQAAAAAAAAAioAMAAAAAAABA EdABAAAAAAAAIAI6AAAAAAAAABQBHQAAAAAAAAAioAMAAAAAAABAEdABAAAAAAAAIAI6AAAAAAAA ABQBHQAAAAAAAAAioAMAAAAAAABAEdABAAAAAAAAIAI6AAAAAAAAABQBHQAAAAAAAAAioAMAAAAA AABAEdABAAAAAAAAIAI6AAAAAAAAABQBHQAAAAAAAAAioAMAAAAAAABAEdABAAAAAAAAIAI6AAAA AAAAABQBHQAAAAAAAAAioAMAAAAAAABAEdABAAAAAAAAIAI6AAAAAAAAABQBHQAAAAAAAACa/wow AHMcGgEilc+PAAAAAElFTkSuQmCC "
       preserveAspectRatio="none"
       height="1056.4993"
       width="2133.1768" />
  </g>
</svg>
