<?xml version="1.0" encoding="UTF-8" standalone="no"?>
<svg
   xmlns:dc="http://purl.org/dc/elements/1.1/"
   xmlns:cc="http://creativecommons.org/ns#"
   xmlns:rdf="http://www.w3.org/1999/02/22-rdf-syntax-ns#"
   xmlns:svg="http://www.w3.org/2000/svg"
   xmlns="http://www.w3.org/2000/svg"
   xmlns:xlink="http://www.w3.org/1999/xlink"
   xmlns:sodipodi="http://sodipodi.sourceforge.net/DTD/sodipodi-0.dtd"
   xmlns:inkscape="http://www.inkscape.org/namespaces/inkscape"
   sodipodi:docname="E14P01.svg"
   height="3503"
   width="2481"
   inkscape:version="1.0 (4035a4fb49, 2020-05-01)"
   version="1.1"
   id="svg2">
  <sodipodi:namedview
     inkscape:document-rotation="0"
     inkscape:window-maximized="0"
     inkscape:window-y="0"
     inkscape:window-x="0"
     inkscape:current-layer="layer3"
     inkscape:cy="2447.6856"
     inkscape:cx="969.21849"
     inkscape:zoom="0.4"
     showgrid="false"
     id="namedview70"
     inkscape:window-height="955"
     inkscape:window-width="1813"
     inkscape:pageshadow="2"
     inkscape:pageopacity="0"
     bordercolor="#666666"
     pagecolor="#ffffff" />
  <metadata
     id="metadata8">
    <rdf:RDF>
      <cc:Work
         rdf:about="">
        <dc:format>image/svg+xml</dc:format>
        <dc:type
           rdf:resource="http://purl.org/dc/dcmitype/StillImage" />
        <dc:title />
      </cc:Work>
    </rdf:RDF>
  </metadata>
  <defs
     id="defs6">
    <filter
       height="1.0346957"
       y="-0.017347847"
       width="1.005713"
       x="-0.0028565165"
       id="filter5841"
       style="color-interpolation-filters:sRGB"
       inkscape:collect="always">
      <feGaussianBlur
         id="feGaussianBlur5843"
         stdDeviation="0.3401381"
         inkscape:collect="always" />
    </filter>
    <filter
       height="1.1228456"
       y="-0.061422802"
       width="1.0210903"
       x="-0.010545129"
       id="filter4781"
       style="color-interpolation-filters:sRGB"
       inkscape:collect="always">
      <feGaussianBlur
         id="feGaussianBlur4783"
         stdDeviation="0.46603759"
         inkscape:collect="always" />
    </filter>
    <filter
       height="1.1874274"
       y="-0.093713716"
       width="1.1335985"
       x="-0.066799245"
       id="filter4813"
       style="color-interpolation-filters:sRGB"
       inkscape:collect="always">
      <feGaussianBlur
         id="feGaussianBlur4815"
         stdDeviation="0.88793856"
         inkscape:collect="always" />
    </filter>
    <filter
       height="1.0622252"
       y="-0.031112596"
       width="1.0253261"
       x="-0.012663071"
       id="filter4833"
       style="color-interpolation-filters:sRGB"
       inkscape:collect="always">
      <feGaussianBlur
         id="feGaussianBlur4835"
         stdDeviation="0.52769825"
         inkscape:collect="always" />
    </filter>
    <filter
       height="1.1155273"
       y="-0.057763632"
       width="1.0247837"
       x="-0.012391832"
       id="filter4206"
       style="color-interpolation-filters:sRGB"
       inkscape:collect="always">
      <feGaussianBlur
         id="feGaussianBlur4208"
         stdDeviation="0.53741041"
         inkscape:collect="always" />
    </filter>
  </defs>
  <sodipodi:namedview
     inkscape:current-layer="layer3"
     inkscape:window-maximized="0"
     inkscape:window-y="27"
     inkscape:window-x="0"
     inkscape:cy="1171.2431"
     inkscape:cx="896.32848"
     inkscape:zoom="0.78776058"
     showgrid="false"
     id="namedview4"
     inkscape:window-height="420"
     inkscape:window-width="519"
     inkscape:pageshadow="2"
     inkscape:pageopacity="0"
     guidetolerance="10"
     gridtolerance="10"
     objecttolerance="10"
     borderopacity="1"
     bordercolor="#666666"
     pagecolor="#ffffff" />
  <g
     sodipodi:insensitive="true"
     inkscape:label="artwork"
     id="layer2"
     inkscape:groupmode="layer">
    <image
       sodipodi:absref="C:\Users\stero\Documents\Kernewek\Pepper and Carrot\webcomics\ep14_The-Dragon-s-Tooth\lang\gfx_Pepper-and-Carrot_by-David-Revoy_E14P01.png"
       xlink:href="../gfx_Pepper-and-Carrot_by-David-Revoy_E14P01.png"
       width="2481"
       height="3503"
       id="image10"
       x="0"
       y="0" />
  </g>
  <g
     inkscape:label="speechbubbles"
     id="layer3"
     inkscape:groupmode="layer">
    <path
       sodipodi:nodetypes="zsssssz"
       inkscape:connector-curvature="0"
       id="path3100"
       d="m 899.49927,1275.8856 c -4.55949,46.8732 -169.08424,74.684 -247.48264,78.7723 -78.39832,4.0881 -286.45557,18.3968 -364.85388,-36.794 -78.39827,-55.1909 -50.71426,-82.1844 -8.28107,-111.2033 36.18552,-24.7463 127.09063,-38.6518 207.24799,-46.3984 99.5314,-9.6189 224.50995,-3.1086 302.24814,16.7386 78.79614,20.1175 115.68092,52.0117 111.12146,98.8848 z"
       style="fill:#ffffff;stroke:none;stroke-width:1.1717912" />
    <path
       sodipodi:nodetypes="cscc"
       inkscape:connector-curvature="0"
       id="path5002"
       d="m 634.76889,1431.7084 c -59.38618,-45.485 -66.62733,-104.1493 -75.31163,-162.4394 -8.6843,-58.2901 36.86172,23.5669 36.86172,23.5669 0,0 -13.89559,45.9588 38.44991,138.8725 z"
       style="color:#000000;display:inline;overflow:visible;visibility:visible;fill:#ffffff;fill-opacity:1;fill-rule:nonzero;stroke:none;stroke-width:1px;marker:none;enable-background:accumulate" />
    <path
       sodipodi:nodetypes="csssssssc"
       inkscape:connector-curvature="0"
       id="path5909"
       d="m 679.11947,1965.8355 c 10.24591,-51.8349 50.06411,-83.7307 85.38638,-100.2046 37.79305,-17.6263 253.66035,-17.1059 307.68425,-18.9248 54.0239,-1.8187 187.6369,4.609 255.6326,36.4374 67.9956,31.8286 74.5626,64.2976 75.4941,88.8509 0.9315,24.5533 -4.8741,94.7416 -94.1526,110.0355 -83.0349,14.2244 -276.1351,20.7092 -325.50167,17.0716 -49.3667,-3.6375 -216.49774,-0.401 -263.07001,-43.1419 -46.57247,-42.7411 -40.5416,-59.2051 -41.47305,-90.1241 z"
       style="color:#000000;display:inline;overflow:visible;visibility:visible;fill:#ffffff;fill-opacity:1;fill-rule:nonzero;stroke:none;stroke-width:1px;marker:none;enable-background:accumulate" />
    <path
       inkscape:connector-curvature="0"
       id="path3072"
       d="m 1063.2616,1768.5081 c 21.2693,36.567 26.6107,50.5999 -5.1849,87.5544 -31.7958,36.9545 -16.0406,47.6998 -16.0406,47.6998 l 33.4558,-10.2031 c 0,0 61.6163,-83.2265 -12.2303,-125.0511 z"
       style="color:#000000;display:inline;overflow:visible;visibility:visible;fill:#ffffff;fill-opacity:1;fill-rule:nonzero;stroke:none;stroke-width:1px;marker:none;enable-background:accumulate" />
    <path
       inkscape:connector-curvature="0"
       id="path3238"
       d="m 139.73908,2249.6259 c -13.30228,-93.8187 60.09049,-128.1722 258.20107,-132.6333 198.11057,-4.4612 248.66237,48.0181 265.0739,80.5497 16.41154,32.5317 -9.48674,116.2812 -129.49469,158.0583 -120.00795,41.777 -328.32784,-0.5139 -355.70341,-26.1244 -27.37558,-25.6106 -35.03685,-55.3105 -38.07687,-79.8503 z"
       style="fill:#ffffff;fill-opacity:1;stroke:none;stroke-width:1.01411748" />
    <path
       sodipodi:nodetypes="zsssssz"
       inkscape:connector-curvature="0"
       id="path4530"
       d="m 471.83567,2381.0417 c 40.1221,-50.7349 72.02334,-76.4493 196.86361,-73.8357 124.84034,2.6137 148.04788,11.1081 164.85335,23.523 16.80531,12.4148 51.05292,84.8044 38.24882,133.8104 -12.80423,49.0061 -73.46027,99.4586 -195.89982,95.5381 -122.43958,-3.9206 -125.95812,-10.4525 -145.18556,-20.3515 -50.73857,-26.122 -99.00249,-107.9493 -58.8804,-158.6843 z"
       style="color:#000000;display:inline;overflow:visible;visibility:visible;fill:#ffffff;fill-opacity:1;fill-rule:nonzero;stroke:none;stroke-width:0.924539px;marker:none;enable-background:accumulate" />
    <path
       sodipodi:nodetypes="csssscssssssc"
       inkscape:connector-curvature="0"
       id="path3023"
       d="m 947.67139,2636.6279 c -44.43447,-12.4907 -47.34979,-26.3292 -49.35169,-42.3711 -2.00197,-16.0417 -2.00846,-30.8376 -10.57278,-37.1096 -8.56436,-6.2721 -22.57173,-9.009 -33.25323,-9.6693 -10.68163,-0.6602 -12.98414,-10.3723 -16.56297,-20.9273 -3.57893,-10.555 -35.92312,-60.8425 -35.92312,-60.8425 0,0 -5.84051,44.8888 -3.13287,59.06 2.70765,14.1713 3.62426,19.3661 6.28648,24.7262 2.66232,5.3602 11.1877,17.6172 21.95365,21.1036 10.76591,3.4865 22.56848,1.611 31.2967,2.4385 8.7282,0.8274 18.23349,10.7377 22.39476,22.581 4.16127,11.843 17.67149,37.2892 35.62764,41.1051 17.95614,3.8158 31.23743,-0.095 31.23743,-0.095 z"
       style="fill:#ffffff;stroke:none" />
  </g>
  <g
     style="opacity:1"
     inkscape:label="txt"
     id="layer1"
     inkscape:groupmode="layer">
    <text
       id="text4246"
       y="1230.8915"
       x="568.60315"
       style="font-style:normal;font-variant:normal;font-weight:normal;font-stretch:normal;line-height:0%;font-family:Lavi;-inkscape-font-specification:Lavi;text-align:center;letter-spacing:0px;word-spacing:0px;text-anchor:middle;fill:#000000;fill-opacity:1;stroke:none"
       xml:space="preserve"><tspan
         id="tspan4144"
         y="1230.8915"
         x="568.60315"
         style="font-size:45px;line-height:1.25"
         sodipodi:role="line">Well, well, well!</tspan><tspan
         id="tspan3034"
         y="1287.1415"
         x="568.60315"
         style="font-size:45px;line-height:1.25"
         sodipodi:role="line">Gorfennys yw an dy'golyow!</tspan></text>
    <text
       id="text4246-7"
       y="1917.4773"
       x="1039.3318"
       style="font-style:normal;font-variant:normal;font-weight:normal;font-stretch:normal;line-height:0%;font-family:Lavi;-inkscape-font-specification:Lavi;text-align:center;letter-spacing:0px;word-spacing:0px;text-anchor:middle;fill:#000000;fill-opacity:1;stroke:none"
       xml:space="preserve"><tspan
         id="tspan3043"
         y="1917.4773"
         x="1039.3318"
         style="font-size:45px;line-height:1.25"
         sodipodi:role="line">Dallethyn gans steus </tspan><tspan
         id="tspan64"
         y="1973.7273"
         x="1039.3318"
         style="font-size:45px;line-height:1.25"
         sodipodi:role="line">ow tochya hen ismek </tspan><tspan
         id="tspan66"
         y="2029.9773"
         x="1039.3318"
         style="font-size:45px;line-height:1.25"
         sodipodi:role="line">ha'ga devnydhyow kynsa.</tspan></text>
    <text
       id="text4246-7-9"
       y="2204.6047"
       x="400.16074"
       style="font-style:normal;font-variant:normal;font-weight:normal;font-stretch:normal;line-height:0%;font-family:Lavi;-inkscape-font-specification:Lavi;text-align:center;letter-spacing:0px;word-spacing:0px;text-anchor:middle;fill:#000000;fill-opacity:1;stroke:none"
       xml:space="preserve"><tspan
         id="tspan3052"
         y="2204.6047"
         x="400.16074"
         style="font-size:45px;line-height:1.25"
         sodipodi:role="line">Hmm... Soweth!</tspan><tspan
         id="tspan73"
         y="2260.8547"
         x="407.19199"
         style="font-size:45px;line-height:1.25"
         sodipodi:role="line">Nyns eus Dans Dragon </tspan><tspan
         id="tspan75"
         y="2317.1047"
         x="400.16074"
         style="font-size:45px;line-height:1.25"
         sodipodi:role="line">brewys.</tspan></text>
    <text
       id="text4246-7-9-4"
       y="2394.7573"
       x="672.78448"
       style="font-style:normal;font-variant:normal;font-weight:normal;font-stretch:normal;line-height:0%;font-family:Lavi;-inkscape-font-specification:Lavi;text-align:center;letter-spacing:0px;word-spacing:0px;text-anchor:middle;fill:#000000;fill-opacity:1;stroke:none"
       xml:space="preserve"><tspan
         id="tspan82"
         y="2394.7573"
         x="672.78448"
         style="font-size:45px;line-height:1.25"
         sodipodi:role="line">Ny amont </tspan><tspan
         id="tspan58"
         y="2451.0073"
         x="672.78448"
         style="font-size:45px;line-height:1.25"
         sodipodi:role="line">dalleth an steus </tspan><tspan
         id="tspan84"
         y="2507.2573"
         x="672.78448"
         style="font-size:45px;line-height:1.25"
         sodipodi:role="line">hebdho...</tspan></text>
    <use
       style=""
       height="3503"
       width="2481"
       transform="matrix(0.2413678,0.96175958,-1.2866298,0.18042315,4666.0569,751.999)"
       id="use4694"
       xlink:href="#use4664"
       y="0"
       x="0" />
    <use
       style=""
       height="3503"
       width="2481"
       transform="matrix(0.2413678,0.96175958,-1.2866298,0.18042315,4666.0569,751.999)"
       id="use4694-6"
       xlink:href="#use4664"
       y="0"
       x="0" />
    <use
       style=""
       height="3503"
       width="2481"
       transform="matrix(0.2413678,0.96175958,-1.2866298,0.18042315,4666.0569,751.999)"
       id="use4694-3"
       xlink:href="#use4664"
       y="0"
       x="0" />
    <text
       transform="matrix(-0.48561898,0.57780873,-1.2237792,0.19411318,6288.9822,1634.4755)"
       x="1318.7137"
       y="3129.8394"
       xml:space="preserve"
       style="font-style:normal;font-variant:normal;font-weight:normal;font-stretch:normal;line-height:0%;font-family:Lavi;-inkscape-font-specification:Lavi;text-align:center;letter-spacing:0px;word-spacing:0px;text-anchor:middle;opacity:0.81800022;fill:#412525;fill-opacity:1;stroke:none;filter:url(#filter5841)"
       id="text4178-6-5-9-0-7"><tspan
         id="tspan4293-1-6-3-5"
         sodipodi:role="line"
         style="font-style:normal;font-variant:normal;font-weight:normal;font-stretch:normal;font-size:40.67671585px;line-height:1.25;font-family:Fondamento;-inkscape-font-specification:Fondamento;fill:#412525;fill-opacity:1"
         x="1318.7137"
         y="3129.8394">Dans Dragon</tspan></text>
    <text
       id="text4191"
       y="1060.067"
       x="568.25775"
       style="font-style:normal;font-variant:normal;font-weight:normal;font-stretch:normal;line-height:0%;font-family:Arial;-inkscape-font-specification:Arial;letter-spacing:0px;word-spacing:0px;opacity:0.64499996;fill:#221415;fill-opacity:1;stroke:#000000;stroke-width:0.3171955;stroke-linecap:butt;stroke-linejoin:miter;stroke-miterlimit:4;stroke-dasharray:none;stroke-opacity:1;filter:url(#filter4813)"
       xml:space="preserve"><tspan
         style="font-style:normal;font-variant:normal;font-weight:normal;font-stretch:normal;font-size:30.86254311px;line-height:1.25;font-family:Fondamento;-inkscape-font-specification:Fondamento"
         y="1060.067"
         x="568.25775"
         id="tspan4193"
         sodipodi:role="line">33</tspan></text>
    <text
       transform="matrix(1.1833786,0,0,1.563351,-130.39435,-467.4696)"
       id="text4243"
       y="803.86755"
       x="705.80756"
       style="font-style:normal;font-variant:normal;font-weight:normal;font-stretch:normal;line-height:0%;font-family:Arial;-inkscape-font-specification:Arial;letter-spacing:0px;word-spacing:0px;opacity:0.744;fill:#221415;fill-opacity:1;stroke:#502a2a;stroke-width:0.99138767;stroke-linecap:butt;stroke-linejoin:miter;stroke-miterlimit:4;stroke-dasharray:none;stroke-opacity:1;filter:url(#filter4833)"
       xml:space="preserve"><tspan
         id="tspan3069"
         style="font-style:normal;font-variant:normal;font-weight:normal;font-stretch:normal;font-size:18.26206207px;line-height:1.25;font-family:Fondamento;-inkscape-font-specification:Fondamento;text-align:center;text-anchor:middle;stroke:#502a2a;stroke-width:0.99138767;stroke-miterlimit:4;stroke-dasharray:none;stroke-opacity:1"
         y="803.86755"
         x="705.80756"
         sodipodi:role="line">ANNEDH</tspan></text>
    <text
       transform="matrix(1.0944522,0,0,1.3152093,-58.772409,-200.97148)"
       id="text4357"
       y="779.69183"
       x="632.77014"
       style="font-style:normal;font-variant:normal;font-weight:normal;font-stretch:normal;line-height:0%;font-family:Arial;-inkscape-font-specification:Arial;text-align:start;letter-spacing:0px;word-spacing:0px;text-anchor:start;opacity:0.744;fill:#241516;fill-opacity:1;stroke:#5a2c2c;stroke-width:0.90251106;stroke-linecap:butt;stroke-linejoin:miter;stroke-miterlimit:4;stroke-dasharray:none;stroke-opacity:1;filter:url(#filter4206)"
       xml:space="preserve"><tspan
         style="font-style:normal;font-variant:normal;font-weight:normal;font-stretch:normal;font-size:25.50168206px;line-height:1.25;font-family:Fondamento;-inkscape-font-specification:'Fondamento, Normal';text-align:start;text-anchor:start;stroke:#5a2c2c;stroke-width:0.90251106;stroke-miterlimit:4;stroke-dasharray:none;stroke-opacity:1;writing-mode:lr;font-variant-ligatures:normal;font-variant-caps:normal;font-variant-numeric:normal;font-feature-settings:normal"
         y="779.69183"
         x="632.77014"
         id="tspan4359"
         sodipodi:role="line">GWRAGH</tspan></text>
    <text
       transform="matrix(0.94204175,0,0,1.1970137,19.699837,-136.27445)"
       id="text4385"
       y="748.37018"
       x="653.07074"
       style="font-style:normal;font-variant:normal;font-weight:normal;font-stretch:normal;line-height:0%;font-family:Arial;-inkscape-font-specification:Arial;letter-spacing:0px;word-spacing:0px;opacity:0.58800001;fill:#2d1a1c;fill-opacity:1;stroke:#3e1b1b;stroke-width:0.95986927;stroke-linecap:butt;stroke-linejoin:miter;stroke-miterlimit:4;stroke-dasharray:none;stroke-opacity:1;filter:url(#filter4781)"
       xml:space="preserve"><tspan
         style="font-style:normal;font-variant:normal;font-weight:normal;font-stretch:normal;font-size:21.34533691px;line-height:1.25;font-family:Fondamento;-inkscape-font-specification:'Fondamento, Normal';font-variant-ligatures:normal;font-variant-caps:normal;font-variant-numeric:normal;font-feature-settings:normal;text-align:start;writing-mode:lr-tb;text-anchor:start;stroke:#3e1b1b;stroke-width:0.95986927;stroke-miterlimit:4;stroke-dasharray:none;stroke-opacity:1"
         y="748.37018"
         x="653.07074"
         id="tspan4387"
         sodipodi:role="line">GWARNYANS</tspan></text>
  </g>
</svg>
