<?xml version="1.0" encoding="UTF-8" standalone="no"?>
<svg
   xmlns:dc="http://purl.org/dc/elements/1.1/"
   xmlns:cc="http://creativecommons.org/ns#"
   xmlns:rdf="http://www.w3.org/1999/02/22-rdf-syntax-ns#"
   xmlns:svg="http://www.w3.org/2000/svg"
   xmlns="http://www.w3.org/2000/svg"
   xmlns:xlink="http://www.w3.org/1999/xlink"
   xmlns:sodipodi="http://sodipodi.sourceforge.net/DTD/sodipodi-0.dtd"
   xmlns:inkscape="http://www.inkscape.org/namespaces/inkscape"
   sodipodi:docname="E14P02.svg"
   height="3503"
   width="2481"
   inkscape:version="1.0 (4035a4fb49, 2020-05-01)"
   version="1.1"
   id="svg2">
  <sodipodi:namedview
     inkscape:document-rotation="0"
     inkscape:window-maximized="0"
     inkscape:window-y="0"
     inkscape:window-x="0"
     inkscape:current-layer="layer1"
     inkscape:cy="2018.6204"
     inkscape:cx="1365.6629"
     inkscape:zoom="0.4"
     showgrid="false"
     id="namedview70"
     inkscape:window-height="955"
     inkscape:window-width="1813"
     inkscape:pageshadow="2"
     inkscape:pageopacity="0"
     bordercolor="#666666"
     pagecolor="#ffffff" />
  <metadata
     id="metadata8">
    <rdf:RDF>
      <cc:Work
         rdf:about="">
        <dc:format>image/svg+xml</dc:format>
        <dc:type
           rdf:resource="http://purl.org/dc/dcmitype/StillImage" />
        <dc:title />
      </cc:Work>
    </rdf:RDF>
  </metadata>
  <defs
     id="defs6" />
  <sodipodi:namedview
     inkscape:current-layer="layer3"
     inkscape:window-maximized="1"
     inkscape:window-y="26"
     inkscape:window-x="0"
     inkscape:cy="380.35249"
     inkscape:cx="1322.9005"
     inkscape:zoom="0.60835003"
     showgrid="false"
     id="namedview4"
     inkscape:window-height="1025"
     inkscape:window-width="1920"
     inkscape:pageshadow="2"
     inkscape:pageopacity="0"
     guidetolerance="10"
     gridtolerance="10"
     objecttolerance="10"
     borderopacity="1"
     bordercolor="#666666"
     pagecolor="#ffffff" />
  <g
     sodipodi:insensitive="true"
     inkscape:label="artwork"
     id="layer2"
     inkscape:groupmode="layer">
    <image
       sodipodi:absref="C:\Users\stero\Documents\Kernewek\Pepper and Carrot\webcomics\ep14_The-Dragon-s-Tooth\lang\gfx_Pepper-and-Carrot_by-David-Revoy_E14P02.png"
       xlink:href="../gfx_Pepper-and-Carrot_by-David-Revoy_E14P02.png"
       y="0"
       x="0"
       id="image10"
       height="3503"
       width="2481" />
  </g>
  <g
     inkscape:label="speechbubbles"
     id="layer3"
     inkscape:groupmode="layer">
    <path
       sodipodi:nodetypes="ccccccccccccccccccccccccccccccccccc"
       inkscape:connector-curvature="0"
       id="path4323"
       d="m 119.09868,125.01045 c 33.67109,12.84293 84.16257,22.40868 3.47402,57.53267 30.61719,2.26732 68.35793,3.03659 38.21424,18.08169 11.61629,15.34205 -27.53715,30.68409 -55.58435,46.02614 29.33728,-5.37034 59.50221,-14.19368 20.42055,19.28423 20.99186,-0.95142 18.04376,7.80651 -9.99848,26.7419 66.20184,-35.32444 89.27061,-44.16601 92.06158,-16.4379 8.35443,-14.81655 24.60041,-18.68176 13.89608,29.58823 43.28035,-84.74422 6.2468,85.59582 -5.21103,251.49995 21.2598,-76.23729 59.21606,-388.11014 64.2694,-230.13068 33.89022,-113.64788 82.01594,-18.86794 92.06158,-6.57516 -8.43079,-88.47609 53.3328,-51.77102 69.48044,-18.0817 -4.16279,-21.58677 15.63979,-65.06529 74.74442,-11.9905 -14.09257,-19.50565 -4.50161,-39.66182 48.58335,8.70292 -16.09878,-32.25639 13.72349,-41.3421 106.63736,-10.62404 -0.71673,-16.00848 -9.7786,-32.85826 87.90786,-4.17007 -1.83263,-14.70024 -21.75004,-34.9626 111.16869,-8.21895 0.86709,-25.65455 22.27805,-27.19316 59.58098,-15.2327 -6.37265,-22.04605 34.36646,-11.95183 86.00153,2.97228 -32.88664,-30.16714 11.9539,-26.77992 76.7549,-17.32781 -6.2924,-14.61437 -15.2885,-29.62237 22.5811,-37.80719 -38.6809,-34.91827 1.7547,-37.0807 13.8961,-50.9575 -27.2409,2.42931 -48.2601,-10.0765 -16.8611,-28.34529 -54.9925,6.75374 -34.7987,-14.35273 -31.7752,-25.8998 L 992.81515,85.559474 905.96461,77.340521 801.74396,69.121568 704.47135,67.477778 h -99.00962 l -86.85055,3.287581 -74.69146,-8.218953 -76.42848,8.218953 -107.69468,-1.643791 -52.11032,27.944439 z"
       style="fill:#ffffff;fill-rule:evenodd;stroke:none;stroke-width:1.02796435px;stroke-linecap:butt;stroke-linejoin:miter;stroke-opacity:1" />
    <path
       sodipodi:nodetypes="csssc"
       inkscape:connector-curvature="0"
       id="path3280"
       d="m 752.68929,381.3389 c -1.98715,-29.37566 33.64062,-102.91478 207.43133,-97.38339 173.79078,5.53134 228.18458,37.8436 233.27748,90.05888 8.0564,82.60313 -83.3748,104.67751 -214.66153,110.79585 C 843.39406,491.1177 750.58869,434.41606 752.68929,381.3389 Z"
       style="fill:#ffffff;stroke:none;stroke-width:1.0688237" />
    <path
       sodipodi:nodetypes="csccc"
       inkscape:connector-curvature="0"
       id="path3072"
       d="m 816.05405,568.35967 c 39.18491,-37.68963 73.342,-77.76882 65.62626,-117.15486 -10.90688,-55.67559 -9.43261,-29.77014 -9.43261,-29.77014 l 41.81204,36.16737 c 4.42223,-1.37242 6.88006,49.17295 -98.00569,110.75763 z"
       style="color:#000000;display:inline;overflow:visible;visibility:visible;fill:#ffffff;fill-opacity:1;fill-rule:nonzero;stroke:none;stroke-width:1px;marker:none;enable-background:accumulate" />
    <path
       inkscape:connector-curvature="0"
       id="path4365"
       d="m 1338.0837,373.02704 c 8.4673,-30.55229 31.2689,-53.73323 56.0849,-69.20795 11.8098,-7.47095 25.3086,-12.94586 39.1219,-11.50576 13.7227,0.86044 27.1264,5.99789 41.0009,4.21344 16.871,-0.58935 34.0382,-3.1608 50.7155,0.51355 14.8255,4.00918 30.1,6.08557 45.3989,6.20599 10.7929,-2.54485 20.6691,4.23787 30.3078,8.29473 8.6531,4.38207 17.4915,8.97958 24.7596,15.75792 6.6961,9.5154 14.7138,17.79366 21.4881,27.22437 4.4326,5.15569 4.0067,12.27706 3.8025,18.86777 -0.5757,13.49636 -1.5506,27.2058 -5.1691,40.20841 -2.1654,8.25494 -10.1691,10.9868 -16.319,14.78008 -14.5516,8.00761 -30.0035,14.08004 -43.8912,23.50329 -13.7587,4.82518 -28.3804,2.56821 -42.4906,1.83903 -11.8234,-1.43631 -23.7171,-3.43918 -35.6421,-1.7689 -15.1777,1.22232 -30.3093,4.38722 -45.5413,3.98184 -19.0815,-2.78183 -37.3564,-9.63137 -55.848,-15.12588 -16.5903,-4.84289 -31.711,-13.94951 -46.2197,-23.69126 -7.75,-5.53198 -15.9543,-11.96214 -18.6894,-22.15692 -2.2421,-7.01999 -2.7704,-14.53671 -2.8697,-21.93375 z"
       style="fill:#ffffff;fill-rule:evenodd;stroke:none;stroke-width:1px;stroke-linecap:butt;stroke-linejoin:miter;stroke-opacity:1" />
    <path
       sodipodi:nodetypes="csssscssssssc"
       inkscape:connector-curvature="0"
       id="path3023"
       d="m 1600.5998,539.46175 c -28.0754,-14.3263 -28.0705,-24.10879 -27.1393,-35.26758 0.931,-11.15875 3.0258,-21.20884 -1.8373,-26.59493 -4.8629,-5.38607 -13.8837,-9.08681 -20.965,-10.93985 -7.0813,-1.85304 -2.5775,-10.15393 -3.484,-17.79341 -0.9066,-7.63954 -20.1711,-44.64576 -20.1711,-44.64576 0,0 -10.2917,29.72026 -10.4833,39.70135 -0.1918,9.98106 -0.313,13.62987 0.7147,17.62055 1.0279,3.99076 5.0156,13.43659 11.7527,17.22018 6.7371,3.78364 14.9313,4.06179 20.6767,5.77151 5.7455,1.70964 6.255,10.50318 7.37,19.09418 1.1149,8.59099 3.3294,14.64819 14.8496,23.66417 9.8749,7.72832 28.7163,12.16959 28.7163,12.16959 z"
       style="fill:#ffffff;stroke:none" />
    <path
       sodipodi:nodetypes="cccccccccc"
       inkscape:connector-curvature="0"
       id="path4385"
       d="m 568.8634,1318.3227 c 104.31326,44.7459 702.5032,155.1743 811.2553,71.8972 58.8149,31.0736 60.5988,42.1012 121.6331,4.8129 89.8869,43.503 111.1049,28.7465 133.2993,20.0459 48.5521,7.5979 70.9469,10.8128 141.1257,39.7648 -74.8014,-20.5225 -93.9086,-23.7561 -138.3472,-25.7747 -64.3635,22.373 -112.0813,-6.2147 -133.1658,-17.4012 -62.5836,39.1667 -64.7247,30.9426 -125.6546,-6.0558 -65.191,62.6405 -404.44384,23.8741 -807.88989,-63.3003 4.43886,-12.4294 -2.25591,-23.9888 -2.25591,-23.9888 z"
       style="fill:#ffffff;fill-rule:evenodd;stroke:none;stroke-width:1px;stroke-linecap:butt;stroke-linejoin:miter;stroke-opacity:1" />
    <path
       inkscape:connector-curvature="0"
       id="path3533"
       d="m 135.58543,1288.8316 c 21.04906,-25.4276 65.32466,-46.8097 123.39102,-55.4781 58.06631,-8.6686 165.48907,-6.357 184.36074,-3.4675 18.87145,2.8896 122.66508,13.2916 145.16571,27.739 22.50079,14.4475 52.98561,32.3624 59.51804,50.8549 6.53263,18.4927 0.72594,62.9909 -20.32318,72.8152 -21.04906,9.8243 -116.8585,31.2062 -172.74745,32.3621 -55.8889,1.1558 -185.8122,-8.0904 -222.82959,-14.4473 -37.01728,-6.3569 -76.21206,-14.4475 -87.82531,-34.6739 -11.61331,-20.2264 -33.38819,-46.8097 -8.70998,-75.7044 z"
       style="color:#000000;display:inline;overflow:visible;visibility:visible;fill:#ffffff;fill-opacity:1;fill-rule:nonzero;stroke:none;stroke-width:1.1084584px;marker:none;enable-background:accumulate" />
    <path
       sodipodi:nodetypes="csssssc"
       inkscape:connector-curvature="0"
       id="path3986"
       d="m 909.34641,1419.7186 c 1.08906,-33.5988 15.17667,-48.879 69.59002,-54.035 55.63437,-5.2715 266.45217,-0.8543 306.96957,13.4829 30.4508,10.7749 37.8283,29.3632 34.3348,51.2876 -3.2034,20.1057 -44.3356,42.0863 -112.8073,46.1473 -68.9656,4.0905 -189.7627,0.1265 -226.78472,-8.464 -37.02207,-8.5902 -69.06381,-21.5849 -71.30237,-48.4188 z"
       style="color:#000000;display:inline;overflow:visible;visibility:visible;fill:#ffffff;fill-opacity:1;fill-rule:nonzero;stroke:none;stroke-width:1.11830854px;marker:none;enable-background:accumulate" />
    <path
       sodipodi:nodetypes="cccc"
       inkscape:connector-curvature="0"
       id="path4430"
       d="m 131.75566,2140.9069 c -81.402178,143.3288 515.44409,84.8962 565.74703,78.4896 41.07632,-3.9095 69.6805,-56.4084 15.95236,-95.9393 -28.34647,-23.0368 -502.66835,-58.7088 -581.69939,17.4497 z"
       style="fill:#ffffff;fill-rule:evenodd;stroke:none;stroke-width:1.10554087px;stroke-linecap:butt;stroke-linejoin:miter;stroke-opacity:1" />
    <path
       sodipodi:nodetypes="zssssz"
       inkscape:connector-curvature="0"
       id="path4040"
       d="m 691.0979,2336.639 c -25.68011,21.5473 -245.05987,46.666 -323.03063,3.4441 -77.97075,-43.2218 -31.99818,-96.3486 12.04039,-113.5183 44.03847,-17.1699 174.15338,-36.7147 233.90501,-22.8786 59.75174,13.8359 106.46587,34.9031 110.22463,78.87 1.53409,17.9446 -7.45918,32.5354 -33.1394,54.0828 z"
       style="color:#000000;fill:#ffffff;fill-opacity:1;fill-rule:nonzero;stroke:none;stroke-width:1px;marker:none;visibility:visible;display:inline;overflow:visible;enable-background:accumulate" />
    <path
       sodipodi:nodetypes="cscczc"
       inkscape:connector-curvature="0"
       id="path3063"
       d="m 841.66543,2570.7124 c -168.20546,-56.9231 -212.36128,-102.467 -272.87963,-227.2396 -31.03877,-63.9937 16.40761,-58.7269 16.40761,-58.7269 l -66.84596,-12.0365 c 0,0 -19.9862,-53.8679 0.8035,1.8299 20.7897,55.6978 51.93247,244.4932 322.51448,296.1731 z"
       style="fill:#ffffff;stroke:none" />
    <path
       sodipodi:nodetypes="cscssssssc"
       inkscape:connector-curvature="0"
       id="path3533-6"
       d="m 1728.335,3182.8918 c 22.7187,-40.6995 52.4055,-69.568 115.9988,-84.1355 63.5934,-14.5674 181.516,-12.3555 202.2693,-8.0198 20.7533,4.3354 134.8142,19.4552 159.7232,42.111 24.9094,22.6557 34.3327,47.8547 41.7786,77.157 7.4458,29.3022 7.0803,87.657 -21.2126,116.0043 -34.4021,34.4683 -103.4762,54.0469 -164.7925,56.6444 -61.3163,2.5976 -204.0351,-10.3297 -244.7541,-19.9292 -40.7186,-9.5994 -65.2709,-27.6421 -78.3184,-59.6306 -13.0476,-31.9887 -37.3419,-73.9422 -10.6923,-120.2016 z"
       style="color:#000000;display:inline;overflow:visible;visibility:visible;fill:#ffffff;fill-opacity:1;fill-rule:nonzero;stroke:none;stroke-width:1px;marker:none;enable-background:accumulate" />
    <path
       sodipodi:nodetypes="csscc"
       inkscape:connector-curvature="0"
       id="path5002"
       d="m 1785.6357,3186.0855 c -20.1616,13.8181 16.9174,30.9609 -6.7481,39.3015 -23.6655,8.3406 -108.0753,7.8791 -138.1193,-16.3542 -60.0878,-48.4667 -44.2285,-81.6926 -44.2285,-81.6926 -2.0578,20.4814 35.0801,106.8869 189.0959,58.7453 z"
       style="color:#000000;display:inline;overflow:visible;visibility:visible;fill:#ffffff;fill-opacity:1;fill-rule:nonzero;stroke:none;stroke-width:1px;marker:none;enable-background:accumulate" />
    <path
       sodipodi:nodetypes="cccccccccccccccccccc"
       inkscape:connector-curvature="0"
       id="path3549-3-7"
       d="m 597.74325,1413.7348 c -6.86809,22.2136 -45.60512,24.0763 -59.86529,19.561 28.7452,24.85 27.74308,40.2897 -11.28482,42.687 65.45045,44.7862 11.96523,38.009 1.41564,49.3655 51.39071,15.4343 28.39798,34.6427 19.24864,53.7643 59.06856,0.6568 30.6249,12.831 15.05463,39.3748 16.69126,-11.7866 60.69681,-45.7392 57.40177,8.8459 31.81742,-30.3113 67.90109,-44.0496 89.86638,3.8548 15.74211,-32.6147 31.97435,-50.6979 60.3207,-3.2003 -7.74609,-51.1315 43.96255,-36.6815 79.22082,-22.3817 -8.37229,-13.6675 5.79767,-49.1497 40.29898,-33.2327 -23.43633,-22.3492 5.91492,-25.5401 28.75932,-31.7186 -30.35658,-9.1431 -35.9512,-18.574 20.41417,-28.7231 -42.89073,-0.9817 -82.88665,-2.993 -32.56647,-37.6044 -15.78684,-0.8375 -53.24276,28.0432 -35.77933,-56.4768 -27.14636,27.0578 -56.10907,41.9918 -92.43092,-14.6874 -17.18935,28.3158 -47.00388,42.3276 -59.97466,6.9589 -4.66197,15.0783 -23.99298,20.749 -40.40356,21.4367 -6.346,-5.9894 -12.89116,-14.1245 -19.72133,-24.7828 -11.16336,22.3796 -27.86253,37.4938 -59.97467,6.9589 z"
       style="color:#000000;display:inline;overflow:visible;visibility:visible;fill:#ffffff;fill-opacity:1;fill-rule:nonzero;stroke:none;stroke-width:1px;marker:none;enable-background:accumulate" />
    <path
       sodipodi:nodetypes="ccccccccsc"
       inkscape:connector-curvature="0"
       id="path5901"
       d="m 548.30505,1489.5343 c -32.71667,-14.168 -100.80088,-25.7605 -117.75539,-27.2872 -20.27048,14.0102 -50.61242,35.3064 -73.20544,50.1722 -5.31176,-1.4012 -91.51271,-47.8708 -99.56707,-45.7537 -8.05422,2.1172 -79.0692,29.9973 -84.37818,37.4927 18.70636,-20.5749 83.14331,-49.601 95.87634,-50.1894 8.58229,-0.7407 80.53436,35.2542 83.66571,38.0832 15.04972,-15.8838 71.20105,-48.2854 79.8175,-52.493 13.26097,0.788 64.22973,3.8642 121.88704,24.3755 57.65735,20.5113 -6.34051,25.5997 -6.34051,25.5997 z"
       style="color:#000000;display:inline;overflow:visible;visibility:visible;fill:#ffffff;fill-opacity:1;fill-rule:nonzero;stroke:none;stroke-width:1px;marker:none;enable-background:accumulate" />
  </g>
  <g
     inkscape:label="txt"
     id="layer1"
     inkscape:groupmode="layer">
    <text
       id="text4246"
       y="166.83237"
       x="623.71368"
       style="font-style:normal;font-variant:normal;font-weight:normal;font-stretch:normal;line-height:0%;font-family:Lavi;-inkscape-font-specification:Lavi;text-align:center;letter-spacing:0px;word-spacing:0px;text-anchor:middle;fill:#000000;fill-opacity:1;stroke:none"
       xml:space="preserve"><tspan
         id="tspan3437"
         y="166.83237"
         x="630.74493"
         style="font-style:normal;font-variant:normal;font-weight:normal;font-stretch:normal;font-size:45px;line-height:1.25;font-family:Lavi;-inkscape-font-specification:Lavi"
         sodipodi:role="line">Cayenne! Thyme! A yll onan ahanowgh mos </tspan><tspan
         id="tspan56"
         y="223.08237"
         x="623.71368"
         style="font-style:normal;font-variant:normal;font-weight:normal;font-stretch:normal;font-size:45px;line-height:1.25;font-family:Lavi;-inkscape-font-specification:Lavi"
         sodipodi:role="line">ha kavos nebes Dans Dragon ragov?</tspan></text>
    <text
       id="text4246-7"
       y="372.49969"
       x="974.7323"
       style="font-style:normal;font-variant:normal;font-weight:normal;font-stretch:normal;line-height:0%;font-family:Lavi;-inkscape-font-specification:Lavi;text-align:center;letter-spacing:0px;word-spacing:0px;text-anchor:middle;fill:#000000;fill-opacity:1;stroke:none"
       xml:space="preserve"><tspan
         id="tspan4144-1"
         y="372.49969"
         x="974.7323"
         style="font-size:45px;line-height:1.25"
         sodipodi:role="line">Y'n <tspan
   id="tspan3439"
   style="font-style:italic;-inkscape-font-specification:'Lavi Italic'">yeynder</tspan> ma?!</tspan><tspan
         id="tspan4169"
         y="428.74969"
         x="974.7323"
         style="font-size:45px;line-height:1.25"
         sodipodi:role="line">Na vynnav!</tspan></text>
    <text
       id="text4246-7-6"
       y="361.57327"
       x="1507.3965"
       style="font-style:normal;font-variant:normal;font-weight:normal;font-stretch:normal;line-height:0%;font-family:Lavi;-inkscape-font-specification:Lavi;text-align:center;letter-spacing:0px;word-spacing:0px;text-anchor:middle;fill:#000000;fill-opacity:1;stroke:none"
       xml:space="preserve"><tspan
         id="tspan4169-5"
         y="361.57327"
         x="1507.3965"
         style="font-size:45px;line-height:1.25"
         sodipodi:role="line">Ya...</tspan><tspan
         id="tspan4196"
         y="417.82327"
         x="1507.3965"
         style="font-size:45px;line-height:1.25"
         sodipodi:role="line">An keth...</tspan></text>
    <text
       id="text4246-7-6-4"
       y="1307.184"
       x="382.04089"
       style="font-style:normal;font-variant:normal;font-weight:normal;font-stretch:normal;line-height:0%;font-family:Lavi;-inkscape-font-specification:Lavi;text-align:center;letter-spacing:0px;word-spacing:0px;text-anchor:middle;fill:#000000;fill-opacity:1;stroke:none"
       xml:space="preserve"><tspan
         id="tspan3443"
         y="1307.184"
         x="382.04089"
         style="font-size:45px;line-height:1.25"
         sodipodi:role="line">Kaletter vyth, my a </tspan><tspan
         id="tspan60"
         y="1363.434"
         x="382.04089"
         style="font-size:45px;line-height:1.25"
         sodipodi:role="line">omgemmer ragdho!</tspan></text>
    <text
       id="text4246-7-6-4-6"
       y="1427.5325"
       x="1115.5537"
       style="font-style:normal;font-variant:normal;font-weight:normal;font-stretch:normal;line-height:0%;font-family:Lavi;-inkscape-font-specification:Lavi;text-align:center;letter-spacing:0px;word-spacing:0px;text-anchor:middle;fill:#000000;fill-opacity:1;stroke:none"
       xml:space="preserve"><tspan
         id="tspan4221-0"
         y="1427.5325"
         x="1115.5537"
         style="font-size:37.0037px;line-height:1.25"
         sodipodi:role="line">Y tehwelav wosa pols!</tspan></text>
    <text
       id="text4246-7-6-4-6-4"
       y="2182.0615"
       x="430.62363"
       style="font-style:normal;font-variant:normal;font-weight:normal;font-stretch:normal;line-height:0%;font-family:Lavi;-inkscape-font-specification:Lavi;text-align:center;letter-spacing:0px;word-spacing:0px;text-anchor:middle;fill:#000000;fill-opacity:1;stroke:none"
       xml:space="preserve"><tspan
         id="tspan4221-0-2"
         y="2182.0615"
         x="430.62363"
         style="font-size:45px;line-height:1.25"
         sodipodi:role="line">&quot;An yeynder&quot;, &quot;an yeynder&quot;!</tspan></text>
    <text
       id="text4246-7-6-4-6-4-5"
       y="2271.5308"
       x="524.49438"
       style="font-style:normal;font-variant:normal;font-weight:normal;font-stretch:normal;line-height:0%;font-family:Lavi;-inkscape-font-specification:Lavi;text-align:center;letter-spacing:0px;word-spacing:0px;text-anchor:middle;fill:#000000;fill-opacity:1;stroke:none"
       xml:space="preserve"><tspan
         id="tspan4284"
         y="2271.5308"
         x="524.49438"
         style="font-size:45px;line-height:1.25"
         sodipodi:role="line">Ass yns i</tspan><tspan
         id="tspan3450"
         y="2327.7808"
         x="524.49438"
         style="font-size:45px;line-height:1.25"
         sodipodi:role="line">truedhek!</tspan></text>
    <text
       id="text4246-7-6-4-6-4-5-2"
       y="3165.8694"
       x="1994.5713"
       style="font-style:normal;font-variant:normal;font-weight:normal;font-stretch:normal;line-height:0%;font-family:Lavi;-inkscape-font-specification:Lavi;text-align:center;letter-spacing:0px;word-spacing:0px;text-anchor:middle;fill:#000000;fill-opacity:1;stroke:none"
       xml:space="preserve"><tspan
         id="tspan3461"
         y="3165.8694"
         x="2001.6025"
         style="font-size:45px;line-height:1.25"
         sodipodi:role="line">Geveligow da, </tspan><tspan
         id="tspan71"
         y="3222.1194"
         x="2001.6025"
         style="font-size:45px;line-height:1.25"
         sodipodi:role="line">temmik a arvwisk korf, </tspan><tspan
         id="tspan73"
         y="3278.3694"
         x="2001.6025"
         style="font-size:45px;line-height:1.25"
         sodipodi:role="line">ha ni a gyv </tspan><tspan
         id="tspan75"
         y="3334.6194"
         x="1994.5713"
         style="font-size:45px;line-height:1.25"
         sodipodi:role="line">an Dens Dragon na!</tspan></text>
    <text
       id="text4246-7-6-4-0"
       y="1488.395"
       x="716.11877"
       style="font-style:normal;font-variant:normal;font-weight:normal;font-stretch:normal;line-height:0%;font-family:Lavi;-inkscape-font-specification:Lavi;text-align:center;letter-spacing:0px;word-spacing:0px;text-anchor:middle;fill:#000000;fill-opacity:1;stroke:#000000;stroke-width:1.3;stroke-miterlimit:4;stroke-dasharray:none;stroke-opacity:1"
       xml:space="preserve"><tspan
         id="tspan4208"
         y="1488.395"
         x="716.11877"
         style="font-size:60.7811px;line-height:1.25;stroke:#000000;stroke-width:1.3;stroke-miterlimit:4;stroke-dasharray:none;stroke-opacity:1"
         sodipodi:role="line">Pepper,</tspan><tspan
         id="tspan4212"
         y="1564.3715"
         x="716.11877"
         style="font-size:60.7811px;line-height:1.25;stroke:#000000;stroke-width:1.3;stroke-miterlimit:4;stroke-dasharray:none;stroke-opacity:1"
         sodipodi:role="line">gorta!</tspan></text>
  </g>
</svg>
