<?xml version="1.0" encoding="UTF-8" standalone="no"?>
<svg
   xmlns:dc="http://purl.org/dc/elements/1.1/"
   xmlns:cc="http://creativecommons.org/ns#"
   xmlns:rdf="http://www.w3.org/1999/02/22-rdf-syntax-ns#"
   xmlns:svg="http://www.w3.org/2000/svg"
   xmlns="http://www.w3.org/2000/svg"
   xmlns:xlink="http://www.w3.org/1999/xlink"
   xmlns:sodipodi="http://sodipodi.sourceforge.net/DTD/sodipodi-0.dtd"
   xmlns:inkscape="http://www.inkscape.org/namespaces/inkscape"
   sodipodi:docname="E22P05.svg"
   height="3503"
   width="2481"
   inkscape:version="1.0 (4035a4fb49, 2020-05-01)"
   version="1.1"
   id="svg2">
  <sodipodi:namedview
     inkscape:window-maximized="0"
     inkscape:window-y="0"
     inkscape:window-x="0"
     inkscape:document-rotation="0"
     inkscape:current-layer="layer1"
     inkscape:cy="963.33587"
     inkscape:cx="1232.3616"
     inkscape:zoom="0.36568542"
     showgrid="false"
     id="namedview70"
     inkscape:window-height="955"
     inkscape:window-width="1136"
     inkscape:pageshadow="2"
     inkscape:pageopacity="0"
     bordercolor="#666666"
     pagecolor="#ffffff" />
  <metadata
     id="metadata8">
    <rdf:RDF>
      <cc:Work
         rdf:about="">
        <dc:format>image/svg+xml</dc:format>
        <dc:type
           rdf:resource="http://purl.org/dc/dcmitype/StillImage" />
        <dc:title />
      </cc:Work>
    </rdf:RDF>
  </metadata>
  <defs
     id="defs6">
    <linearGradient
       id="linearGradient4403"
       inkscape:collect="always">
      <stop
         style="stop-color:#aba834;stop-opacity:1"
         offset="0"
         id="stop4407" />
      <stop
         style="stop-color:#2b8e5f;stop-opacity:1;"
         offset="1"
         id="stop4405" />
    </linearGradient>
    <filter
       inkscape:label="soundFX1-Hippiah"
       id="filter4375-4-1-1-1-9-5-8-8"
       style="color-interpolation-filters:sRGB">
      <feFlood
         result="flood"
         flood-color="rgb(43,143,96)"
         flood-opacity="1"
         id="feFlood4377-7-9-0-8-1-7-3-1" />
      <feComposite
         baseFrequency="0.053999999999999999 0.053999999999999999"
         result="composite1"
         operator="in"
         in="flood"
         in2="SourceGraphic"
         id="feComposite4379-3-8-8-2-77-4-1-0" />
      <feMorphology
         result="result3"
         radius="6.2000000000000002"
         operator="dilate"
         id="feMorphology4393-1-0-49-8-9-3-0-1" />
      <feComposite
         result="fbSourceGraphic"
         operator="over"
         in="SourceGraphic"
         in2="result3"
         id="feComposite4385-9-5-7-0-8-8-7-5" />
      <feColorMatrix
         id="feColorMatrix4544-9"
         values="0 0 0 -1 0 0 0 0 -1 0 0 0 0 -1 0 0 0 0 1 0"
         in="fbSourceGraphic"
         result="fbSourceGraphicAlpha" />
      <feTurbulence
         result="turbulence"
         baseFrequency="0.053999999999999999 0.054054054054054057"
         seed="174"
         numOctaves="5"
         type="fractalNoise"
         id="feTurbulence4546-3" />
      <feDisplacementMap
         result="fbSourceGraphic"
         xChannelSelector="R"
         yChannelSelector="G"
         scale="6.6"
         in="fbSourceGraphic"
         in2="turbulence"
         id="feDisplacementMap4548-8" />
      <feColorMatrix
         id="feColorMatrix4670-7"
         values="0 0 0 -1 0 0 0 0 -1 0 0 0 0 -1 0 0 0 0 1 0"
         in="fbSourceGraphic"
         result="fbSourceGraphicAlpha" />
      <feFlood
         in="fbSourceGraphic"
         result="flood"
         flood-color="rgb(39,84,60)"
         flood-opacity="1"
         id="feFlood4672-4" />
      <feComposite
         result="composite1"
         operator="in"
         in="flood"
         in2="fbSourceGraphic"
         id="feComposite4674-8" />
      <feGaussianBlur
         result="blur"
         stdDeviation="0"
         in="composite1"
         id="feGaussianBlur4676-3" />
      <feOffset
         result="offset"
         dy="6"
         dx="6"
         id="feOffset4678-6" />
      <feComposite
         result="composite2"
         operator="over"
         in="fbSourceGraphic"
         in2="offset"
         id="feComposite4680-4" />
    </filter>
    <filter
       x="-0.15000001"
       width="1.3"
       y="-0.15000001"
       height="1.3"
       inkscape:menu-tooltip="Something like a water noise"
       inkscape:menu="Distort"
       inkscape:label="Hippiah-speechbubble"
       id="filter3018"
       style="color-interpolation-filters:sRGB">
      <feTurbulence
         result="result1"
         baseFrequency="0.045999999999999999"
         type="fractalNoise"
         seed="0"
         numOctaves="5"
         id="feTurbulence3020" />
      <feGaussianBlur
         result="result2"
         stdDeviation="2"
         id="feGaussianBlur3022" />
      <feDisplacementMap
         in="SourceGraphic"
         xChannelSelector="R"
         yChannelSelector="B"
         scale="50"
         in2="result2"
         id="feDisplacementMap3024" />
    </filter>
    <filter
       inkscape:label="soundFX1"
       id="filter4375-4-1-1-1-9-5-8-8-5"
       style="color-interpolation-filters:sRGB">
      <feFlood
         result="flood"
         flood-color="rgb(43,143,96)"
         flood-opacity="1"
         id="feFlood4377-7-9-0-8-1-7-3-1-2" />
      <feComposite
         baseFrequency="0.053999999999999999 0.053999999999999999"
         result="composite1"
         operator="in"
         in="flood"
         in2="SourceGraphic"
         id="feComposite4379-3-8-8-2-77-4-1-0-6" />
      <feMorphology
         result="result3"
         radius="6.2000000000000002"
         operator="dilate"
         id="feMorphology4393-1-0-49-8-9-3-0-1-9" />
      <feComposite
         result="fbSourceGraphic"
         operator="over"
         in="SourceGraphic"
         in2="result3"
         id="feComposite4385-9-5-7-0-8-8-7-5-4" />
      <feColorMatrix
         id="feColorMatrix4544-9-4"
         values="0 0 0 -1 0 0 0 0 -1 0 0 0 0 -1 0 0 0 0 1 0"
         in="fbSourceGraphic"
         result="fbSourceGraphicAlpha" />
      <feTurbulence
         result="turbulence"
         baseFrequency="0.053999999999999999 0.054054054054054057"
         seed="174"
         numOctaves="5"
         type="fractalNoise"
         id="feTurbulence4546-3-6" />
      <feDisplacementMap
         result="fbSourceGraphic"
         xChannelSelector="R"
         yChannelSelector="G"
         scale="6.6"
         in="fbSourceGraphic"
         in2="turbulence"
         id="feDisplacementMap4548-8-0" />
      <feColorMatrix
         id="feColorMatrix4670-7-7"
         values="0 0 0 -1 0 0 0 0 -1 0 0 0 0 -1 0 0 0 0 1 0"
         in="fbSourceGraphic"
         result="fbSourceGraphicAlpha" />
      <feFlood
         in="fbSourceGraphic"
         result="flood"
         flood-color="rgb(39,84,60)"
         flood-opacity="1"
         id="feFlood4672-4-4" />
      <feComposite
         result="composite1"
         operator="in"
         in="flood"
         in2="fbSourceGraphic"
         id="feComposite4674-8-3" />
      <feGaussianBlur
         result="blur"
         stdDeviation="0"
         in="composite1"
         id="feGaussianBlur4676-3-7" />
      <feOffset
         result="offset"
         dy="6"
         dx="6"
         id="feOffset4678-6-9" />
      <feComposite
         result="composite2"
         operator="over"
         in="fbSourceGraphic"
         in2="offset"
         id="feComposite4680-4-0" />
    </filter>
    <filter
       inkscape:label="deevad outline effect"
       id="filter4375-4-1-1-1-9-6-9-2-1"
       style="color-interpolation-filters:sRGB">
      <feFlood
         result="flood"
         flood-color="rgb(0,0,0)"
         flood-opacity="1"
         id="feFlood4377-7-9-0-8-1-0-2-2-06" />
      <feComposite
         result="composite1"
         operator="in"
         in="flood"
         in2="SourceGraphic"
         id="feComposite4379-3-8-8-2-77-6-0-8-3" />
      <feMorphology
         result="result3"
         radius="4"
         operator="dilate"
         id="feMorphology4393-1-0-49-8-9-2-2-9-2" />
      <feComposite
         result="composite2"
         operator="over"
         in="SourceGraphic"
         in2="result3"
         id="feComposite4385-9-5-7-0-8-6-3-7-0" />
    </filter>
    <filter
       inkscape:label="deevad outline effect"
       id="filter4375-4-1-1-1-9-6-9-2-1-5"
       style="color-interpolation-filters:sRGB">
      <feFlood
         result="flood"
         flood-color="rgb(0,0,0)"
         flood-opacity="1"
         id="feFlood4377-7-9-0-8-1-0-2-2-06-5" />
      <feComposite
         result="composite1"
         operator="in"
         in="flood"
         in2="SourceGraphic"
         id="feComposite4379-3-8-8-2-77-6-0-8-3-8" />
      <feMorphology
         result="result3"
         radius="4"
         operator="dilate"
         id="feMorphology4393-1-0-49-8-9-2-2-9-2-7" />
      <feComposite
         result="composite2"
         operator="over"
         in="SourceGraphic"
         in2="result3"
         id="feComposite4385-9-5-7-0-8-6-3-7-0-1" />
    </filter>
    <filter
       inkscape:label="deevad outline effect"
       id="filter4375-4-1-1-1-9-6-9-2-1-5-7"
       style="color-interpolation-filters:sRGB">
      <feFlood
         result="flood"
         flood-color="rgb(0,0,0)"
         flood-opacity="1"
         id="feFlood4377-7-9-0-8-1-0-2-2-06-5-0" />
      <feComposite
         result="composite1"
         operator="in"
         in="flood"
         in2="SourceGraphic"
         id="feComposite4379-3-8-8-2-77-6-0-8-3-8-6" />
      <feMorphology
         result="result3"
         radius="4"
         operator="dilate"
         id="feMorphology4393-1-0-49-8-9-2-2-9-2-7-0" />
      <feComposite
         result="composite2"
         operator="over"
         in="SourceGraphic"
         in2="result3"
         id="feComposite4385-9-5-7-0-8-6-3-7-0-1-4" />
    </filter>
    <filter
       inkscape:label="deevad outline effect"
       id="filter4375-4-1-1-1-9-6-9-2-1-5-0"
       style="color-interpolation-filters:sRGB">
      <feFlood
         result="flood"
         flood-color="rgb(0,0,0)"
         flood-opacity="1"
         id="feFlood4377-7-9-0-8-1-0-2-2-06-5-2" />
      <feComposite
         result="composite1"
         operator="in"
         in="flood"
         in2="SourceGraphic"
         id="feComposite4379-3-8-8-2-77-6-0-8-3-8-9" />
      <feMorphology
         result="result3"
         radius="4"
         operator="dilate"
         id="feMorphology4393-1-0-49-8-9-2-2-9-2-7-6" />
      <feComposite
         result="composite2"
         operator="over"
         in="SourceGraphic"
         in2="result3"
         id="feComposite4385-9-5-7-0-8-6-3-7-0-1-0" />
    </filter>
    <filter
       inkscape:label="deevad outline effect"
       id="filter4375-4-1-1-1-9-6-9-2-1-5-4"
       style="color-interpolation-filters:sRGB">
      <feFlood
         result="flood"
         flood-color="rgb(0,0,0)"
         flood-opacity="1"
         id="feFlood4377-7-9-0-8-1-0-2-2-06-5-3" />
      <feComposite
         result="composite1"
         operator="in"
         in="flood"
         in2="SourceGraphic"
         id="feComposite4379-3-8-8-2-77-6-0-8-3-8-64" />
      <feMorphology
         result="result3"
         radius="4"
         operator="dilate"
         id="feMorphology4393-1-0-49-8-9-2-2-9-2-7-3" />
      <feComposite
         result="composite2"
         operator="over"
         in="SourceGraphic"
         in2="result3"
         id="feComposite4385-9-5-7-0-8-6-3-7-0-1-1" />
    </filter>
    <filter
       inkscape:label="deevad outline effect"
       id="filter4375-4-1-1-1-9-6-9-2-1-5-9"
       style="color-interpolation-filters:sRGB">
      <feFlood
         result="flood"
         flood-color="rgb(0,0,0)"
         flood-opacity="1"
         id="feFlood4377-7-9-0-8-1-0-2-2-06-5-4" />
      <feComposite
         result="composite1"
         operator="in"
         in="flood"
         in2="SourceGraphic"
         id="feComposite4379-3-8-8-2-77-6-0-8-3-8-5" />
      <feMorphology
         result="result3"
         radius="4"
         operator="dilate"
         id="feMorphology4393-1-0-49-8-9-2-2-9-2-7-62" />
      <feComposite
         result="composite2"
         operator="over"
         in="SourceGraphic"
         in2="result3"
         id="feComposite4385-9-5-7-0-8-6-3-7-0-1-5" />
    </filter>
    <filter
       inkscape:label="deevad outline effect"
       id="filter4375-4-1-1-1-9-6-9-2-1-5-41"
       style="color-interpolation-filters:sRGB">
      <feFlood
         result="flood"
         flood-color="rgb(0,0,0)"
         flood-opacity="1"
         id="feFlood4377-7-9-0-8-1-0-2-2-06-5-1" />
      <feComposite
         result="composite1"
         operator="in"
         in="flood"
         in2="SourceGraphic"
         id="feComposite4379-3-8-8-2-77-6-0-8-3-8-91" />
      <feMorphology
         result="result3"
         radius="4"
         operator="dilate"
         id="feMorphology4393-1-0-49-8-9-2-2-9-2-7-38" />
      <feComposite
         result="composite2"
         operator="over"
         in="SourceGraphic"
         in2="result3"
         id="feComposite4385-9-5-7-0-8-6-3-7-0-1-7" />
    </filter>
    <filter
       inkscape:label="deevad outline effect"
       id="filter4375-4-1-1-1-9-6-9-2-1-5-7-3"
       style="color-interpolation-filters:sRGB">
      <feFlood
         result="flood"
         flood-color="rgb(0,0,0)"
         flood-opacity="1"
         id="feFlood4377-7-9-0-8-1-0-2-2-06-5-0-1" />
      <feComposite
         result="composite1"
         operator="in"
         in="flood"
         in2="SourceGraphic"
         id="feComposite4379-3-8-8-2-77-6-0-8-3-8-6-3" />
      <feMorphology
         result="result3"
         radius="4"
         operator="dilate"
         id="feMorphology4393-1-0-49-8-9-2-2-9-2-7-0-8" />
      <feComposite
         result="composite2"
         operator="over"
         in="SourceGraphic"
         in2="result3"
         id="feComposite4385-9-5-7-0-8-6-3-7-0-1-4-7" />
    </filter>
    <filter
       id="filter3591"
       inkscape:label="Hippiah-glow"
       style="color-interpolation-filters:sRGB;">
      <feFlood
         id="feFlood3593"
         result="flood"
         flood-color="rgb(255,255,255)"
         flood-opacity="1" />
      <feComposite
         id="feComposite3595"
         result="composite1"
         operator="in"
         in2="SourceGraphic"
         in="flood" />
      <feGaussianBlur
         id="feGaussianBlur3597"
         result="blur"
         stdDeviation="3.3"
         in="composite1" />
      <feOffset
         id="feOffset3599"
         result="offset"
         dy="0"
         dx="0" />
      <feComposite
         id="feComposite3601"
         result="composite2"
         operator="over"
         in2="offset"
         in="SourceGraphic" />
    </filter>
    <radialGradient
       gradientUnits="userSpaceOnUse"
       gradientTransform="matrix(1,0,0,0.36177454,0,152.18656)"
       r="354.62043"
       fy="238.45266"
       fx="441.06806"
       cy="238.45266"
       cx="441.06806"
       id="radialGradient4409"
       xlink:href="#linearGradient4403"
       inkscape:collect="always" />
  </defs>
  <sodipodi:namedview
     inkscape:current-layer="layer3"
     inkscape:window-maximized="1"
     inkscape:window-y="26"
     inkscape:window-x="0"
     inkscape:cy="479.71609"
     inkscape:cx="2182.2642"
     inkscape:zoom="0.65863006"
     showgrid="false"
     id="namedview4"
     inkscape:window-height="1025"
     inkscape:window-width="1920"
     inkscape:pageshadow="2"
     inkscape:pageopacity="0"
     guidetolerance="10"
     gridtolerance="10"
     objecttolerance="10"
     borderopacity="1"
     bordercolor="#666666"
     pagecolor="#ffffff" />
  <g
     sodipodi:insensitive="true"
     inkscape:label="artwork"
     id="layer2"
     inkscape:groupmode="layer">
    <image
       sodipodi:absref="C:\Users\stero\Documents\Kernewek\Pepper and Carrot\webcomics\ep22_The-Voting-System\lang\gfx_Pepper-and-Carrot_by-David-Revoy_E22P05.png"
       xlink:href="../gfx_Pepper-and-Carrot_by-David-Revoy_E22P05.png"
       width="2481"
       height="3503"
       id="image10"
       x="0"
       y="0" />
  </g>
  <g
     inkscape:label="speechbubbles"
     id="layer3"
     inkscape:groupmode="layer">
    <rect
       rx="40"
       ry="40"
       y="694.49854"
       x="173.54373"
       height="141.30887"
       width="453.39212"
       id="rect4632-8-6-6"
       style="color:#000000;clip-rule:nonzero;display:inline;overflow:visible;visibility:visible;opacity:1;isolation:auto;mix-blend-mode:normal;color-interpolation:sRGB;color-interpolation-filters:linearRGB;solid-color:#000000;solid-opacity:1;fill:#fff6d5;fill-opacity:1;fill-rule:nonzero;stroke:none;stroke-width:2.5999999;stroke-linecap:butt;stroke-linejoin:miter;stroke-miterlimit:4;stroke-dasharray:none;stroke-dashoffset:0;stroke-opacity:1;marker:none;color-rendering:auto;image-rendering:auto;shape-rendering:auto;text-rendering:auto;enable-background:accumulate" />
    <path
       sodipodi:nodetypes="cccccccc"
       inkscape:connector-curvature="0"
       id="path5066"
       d="m 1122.7854,1137.1855 c -30.8018,18.4003 -78.2413,64.0469 -81.6444,71.6894 13.561,-1.4041 19.7992,-2.2563 29.322,-1.9695 -8.0147,13.8477 -77.20797,54.3611 -100.34361,60.4383 57.88531,-13.4245 126.96351,-58.4548 137.65851,-81.7791 -12.9938,2.6615 -18.4116,4.3293 -25.8751,4.7814 4.5406,-11.8099 57.0226,-34.6939 57.0226,-34.6939 z"
       style="color:#000000;display:inline;overflow:visible;visibility:visible;fill:#2b8e5f;fill-opacity:1;fill-rule:nonzero;stroke:none;stroke-width:1px;marker:none;enable-background:accumulate" />
    <path
       transform="matrix(0.75848304,0,0,0.7949007,840.99081,903.01308)"
       sodipodi:nodetypes="csssssssssssssssssssssssc"
       inkscape:connector-curvature="0"
       id="path3986"
       d="m 168.28312,242.56886 c 0,-14.93402 1.86304,-28.05963 6.03934,-39.43516 4.1763,-11.37552 10.66587,-21.00097 19.91894,-28.93468 9.25306,-7.9337 21.26961,-14.17567 36.49989,-18.78423 15.23028,-4.60857 33.67428,-7.58373 55.78223,-8.98383 22.10797,-1.4001 56.73934,-19.42352 93.62369,-20.68991 36.88435,-1.26639 68.47928,-6.33819 108.21905,-6.50996 39.73978,-0.17177 85.46943,21.00643 116.14368,22.89021 30.67425,1.88377 53.83551,5.03553 63.52328,9.93576 9.68777,4.90022 17.96276,10.49068 24.70523,16.70539 6.74248,6.21472 11.95246,13.05369 15.5102,20.45096 3.55775,7.39727 5.46326,15.35283 5.59683,23.80071 0.13357,8.44788 -1.50481,17.38808 -5.03486,26.75464 -3.88839,10.31737 -12.44785,21.86094 -24.17845,33.29329 -11.7306,11.43236 -26.63235,22.7535 -43.2053,32.626 -16.57295,9.8725 -34.8171,18.29636 -53.23254,23.93417 -18.41544,5.63781 -42.38958,-3.8479 -59.64764,-5.11962 -22.03655,-1.62384 -41.6506,10.2501 -67.50246,10.24947 -25.85187,-6.4e-4 -52.55412,0.46162 -77.99224,0.68934 -25.43811,0.22772 -49.61208,0.22089 -70.40737,-0.71791 -20.79529,-0.93879 -38.2119,-2.80957 -50.1353,-6.30974 -11.9234,-3.50018 -23.52583,-7.64043 -34.28467,-12.62575 -10.75883,-4.98532 -20.67407,-10.81571 -29.22309,-17.69614 -8.54902,-6.88043 -15.73182,-14.81091 -21.02577,-23.99641 -5.29394,-9.18551 -8.69904,-19.62605 -9.69267,-31.5266 z"
       style="color:#000000;display:inline;overflow:visible;visibility:visible;fill:url(#radialGradient4409);fill-opacity:1;fill-rule:nonzero;stroke:none;stroke-width:1px;marker:none;filter:url(#filter3018);enable-background:accumulate" />
    <path
       inkscape:connector-curvature="0"
       id="path3439"
       d="m 1000.4259,1041.4263 c -18.1764,-1.7619 -17.44935,-17.6195 -23.26581,-32.8898 18.9035,9.3971 35.62581,18.2069 32.71761,25.842 -2.9083,7.6351 -9.4518,7.0478 -9.4518,7.0478 z"
       style="fill:#2b8e5f;fill-opacity:1;fill-rule:evenodd;stroke:none;stroke-width:0.99999994px;stroke-linecap:butt;stroke-linejoin:miter;stroke-opacity:1" />
    <path
       inkscape:connector-curvature="0"
       id="path3439-3"
       d="m 1009.8029,1034.0598 c -14.72543,-10.8005 -5.9993,-24.0611 -3.1984,-40.15981 11.4499,17.73551 21.3247,33.85181 14.9241,38.92961 -6.4006,5.0779 -11.7257,1.2302 -11.7257,1.2302 z"
       style="fill:#2b8e5f;fill-opacity:1;fill-rule:evenodd;stroke:none;stroke-width:0.99999994px;stroke-linecap:butt;stroke-linejoin:miter;stroke-opacity:1" />
    <path
       inkscape:transform-center-y="-289.23732"
       inkscape:transform-center-x="-142.90169"
       inkscape:connector-curvature="0"
       id="path3439-3-6"
       d="m 1374.777,1071.056 c 15.8358,-15.0795 21.2492,-0.1647 31.8998,8.2238 -19.3411,8.8857 -36.6392,16.2997 -37.1111,6.7734 -0.4718,-9.5263 5.2113,-14.9972 5.2113,-14.9972 z"
       style="fill:#2b8e5f;fill-opacity:1;fill-rule:evenodd;stroke:none;stroke-width:0.99999994px;stroke-linecap:butt;stroke-linejoin:miter;stroke-opacity:1" />
    <path
       inkscape:connector-curvature="0"
       id="path3439-3-7"
       d="m 1348.8014,1024.1897 c -1.7657,-18.1761 13.9357,-20.5116 27.8027,-29.15563 -5.5871,20.35763 -11.0172,38.46183 -19.0691,37.07583 -8.0518,-1.3859 -8.7336,-7.9202 -8.7336,-7.9202 z"
       style="fill:#2b8e5f;fill-opacity:1;fill-rule:evenodd;stroke:none;stroke-width:0.99999994px;stroke-linecap:butt;stroke-linejoin:miter;stroke-opacity:1" />
    <path
       inkscape:transform-center-y="-11.889008"
       inkscape:transform-center-x="4.3232758"
       inkscape:connector-curvature="0"
       id="path3439-3-5"
       d="m 1046.6971,1166.1475 c -1.1392,18.2261 -17.0124,18.0419 -32.0747,24.3772 8.7449,-19.2138 16.9776,-36.2277 24.7077,-33.5823 7.7301,2.6453 7.367,9.2051 7.367,9.2051 z"
       style="fill:#2b8e5f;fill-opacity:1;fill-rule:evenodd;stroke:none;stroke-width:0.99999994px;stroke-linecap:butt;stroke-linejoin:miter;stroke-opacity:1" />
    <path
       inkscape:transform-center-y="-11.889008"
       inkscape:transform-center-x="4.3232758"
       inkscape:connector-curvature="0"
       id="path3439-3-5-3"
       d="m 1170.3314,1171.2052 c -1.1392,18.2261 -17.0123,18.0419 -32.0747,24.3772 8.745,-19.2138 16.9776,-36.2277 24.7077,-33.5823 7.7302,2.6453 7.367,9.2051 7.367,9.2051 z"
       style="fill:#2b8e5f;fill-opacity:1;fill-rule:evenodd;stroke:none;stroke-width:0.99999994px;stroke-linecap:butt;stroke-linejoin:miter;stroke-opacity:1" />
    <path
       sodipodi:nodetypes="ccsc"
       inkscape:transform-center-y="-309.44556"
       inkscape:transform-center-x="-87.239997"
       inkscape:connector-curvature="0"
       id="path3439-3-6-5"
       d="m 1315.6486,1140.7309 c 21.2276,5.2496 11.5595,17.8308 10.2097,31.3208 -17.8882,-11.5345 -33.4373,-22.1371 -25.6575,-27.6551 7.7799,-5.5178 15.4478,-3.6657 15.4478,-3.6657 z"
       style="fill:#2b8e5f;fill-opacity:1;fill-rule:evenodd;stroke:none;stroke-width:0.99999994px;stroke-linecap:butt;stroke-linejoin:miter;stroke-opacity:1" />
    <path
       sodipodi:nodetypes="cccscccc"
       inkscape:connector-curvature="0"
       id="path4456-3-7-5"
       d="m 174.12176,649.92862 c 25.50869,1.737 31.18253,8.7417 40.02393,13.7645 -3.43934,2.0064 -8.9889,9.9212 -8.9889,9.9212 0,0 32.58215,10.7061 36.22844,16.7304 3.6465,6.0243 -15.3876,18.5407 -15.3876,18.5407 0,0 -32.24975,-22.2963 -46.26108,-27.2208 2.45492,-3.7397 10.19678,-11.1438 15.66548,-16.0353 0,0 -4.48105,-14.0884 -21.28027,-15.7007 z"
       style="color:#000000;display:inline;overflow:visible;visibility:visible;fill:#fff6d5;fill-opacity:1;fill-rule:nonzero;stroke:none;stroke-width:1px;marker:none;enable-background:accumulate" />
  </g>
  <g
     inkscape:label="txt"
     id="layer1"
     inkscape:groupmode="layer">
    <text
       id="text4246-2-3-1-3-9-3-7-6-5-4"
       y="751.65137"
       x="397.65771"
       style="font-style:normal;font-variant:normal;font-weight:normal;font-stretch:normal;line-height:0%;font-family:Lavi;-inkscape-font-specification:Lavi;text-align:center;letter-spacing:0px;word-spacing:0px;text-anchor:middle;display:inline;fill:#000000;fill-opacity:1;stroke:none"
       xml:space="preserve"><tspan
         id="tspan4691"
         y="751.65137"
         x="397.65771"
         style="font-size:45px;line-height:1.25"
         sodipodi:role="line">Ha gans Camomile </tspan><tspan
         id="tspan136"
         y="807.90137"
         x="397.65771"
         style="font-size:45px;line-height:1.25"
         sodipodi:role="line">ni a dhalleth an tro!</tspan></text>
    <text
       transform="matrix(0.58382496,-0.31716821,-0.09367725,0.90588486,876.59678,-885.75933)"
       id="text4580-6-0-0"
       y="1584.5073"
       x="787.65729"
       style="font-style:normal;font-variant:normal;font-weight:normal;font-stretch:normal;line-height:0%;font-family:Lavi;-inkscape-font-specification:Lavi;letter-spacing:0px;word-spacing:0px;fill:#e0ffa1;fill-opacity:1;stroke:#ffffff;stroke-width:0.966714;stroke-miterlimit:4;stroke-dasharray:none;stroke-opacity:1;filter:url(#filter4375-4-1-1-1-9-5-8-8)"
       xml:space="preserve"><tspan
         style="font-size:70px;line-height:1.25;fill:#e0ffa1;fill-opacity:1;stroke:#ffffff;stroke-width:0.966714;stroke-miterlimit:4;stroke-dasharray:none;stroke-opacity:1"
         y="1584.5073"
         x="787.65729"
         id="tspan4582-1-1-0"
         sodipodi:role="line"><tspan
           id="tspan4315-8-9"
           style="font-size:93.1495px;fill:#e0ffa1;fill-opacity:1;stroke:#ffffff;stroke-width:0.966714;stroke-miterlimit:4;stroke-dasharray:none;stroke-opacity:1">Dziiioo…</tspan></tspan></text>
    <text
       transform="matrix(0.98015509,0,0,1.0202467,783.57452,46.97177)"
       id="text4246-2-3-1-3-9-3-7-6-5-4-3"
       y="1040.2164"
       x="398.35193"
       style="font-style:normal;font-variant:normal;font-weight:normal;font-stretch:normal;line-height:0%;font-family:Lavi;-inkscape-font-specification:Lavi;text-align:center;letter-spacing:0px;word-spacing:0px;text-anchor:middle;display:inline;fill:#000000;fill-opacity:1;stroke:none;stroke-width:2.4;stroke-miterlimit:4;stroke-dasharray:none;filter:url(#filter3591)"
       xml:space="preserve"><tspan
         id="tspan4161-7"
         y="1040.2164"
         x="398.35193"
         style="font-style:normal;font-variant:normal;font-weight:normal;font-stretch:normal;font-size:56.7642px;line-height:1.25;font-family:'Drukaatie burti';-inkscape-font-specification:'Drukaatie burti';fill:#ffffff;stroke-width:2.4;stroke-miterlimit:4;stroke-dasharray:none"
         sodipodi:role="line">SYLVESTRIS!</tspan><tspan
         id="tspan4691-5"
         y="1112.8083"
         x="407.22134"
         style="font-size:56.7642px;line-height:1.25;stroke-width:2.4;stroke-miterlimit:4;stroke-dasharray:none"
         sodipodi:role="line"> </tspan></text>
    <text
       transform="matrix(0.97502956,-0.53674769,-0.23532674,1.2562147,1459.7717,336.20544)"
       id="text4580-6-0-0-0"
       y="1584.5073"
       x="787.65729"
       style="font-style:normal;font-variant:normal;font-weight:normal;font-stretch:normal;line-height:0%;font-family:Lavi;-inkscape-font-specification:Lavi;letter-spacing:0px;word-spacing:0px;fill:#e0ffa1;fill-opacity:1;stroke:#ffffff;stroke-width:0.651649;stroke-miterlimit:4;stroke-dasharray:none;stroke-opacity:1;filter:url(#filter4375-4-1-1-1-9-5-8-8-5)"
       xml:space="preserve"><tspan
         style="font-size:70px;line-height:1.25;fill:#e0ffa1;fill-opacity:1;stroke:#ffffff;stroke-width:0.651649;stroke-miterlimit:4;stroke-dasharray:none;stroke-opacity:1"
         y="1584.5073"
         x="787.65729"
         id="tspan4582-1-1-0-2"
         sodipodi:role="line"><tspan
           id="tspan4315-8-9-2"
           style="font-size:93.1495px;fill:#e0ffa1;fill-opacity:1;stroke:#ffffff;stroke-width:0.651649;stroke-miterlimit:4;stroke-dasharray:none;stroke-opacity:1">Bamm!</tspan></tspan></text>
    <text
       transform="matrix(0.56312247,-0.2879856,-0.10396071,0.76310836,1578.9373,2014.8849)"
       id="text4580-1-7-3-6"
       y="1584.5073"
       x="787.65729"
       style="font-style:normal;font-variant:normal;font-weight:normal;font-stretch:normal;line-height:0%;font-family:Lavi;-inkscape-font-specification:Lavi;letter-spacing:0px;word-spacing:0px;display:inline;fill:#ffffff;fill-opacity:1;stroke:#ffffff;stroke-width:1.6559;stroke-miterlimit:4;stroke-dasharray:none;stroke-opacity:1;filter:url(#filter4375-4-1-1-1-9-6-9-2-1-5)"
       xml:space="preserve"><tspan
         style="font-size:70px;line-height:1.25;letter-spacing:2.96623px;fill:#ffffff;stroke:#ffffff;stroke-width:1.6559;stroke-miterlimit:4;stroke-dasharray:none;stroke-opacity:1"
         y="1584.5073"
         x="787.65729"
         id="tspan4582-8-5-6-1"
         sodipodi:role="line">Pok</tspan></text>
    <text
       transform="matrix(0.56312247,-0.2879856,-0.10396071,0.76310836,1711.5664,1719.3604)"
       id="text4580-1-7-3-6-1"
       y="1584.5073"
       x="787.65729"
       style="font-style:normal;font-variant:normal;font-weight:normal;font-stretch:normal;line-height:0%;font-family:Lavi;-inkscape-font-specification:Lavi;letter-spacing:0px;word-spacing:0px;display:inline;fill:#ffffff;fill-opacity:1;stroke:#ffffff;stroke-width:1.6559;stroke-miterlimit:4;stroke-dasharray:none;stroke-opacity:1;filter:url(#filter4375-4-1-1-1-9-6-9-2-1-5-7)"
       xml:space="preserve"><tspan
         style="font-size:70px;line-height:1.25;letter-spacing:2.96623px;fill:#ffffff;stroke:#ffffff;stroke-width:1.6559;stroke-miterlimit:4;stroke-dasharray:none;stroke-opacity:1"
         y="1584.5073"
         x="787.65729"
         id="tspan4582-8-5-6-1-3"
         sodipodi:role="line">Pok</tspan></text>
    <text
       transform="matrix(0.56312247,-0.2879856,-0.10396071,0.76310836,1894.2789,1429.755)"
       id="text4580-1-7-3-6-9"
       y="1584.5073"
       x="787.65729"
       style="font-style:normal;font-variant:normal;font-weight:normal;font-stretch:normal;line-height:0%;font-family:Lavi;-inkscape-font-specification:Lavi;letter-spacing:0px;word-spacing:0px;display:inline;fill:#ffffff;fill-opacity:1;stroke:#ffffff;stroke-width:1.6559;stroke-miterlimit:4;stroke-dasharray:none;stroke-opacity:1;filter:url(#filter4375-4-1-1-1-9-6-9-2-1-5-0)"
       xml:space="preserve"><tspan
         style="font-size:70px;line-height:1.25;letter-spacing:2.96623px;fill:#ffffff;stroke:#ffffff;stroke-width:1.6559;stroke-miterlimit:4;stroke-dasharray:none;stroke-opacity:1"
         y="1584.5073"
         x="787.65729"
         id="tspan4582-8-5-6-1-35"
         sodipodi:role="line">Pok</tspan></text>
    <text
       transform="matrix(0.56312247,-0.2879856,-0.10396071,0.76310836,1981.2849,2371.9049)"
       id="text4580-1-7-3-6-91"
       y="1584.5073"
       x="787.65729"
       style="font-style:normal;font-variant:normal;font-weight:normal;font-stretch:normal;line-height:0%;font-family:Lavi;-inkscape-font-specification:Lavi;letter-spacing:0px;word-spacing:0px;display:inline;fill:#ffffff;fill-opacity:1;stroke:#ffffff;stroke-width:1.6559;stroke-miterlimit:4;stroke-dasharray:none;stroke-opacity:1;filter:url(#filter4375-4-1-1-1-9-6-9-2-1-5-4)"
       xml:space="preserve"><tspan
         style="font-size:70px;line-height:1.25;letter-spacing:2.96623px;fill:#ffffff;stroke:#ffffff;stroke-width:1.6559;stroke-miterlimit:4;stroke-dasharray:none;stroke-opacity:1"
         y="1584.5073"
         x="787.65729"
         id="tspan4582-8-5-6-1-0"
         sodipodi:role="line">Pok</tspan></text>
    <text
       transform="matrix(0.56312247,-0.2879856,-0.10396071,0.76310836,1726.4818,2414.1649)"
       id="text4580-1-7-3-6-917"
       y="1584.5073"
       x="787.65729"
       style="font-style:normal;font-variant:normal;font-weight:normal;font-stretch:normal;line-height:0%;font-family:Lavi;-inkscape-font-specification:Lavi;letter-spacing:0px;word-spacing:0px;display:inline;fill:#ffffff;fill-opacity:1;stroke:#ffffff;stroke-width:1.6559;stroke-miterlimit:4;stroke-dasharray:none;stroke-opacity:1;filter:url(#filter4375-4-1-1-1-9-6-9-2-1-5-9)"
       xml:space="preserve"><tspan
         style="font-size:70px;line-height:1.25;letter-spacing:2.96623px;fill:#ffffff;stroke:#ffffff;stroke-width:1.6559;stroke-miterlimit:4;stroke-dasharray:none;stroke-opacity:1"
         y="1584.5073"
         x="787.65729"
         id="tspan4582-8-5-6-1-7"
         sodipodi:role="line">Pok</tspan></text>
    <text
       transform="matrix(0.56312247,-0.2879856,-0.10396071,0.76310836,1510.2099,2282.4131)"
       id="text4580-1-7-3-6-4"
       y="1584.5073"
       x="787.65729"
       style="font-style:normal;font-variant:normal;font-weight:normal;font-stretch:normal;line-height:0%;font-family:Lavi;-inkscape-font-specification:Lavi;letter-spacing:0px;word-spacing:0px;display:inline;fill:#ffffff;fill-opacity:1;stroke:#ffffff;stroke-width:1.6559;stroke-miterlimit:4;stroke-dasharray:none;stroke-opacity:1;filter:url(#filter4375-4-1-1-1-9-6-9-2-1-5-41)"
       xml:space="preserve"><tspan
         style="font-size:70px;line-height:1.25;letter-spacing:2.96623px;fill:#ffffff;stroke:#ffffff;stroke-width:1.6559;stroke-miterlimit:4;stroke-dasharray:none;stroke-opacity:1"
         y="1584.5073"
         x="787.65729"
         id="tspan4582-8-5-6-1-9"
         sodipodi:role="line">Pok</tspan></text>
    <text
       transform="matrix(0.56312247,-0.2879856,-0.10396071,0.76310836,1450.7887,1419.5228)"
       id="text4580-1-7-3-6-1-9"
       y="1584.5073"
       x="787.65729"
       style="font-style:normal;font-variant:normal;font-weight:normal;font-stretch:normal;line-height:0%;font-family:Lavi;-inkscape-font-specification:Lavi;letter-spacing:0px;word-spacing:0px;display:inline;fill:#ffffff;fill-opacity:1;stroke:#ffffff;stroke-width:1.6559;stroke-miterlimit:4;stroke-dasharray:none;stroke-opacity:1;filter:url(#filter4375-4-1-1-1-9-6-9-2-1-5-7-3)"
       xml:space="preserve"><tspan
         style="font-size:70px;line-height:1.25;letter-spacing:2.96623px;fill:#ffffff;stroke:#ffffff;stroke-width:1.6559;stroke-miterlimit:4;stroke-dasharray:none;stroke-opacity:1"
         y="1584.5073"
         x="787.65729"
         id="tspan4582-8-5-6-1-3-3"
         sodipodi:role="line">Pok</tspan></text>
  </g>
</svg>
