<?xml version="1.0" encoding="UTF-8" standalone="no"?>
<svg
   xmlns:dc="http://purl.org/dc/elements/1.1/"
   xmlns:cc="http://creativecommons.org/ns#"
   xmlns:rdf="http://www.w3.org/1999/02/22-rdf-syntax-ns#"
   xmlns:svg="http://www.w3.org/2000/svg"
   xmlns="http://www.w3.org/2000/svg"
   xmlns:xlink="http://www.w3.org/1999/xlink"
   xmlns:sodipodi="http://sodipodi.sourceforge.net/DTD/sodipodi-0.dtd"
   xmlns:inkscape="http://www.inkscape.org/namespaces/inkscape"
   sodipodi:docname="E32P03.svg"
   height="3503"
   width="2481"
   inkscape:version="1.0 (4035a4fb49, 2020-05-01)"
   version="1.1"
   id="svg2">
  <metadata
     id="metadata8">
    <rdf:RDF>
      <cc:Work
         rdf:about="">
        <dc:format>image/svg+xml</dc:format>
        <dc:type
           rdf:resource="http://purl.org/dc/dcmitype/StillImage" />
        <dc:title />
      </cc:Work>
    </rdf:RDF>
  </metadata>
  <defs
     id="defs6">
    <filter
       height="1.0029159"
       y="-0.0014578935"
       width="1.0020597"
       x="-0.0010298714"
       id="filter4213-8-8"
       style="color-interpolation-filters:sRGB"
       inkscape:collect="always">
      <feGaussianBlur
         id="feGaussianBlur4215-7-9"
         stdDeviation="0.24308766"
         inkscape:collect="always" />
    </filter>
    <filter
       height="1.0498235"
       y="-0.024911748"
       width="1.0264426"
       x="-0.013221323"
       id="filter1266-5-1"
       style="color-interpolation-filters:sRGB"
       inkscape:collect="always">
      <feGaussianBlur
         id="feGaussianBlur1268-9-2"
         stdDeviation="0.78825367"
         inkscape:collect="always" />
    </filter>
    <filter
       height="1.0294574"
       y="-0.014728761"
       width="1.0239176"
       x="-0.01195875"
       id="filter1395"
       style="color-interpolation-filters:sRGB"
       inkscape:collect="always">
      <feGaussianBlur
         id="feGaussianBlur1397"
         stdDeviation="0.26634151"
         inkscape:collect="always" />
    </filter>
    <filter
       height="1.0498235"
       y="-0.024911748"
       width="1.0264426"
       x="-0.013221323"
       id="filter1266"
       style="color-interpolation-filters:sRGB"
       inkscape:collect="always">
      <feGaussianBlur
         id="feGaussianBlur1268"
         stdDeviation="0.78825367"
         inkscape:collect="always" />
    </filter>
    <filter
       height="1.0974239"
       y="-0.048711937"
       width="1.0458992"
       x="-0.022949615"
       id="filter1639"
       style="color-interpolation-filters:sRGB"
       inkscape:collect="always">
      <feGaussianBlur
         id="feGaussianBlur1641"
         stdDeviation="0.45636794"
         inkscape:collect="always" />
    </filter>
    <filter
       height="1.0498235"
       y="-0.024911748"
       width="1.0264426"
       x="-0.013221323"
       id="filter1266-5"
       style="color-interpolation-filters:sRGB"
       inkscape:collect="always">
      <feGaussianBlur
         id="feGaussianBlur1268-9"
         stdDeviation="0.78825367"
         inkscape:collect="always" />
    </filter>
    <filter
       height="1.0029159"
       y="-0.0014578935"
       width="1.0020597"
       x="-0.0010298714"
       id="filter4213-0"
       style="color-interpolation-filters:sRGB"
       inkscape:collect="always">
      <feGaussianBlur
         id="feGaussianBlur4215-2"
         stdDeviation="0.24308766"
         inkscape:collect="always" />
    </filter>
    <filter
       height="1.0029159"
       y="-0.0014578935"
       width="1.0020597"
       x="-0.0010298714"
       id="filter4213-1"
       style="color-interpolation-filters:sRGB"
       inkscape:collect="always">
      <feGaussianBlur
         id="feGaussianBlur4215-9"
         stdDeviation="0.24308766"
         inkscape:collect="always" />
    </filter>
    <filter
       height="1.0029159"
       y="-0.0014578935"
       width="1.0020597"
       x="-0.0010298714"
       id="filter4213"
       style="color-interpolation-filters:sRGB"
       inkscape:collect="always">
      <feGaussianBlur
         id="feGaussianBlur4215"
         stdDeviation="0.24308766"
         inkscape:collect="always" />
    </filter>
    <filter
       inkscape:label="deevad outline effect"
       id="filter5561-1"
       style="color-interpolation-filters:sRGB">
      <feFlood
         result="flood"
         flood-color="rgb(0,0,0)"
         flood-opacity="1"
         id="feFlood5563-9" />
      <feComposite
         result="composite1"
         operator="in"
         in="flood"
         in2="SourceGraphic"
         id="feComposite5565-0" />
      <feMorphology
         result="result3"
         radius="1.8999999999999999 6.0999999999999996"
         operator="dilate"
         id="feMorphology5567-7" />
      <feComposite
         result="composite2"
         operator="over"
         in="SourceGraphic"
         in2="result3"
         id="feComposite5569-2" />
    </filter>
  </defs>
  <sodipodi:namedview
     inkscape:document-rotation="0"
     inkscape:snap-global="false"
     inkscape:current-layer="layer3"
     inkscape:window-maximized="1"
     inkscape:window-y="-8"
     inkscape:window-x="1912"
     inkscape:cy="2560.7232"
     inkscape:cx="1208.2897"
     inkscape:zoom="0.42558812"
     showgrid="false"
     id="namedview4"
     inkscape:window-height="1057"
     inkscape:window-width="1920"
     inkscape:pageshadow="2"
     inkscape:pageopacity="0"
     guidetolerance="10"
     gridtolerance="10"
     objecttolerance="10"
     borderopacity="1"
     bordercolor="#666666"
     pagecolor="#ffffff" />
  <g
     sodipodi:insensitive="true"
     inkscape:label="artwork"
     id="layer2"
     inkscape:groupmode="layer">
    <image
       sodipodi:absref="C:\Users\stero\Documents\Kernewek\Pepper and Carrot\webcomics\ep32_The-Battlefield\lang\gfx_Pepper-and-Carrot_by-David-Revoy_E32P03.png"
       xlink:href="../gfx_Pepper-and-Carrot_by-David-Revoy_E32P03.png"
       y="0"
       x="0"
       id="image10"
       height="3503"
       width="2481" />
  </g>
  <g
     inkscape:label="speechbubbles"
     id="layer3"
     inkscape:groupmode="layer">
    <path
       sodipodi:nodetypes="zsssssz"
       inkscape:connector-curvature="0"
       id="path3100-98"
       d="m 422.42593,211.2925 c -5.49879,51.69419 -83.25672,59.68933 -119.1525,61.21736 -35.89571,1.52748 -131.36479,8.19477 -163.70896,-35.04616 -32.34408,-43.24035 -18.13783,-63.07567 2.89681,-84.14687 17.93758,-17.96915 60.10881,-26.66186 97.02364,-30.91794 45.83711,-5.28392 121.93718,6.9987 153.71833,29.11345 16.94853,11.79308 34.72161,8.08598 29.22268,59.78016 z"
       style="fill:#ffffff;stroke:none;stroke-width:1" />
    <path
       sodipodi:nodetypes="cssssssscc"
       inkscape:connector-curvature="0"
       id="path4546-6-2-0"
       d="m 445.73177,226.91731 c 2.5936,-29.9854 2.96591,-58.9339 37.27157,-76.53429 34.30559,-17.59964 94.74283,-22.47289 170.65608,-18.10118 40.66319,2.34151 91.88831,5.4981 124.31403,17.66882 32.42571,12.17072 46.0521,33.35555 42.72459,77.27343 -3.3275,43.91789 -21.28423,63.10561 -58.74161,74.38604 -37.4573,11.28118 -94.41538,14.65509 -108.1308,15.90855 -13.71542,1.25347 -56.25457,0.17295 -98.45961,-4.89881 -42.20497,-5.07176 -71.07301,-8.61861 -83.4519,-23.3331 -19.40593,-18.63429 -27.36247,-40.54474 -26.18235,-62.36946 z"
       style="color:#000000;display:inline;overflow:visible;visibility:visible;fill:#ffffff;fill-opacity:1;fill-rule:nonzero;stroke:none;stroke-width:1px;marker:none;enable-background:accumulate" />
    <path
       sodipodi:nodetypes="zssssz"
       inkscape:connector-curvature="0"
       id="path4040-41"
       d="m 1001.1938,136.82417 c -38.12029,0.53312 -76.64275,5.77365 -111.9877,19.43685 -11.92129,5.22944 -19.98084,15.75424 -24.96159,26.73938 -9.26648,19.39895 -19.01387,39.11066 -21.66186,60.40413 -3.39005,23.74182 -1.45853,48.6684 9.24572,70.71134 8.91856,18.11907 26.14034,31.91197 45.5756,39.96566 22.66592,9.65232 47.09518,14.87877 71.16474,20.57641 30.69042,6.6694 62.51049,8.9412 93.94259,6.68609 24.2437,-2.05655 48.2668,-7.32337 70.618,-16.31462 11.9662,-4.92061 23.7846,-10.80187 32.9644,-19.60672 9.5434,-8.81757 16.3447,-19.95226 20.2955,-31.83998 5.2869,-15.55625 6.5652,-31.9858 6.8469,-48.20077 -0.044,-18.92461 -2.8743,-38.19767 -11.326,-55.5783 -9.4155,-18.65769 -25.5743,-33.91102 -44.3278,-44.77114 -27.4061,-16.32764 -59.7041,-24.51733 -92.0004,-26.91886 -14.7578,-1.17453 -29.5837,-1.36326 -44.3881,-1.28947 z"
       style="color:#000000;display:inline;overflow:visible;visibility:visible;fill:#ffffff;fill-opacity:1;fill-rule:nonzero;stroke:none;stroke-width:1.08853px;marker:none;enable-background:accumulate" />
    <path
       sodipodi:nodetypes="cssssssc"
       inkscape:connector-curvature="0"
       id="path4324-2"
       d="m 1027.5093,510.74622 c 79.9896,-25.34188 116.4009,-40.38771 130.7924,-88.3665 12.0423,-40.14692 -33.9999,-116.14332 -96.0942,-157.07156 -74.30428,-48.97611 -720.91559,-69.58576 -737.53456,-86.65613 -24.24194,-24.90039 -28.29447,37.40472 -7.48472,36.66367 110.11684,-3.92132 657.67116,25.43523 724.93768,68.50333 62.3575,39.92512 107.1789,103.00167 91.9981,146.96092 -14.5457,42.11997 -106.6147,79.96627 -106.6147,79.96627 z"
       style="opacity:1;fill:#ffffff;fill-rule:evenodd;stroke:none;stroke-width:1px;stroke-linecap:butt;stroke-linejoin:miter;stroke-opacity:1" />
    <path
       sodipodi:nodetypes="ccccccccccccccccccccc"
       inkscape:connector-curvature="0"
       id="path3549-3-7-1"
       d="m 1487.1383,160.75586 c 6.0988,58.0424 -65.3117,45.56473 -97.7034,27.27436 -3.0276,-1.6925 -5.9648,-3.49395 -8.9255,-5.26655 9.9857,32.63909 10.4334,63.94917 -37.6597,57.06055 23.2159,29.50108 -29.9843,34.82714 -42.7052,35.84961 66.3928,10.44428 22.5325,27.33762 -12.6579,34.65625 35.8331,5.47045 89.0123,-1.33603 43.7458,37.39648 66.77,-15.87086 93.3289,0.39261 60.2479,49.15625 62.3727,-36.63239 98.8288,-61.70826 106.1411,4.9375 38.0468,-53.579 78.369,-66.95947 129.2459,2.65777 4.207,-66.17428 69.2716,-33.5212 91.4687,-6.88267 -6.1866,-47.05832 65.4377,-39.35867 83.7477,-27.18325 -8.4903,-46.93794 48.9677,-20.43662 72.5053,-12.24614 -37.186,-31.80398 -14.5587,-56.49275 17.9886,-53.41602 -67.177,-27.61301 -68.9397,-45.70415 -9.4354,-57.75977 -34.6039,-6.35909 -79.4117,-19.18971 -59.5502,-55.71679 -49.3523,17.91152 -66.7012,8.59899 -44.0494,-31.42383 -22.935,22.94734 -81.299,61.05751 -70.8018,3.58044 -50.8729,37.59194 -92.6499,43.77553 -129.5736,2.38831 -25.8872,31.9191 -40.5243,51.04462 -92.3892,-6.27184 z"
       style="color:#000000;display:inline;overflow:visible;visibility:visible;fill:#ffffff;fill-opacity:1;fill-rule:nonzero;stroke:none;stroke-width:1.0931px;marker:none;enable-background:accumulate" />
    <path
       sodipodi:nodetypes="cccccccccccc"
       inkscape:connector-curvature="0"
       id="path4032-8"
       d="M 1922.0345,466.13044 C 1890.5173,425.805 1871.003,404.22165 1845.5562,357.13333 l 3.258,50.97171 c -16.0686,-10.44733 -25.4093,-31.97446 -37.0346,-49.73896 l -2.127,38.51455 c -36.3006,-43.2467 -51.7192,-53.55742 -83.7945,-82.67547 l -29.5303,38.66317 c 49.3632,6.12619 92.5351,44.77214 122.6506,81.95014 l 4.6002,-30.96826 c 11.8245,10.93146 23.3216,22.49541 33.3564,36.88708 l 3.0413,-39.51242 z"
       style="color:#000000;display:inline;overflow:visible;visibility:visible;fill:#ffffff;fill-opacity:1;fill-rule:nonzero;stroke:none;stroke-width:1px;marker:none;enable-background:accumulate" />
    <path
       sodipodi:nodetypes="cssssc"
       inkscape:connector-curvature="0"
       id="path3659-8-8"
       d="m 388.18197,1219.3743 c -59.3245,1.5041 -119.07579,2.2264 -177.56085,14.633 -24.19393,5.4633 -46.91313,21.8972 -59.03404,46.15 -8.96505,18.9528 -9.83931,41.4051 -6.18754,62.1015 2.14142,15.0931 6.80343,30.8381 17.56391,41.0752 11.33317,10.7672 26.5978,14.1812 41.08802,15.1555 80.57293,7.9595 161.5814,9.3449 242.41075,6.926 34.7753,-1.5434 70.24249,-6.2496 102.21112,-22.4785 17.28083,-8.6659 34.1785,-20.6071 44.55746,-38.7197 13.9813,-24.428 16.24054,-57.4592 3.41966,-83.0462 -6.87767,-13.9525 -19.22499,-24.4666 -33.26781,-27.7646 -16.88583,-5.1091 -34.39379,-6.7121 -51.67644,-9.3389 -41.0149,-4.857 -82.33101,-4.7564 -123.52424,-4.6933 z"
       style="fill:#ffffff;fill-opacity:1;stroke:none;stroke-width:1.97806" />
    <path
       sodipodi:nodetypes="zsssssz"
       inkscape:connector-curvature="0"
       id="path3330-0"
       d="m 673.3507,1262.3053 c 44.26507,-49.1309 289.72438,-41.6168 366.0722,-28.9623 83.3198,13.8097 108.9728,33.3771 112.6985,76.2637 1.1509,13.2467 -5.5886,73.317 -46.573,85.1428 -40.9842,11.8249 -158.34822,17.7378 -199.33254,17.7378 -40.98421,0 -171.81502,-7.5264 -204.92163,-24.8336 -31.66961,-16.5549 -72.20872,-76.2182 -27.94353,-125.3484 z"
       style="color:#000000;display:inline;overflow:visible;visibility:visible;fill:#ffffff;fill-opacity:1;fill-rule:nonzero;stroke:none;stroke-width:1.02955px;marker:none;enable-background:accumulate" />
    <path
       sodipodi:nodetypes="csccscccccccccccc"
       inkscape:connector-curvature="0"
       id="path5050-5"
       d="m 1107.9544,1285.3086 c -37.2869,0.5355 -73.8321,8.4334 -109.92106,16.5941 -52.12384,10.4082 -105.59663,15.0535 -158.85736,13.2789 -40.15539,-1.9717 -79.27448,-11.479 -119.03909,-16.3867 -28.78428,-3.8424 -57.81594,-6.065 -86.88949,-6.3675 -22.92474,-0.6613 -46.27838,-1.0004 -68.65375,4.4039 -7.1068,2.7732 -13.89876,9.0159 -13.48299,16.7567 1.46111,8.4316 13.16631,12.8953 20.66132,8.3506 27.4167,-7.867 56.47726,-6.7309 84.7273,-4.9925 56.74199,3.8282 111.95947,18.2757 168.61996,22.7198 38.26774,2.8003 76.76288,0.6801 114.76388,-4.0276 43.81211,-4.6938 86.68928,-14.6991 130.05948,-21.8806 53.1852,-7.4612 107.0312,-2.8218 160.5137,-2.4804 36.7789,-0.6202 73.0625,6.0171 109.1153,12.0288 13.8743,2.2637 27.3603,6.1725 40.9589,9.5091 21.5592,3.8121 43.8332,4.4766 64.7368,11.2177 2.2007,0.5694 5.3407,1.5554 6.9509,1.8758 -27.5723,-12.8186 -56.7891,-22.3555 -86.6558,-29.1316 -18.2048,-6.3995 -36.8748,-11.9827 -56.1744,-14.4761 -15.5968,-4.286 -30.8291,-11.6573 -47.4863,-10.8353 -51.4269,0.9882 -102.5383,-6.5623 -153.9473,-6.1571 z"
       style="color:#000000;display:inline;overflow:visible;visibility:visible;fill:#ffffff;fill-opacity:1;fill-rule:nonzero;stroke:none;stroke-width:1.02998px;marker:none;enable-background:accumulate" />
  </g>
  <g
     inkscape:label="txt"
     id="layer1"
     inkscape:groupmode="layer">
    <text
       id="text4246-10"
       y="210.52769"
       x="272.01614"
       style="font-style:normal;font-variant:normal;font-weight:normal;font-stretch:normal;line-height:0%;font-family:Lavi;-inkscape-font-specification:Lavi;text-align:center;letter-spacing:0px;word-spacing:0px;text-anchor:middle;fill:#000000;fill-opacity:1;stroke:none"
       xml:space="preserve"><tspan
         id="tspan4262"
         y="210.52769"
         x="272.01614"
         style="font-size:45px;line-height:1.25"
         sodipodi:role="line">Gav dhymm!</tspan></text>
    <text
       id="text4246-10-3"
       y="209.23067"
       x="635.88397"
       style="font-style:normal;font-variant:normal;font-weight:normal;font-stretch:normal;line-height:0%;font-family:Lavi;-inkscape-font-specification:Lavi;text-align:center;letter-spacing:0px;word-spacing:0px;text-anchor:middle;fill:#000000;fill-opacity:1;stroke:none"
       xml:space="preserve"><tspan
         id="tspan863"
         y="209.23067"
         x="635.88397"
         style="font-size:45px;line-height:1.25"
         sodipodi:role="line">Gwragh Chaosah</tspan><tspan
         id="tspan91"
         y="265.48065"
         x="635.88397"
         style="font-size:45px;line-height:1.25"
         sodipodi:role="line">gwir ov vy.</tspan></text>
    <text
       id="text4246-10-3-7"
       y="225.93956"
       x="1009.0269"
       style="font-style:normal;font-variant:normal;font-weight:normal;font-stretch:normal;line-height:0%;font-family:Lavi;-inkscape-font-specification:Lavi;text-align:center;letter-spacing:0px;word-spacing:0px;text-anchor:middle;fill:#000000;fill-opacity:1;stroke:none"
       xml:space="preserve"><tspan
         id="tspan871"
         y="225.93956"
         x="1009.0269"
         style="font-size:45px;line-height:1.25"
         sodipodi:role="line">Yma testskrif</tspan><tspan
         id="tspan100"
         y="282.18958"
         x="1009.0269"
         style="font-size:45px;line-height:1.25"
         sodipodi:role="line">genev hag a</tspan><tspan
         id="tspan102"
         y="338.43958"
         x="1009.0269"
         style="font-size:45px;line-height:1.25"
         sodipodi:role="line">lever...</tspan></text>
    <text
       transform="matrix(1.3745356,0.03085482,-0.2413062,1.3023184,2295.9581,-3114.939)"
       id="text4246-85"
       y="2872.5061"
       x="-447.29675"
       style="font-style:normal;font-variant:normal;font-weight:normal;font-stretch:normal;line-height:0%;font-family:Lavi;-inkscape-font-specification:Lavi;text-align:center;letter-spacing:0px;word-spacing:0px;text-anchor:middle;display:inline;opacity:0.6;fill:#000000;fill-opacity:1;stroke:none;stroke-width:0.61894;filter:url(#filter4213)"
       xml:space="preserve"><tspan
         id="tspan4172"
         y="2872.5061"
         x="-447.29675"
         style="font-style:normal;font-variant:normal;font-weight:normal;font-stretch:normal;font-size:68.8156px;line-height:1.27;font-family:Fondamento;-inkscape-font-specification:Fondamento;stroke:#000000;stroke-width:0.709879;stroke-opacity:1"
         sodipodi:role="line">Degre</tspan></text>
    <text
       transform="matrix(0.95085692,0.02172708,-0.16692742,0.91705505,1882.16,-1925.4134)"
       id="text4246-85-4"
       y="2872.5061"
       x="-447.29675"
       style="font-style:normal;font-variant:normal;font-weight:normal;font-stretch:normal;line-height:0%;font-family:Lavi;-inkscape-font-specification:Lavi;text-align:center;letter-spacing:0px;word-spacing:0px;text-anchor:middle;display:inline;opacity:0.6;fill:#000000;fill-opacity:1;stroke:none;stroke-width:0.886809;filter:url(#filter4213-1)"
       xml:space="preserve"><tspan
         id="tspan4172-78"
         y="2872.5061"
         x="-447.29675"
         style="font-style:normal;font-variant:normal;font-weight:normal;font-stretch:normal;font-size:68.8156px;line-height:1.27;font-family:Fondamento;-inkscape-font-specification:Fondamento;stroke:#000000;stroke-width:1.0171;stroke-opacity:1"
         sodipodi:role="line">a</tspan></text>
    <text
       transform="matrix(1.1126099,0.07589889,-0.1953239,1.0489042,2013.3945,-2215.8631)"
       id="text4246-85-3"
       y="2872.5061"
       x="-447.29675"
       style="font-style:normal;font-variant:normal;font-weight:normal;font-stretch:normal;line-height:0%;font-family:Lavi;-inkscape-font-specification:Lavi;text-align:center;letter-spacing:0px;word-spacing:0px;text-anchor:middle;display:inline;opacity:0.6;fill:#000000;fill-opacity:1;stroke:none;stroke-width:0.763319;filter:url(#filter4213-0)"
       xml:space="preserve"><tspan
         id="tspan4172-7"
         y="2872.5061"
         x="-447.29675"
         style="font-style:normal;font-variant:normal;font-weight:normal;font-stretch:normal;font-size:68.8156px;line-height:1.27;font-family:Fondamento;-inkscape-font-specification:Fondamento;stroke:#000000;stroke-width:0.875471;stroke-opacity:1"
         sodipodi:role="line">Chaosah</tspan></text>
    <text
       transform="matrix(0.98507156,-0.49862606,0.34034107,1.288094,-1030.3969,-2382.8062)"
       id="text4246-8-3-7"
       y="2924.6372"
       x="903.31201"
       style="font-style:normal;font-variant:normal;font-weight:normal;font-stretch:normal;line-height:0%;font-family:Lavi;-inkscape-font-specification:Lavi;text-align:center;letter-spacing:0px;word-spacing:0px;text-anchor:middle;display:inline;opacity:0.699;fill:#202020;fill-opacity:1;stroke:#000000;stroke-width:0.341967;stroke-miterlimit:4;stroke-dasharray:none;stroke-opacity:1;filter:url(#filter1266)"
       xml:space="preserve"><tspan
         id="tspan4150-8-6-5"
         y="2924.6372"
         x="903.31201"
         style="font-style:normal;font-variant:normal;font-weight:normal;font-stretch:normal;font-size:51.0087px;line-height:1.25;font-family:Cursivah;-inkscape-font-specification:Cursivah;fill:#202020;fill-opacity:1;stroke:#000000;stroke-width:0.341967;stroke-miterlimit:4;stroke-dasharray:none;stroke-opacity:1"
         sodipodi:role="line">Cayenne</tspan></text>
    <text
       transform="matrix(1.2249224,-0.16351137,-0.05268865,1.2640987,76.67569,-2662.2628)"
       id="text4246-8-3-7-2"
       y="2924.6372"
       x="903.31201"
       style="font-style:normal;font-variant:normal;font-weight:normal;font-stretch:normal;line-height:0%;font-family:Lavi;-inkscape-font-specification:Lavi;text-align:center;letter-spacing:0px;word-spacing:0px;text-anchor:middle;display:inline;opacity:0.699;fill:#202020;fill-opacity:1;stroke:#000000;stroke-width:0.330534;stroke-miterlimit:4;stroke-dasharray:none;stroke-opacity:1;filter:url(#filter1266-5)"
       xml:space="preserve"><tspan
         id="tspan4150-8-6-5-2"
         y="2924.6372"
         x="903.31201"
         style="font-size:38.3128px;line-height:1.25;fill:#202020;fill-opacity:1;stroke:#000000;stroke-width:0.330534;stroke-miterlimit:4;stroke-dasharray:none;stroke-opacity:1"
         sodipodi:role="line">Cumin</tspan></text>
    <text
       transform="matrix(1.4560413,-0.02137803,-0.63767126,1.180929,1526.7936,-2434.7947)"
       id="text4246-8-3-7-2-9"
       y="2924.6372"
       x="903.31201"
       style="font-style:normal;font-variant:normal;font-weight:normal;font-stretch:normal;line-height:0%;font-family:Lavi;-inkscape-font-specification:Lavi;text-align:center;letter-spacing:-0.0334897px;word-spacing:0px;text-anchor:middle;display:inline;opacity:0.699;fill:#202020;fill-opacity:1;stroke:#000000;stroke-width:0.314035;stroke-miterlimit:4;stroke-dasharray:none;stroke-opacity:1;filter:url(#filter1266-5-1)"
       xml:space="preserve"><tspan
         id="tspan4150-8-6-5-2-3"
         y="2924.6372"
         x="903.29529"
         style="font-style:normal;font-variant:normal;font-weight:normal;font-stretch:normal;font-size:38.3128px;line-height:1.25;font-family:Fondamento;-inkscape-font-specification:Fondamento;letter-spacing:-0.0334897px;fill:#202020;fill-opacity:1;stroke:#000000;stroke-width:0.314035;stroke-miterlimit:4;stroke-dasharray:none;stroke-opacity:1"
         sodipodi:role="line"><tspan
   id="tspan1399"
   style="font-size:53.5835px;letter-spacing:-6.69793px;stroke-width:0.314035">T</tspan><tspan
   id="tspan1407"
   style="letter-spacing:-0.669793px;stroke-width:0.314035">h</tspan>yme</tspan></text>
    <text
       transform="matrix(1.1265079,-0.01406056,-0.02918254,1.1204037,1504.6499,-2132.9222)"
       id="text4246-85-9-7"
       y="2872.5061"
       x="-447.29675"
       style="font-style:normal;font-variant:normal;font-weight:normal;font-stretch:normal;line-height:0%;font-family:Lavi;-inkscape-font-specification:Lavi;text-align:center;letter-spacing:0px;word-spacing:0px;text-anchor:middle;display:inline;opacity:0.6;fill:#000000;fill-opacity:1;stroke:none;stroke-width:0.738759;filter:url(#filter4213-8-8)"
       xml:space="preserve"><tspan
         id="tspan1120-6"
         y="2872.5061"
         x="-447.29675"
         style="font-style:normal;font-variant:normal;font-weight:normal;font-stretch:normal;font-size:49.1939px;line-height:1.27;font-family:Fondamento;-inkscape-font-specification:Fondamento;stroke:#000000;stroke-width:0.847303;stroke-opacity:1"
         sodipodi:role="line">~ rag Pepper ~</tspan></text>
    <text
       transform="matrix(0.99650308,0,-0.23158448,1.0035092,0,0)"
       id="text4246-7-6-4-0"
       y="308.58649"
       x="1669.0212"
       style="font-style:normal;font-variant:normal;font-weight:normal;font-stretch:normal;font-size:14.7792px;line-height:0%;font-family:Lavi;-inkscape-font-specification:Lavi;text-align:center;letter-spacing:0px;word-spacing:0px;text-anchor:middle;fill:#000000;fill-opacity:1;stroke:#000000;stroke-width:1.3;stroke-miterlimit:4;stroke-dasharray:none;stroke-opacity:1"
       xml:space="preserve"><tspan
         id="tspan4212-7"
         y="308.58649"
         x="1669.0212"
         style="font-style:normal;font-variant:normal;font-weight:bold;font-stretch:normal;font-size:74.8582px;line-height:1.25;font-family:Lavi;-inkscape-font-specification:'Lavi Bold';stroke:#000000;stroke-width:1.3;stroke-miterlimit:4;stroke-dasharray:none;stroke-opacity:1"
         sodipodi:role="line">TAW TAVES!</tspan></text>
    <path
       sodipodi:nodetypes="cssccc"
       transform="matrix(2.332865,0.27867164,-0.32316546,2.0116733,-1731.1758,-5165.5624)"
       inkscape:connector-curvature="0"
       id="path1409"
       d="m 1547.1934,2802.853 c 3.8646,-3.5133 9.3102,-3.689 12.2965,-3.5133 2.9863,0.1757 7.0265,-4.7429 9.8371,-5.6212 2.8106,-0.8783 12.8234,0.1756 13.8774,-0.8783 1.054,-1.054 11.2425,-2.108 11.5938,-3.8646 0.3513,-1.7567 -0.086,-5.8644 -0.086,-5.8644"
       style="opacity:0.69899998;fill:none;fill-rule:evenodd;stroke:#202020;stroke-width:1.0516634;stroke-linecap:butt;stroke-linejoin:miter;stroke-miterlimit:4;stroke-dasharray:none;stroke-opacity:1;filter:url(#filter1639)" />
    <path
       transform="matrix(2.3551423,0,0,2.0308834,-1611.2802,-642.97344)"
       sodipodi:nodetypes="ccc"
       inkscape:connector-curvature="0"
       id="path910"
       d="m 1077.1201,752.52314 c 0.8783,-6.4995 5.6852,-7.2186 2.699,3.8482 -2.9863,11.0668 -52.5234,35.3083 -52.5234,35.3083"
       style="opacity:0.69899998;vector-effect:none;fill:none;fill-opacity:1;fill-rule:evenodd;stroke:#202020;stroke-width:0.32464391;stroke-linecap:butt;stroke-linejoin:miter;stroke-miterlimit:4;stroke-dasharray:none;stroke-dashoffset:0;stroke-opacity:1;filter:url(#filter1395)" />
    <text
       id="text4246-5-5"
       y="1298.6641"
       x="372.59503"
       style="font-style:normal;font-variant:normal;font-weight:normal;font-stretch:normal;line-height:0%;font-family:Lavi;-inkscape-font-specification:Lavi;text-align:center;letter-spacing:0px;word-spacing:0px;text-anchor:middle;fill:#000000;fill-opacity:1;stroke:none"
       xml:space="preserve"><tspan
         id="tspan1096"
         y="1298.6641"
         x="372.59503"
         style="font-style:normal;font-variant:normal;font-weight:normal;font-stretch:normal;font-size:45px;line-height:1.25;font-family:Lavi;-inkscape-font-specification:Lavi;text-align:center;text-anchor:middle"
         sodipodi:role="line">Ny'm beus us rag</tspan><tspan
         id="tspan106"
         y="1354.9141"
         x="372.59503"
         style="font-style:normal;font-variant:normal;font-weight:normal;font-stretch:normal;font-size:45px;line-height:1.25;font-family:Lavi;-inkscape-font-specification:Lavi;text-align:center;text-anchor:middle"
         sodipodi:role="line">fleghes y'n lu ma.</tspan></text>
    <text
       id="text4246-5-5-3"
       y="1302.4111"
       x="906.72394"
       style="font-style:normal;font-variant:normal;font-weight:normal;font-stretch:normal;line-height:0%;font-family:Lavi;-inkscape-font-specification:Lavi;text-align:center;letter-spacing:0px;word-spacing:0px;text-anchor:middle;fill:#000000;fill-opacity:1;stroke:none"
       xml:space="preserve"><tspan
         id="tspan1127"
         y="1302.4111"
         x="906.72394"
         style="font-style:normal;font-variant:normal;font-weight:normal;font-stretch:normal;font-size:45px;line-height:1.25;font-family:Lavi;-inkscape-font-specification:Lavi;text-align:center;text-anchor:middle"
         sodipodi:role="line">Ke dhe-dre ha gwari</tspan><tspan
         id="tspan110"
         y="1358.6611"
         x="906.72394"
         style="font-style:normal;font-variant:normal;font-weight:normal;font-stretch:normal;font-size:45px;line-height:1.25;font-family:Lavi;-inkscape-font-specification:Lavi;text-align:center;text-anchor:middle"
         sodipodi:role="line">gans dha dholliow.</tspan></text>
    <text
       transform="matrix(0.91879135,-0.67832788,0.07526662,1.411228,-949.41897,401.37966)"
       x="1705.2566"
       y="1742.2045"
       inkscape:transform-center-y="60.453122"
       inkscape:transform-center-x="-270.60518"
       id="text4251-1-3"
       style="color:#000000;font-style:normal;font-variant:normal;font-weight:normal;font-stretch:normal;line-height:0%;font-family:Arial;-inkscape-font-specification:Arial;letter-spacing:0.0273496px;word-spacing:0px;clip-rule:nonzero;display:inline;overflow:visible;visibility:visible;opacity:1;isolation:auto;mix-blend-mode:normal;color-interpolation:sRGB;color-interpolation-filters:linearRGB;solid-color:#000000;solid-opacity:1;fill:#ffffff;fill-opacity:1;fill-rule:nonzero;stroke:#ffffff;stroke-width:0.968549;stroke-linecap:butt;stroke-linejoin:miter;stroke-miterlimit:4;stroke-dasharray:none;stroke-dashoffset:0;stroke-opacity:1;marker:none;filter:url(#filter5561-1);color-rendering:auto;image-rendering:auto;shape-rendering:auto;text-rendering:auto;enable-background:accumulate"
       xml:space="preserve"><tspan
         style="font-style:normal;font-variant:normal;font-weight:normal;font-stretch:normal;font-size:45.5771px;line-height:1.25;font-family:Lavi;-inkscape-font-specification:Lavi;letter-spacing:6.3599px;stroke-width:0.968549"
         y="1742.2045"
         x="1705.2566"
         id="tspan4253-5-1"
         sodipodi:role="line">Skatt!</tspan></text>
    <flowRoot
       style="font-style:normal;font-variant:normal;font-weight:normal;font-stretch:normal;font-size:0.666667px;line-height:0%;font-family:Lavi;-inkscape-font-specification:Lavi;text-align:center;letter-spacing:22.66px;word-spacing:-79.64px;writing-mode:lr-tb;text-anchor:middle;fill:#000000;fill-opacity:1;stroke:none;stroke-width:1px;stroke-linecap:butt;stroke-linejoin:miter;stroke-opacity:1"
       id="flowRoot971"
       xml:space="preserve"><flowRegion
         id="flowRegion973"><rect
           y="340.94467"
           x="1695.5948"
           height="9.9623671"
           width="33.872047"
           id="rect975" /></flowRegion><flowPara
         id="flowPara977" /></flowRoot>
    <text
       transform="matrix(0.88228376,0,-0.23605329,1.1334222,0,0)"
       id="text4246-6-5-6-0-2-1"
       y="2255.6174"
       x="2098.6653"
       style="font-style:normal;font-variant:normal;font-weight:normal;font-stretch:normal;font-size:10.1754px;line-height:0%;font-family:Lavi;-inkscape-font-specification:Lavi;text-align:center;letter-spacing:0px;word-spacing:0px;text-anchor:middle;fill:#000000;fill-opacity:1;stroke:#000000;stroke-width:3.72;stroke-miterlimit:4;stroke-dasharray:none;stroke-opacity:1"
       xml:space="preserve"><tspan
         id="tspan4252-7-3-1-2-9-2"
         y="2255.6174"
         x="2098.6653"
         style="font-style:normal;font-variant:normal;font-weight:bold;font-stretch:normal;font-size:35.8717px;line-height:1.25;font-family:Lavi;-inkscape-font-specification:'Lavi Bold';fill:#000000;fill-opacity:1;stroke:none;stroke-width:3.72;stroke-miterlimit:4;stroke-dasharray:none;stroke-opacity:1"
         sodipodi:role="line">HAHA HA HA!</tspan></text>
    <text
       transform="matrix(0.88228376,0,-0.23605329,1.1334222,0,0)"
       id="text4246-6-5-6-0-2-1-9"
       y="2228.4077"
       x="2367.9607"
       style="font-style:normal;font-variant:normal;font-weight:normal;font-stretch:normal;font-size:10.1754px;line-height:0%;font-family:Lavi;-inkscape-font-specification:Lavi;text-align:center;letter-spacing:0px;word-spacing:0px;text-anchor:middle;fill:#000000;fill-opacity:1;stroke:#000000;stroke-width:3.72;stroke-miterlimit:4;stroke-dasharray:none;stroke-opacity:1"
       xml:space="preserve"><tspan
         id="tspan4252-7-3-1-2-9-2-3"
         y="2228.4077"
         x="2367.9607"
         style="font-style:normal;font-variant:normal;font-weight:bold;font-stretch:normal;font-size:35.8717px;line-height:1.25;font-family:Lavi;-inkscape-font-specification:'Lavi Bold';fill:#000000;fill-opacity:1;stroke:none;stroke-width:3.72;stroke-miterlimit:4;stroke-dasharray:none;stroke-opacity:1"
         sodipodi:role="line">HAHA HA HA!</tspan></text>
    <text
       transform="matrix(0.88228376,0,-0.23605329,1.1334222,0,0)"
       id="text4246-6-5-6-0-2-1-9-6"
       y="2240.2549"
       x="2640.1641"
       style="font-style:normal;font-variant:normal;font-weight:normal;font-stretch:normal;font-size:10.1754px;line-height:0%;font-family:Lavi;-inkscape-font-specification:Lavi;text-align:center;letter-spacing:0px;word-spacing:0px;text-anchor:middle;fill:#000000;fill-opacity:1;stroke:#000000;stroke-width:3.72;stroke-miterlimit:4;stroke-dasharray:none;stroke-opacity:1"
       xml:space="preserve"><tspan
         id="tspan4252-7-3-1-2-9-2-3-0"
         y="2240.2549"
         x="2640.1641"
         style="font-style:normal;font-variant:normal;font-weight:bold;font-stretch:normal;font-size:35.8717px;line-height:1.25;font-family:Lavi;-inkscape-font-specification:'Lavi Bold';fill:#000000;fill-opacity:1;stroke:none;stroke-width:3.72;stroke-miterlimit:4;stroke-dasharray:none;stroke-opacity:1"
         sodipodi:role="line">HAHA HA HA!</tspan></text>
    <text
       transform="matrix(0.88228376,0,-0.23605329,1.1334222,0,0)"
       id="text4246-6-5-6-0-2-1-9-6-6"
       y="2239.4143"
       x="3150.7107"
       style="font-style:normal;font-variant:normal;font-weight:normal;font-stretch:normal;font-size:10.1754px;line-height:0%;font-family:Lavi;-inkscape-font-specification:Lavi;text-align:center;letter-spacing:0px;word-spacing:0px;text-anchor:middle;fill:#000000;fill-opacity:1;stroke:#000000;stroke-width:3.72;stroke-miterlimit:4;stroke-dasharray:none;stroke-opacity:1"
       xml:space="preserve"><tspan
         id="tspan4252-7-3-1-2-9-2-3-0-2"
         y="2239.4143"
         x="3150.7107"
         style="font-style:normal;font-variant:normal;font-weight:bold;font-stretch:normal;font-size:35.8717px;line-height:1.25;font-family:Lavi;-inkscape-font-specification:'Lavi Bold';fill:#000000;fill-opacity:1;stroke:none;stroke-width:3.72;stroke-miterlimit:4;stroke-dasharray:none;stroke-opacity:1"
         sodipodi:role="line">HA HA HAHA!</tspan></text>
  </g>
</svg>
