<?xml version="1.0" encoding="UTF-8" standalone="no"?>
<svg
   xmlns:dc="http://purl.org/dc/elements/1.1/"
   xmlns:cc="http://creativecommons.org/ns#"
   xmlns:rdf="http://www.w3.org/1999/02/22-rdf-syntax-ns#"
   xmlns:svg="http://www.w3.org/2000/svg"
   xmlns="http://www.w3.org/2000/svg"
   xmlns:xlink="http://www.w3.org/1999/xlink"
   xmlns:sodipodi="http://sodipodi.sourceforge.net/DTD/sodipodi-0.dtd"
   xmlns:inkscape="http://www.inkscape.org/namespaces/inkscape"
   id="svg2"
   version="1.1"
   inkscape:version="1.0.2-2 (e86c870879, 2021-01-15)"
   width="2481"
   height="3503"
   sodipodi:docname="E28P05.svg">
  <metadata
     id="metadata8">
    <rdf:RDF>
      <cc:Work
         rdf:about="">
        <dc:format>image/svg+xml</dc:format>
        <dc:type
           rdf:resource="http://purl.org/dc/dcmitype/StillImage" />
        <dc:title />
      </cc:Work>
    </rdf:RDF>
  </metadata>
  <defs
     id="defs6" />
  <sodipodi:namedview
     pagecolor="#ffffff"
     bordercolor="#666666"
     borderopacity="1"
     objecttolerance="10"
     gridtolerance="10"
     guidetolerance="10"
     inkscape:pageopacity="0"
     inkscape:pageshadow="2"
     inkscape:window-width="1366"
     inkscape:window-height="745"
     id="namedview4"
     showgrid="false"
     inkscape:zoom="0.51498715"
     inkscape:cx="1825.9232"
     inkscape:cy="3187.1033"
     inkscape:window-x="-8"
     inkscape:window-y="-8"
     inkscape:window-maximized="1"
     inkscape:current-layer="layer3"
     inkscape:document-rotation="0" />
  <g
     inkscape:groupmode="layer"
     id="layer2"
     inkscape:label="artwork"
     sodipodi:insensitive="true">
    <image
       sodipodi:absref="C:\Users\quentinlipeck\Downloads\webcomics-master-ec7d62e6553c2c63bb1cf2e799ee31f9cb9ce5e2\webcomics-master-ec7d62e6553c2c63bb1cf2e799ee31f9cb9ce5e2\ep28_The-Festivities\lang\gfx_Pepper-and-Carrot_by-David-Revoy_E28P05.png"
       xlink:href="../gfx_Pepper-and-Carrot_by-David-Revoy_E28P05.png"
       y="0"
       x="0"
       id="image10"
       height="3503"
       width="2481" />
  </g>
  <g
     inkscape:groupmode="layer"
     id="layer3"
     inkscape:label="speechbubbles">
    <path
       style="fill:#ffffff;fill-rule:evenodd;stroke:none;stroke-width:0.810971px;stroke-linecap:butt;stroke-linejoin:miter;stroke-opacity:1"
       d="m 157.52442,184.07031 c 24.20553,-17.24988 60.20542,-26.05082 95.32605,-31.65294 32.86157,-5.33718 67.10176,-5.46461 100.81265,-4.30598 42.74906,1.52835 86.04868,3.4101 127.27554,10.9704 12.60467,2.21064 24.47312,6.24621 32.3106,12.83415 33.18909,22.30804 57.22843,51.35519 56.41726,82.10375 -3.33899,45.18767 -5.00934,90.43233 -9.7572,135.57755 -1.44125,14.86556 -7.06886,30.54229 -24.78355,41.46907 -20.34309,13.13197 -47.31577,21.99427 -76.05847,25.92867 -45.73102,6.64777 -93.01103,8.99394 -139.93635,8.48744 -18.34055,-1.21811 -36.67219,-2.84282 -54.95913,-4.46156 -39.18493,-4.13504 -81.26783,-10.49338 -109.36924,-29.05092 -22.312,-14.79618 -34.66728,-34.76185 -36.96184,-54.70889 0.17359,-41.94777 4.76462,-83.83536 7.79528,-125.73004 1.08057,-11.309 0.23352,-22.86556 6.80423,-33.67247 5.9832,-11.83261 13.75107,-23.47897 25.08417,-33.78823 z"
       id="path1006"
       inkscape:connector-curvature="0" />
    <path
       style="fill:#ffffff;fill-rule:evenodd;stroke:none;stroke-width:1px;stroke-linecap:butt;stroke-linejoin:miter;stroke-opacity:1"
       d="M 333.27358,346.17986 C 395.90659,299.25879 684.65819,123.37673 1012.4941,266.75583 759.55842,143.42811 491.69794,181.66189 330.00219,300.24071 Z"
       id="path1008"
       inkscape:connector-curvature="0"
       sodipodi:nodetypes="cccc" />
    <path
       style="fill:#ffffff;fill-rule:evenodd;stroke:none;stroke-width:1px;stroke-linecap:butt;stroke-linejoin:miter;stroke-opacity:1"
       d="m 1819.6761,521.16397 c 116.7092,-13.15033 182.4608,-4.93138 226.8431,52.60129 44.3824,57.53267 34.5196,90.40848 23.0131,80.54574 -11.5065,-9.86274 -23.0131,-151.22873 -249.8562,-133.14703 z"
       id="path1011"
       inkscape:connector-curvature="0" />
    <path
       style="fill:#ffffff;fill-rule:evenodd;stroke:none;stroke-width:1px;stroke-linecap:butt;stroke-linejoin:miter;stroke-opacity:1"
       d="m 2110.627,552.39599 c 87.1209,1.64379 133.1471,13.15032 151.2288,29.58823 18.0817,16.4379 42.7385,60.82025 34.5196,87.12089 -8.219,26.30065 -39.451,69.03921 -129.8595,65.75163 -90.4085,-3.28759 -156.1601,-19.72549 -177.5294,-52.6013 -21.3692,-32.87581 8.219,-101.91501 42.7386,-113.42155 34.5196,-11.50653 39.451,-14.79411 78.9019,-16.4379 z"
       id="path1013"
       inkscape:connector-curvature="0" />
    <path
       style="fill:#ffffff;fill-rule:evenodd;stroke:none;stroke-width:1.19741px;stroke-linecap:butt;stroke-linejoin:miter;stroke-opacity:1"
       d="m 1956.8722,746.52491 c 69.6583,-62.94461 154.2544,-58.7483 176.8934,-54.552 22.6388,4.19632 79.4059,10.5931 121.7967,14.68708 19.6013,1.89304 91.4656,42.09043 96.62,111.20213 3.122,41.85965 0,83.92615 -48.7607,100.71137 -48.7607,16.78522 -120.4753,16.78522 -181.4263,14.68707 -60.9508,-2.09816 -130.294,0 -166.8645,-37.76677 -36.5706,-37.76676 -47.0193,-90.22059 1.7414,-148.96888 z"
       id="path1015"
       inkscape:connector-curvature="0"
       sodipodi:nodetypes="cssssssc" />
    <path
       style="fill:#ffffff;fill-rule:evenodd;stroke:none;stroke-width:0.969231px;stroke-linecap:butt;stroke-linejoin:miter;stroke-opacity:1"
       d="m 323.40159,1071.6194 c 84.59478,1.4294 151.73348,1.4294 170.53232,15.7232 18.79884,14.2939 55.05375,47.1697 56.39651,78.6161 1.34279,31.4464 -1.34276,77.1867 -26.85547,98.6274 -25.51272,21.4408 -71.16703,38.5934 -116.82136,45.7403 -45.65431,7.1469 -136.96296,7.1469 -167.84677,0 -30.8838,-7.1469 -84.59477,-31.4464 -91.30864,-55.7459 -6.71387,-24.2996 -9.39942,-84.3336 -1.34277,-108.6332 8.05664,-24.2995 46.9971,-54.3165 85.93754,-62.8928 38.94045,-8.5763 91.30864,-11.4351 91.30864,-11.4351 z"
       id="path1017"
       inkscape:connector-curvature="0" />
    <path
       style="fill:#ffffff;fill-rule:evenodd;stroke:none;stroke-width:1px;stroke-linecap:butt;stroke-linejoin:miter;stroke-opacity:1"
       d="m 464.5495,1496.1462 c 57.17532,-75.7573 57.17532,-148.6559 4.28815,-244.4245 -52.88717,-95.7687 -80.04545,-97.1981 -80.04545,-97.1981 l -4.28815,52.8872 c 0,0 168.6672,128.6445 80.04545,288.7354 z"
       id="path1019"
       inkscape:connector-curvature="0" />
    <path
       style="fill:#ffffff;fill-rule:evenodd;stroke:none;stroke-width:0.907263px;stroke-linecap:butt;stroke-linejoin:miter;stroke-opacity:1"
       d="m 2001.83,1181.6164 c -2.7662,-54.1268 69.1751,-99.5753 163.6731,-99.9637 94.4979,-0.3882 176.67,22.2488 176.1513,78.152 -0.5186,55.9032 -16.6735,103.0846 -138.1823,103.3563 -121.509,0.2718 -196.5419,-14.7742 -201.6421,-81.5446 z"
       id="path1021"
       inkscape:connector-curvature="0" />
    <path
       style="fill:#ffffff;fill-rule:evenodd;stroke:none;stroke-width:1px;stroke-linecap:butt;stroke-linejoin:miter;stroke-opacity:1"
       d="m 2223.4008,1243.0202 c 9.6724,22.1135 -3.7615,81.471 -16.6581,91.9459 -8.9785,11.3235 4.9225,16.0942 9.6724,15.1304 4.2989,-2.9097 37.6151,-18.04 42.9887,-9.3111 5.3736,8.7291 -48.8996,51.2105 -42.9887,57.0298 5.911,5.8194 27.9427,-8.1471 30.6294,-3.4916 2.6868,4.6554 -4.2988,17.4581 -16.6581,25.6052 20.957,-6.9833 30.0921,-18.6219 25.7932,-26.769 -4.2988,-8.1471 -12.3592,-6.9833 -17.7328,-5.8194 10.2098,-8.7291 49.9875,-38.2659 39.7777,-53.9782 -10.2098,-15.7122 -36.0426,-12.0787 -41.9536,-9.169 14.5087,-12.8026 28.0737,-53.8649 21.6254,-85.8713 -6.4483,-32.0065 -34.4955,4.6983 -34.4955,4.6983 z"
       id="path1023"
       inkscape:connector-curvature="0"
       sodipodi:nodetypes="ccccsccccccsc" />
    <path
       style="fill:#ffffff;fill-rule:evenodd;stroke:none;stroke-width:1px;stroke-linecap:butt;stroke-linejoin:miter;stroke-opacity:1"
       d="m 826.50706,2344.762 c 9.78488,-40.2573 52.11355,-55.2416 84.72982,-52.849 32.61627,2.3928 81.25075,23.5682 76.17711,56.2586 -5.07364,32.6904 -43.85076,50.2768 -71.17595,51.6227 -27.32519,1.3458 -89.15114,-3.9181 -89.73098,-55.0323 z"
       id="path1025"
       inkscape:connector-curvature="0" />
    <path
       style="fill:#ffffff;fill-rule:evenodd;stroke:none;stroke-width:1px;stroke-linecap:butt;stroke-linejoin:miter;stroke-opacity:1"
       d="m 891.05439,2384.5928 c 8.97846,20.1058 2.08504,29.2013 -7.53169,42.2988 -9.61674,13.0974 -3.91478,26.6928 6.89341,31.8628 10.80819,5.1701 22.50997,25.1418 21.87169,42.5477 -2.42546,-50.8389 -20.08451,-46.2816 -21.10575,-59.2259 -1.02125,-12.9442 20.21215,-24.3759 22.42485,-32.7054 2.2127,-8.3295 0.51063,-29.1055 -5.14877,-40.9009 -5.65941,-11.7954 -17.40374,16.1229 -17.40374,16.1229 z"
       id="path1027"
       inkscape:connector-curvature="0"
       sodipodi:nodetypes="cccccssc" />
  </g>
  <g
     inkscape:groupmode="layer"
     id="layer1"
     inkscape:label="txt">
    <text
       xml:space="preserve"
       style="font-style:normal;font-variant:normal;font-weight:normal;font-stretch:normal;line-height:0%;font-family:Lavi;-inkscape-font-specification:Lavi;text-align:center;letter-spacing:0px;word-spacing:0px;text-anchor:middle;fill:#000000;fill-opacity:1;stroke:none"
       x="343.16214"
       y="239.86371"
       id="text4246"><tspan
         sodipodi:role="line"
         style="font-size:45px;line-height:1.2"
         x="343.16214"
         y="239.86371"
         id="tspan86">jan pona ale mi </tspan><tspan
         sodipodi:role="line"
         style="font-size:45px;line-height:1.2"
         x="343.16214"
         y="293.86371"
         id="tspan90">li pali pona suli. </tspan><tspan
         sodipodi:role="line"
         style="font-size:45px;line-height:1.2"
         x="343.16214"
         y="347.86371"
         id="tspan92">tenpo mute la, </tspan><tspan
         sodipodi:role="line"
         style="font-size:45px;line-height:1.2"
         x="343.16214"
         y="401.86371"
         id="tspan94">mi wile e sama lili.</tspan></text>
    <text
       xml:space="preserve"
       style="font-style:normal;font-variant:normal;font-weight:normal;font-stretch:normal;line-height:0%;font-family:Lavi;-inkscape-font-specification:Lavi;text-align:center;letter-spacing:0px;word-spacing:0px;text-anchor:middle;fill:#000000;fill-opacity:1;stroke:none"
       x="2143.3313"
       y="630.23462"
       id="text4246-3"><tspan
         sodipodi:role="line"
         style="font-size:45px;line-height:1.2"
         x="2143.3313"
         y="630.23462"
         id="tspan898">jan Kowijana </tspan><tspan
         sodipodi:role="line"
         style="font-size:45px;line-height:1.2"
         x="2143.3313"
         y="684.23462"
         id="tspan54">li jan lawa.</tspan></text>
    <text
       xml:space="preserve"
       style="font-style:normal;font-variant:normal;font-weight:normal;font-stretch:normal;line-height:0%;font-family:Lavi;-inkscape-font-specification:Lavi;text-align:center;letter-spacing:0px;word-spacing:0px;text-anchor:middle;fill:#000000;fill-opacity:1;stroke:none"
       x="2146.4858"
       y="776.11542"
       id="text4246-3-9"><tspan
         sodipodi:role="line"
         style="font-size:45px;line-height:1.2"
         x="2146.4858"
         y="776.11542"
         id="tspan923">jan Sapon li </tspan><tspan
         sodipodi:role="line"
         style="font-size:45px;line-height:1.2"
         x="2146.4858"
         y="830.11542"
         id="tspan60">mani mute, li </tspan><tspan
         sodipodi:role="line"
         style="font-size:45px;line-height:1.2"
         x="2146.4858"
         y="884.11542"
         id="tspan44">pona tawa kulupu.</tspan></text>
    <text
       xml:space="preserve"
       style="font-style:normal;font-variant:normal;font-weight:normal;font-stretch:normal;line-height:0%;font-family:Lavi;-inkscape-font-specification:Lavi;text-align:center;letter-spacing:0px;word-spacing:0px;text-anchor:middle;fill:#000000;fill-opacity:1;stroke:none"
       x="347.58185"
       y="1151.152"
       id="text4246-3-9-7"><tspan
         sodipodi:role="line"
         style="font-size:45px;line-height:1.2"
         x="347.58185"
         y="1151.152"
         id="tspan950">jan Sisimi kin li </tspan><tspan
         sodipodi:role="line"
         style="font-size:45px;line-height:1.2"
         x="347.58185"
         y="1205.152"
         id="tspan48">suli lukin lon </tspan><tspan
         sodipodi:role="line"
         style="font-size:45px;line-height:1.2"
         x="347.58185"
         y="1259.152"
         id="tspan50">kulupu ona.</tspan></text>
    <text
       xml:space="preserve"
       style="font-style:normal;font-variant:normal;font-weight:normal;font-stretch:normal;line-height:0%;font-family:Lavi;-inkscape-font-specification:Lavi;text-align:center;letter-spacing:0px;word-spacing:0px;text-anchor:middle;fill:#000000;fill-opacity:1;stroke:none"
       x="2184.5269"
       y="1163.4224"
       id="text4246-3-9-7-3"><tspan
         sodipodi:role="line"
         style="font-size:45px;line-height:1.2"
         x="2184.5269"
         y="1163.4224"
         id="tspan981">taso seme </tspan><tspan
         sodipodi:role="line"
         style="font-size:45px;line-height:1.2"
         x="2184.5269"
         y="1217.4224"
         id="tspan98">li tawa mi?</tspan></text>
    <text
       xml:space="preserve"
       style="font-style:normal;font-variant:normal;font-weight:normal;font-stretch:normal;line-height:0%;font-family:Lavi;-inkscape-font-specification:Lavi;text-align:center;letter-spacing:0px;word-spacing:0px;text-anchor:middle;fill:#000000;fill-opacity:1;stroke:none"
       x="910.00488"
       y="2360.6299"
       id="text4246-3-9-7-3-2"><tspan
         sodipodi:role="line"
         style="font-size:45px;line-height:1.2"
         x="910.00488"
         y="2360.6299"
         id="tspan981-1">ni.</tspan></text>
  </g>
</svg>
