<?xml version="1.0" encoding="UTF-8" standalone="no"?>
<svg
   xmlns:dc="http://purl.org/dc/elements/1.1/"
   xmlns:cc="http://creativecommons.org/ns#"
   xmlns:rdf="http://www.w3.org/1999/02/22-rdf-syntax-ns#"
   xmlns:svg="http://www.w3.org/2000/svg"
   xmlns="http://www.w3.org/2000/svg"
   xmlns:xlink="http://www.w3.org/1999/xlink"
   xmlns:sodipodi="http://sodipodi.sourceforge.net/DTD/sodipodi-0.dtd"
   xmlns:inkscape="http://www.inkscape.org/namespaces/inkscape"
   id="svg2"
   version="1.1"
   inkscape:version="1.0.2-2 (e86c870879, 2021-01-15)"
   width="2481"
   height="3503"
   sodipodi:docname="E28P07.svg">
  <metadata
     id="metadata8">
    <rdf:RDF>
      <cc:Work
         rdf:about="">
        <dc:format>image/svg+xml</dc:format>
        <dc:type
           rdf:resource="http://purl.org/dc/dcmitype/StillImage" />
        <dc:title />
      </cc:Work>
    </rdf:RDF>
  </metadata>
  <defs
     id="defs6" />
  <sodipodi:namedview
     pagecolor="#ffffff"
     bordercolor="#666666"
     borderopacity="1"
     objecttolerance="10"
     gridtolerance="10"
     guidetolerance="10"
     inkscape:pageopacity="0"
     inkscape:pageshadow="2"
     inkscape:window-width="1366"
     inkscape:window-height="745"
     id="namedview4"
     showgrid="false"
     inkscape:zoom="0.51498715"
     inkscape:cx="872.29359"
     inkscape:cy="2476.9584"
     inkscape:window-x="-8"
     inkscape:window-y="-8"
     inkscape:window-maximized="1"
     inkscape:current-layer="layer3"
     inkscape:document-rotation="0" />
  <g
     inkscape:groupmode="layer"
     id="layer2"
     inkscape:label="artwork"
     sodipodi:insensitive="true">
    <image
       sodipodi:absref="C:\Users\quentinlipeck\Downloads\webcomics-master-ec7d62e6553c2c63bb1cf2e799ee31f9cb9ce5e2\webcomics-master-ec7d62e6553c2c63bb1cf2e799ee31f9cb9ce5e2\ep28_The-Festivities\lang\gfx_Pepper-and-Carrot_by-David-Revoy_E28P07.png"
       xlink:href="../gfx_Pepper-and-Carrot_by-David-Revoy_E28P07.png"
       width="2481"
       height="3503"
       id="image10"
       x="0"
       y="0" />
  </g>
  <g
     inkscape:groupmode="layer"
     id="layer3"
     inkscape:label="speechbubbles">
    <path
       style="fill:#ffffff;fill-rule:evenodd;stroke:none;stroke-width:1px;stroke-linecap:butt;stroke-linejoin:miter;stroke-opacity:1"
       d="m 139.4599,119.38529 c 58.20387,-38.453819 160.13208,-38.34134 216.01266,-37.378358 55.88058,0.962982 192.35159,0.0267 224.826,23.602808 32.4744,23.57612 53.81219,25.58786 52.90585,78.18134 -0.90633,52.59349 -14.50788,78.66366 -52.76262,104.30897 -38.25473,25.64532 -189.60263,31.25733 -232.36316,32.16448 -42.76053,0.90715 -149.5344,-4.22094 -182.03715,-26.15351 -32.50273,-21.93255 -61.40681,-61.88749 -59.19681,-94.7301 2.21002,-32.8426 14.2813,-65.51527 32.61523,-79.99563 z"
       id="path1035"
       inkscape:connector-curvature="0" />
    <path
       style="fill:#ffffff;fill-rule:evenodd;stroke:none;stroke-width:1px;stroke-linecap:butt;stroke-linejoin:miter;stroke-opacity:1"
       d="m 196.4271,253.96422 c -32.89449,39.47339 -40.41323,56.39055 -51.69134,74.24756 -11.27811,17.85701 -8.45859,59.21009 6.57889,70.4882 15.03749,11.27811 23.49607,17.857 15.97733,33.83433 -7.51874,15.97732 -7.37083,33.58627 -0.79194,42.9847 6.5789,9.39842 29.92706,24.68396 29.92706,24.68396 0,0 -21.13136,-17.00501 -23.34412,-22.26143 -3.75295,-8.91514 -2.08603,-20.48379 2.61318,-28.94238 4.69922,-8.45858 19.28439,-35.64147 -2.76513,-53.11871 -14.61974,-11.58813 -21.61638,-35.71402 -1.87968,-65.78898 19.73669,-30.07496 90.22489,-81.76631 90.22489,-81.76631 z"
       id="path1037"
       inkscape:connector-curvature="0"
       sodipodi:nodetypes="csssccscsscc" />
    <path
       style="fill:#ffffff;fill-rule:evenodd;stroke:none;stroke-width:1px;stroke-linecap:butt;stroke-linejoin:miter;stroke-opacity:1"
       d="m 130.35844,964.16004 c 21.57561,-58.77799 57.24044,-64.43345 111.48553,-68.49367 54.24509,-4.06022 250.01301,-11.09272 297.68294,4.54269 47.66992,15.63538 60.9673,35.48167 74.75356,74.88863 12.01477,34.34331 15.49807,106.82091 3.99153,131.38631 -11.50653,24.5657 -31.32227,56.117 -80.63599,58.6079 -49.31371,2.4909 -291.42364,3.8921 -321.01187,3.4063 -29.58823,-0.4858 -87.21106,-16.391 -98.71767,-61.1381 -11.50654,-44.7468 -9.12363,-84.4221 12.45197,-143.20006 z"
       id="path1039"
       inkscape:connector-curvature="0"
       sodipodi:nodetypes="zsssccssz" />
    <path
       style="fill:#ffffff;fill-rule:evenodd;stroke:none;stroke-width:1px;stroke-linecap:butt;stroke-linejoin:miter;stroke-opacity:1"
       d="m 197.23517,923.5374 c -17.7664,-36.95411 -18.47706,-61.82707 -3.55328,-69.64429 14.92378,-7.81721 21.31968,-12.7918 12.79181,-21.31968 -8.52787,-8.52787 -16.34509,-27.71558 -9.94919,-39.08608 6.39591,-11.37049 16.34509,-17.05574 26.29428,-18.47705 -15.63444,9.23852 -19.89837,17.05574 -19.18772,25.58361 0.71066,8.52787 2.84263,19.18771 12.79181,25.58362 9.94919,6.3959 23.45165,22.74099 2.13197,39.08608 -21.31968,16.34509 43.35002,66.09101 43.35002,66.09101 z"
       id="path1041"
       inkscape:connector-curvature="0" />
    <path
       style="fill:#ffffff;fill-rule:evenodd;stroke:none;stroke-width:0.92741px;stroke-linecap:butt;stroke-linejoin:miter;stroke-opacity:1"
       d="m 1844.5255,188.73057 c 9.3095,-30.89516 29.9974,-41.58964 43.4445,-43.96619 13.447,-2.37655 47.5819,1.18827 67.2354,2.37655 19.6534,1.18827 79.6481,1.18827 84.82,0 5.1721,-1.18828 91.0265,7.12965 103.4393,4.7531 12.4127,-2.37655 43.5544,-4.4733 58.0359,-2.09675 14.4815,2.37655 38.2726,20.20068 40.3413,29.70689 2.0688,9.5062 7.1307,25.86225 2.9931,41.30983 -4.1374,15.44758 -28.963,32.08343 -53.7884,40.40137 -24.8254,8.31792 -96.1983,1.18827 -106.5423,-1.18829 -10.3439,-2.37654 -47.5819,-10.69447 -68.2698,-5.94136 -20.6879,4.75309 -79.6481,11.88274 -111.7142,7.12965 -32.0662,-4.75311 -58.9603,-19.01241 -59.9948,-33.27171 -1.0343,-14.25931 -3.1032,-10.69448 0,-39.21309 z"
       id="path1043"
       inkscape:connector-curvature="0"
       sodipodi:nodetypes="csscssccsccscc" />
    <path
       style="fill:#ffffff;fill-rule:evenodd;stroke:none;stroke-width:1px;stroke-linecap:butt;stroke-linejoin:miter;stroke-opacity:1"
       d="m 1944.3016,233.0595 c -22.8961,17.75617 -71.9593,58.40848 -78.0338,64.01569 -6.0744,5.60722 -9.8126,23.83066 4.2055,19.15798 14.018,-4.67267 32.2414,-13.0835 37.8487,-14.01803 5.6072,-0.93454 9.8126,-1.86907 13.5507,-1.4018 -18.2234,4.20541 -68.2211,21.49432 -96.7244,92.51903 35.5123,-65.4175 80.37,-77.0992 89.2481,-80.37007 8.8781,-3.27088 23.8307,-7.47629 24.298,-14.95257 0.4672,-7.47629 -9.8127,-14.95257 -27.5688,-10.27989 22.4288,-13.08351 59.343,-45.32499 73.8283,-45.32499 14.4853,0 -40.6523,-9.34535 -40.6523,-9.34535 z"
       id="path1045"
       inkscape:connector-curvature="0" />
    <path
       style="fill:#ffffff;fill-rule:evenodd;stroke:none;stroke-width:1.00609px;stroke-linecap:butt;stroke-linejoin:miter;stroke-opacity:1"
       d="m 218.83115,1377.9428 c 36.54319,-26.4688 49.10493,-24.7043 63.95062,-27.3511 14.84566,-2.6467 127.90121,-6.176 149.59875,-4.4114 21.69753,1.7647 118.76542,8.8229 149.59876,33.527 30.83331,24.7042 60.52469,45.879 57.09877,82.9352 -3.42594,37.0562 -12.56174,104.1103 -33.11729,126.1674 -20.55557,22.0573 -65.09259,37.0562 -115.3395,44.9968 -50.24692,7.9406 -195.27779,-3.5291 -216.97531,-5.2937 -21.69753,-1.7645 -74.2284,-18.5281 -91.35801,-40.5853 -17.12964,-22.0573 -42.2531,-71.4655 -34.25927,-104.1102 7.99383,-32.6446 27.40741,-76.7593 70.80248,-105.8747 z"
       id="path1047"
       inkscape:connector-curvature="0" />
    <path
       style="fill:#ffffff;fill-rule:evenodd;stroke:none;stroke-width:1px;stroke-linecap:butt;stroke-linejoin:miter;stroke-opacity:1"
       d="m 271.50243,1608.4597 c 44.91316,-22.9051 72.62553,-25.7681 98.4267,-27.6769 25.80118,-1.9088 84.09273,0.9543 111.8051,13.3612 27.71238,12.4069 46.82436,36.2663 53.51355,48.6732 6.68919,12.4068 12.42279,52.4905 1.9112,70.6237 -10.51159,18.133 -45.86876,44.8555 -66.89194,53.4449 -21.02317,8.5894 -113.71629,11.4525 -151.94025,0 -38.22397,-11.4525 -65.93634,-29.5856 -75.49234,-55.3537 -9.55599,-25.7681 -9.55599,-82.0762 28.66798,-103.0724 z"
       id="path1049"
       inkscape:connector-curvature="0" />
    <path
       style="fill:#ffffff;fill-rule:evenodd;stroke:none;stroke-width:1px;stroke-linecap:butt;stroke-linejoin:miter;stroke-opacity:1"
       d="m 571.51827,1489.8102 c 22.69719,-37.8287 85.61623,-110.0078 124.52571,-129.4625 38.90949,-19.4548 94.88053,-25.0946 113.25446,-22.933 15.70987,1.7353 35.90084,19.0754 55.12176,42.152 -15.13146,-30.263 -47.25978,-48.6478 -52.66387,-49.7286 -18.40862,-4.2887 -108.87383,-25.5751 -222.35983,69.5369 -113.48599,95.1121 -51.38362,121.779 -51.38362,121.779 z"
       id="path1051"
       inkscape:connector-curvature="0"
       sodipodi:nodetypes="cccccscc" />
    <path
       style="fill:#ffffff;fill-rule:evenodd;stroke:none;stroke-width:1.05598px;stroke-linecap:butt;stroke-linejoin:miter;stroke-opacity:1"
       d="m 165.3529,2202.8255 c -1.5114,-39.1922 28.71667,-52.7588 54.41053,-57.281 25.69386,-4.5222 114.86667,-4.5222 129.9807,-1.5074 15.11403,3.0147 104.28684,0 122.42368,1.5074 18.13684,1.5073 77.08157,12.0591 87.66141,39.1923 10.57982,27.1331 25.69385,34.67 10.57982,60.2958 -15.11404,25.6257 -33.25088,48.2366 -95.21843,54.2662 -61.96753,6.0297 -194.97104,1.5074 -250.89297,-13.5665 -55.92193,-15.074 -58.94474,-45.2219 -58.94474,-82.9068 z"
       id="path1053"
       inkscape:connector-curvature="0" />
    <path
       style="fill:#ffffff;fill-rule:evenodd;stroke:none;stroke-width:1px;stroke-linecap:butt;stroke-linejoin:miter;stroke-opacity:1"
       d="m 348.19942,2246.5661 c -29.42116,45.7663 -39.16091,33.6645 -43.24718,61.4512 -4.08627,27.7866 9.73975,53.7817 22.81582,64.406 13.07607,10.6243 34.32468,25.3349 15.52783,41.68 -18.79685,16.3451 -40.04547,26.1521 -35.95919,72.7356 4.08627,46.5835 21.24861,49.0353 27.78665,53.1215 -25.33489,-10.1025 -30.23842,-73.5529 -15.52784,-93.167 14.71058,-19.6141 16.91712,-15.0754 32.69018,-26.1521 13.88076,-9.7478 27.00207,-30.3114 -3.85728,-57.4442 -30.85936,-27.1329 -14.46952,-78.6996 28.77766,-101.4055 85.22691,-44.7462 -29.00665,-15.2255 -29.00665,-15.2255 z"
       id="path1055"
       inkscape:connector-curvature="0"
       sodipodi:nodetypes="csssscsszsc" />
    <path
       style="fill:#ffffff;fill-rule:evenodd;stroke:none;stroke-width:0.993209px;stroke-linecap:butt;stroke-linejoin:miter;stroke-opacity:1"
       d="m 809.43922,2233.5425 c 25.53242,-51.8725 53.52609,-57.7001 91.72949,-65.9004 82.78977,-9.5251 153.09259,3.1037 232.52299,0.297 41.1247,-1.5256 97.2884,19.8337 115.6921,47.2955 18.404,27.4619 46.8394,109.8475 40.321,135.7837 -6.5184,25.9363 -18.5233,94.5911 -46.1203,112.8989 -27.597,18.3079 -47.9854,35.0903 -94.6021,39.6673 -46.6167,4.5769 -223.47398,7.6283 -244.82618,6.1026 -21.35224,-1.5257 -82.80266,-24.4106 -100.31685,-71.7061 -17.51419,-47.2954 -19.65884,-158.6686 5.59985,-204.4385 z"
       id="path1057"
       inkscape:connector-curvature="0"
       sodipodi:nodetypes="cccscssssc" />
    <path
       style="fill:#ffffff;fill-rule:evenodd;stroke:none;stroke-width:1px;stroke-linecap:butt;stroke-linejoin:miter;stroke-opacity:1"
       d="m 1078.5698,2470.4285 c 7.4155,31.516 12.9772,52.5267 19.7748,59.9423 6.7976,7.4155 22.8646,14.2131 33.3699,15.449 10.5054,1.236 21.0107,6.1796 6.1796,23.4826 -14.831,17.3029 -1.8538,54.9986 45.1112,57.4704 -46.965,-11.7413 -43.8752,-47.583 -27.8082,-54.3806 16.067,-6.7976 20.3927,-39.5496 -16.685,-50.6729 -32.752,-8.6514 -11.1233,-129.7719 -11.1233,-129.7719 z"
       id="path1059"
       inkscape:connector-curvature="0" />
  </g>
  <g
     inkscape:groupmode="layer"
     id="layer1"
     inkscape:label="txt"
     style="opacity:1">
    <text
       xml:space="preserve"
       style="font-style:normal;font-variant:normal;font-weight:normal;font-stretch:normal;line-height:0%;font-family:Lavi;-inkscape-font-specification:Lavi;text-align:center;letter-spacing:0px;word-spacing:0px;text-anchor:middle;fill:#000000;fill-opacity:1;stroke:none"
       x="375.40958"
       y="165.38466"
       id="text4246"><tspan
         sodipodi:role="line"
         style="font-size:45px;line-height:1.2"
         x="375.40958"
         y="165.38466"
         id="tspan58">mi wile kepeken </tspan><tspan
         sodipodi:role="line"
         style="font-size:45px;line-height:1.2"
         x="375.40958"
         y="219.38466"
         id="tspan62">nasin len tawa moku la, </tspan><tspan
         sodipodi:role="line"
         style="font-size:45px;line-height:1.2"
         x="375.40958"
         y="273.38467"
         id="tspan64">mi pilin nasa.</tspan></text>
    <text
       xml:space="preserve"
       style="font-style:normal;font-variant:normal;font-weight:normal;font-stretch:normal;line-height:0%;font-family:Lavi;-inkscape-font-specification:Lavi;text-align:center;letter-spacing:0px;word-spacing:0px;text-anchor:middle;fill:#000000;fill-opacity:1;stroke:none"
       x="372.4762"
       y="967.95374"
       id="text4246-3"><tspan
         sodipodi:role="line"
         style="font-size:45px;line-height:1.2"
         x="372.4762"
         y="967.95374"
         id="tspan868">taso jan sona mi la, </tspan><tspan
         sodipodi:role="line"
         style="font-size:45px;line-height:1.2"
         x="372.4762"
         y="1021.9537"
         id="tspan79">kulupu mi li sama </tspan><tspan
         sodipodi:role="line"
         style="font-size:45px;line-height:1.2"
         x="372.4762"
         y="1075.9537"
         id="tspan83">kon sewi, li wile ala e </tspan><tspan
         sodipodi:role="line"
         style="font-size:45px;line-height:1.2"
         x="372.4762"
         y="1129.9537"
         id="tspan85">wile jan.</tspan></text>
    <text
       xml:space="preserve"
       style="font-style:normal;font-variant:normal;font-weight:normal;font-stretch:normal;line-height:0%;font-family:Lavi;-inkscape-font-specification:Lavi;text-align:center;letter-spacing:0px;word-spacing:0px;text-anchor:middle;fill:#000000;fill-opacity:1;stroke:none"
       x="2047.1042"
       y="217.40169"
       id="text4246-3-3"><tspan
         sodipodi:role="line"
         style="font-size:45px;line-height:1.2"
         x="2047.1042"
         y="217.40169"
         id="tspan868-9">aa! sina lon ni!</tspan></text>
    <text
       xml:space="preserve"
       style="font-style:normal;font-variant:normal;font-weight:normal;font-stretch:normal;line-height:0%;font-family:Lavi;-inkscape-font-specification:Lavi;text-align:center;letter-spacing:0px;word-spacing:0px;text-anchor:middle;fill:#000000;fill-opacity:1;stroke:none"
       x="399.99753"
       y="1426.5085"
       id="text4246-3-3-1"><tspan
         sodipodi:role="line"
         style="font-size:45px;line-height:1.2"
         x="399.99753"
         y="1426.5085"
         id="tspan924">pini pona a!</tspan><tspan
         sodipodi:role="line"
         style="font-size:45px;line-height:1.2"
         x="399.99753"
         y="1480.5085"
         id="tspan928">mi kama weka </tspan><tspan
         sodipodi:role="line"
         style="font-size:45px;line-height:1.2"
         x="399.99753"
         y="1534.5085"
         id="tspan92">tan jan pi wile sitelen </tspan><tspan
         sodipodi:role="line"
         style="font-size:45px;line-height:1.2"
         x="399.99753"
         y="1588.5085"
         id="tspan94">lon ni.</tspan></text>
    <text
       xml:space="preserve"
       style="font-style:normal;font-variant:normal;font-weight:normal;font-stretch:normal;line-height:0%;font-family:Lavi;-inkscape-font-specification:Lavi;text-align:center;letter-spacing:0px;word-spacing:0px;text-anchor:middle;fill:#000000;fill-opacity:1;stroke:none"
       x="390.59467"
       y="1666.9772"
       id="text4246-3-3-1-7"><tspan
         sodipodi:role="line"
         style="font-size:45px;line-height:1.2"
         x="390.59467"
         y="1666.9772"
         id="tspan966">ona li nasa </tspan><tspan
         sodipodi:role="line"
         style="font-size:45px;line-height:1.2"
         x="390.59467"
         y="1720.9772"
         id="tspan70">e lawa mi.</tspan></text>
    <text
       xml:space="preserve"
       style="font-style:normal;font-variant:normal;font-weight:normal;font-stretch:normal;line-height:0%;font-family:Lavi;-inkscape-font-specification:Lavi;text-align:center;letter-spacing:0px;word-spacing:0px;text-anchor:middle;fill:#000000;fill-opacity:1;stroke:none"
       x="370.32666"
       y="2217.155"
       id="text4246-3-3-1-7-0"><tspan
         sodipodi:role="line"
         style="font-size:45px;line-height:1.2"
         x="370.32666"
         y="2217.155"
         id="tspan966-2">jan pi wile sitelen </tspan><tspan
         sodipodi:role="line"
         style="font-size:45px;line-height:1.2"
         x="370.32666"
         y="2271.155"
         id="tspan53">anu seme?</tspan></text>
    <text
       xml:space="preserve"
       style="font-style:normal;font-variant:normal;font-weight:normal;font-stretch:normal;line-height:0%;font-family:Lavi;-inkscape-font-specification:Lavi;text-align:center;letter-spacing:0px;word-spacing:0px;text-anchor:middle;fill:#000000;fill-opacity:1;stroke:none"
       x="1037.3441"
       y="2243.0564"
       id="text4246-3-3-1-7-0-6"><tspan
         sodipodi:role="line"
         style="font-size:45px;line-height:1.2"
         x="1037.3441"
         y="2243.0564"
         id="tspan1023">sina sona ala e </tspan><tspan
         sodipodi:role="line"
         style="font-size:45px;line-height:1.2"
         x="1037.3441"
         y="2297.0564"
         id="tspan110">toki pi pilin ala </tspan><tspan
         sodipodi:role="line"
         style="font-size:45px;line-height:1.2"
         x="1037.3441"
         y="2351.0564"
         id="tspan112">lon poka pi jan lawa, </tspan><tspan
         sodipodi:role="line"
         style="font-size:45px;line-height:1.2"
         x="1037.3441"
         y="2405.0564"
         id="tspan114">kepeken ni lon </tspan><tspan
         sodipodi:role="line"
         style="font-size:45px;line-height:1.2"
         x="1037.3441"
         y="2459.0564"
         id="tspan116">lawa sina.</tspan></text>
    <text
       xml:space="preserve"
       style="font-style:normal;font-variant:normal;font-weight:normal;font-stretch:normal;font-size:13.6717px;line-height:0%;font-family:Lavi;-inkscape-font-specification:Lavi;text-align:center;letter-spacing:0px;word-spacing:0px;text-anchor:middle;fill:#ffffff;fill-opacity:0.431373;stroke:#ffffff;stroke-width:0.410156;stroke-miterlimit:4;stroke-dasharray:none;stroke-opacity:1"
       x="1673.4884"
       y="2527.4509"
       id="text4246-8"
       transform="matrix(0.89761483,-0.24846861,0.02683826,1.1066345,0,0)"><tspan
         sodipodi:role="line"
         style="font-size:35.0469px;line-height:1.25;fill:#ffffff;fill-opacity:0.431373;stroke:#ffffff;stroke-width:0.410156;stroke-miterlimit:4;stroke-dasharray:none;stroke-opacity:1"
         x="1673.4884"
         y="2527.4509"
         id="tspan4150-8">Luka</tspan><tspan
         sodipodi:role="line"
         style="font-size:35.0469px;line-height:1.25;fill:#ffffff;fill-opacity:0.431373;stroke:#ffffff;stroke-width:0.410156;stroke-miterlimit:4;stroke-dasharray:none;stroke-opacity:1"
         x="1673.4884"
         y="2571.2595"
         id="tspan1033">Luka</tspan></text>
  </g>
</svg>
