<?xml version="1.0" encoding="UTF-8" standalone="no"?>
<svg
   xmlns:dc="http://purl.org/dc/elements/1.1/"
   xmlns:cc="http://creativecommons.org/ns#"
   xmlns:rdf="http://www.w3.org/1999/02/22-rdf-syntax-ns#"
   xmlns:svg="http://www.w3.org/2000/svg"
   xmlns="http://www.w3.org/2000/svg"
   xmlns:xlink="http://www.w3.org/1999/xlink"
   xmlns:sodipodi="http://sodipodi.sourceforge.net/DTD/sodipodi-0.dtd"
   xmlns:inkscape="http://www.inkscape.org/namespaces/inkscape"
   id="svg2"
   version="1.1"
   inkscape:version="0.92.2 (5c3e80d, 2017-08-06)"
   width="2481"
   height="3503"
   sodipodi:docname="E34P04.svg">
  <metadata
     id="metadata8">
    <rdf:RDF>
      <cc:Work
         rdf:about="">
        <dc:format>image/svg+xml</dc:format>
        <dc:type
           rdf:resource="http://purl.org/dc/dcmitype/StillImage" />
        <dc:title />
      </cc:Work>
    </rdf:RDF>
  </metadata>
  <defs
     id="defs6">
    <filter
       style="color-interpolation-filters:sRGB"
       id="filter4375-4-1-1-1-9-5-8-8-5-5-3-8"
       inkscape:label="soundFX1">
      <feFlood
         id="feFlood4377-7-9-0-8-1-7-3-1-2-7-6-7"
         flood-opacity="1"
         flood-color="rgb(255,255,255)"
         result="flood" />
      <feComposite
         id="feComposite4379-3-8-8-2-77-4-1-0-6-4-7-9"
         in2="SourceGraphic"
         in="flood"
         operator="in"
         result="composite1"
         baseFrequency="0.053999999999999999 0.053999999999999999" />
      <feMorphology
         id="feMorphology4393-1-0-49-8-9-3-0-1-9-9-5-2"
         operator="dilate"
         radius="2.9756367599225957"
         result="result3" />
      <feComposite
         id="feComposite4385-9-5-7-0-8-8-7-5-4-9-3-0"
         in2="result3"
         in="SourceGraphic"
         operator="over"
         result="fbSourceGraphic" />
      <feColorMatrix
         result="fbSourceGraphicAlpha"
         in="fbSourceGraphic"
         values="0 0 0 -1 0 0 0 0 -1 0 0 0 0 -1 0 0 0 0 1 0"
         id="feColorMatrix4544-9-4-4-5-2" />
      <feTurbulence
         id="feTurbulence4546-3-6-5-6-3"
         type="fractalNoise"
         numOctaves="5"
         seed="174"
         baseFrequency="0.053999999999999999 0.054054054054054057"
         result="turbulence" />
      <feDisplacementMap
         id="feDisplacementMap4548-8-0-9-2-7"
         in2="turbulence"
         in="fbSourceGraphic"
         scale="6.6"
         yChannelSelector="G"
         xChannelSelector="R"
         result="fbSourceGraphic" />
      <feColorMatrix
         result="fbSourceGraphicAlpha"
         in="fbSourceGraphic"
         values="0 0 0 -1 0 0 0 0 -1 0 0 0 0 -1 0 0 0 0 1 0"
         id="feColorMatrix4670-7-7-3-9-5" />
      <feFlood
         id="feFlood4672-4-4-5-1-9"
         flood-opacity="1"
         flood-color="rgb(255,255,255)"
         result="flood"
         in="fbSourceGraphic" />
      <feComposite
         id="feComposite4674-8-3-7-2-22"
         in2="fbSourceGraphic"
         in="flood"
         operator="in"
         result="composite1" />
      <feGaussianBlur
         id="feGaussianBlur4676-3-7-08-7-8"
         in="composite1"
         stdDeviation="0"
         result="blur" />
      <feOffset
         id="feOffset4678-6-9-1-0-9"
         dx="-6.3258232761971414"
         dy="6"
         result="offset" />
      <feComposite
         id="feComposite4680-4-0-9-9-7"
         in2="offset"
         in="fbSourceGraphic"
         operator="over"
         result="composite2" />
    </filter>
  </defs>
  <sodipodi:namedview
     pagecolor="#ffffff"
     bordercolor="#666666"
     borderopacity="1"
     objecttolerance="10"
     gridtolerance="10"
     guidetolerance="10"
     inkscape:pageopacity="0"
     inkscape:pageshadow="2"
     inkscape:window-width="1378"
     inkscape:window-height="1047"
     id="namedview4"
     showgrid="false"
     inkscape:zoom="0.52900002"
     inkscape:cx="1225.373"
     inkscape:cy="863.87517"
     inkscape:window-x="447"
     inkscape:window-y="0"
     inkscape:window-maximized="0"
     inkscape:current-layer="layer3"
     inkscape:document-rotation="0"
     borderlayer="true"
     inkscape:snap-global="false" />
  <g
     inkscape:groupmode="layer"
     id="layer2"
     inkscape:label="artwork"
     sodipodi:insensitive="true">
    <image
       sodipodi:absref="C:\Users\Kari\Documents\Pepper and Carrot\Episode 34\fi\../lang/en/./../gfx_Pepper-and-Carrot_by-David-Revoy_E34P04.png"
       xlink:href="../gfx_Pepper-and-Carrot_by-David-Revoy_E34P04.png"
       width="2481"
       height="3503"
       id="image10"
       x="0"
       y="0" />
  </g>
  <g
     inkscape:groupmode="layer"
     id="layer3"
     inkscape:label="speechbubbles"
     style="display:inline">
    <path
       style="color:#000000;display:inline;overflow:visible;visibility:visible;fill:#ffffff;fill-opacity:1;fill-rule:nonzero;stroke:none;stroke-width:0.865993px;marker:none;enable-background:accumulate"
       d="m 942.60024,140.18951 c -31.91919,0.211 -64.48071,4.95609 -93.3829,19.12925 -21.5604,10.86216 -37.65135,31.38351 -44.08438,54.55007 -6.35327,20.15773 -6.97011,42.87106 1.87995,62.39202 9.00782,18.72527 27.00418,31.94083 46.55449,38.04613 40.78419,14.89576 84.4479,20.28572 127.68419,20.64969 34.39011,-0.54015 69.30881,-9.23071 98.03251,-28.62612 14.0693,-9.8231 25.0342,-24.39462 29.279,-41.1365 7.5949,-26.96895 1.7202,-57.18896 -14.7554,-79.74789 -10.7189,-14.33495 -26.2154,-24.94169 -43.4158,-29.86718 -18.618,-6.06677 -38.0268,-9.15884 -57.32486,-12.16095 -16.72361,-2.21837 -33.59579,-3.32292 -50.4668,-3.22852 z"
       id="path4040-4-5-3-5"
       inkscape:connector-curvature="0"
       sodipodi:nodetypes="zssssz" />
    <path
       style="color:#000000;display:inline;overflow:visible;visibility:visible;fill:#ffffff;fill-opacity:1;fill-rule:nonzero;stroke:none;stroke-width:1.2159313px;marker:none;enable-background:accumulate"
       d="m 973.6143,313.60959 c -43.19027,1.52983 -85.7521,9.91069 -127.63584,19.81686 -24.0178,6.68294 -46.2384,19.42206 -63.70967,36.83473 -20.33696,19.29651 -36.12707,44.30122 -40.00837,72.04386 -4.47661,31.35165 6.1985,65.06865 30.17998,86.85761 20.11276,18.60441 47.52082,28.49024 74.94607,30.30138 52.65885,5.13984 105.51563,8.66438 158.45033,9.14505 31.5523,0.29909 63.1435,-0.10815 94.6247,-2.29306 28.8882,-3.05114 57.6772,-10.16217 83.3705,-23.63946 21.4825,-12.96547 34.3697,-37.41862 34.3642,-61.84471 0.6259,-28.06391 -6.9064,-56.40491 -22.4635,-80.12257 -12.8219,-19.6443 -28.4132,-38.15495 -48.5627,-51.03481 -16.604,-10.748 -36.0355,-16.21668 -55.2196,-20.75282 -20.488,-4.55808 -41.0385,-8.99955 -61.8975,-11.63798 -18.6984,-2.46504 -37.56481,-3.81018 -56.4386,-3.67408 z"
       id="path4040-4-5-3"
       inkscape:connector-curvature="0"
       sodipodi:nodetypes="zssssz" />
    <path
       style="color:#000000;display:inline;overflow:visible;visibility:visible;fill:#ffffff;fill-opacity:1;fill-rule:nonzero;stroke:none;stroke-width:1px;marker:none;enable-background:accumulate"
       d="m 907.21667,619.60054 c 72.99905,-2.53565 65.7638,-63.19299 71.48587,-78.47444 l 37.78086,7.15422 c 0,0 -26.16471,95.6219 -109.26673,71.32022 z"
       id="path3072-5-5"
       inkscape:connector-curvature="0"
       sodipodi:nodetypes="cccc" />
    <path
       style="display:inline;fill:#ffffff;fill-rule:evenodd;stroke:none;stroke-width:1.408px;stroke-linecap:butt;stroke-linejoin:miter;stroke-opacity:1"
       d="m 1729.4941,1533.8343 c -263.4619,-188.6648 -719.6026,-198.4778 -988.12534,-169.638 l -8.73311,23.8296 c 289.95695,-44.5653 772.14605,6.8513 996.85845,145.8084 z"
       id="path1094"
       inkscape:connector-curvature="0"
       sodipodi:nodetypes="cccc" />
    <path
       style="color:#000000;display:inline;overflow:visible;visibility:visible;fill:#ffffff;fill-opacity:1;fill-rule:nonzero;stroke:none;stroke-width:1.48321px;marker:none;enable-background:accumulate"
       d="m 1211.9228,1266.2938 c -41.3244,-0.413 -83.1474,5.2155 -121.2708,21.147 -24.2076,10.1932 -46.4152,26.1924 -61.4468,47.9041 -17.8986,25.6578 -22.8237,60.5634 -10.8976,90.1247 11.6488,28.8684 34.4137,52.5226 61.2294,67.9418 22.2956,12.594 47.7871,17.9267 72.9559,19.9819 32.9941,2.9905 66.1669,2.1231 99.0414,-0.8479 17.3002,-1.5675 34.5819,-3.4286 51.7513,-5.9783 26.5523,-4.6104 52.5534,-15.1117 72.5829,-33.2953 18.6282,-16.4958 33.7967,-37.7197 40.1581,-62.0981 5.3717,-22.1678 -0.4566,-46.8517 -15.2726,-64.5203 -22.802,-30.2111 -55.0876,-52.9811 -90.7613,-65.1389 -31.5281,-10.91 -64.9814,-14.9138 -98.0699,-15.2207 z"
       id="path3365-3"
       inkscape:connector-curvature="0"
       sodipodi:nodetypes="cssccc" />
    <path
       style="fill:#ffffff;fill-rule:evenodd;stroke:none;stroke-width:1.11236513px;stroke-linecap:butt;stroke-linejoin:miter;stroke-opacity:1"
       d="m 510.27092,1252.2614 c -50.05393,0.5879 -100.17966,-0.1725 -150.15198,2.9118 -27.75936,2.5986 -55.75228,5.241 -82.58466,12.4482 -27.61642,9.2683 -54.22024,22.5702 -74.39791,42.1622 -16.06822,16.3654 -27.44973,36.9928 -29.55067,58.8871 -0.84705,15.8656 5.67975,31.1506 13.84521,44.9403 12.30016,21.1267 30.74851,39.8236 54.35534,51.1417 20.30935,9.8984 43.24054,14.1975 65.86645,17.417 26.13624,3.516 52.56315,4.7715 78.93236,5.9616 78.26552,2.7583 156.61205,-1.5191 234.49549,-8.3305 30.87285,-3.1038 61.92169,-6.8391 91.58011,-15.4375 22.22942,-7.2421 43.02464,-19.7156 56.17012,-37.6377 10.70863,-14.9974 16.62393,-32.2012 21.99104,-49.2021 2.81162,-13.0313 -1.8014,-26.2074 -7.66896,-38.0259 -7.61102,-15.4504 -17.84452,-29.9264 -30.56491,-42.3989 -8.85925,-8.2659 -19.92981,-14.3985 -31.73666,-18.6765 -17.92573,-6.9679 -36.70905,-11.9598 -55.52886,-16.5611 -28.99723,-6.6142 -58.96874,-9.5885 -88.87172,-9.2947 -22.05728,-0.3744 -44.11971,-0.3038 -66.17979,-0.305 z"
       id="path1079"
       inkscape:connector-curvature="0" />
    <path
       id="path5050-5"
       style="color:#000000;display:inline;overflow:visible;visibility:visible;fill:#ffffff;fill-opacity:1;fill-rule:nonzero;stroke:none;stroke-width:1.10542px;marker:none;enable-background:accumulate"
       d="m 1055.3066,2327.9473 c -6.7695,3.1849 -13.5391,6.3698 -20.3086,9.5547 -5.4515,8.7234 -8.4665,18.631 -12.08,28.1855 0.2877,8.9888 4.778,17.1081 7.4112,25.5492 4.8043,13.3509 10.142,27.6669 6.8338,42.0256 -3.4158,16.5674 -11.898,31.5008 -16.4345,47.7397 -0.956,12.8214 5.6959,25.4955 16.2957,32.604 7.6345,5.5383 17.8577,10.6572 22.2668,17.4448 4.4091,6.7876 3.9198,12.9565 3.0275,20.0069 -0.8923,7.0504 -6.8233,13.4216 -10.106,20.1773 -2.5543,5.2297 -6.5724,10.2065 -4.8898,16.3644 0.5485,8.6419 3.5528,16.9498 8.2569,24.18 1.9155,5.167 7.5375,11.5732 1.5157,15.9953 -3.2977,3.3341 -6.6403,6.6236 -10.0035,9.8933 6.6199,-4.2691 13.2848,-8.7213 18.4668,-14.7364 2.2175,-7.1316 -0.2102,-14.5787 -3.3587,-21.0008 -3.3881,-9.4513 -0.8017,-19.8562 4.2602,-28.1901 5.6073,-9.9289 13.8919,-19.3951 13.8982,-31.4245 0.5595,-12.2965 -5.2038,-24.6049 -15.0512,-32.0084 -6.3523,-5.6552 -13.9693,-10.3956 -18.4457,-17.7889 -5.2096,-11.3685 -1.3783,-24.1347 3.0069,-35.0894 5.3982,-14.2627 13.5704,-28.4586 12.1858,-44.2358 -1.3898,-17.7099 -13.4465,-33.5966 -10.8255,-51.7808 1.5634,-10.2967 5.5548,-20.0386 7.2382,-30.3113 -0.044,-1.6098 -1.4268,-3.3809 -3.1602,-3.1543 z"
       sodipodi:nodetypes="ccccccczzcccccccccccccccc" />
    <path
       id="path1086-2"
       style="display:inline;fill:#ffffff;fill-rule:evenodd;stroke:none;stroke-width:1.72192px;stroke-linecap:butt;stroke-linejoin:miter;stroke-opacity:1"
       d="m 969.49288,2362.244 c -22.05887,2.072 -43.10903,11.2864 -65.53602,10.1905 -16.18698,-0.046 -33.37431,-3.2616 -48.52731,4.1788 -11.78466,5.7666 -24.17795,12.7516 -30.91546,24.4734 -7.39475,14.5227 -9.92206,33.1117 -0.76509,47.4824 12.40948,19.6335 35.12294,32.5447 58.45033,32.4581 19.80037,0.1222 39.61778,2.0994 58.81628,7.0853 15.31402,3.5903 31.44686,5.4007 46.8387,1.128 14.92249,-3.5641 30.30029,-7.7909 45.72809,-4.9333 19.4406,2.8709 38.8582,8.7921 58.6981,5.9357 24.4445,-2.8639 48.3035,-12.2598 73.2355,-9.4962 14.712,1.1364 30.902,2.2363 43.5759,-6.8501 20.7512,-13.656 28.7839,-43.783 17.4388,-65.8698 -8.7079,-13.4201 -24.4854,-19.8261 -39.1024,-24.6114 -22.1315,-6.8718 -46.0305,-1.9296 -68.0695,-9.3646 -13.7036,-4.261 -27.8503,-8.1533 -42.3539,-6.9259 -25.8828,1.1429 -52.2063,6.2281 -77.78622,-0.3296 -9.7978,-2.1008 -19.64553,-4.5119 -29.72582,-4.5513 z" />
    <path
       id="path1086"
       style="display:inline;fill:#ffffff;fill-rule:evenodd;stroke:none;stroke-width:1.15190232px;stroke-linecap:butt;stroke-linejoin:miter;stroke-opacity:1"
       d="m 931.05572,2287.7817 c 11.53663,-13.0131 30.8332,-20.4085 49.89443,-25.1206 19.69045,-4.8304 40.39795,-6.7484 61.02115,-6.9132 19.0681,-0.3452 38.7884,-1.505 57.1628,3.2629 8.8844,2.5751 17.0737,6.3476 25.3815,9.8373 11.0959,5.0191 22.6789,11.2049 27.1179,20.9226 2.8948,6.2472 0.7135,12.8861 0.7424,19.3176 -0.5259,9.8612 -1.2083,20.7155 -10.0292,28.5913 -8.5433,8.1476 -22.1516,11.2975 -34.6815,14.2544 -20.6996,4.4306 -41.9417,7.4298 -63.3293,9.0531 -13.771,1.0974 -27.8519,2.1776 -41.5039,-0.2271 -16.37201,-2.6873 -31.08309,-9.3127 -44.71712,-16.513 -10.98262,-6.1764 -21.87638,-13.394 -27.28416,-23.2141 -3.24117,-7.1043 -2.60612,-14.833 -1.9136,-22.2214 0.46473,-3.7008 1.14241,-7.3899 2.1386,-11.0298 z"
       inkscape:connector-curvature="0" />
    <path
       style="color:#000000;display:inline;overflow:visible;visibility:visible;fill:#ffffff;fill-opacity:1;fill-rule:nonzero;stroke:none;stroke-width:1.00142px;marker:none;enable-background:accumulate"
       d="m 1551.4802,2844.6354 c -29.2718,23.6335 -49.9774,61.4772 -38.0228,102.9845 11.9549,41.5072 -6.8025,41.4052 -6.8025,41.4052 l -37.425,-15.5296 c 0,0 -6.4717,-90.5725 82.2503,-128.8601 z"
       id="path3072-6"
       inkscape:connector-curvature="0"
       sodipodi:nodetypes="csccc" />
    <path
       style="display:inline;fill:#ffffff;stroke:none;stroke-width:0.77936715"
       d="m 1484.6337,3073.9932 c -44.875,0.8465 -90.0672,10.7042 -128.1404,31.2547 -29.8844,16.7488 -52.678,43.2844 -59.6764,73.3156 -4.1499,19.6687 0.1873,39.6523 4.9192,58.9434 6.143,24.5628 22.1999,47.3104 45.2347,63.1191 15.7758,10.8716 34.287,18.6069 53.4524,24.143 24.1434,6.8736 49.6579,9.5931 75.039,10.0138 41.9103,1.4504 83.8723,0.6618 125.7822,-0.3562 35.7016,-1.4397 71.8917,-5.3895 105.0761,-17.2386 34.3566,-12.4491 64.1771,-35.0047 80.1457,-63.9052 14.6474,-26.6043 16.9202,-58.417 3.9102,-85.8203 -11.4339,-22.9661 -33.213,-41.1685 -57.6687,-54.4182 -23.7853,-12.8756 -50.9713,-20.5678 -78.5812,-24.9178 -30.4652,-5.1345 -61.3558,-8.1093 -92.1756,-11.2172 -25.6833,-2.178 -51.5079,-3.1422 -77.3172,-2.9161 z"
       id="path3280-5"
       inkscape:connector-curvature="0"
       sodipodi:nodetypes="csssc" />
    <path
       style="fill:#ffffff;stroke:none;stroke-width:0.474903"
       d="m 1461.4846,2953.7552 c -25.9687,0.633 -52.3735,3.7032 -76.7027,13.9642 -13.6803,5.798 -27.1481,13.0877 -37.815,23.9528 -6.6476,6.773 -11.6982,15.2426 -14.2784,24.549 -3.6597,12.6449 -3.8962,26.2476 -1.277,39.0708 2.1286,9.4931 7.3905,18.4033 15.3984,23.6259 10.7389,7.6321 23.364,11.6508 35.8122,15.1757 25.1016,6.2355 51.1315,5.9742 76.8211,6.4885 29.4733,0.4309 59.0293,0.7796 88.4281,-2.3138 17.0422,-1.8784 34.4614,-3.6385 50.4618,-10.6108 10.0949,-4.4913 19.1189,-12.0982 24.4397,-22.2255 10.1028,-18.5058 9.09,-43.3427 -3.7441,-59.9401 -10.4112,-13.69 -25.4102,-22.4891 -40.6278,-29.2278 -27.1512,-12.2593 -56.3454,-19.5362 -85.9231,-21.7936 -10.3051,-0.8261 -20.6537,-0.9812 -30.9932,-0.7153 z"
       id="path3280-8-0"
       inkscape:connector-curvature="0"
       sodipodi:nodetypes="csssc" />
  </g>
  <g
     inkscape:groupmode="layer"
     id="layer1"
     inkscape:label="txt">
    <text
       xml:space="preserve"
       style="font-style:normal;font-variant:normal;font-weight:normal;font-stretch:normal;font-size:45px;line-height:1.25;font-family:Lavi;-inkscape-font-specification:Lavi;text-align:center;letter-spacing:0px;word-spacing:0px;text-anchor:middle;fill:#000000;fill-opacity:1;stroke:none"
       x="961.93353"
       y="214.39328"
       id="text4246-3-2-2-6-3-7-9-3"><tspan
         style="font-size:45px"
         sodipodi:role="line"
         x="961.93353"
         y="214.39328"
         id="tspan952-5">Kyllä,teidän</tspan><tspan
         style="font-size:45px"
         sodipodi:role="line"
         x="961.93353"
         y="270.64328"
         id="tspan850">korkeutenne.</tspan></text>
    <text
       xml:space="preserve"
       style="font-style:normal;font-variant:normal;font-weight:normal;font-stretch:normal;font-size:45px;line-height:1.25;font-family:Lavi;-inkscape-font-specification:Lavi;text-align:center;letter-spacing:0px;word-spacing:0px;text-anchor:middle;fill:#000000;fill-opacity:1;stroke:none"
       x="975.57129"
       y="372.08777"
       id="text4246-3-2-2-6-3-7-9-3-3"><tspan
         style="font-size:45px"
         sodipodi:role="line"
         x="975.57129"
         y="372.08777"
         id="tspan3755">Hänen</tspan><tspan
         style="font-size:45px"
         sodipodi:role="line"
         x="975.57129"
         y="428.33777"
         id="tspan894">nimensä on Pepper,</tspan><tspan
         style="font-size:45px"
         sodipodi:role="line"
         x="983.48145"
         y="484.58777"
         id="tspan896">ja hän on Chaosah- </tspan><tspan
         style="font-size:45px"
         sodipodi:role="line"
         x="975.57129"
         y="540.83777"
         id="tspan3763">koulukunnasta.</tspan></text>
    <text
       xml:space="preserve"
       style="font-style:normal;font-variant:normal;font-weight:normal;font-stretch:normal;font-size:45px;line-height:1.25;font-family:Lavi;-inkscape-font-specification:Lavi;text-align:center;letter-spacing:0px;word-spacing:0px;text-anchor:middle;fill:#000000;fill-opacity:1;stroke:none"
       x="481.4118"
       y="1326.5137"
       id="text4246-3-2-2-6-3-7-9-3-3-3"><tspan
         style="font-size:45px"
         sodipodi:role="line"
         x="481.4118"
         y="1326.5137"
         id="tspan903">Hänen läsnäolonsa täällä</tspan><tspan
         style="font-size:45px"
         sodipodi:role="line"
         x="481.4118"
         y="1382.7637"
         id="tspan907">pilaa koulukuntamme</tspan><tspan
         style="font-size:45px"
         sodipodi:role="line"
         x="481.4118"
         y="1439.0137"
         id="tspan909">pyhän ilmapiirin.</tspan></text>
    <text
       xml:space="preserve"
       style="font-style:normal;font-variant:normal;font-weight:normal;font-stretch:normal;font-size:45px;line-height:1.25;font-family:Lavi;-inkscape-font-specification:Lavi;text-align:center;letter-spacing:0px;word-spacing:0px;text-anchor:middle;fill:#000000;fill-opacity:1;stroke:none"
       x="1207.9652"
       y="1348.095"
       id="text4246-3-2-2-6-3-7-9-3-3-3-9"><tspan
         style="font-size:45px"
         sodipodi:role="line"
         x="1207.9652"
         y="1348.095"
         id="tspan1031">Toimita hänet</tspan><tspan
         style="font-size:45px"
         sodipodi:role="line"
         x="1207.9652"
         y="1404.345"
         id="tspan3784">välittömästi pois</tspan><tspan
         style="font-size:45px"
         sodipodi:role="line"
         x="1207.9652"
         y="1460.595"
         id="tspan3788">näkyvistäni.</tspan></text>
    <text
       xml:space="preserve"
       style="font-style:normal;font-variant:normal;font-weight:normal;font-stretch:normal;font-size:45px;line-height:1.25;font-family:Lavi;-inkscape-font-specification:Lavi;text-align:center;letter-spacing:0px;word-spacing:0px;text-anchor:middle;fill:#000000;fill-opacity:1;stroke:none"
       x="1041.905"
       y="2320.762"
       id="text4246-3-2-2-6-3-7-9-3-3-3-9-0-0"><tspan
         style="font-size:45px"
         sodipodi:role="line"
         x="1041.905"
         y="2320.762"
         id="tspan1031-6-6">Mutta ...</tspan></text>
    <text
       xml:space="preserve"
       style="font-style:normal;font-variant:normal;font-weight:normal;font-stretch:normal;font-size:45px;line-height:1.25;font-family:Lavi;-inkscape-font-specification:Lavi;text-align:center;letter-spacing:0px;word-spacing:0px;text-anchor:middle;fill:#000000;fill-opacity:1;stroke:none"
       x="1028.5508"
       y="2444.2068"
       id="text4246-3-2-2-6-3-7-9-3-3-3-9-0"><tspan
         style="font-size:45px"
         sodipodi:role="line"
         x="1028.5508"
         y="2444.2068"
         id="tspan1031-6">Mestari Wasabi ...</tspan></text>
    <text
       xml:space="preserve"
       style="font-style:normal;font-variant:normal;font-weight:normal;font-stretch:normal;font-size:45px;line-height:1.25;font-family:Lavi;-inkscape-font-specification:Lavi;text-align:center;letter-spacing:0px;word-spacing:0px;text-anchor:middle;fill:#000000;fill-opacity:1;stroke:none"
       x="1478.4738"
       y="3045.5544"
       id="text4246-3-2-2-6-3-7-9-3-3-3-9-0-6"><tspan
         style="font-size:45px"
         sodipodi:role="line"
         x="1478.4738"
         y="3045.5544"
         id="tspan1199">Mutta mitä?</tspan></text>
    <text
       xml:space="preserve"
       style="font-style:normal;font-variant:normal;font-weight:normal;font-stretch:normal;font-size:45px;line-height:1.25;font-family:Lavi;-inkscape-font-specification:Lavi;text-align:center;letter-spacing:0px;word-spacing:0px;text-anchor:middle;fill:#000000;fill-opacity:1;stroke:none"
       x="1539.076"
       y="3173.2551"
       id="text4246-3-2-2-6-3-7-9-3-3-3-9-0-6-8"><tspan
         style="font-size:45px"
         sodipodi:role="line"
         x="1539.076"
         y="3173.2551"
         id="tspan1199-9">Haluatko mieluummin</tspan><tspan
         style="font-size:45px"
         sodipodi:role="line"
         x="1539.076"
         y="3229.5051"
         id="tspan3790">tulla erotetuksi</tspan><tspan
         style="font-size:45px"
         sodipodi:role="line"
         x="1539.076"
         y="3285.7551"
         id="tspan1233">koulukunnastamme?</tspan></text>
    <text
       xml:space="preserve"
       style="font-style:normal;font-variant:normal;font-weight:normal;font-stretch:normal;font-size:105.817px;line-height:1.25;font-family:Lavi;-inkscape-font-specification:Lavi;letter-spacing:0px;word-spacing:0px;fill:#000000;fill-opacity:1;stroke:#030303;stroke-width:0.716208;stroke-miterlimit:4;stroke-dasharray:none;stroke-opacity:1;filter:url(#filter4375-4-1-1-1-9-5-8-8-5-5-3-8)"
       x="787.65729"
       y="1584.5073"
       id="text4580-6-0-0-0-9-3-36"
       transform="matrix(0.78722097,-0.19942868,-0.30990333,0.91892591,1994.5561,1995.3356)"><tspan
         style="font-size:195.17px;fill:#000000;fill-opacity:1;stroke:#030303;stroke-width:0.716208;stroke-miterlimit:4;stroke-dasharray:none;stroke-opacity:1"
         sodipodi:role="line"
         id="tspan876-6-1"
         x="787.65729"
         y="1584.5073">!<tspan
   style="font-size:173.821px;fill:#000000;stroke:#030303;stroke-opacity:1"
   id="tspan1317">!</tspan><tspan
   id="tspan1322"
   style="font-size:152.472px;fill:#000000;stroke:#030303;stroke-opacity:1">!</tspan></tspan></text>
  </g>
</svg>
