<?xml version="1.0" encoding="UTF-8" standalone="no"?>
<!-- Created with Inkscape (http://www.inkscape.org/) -->

<svg
   xmlns:dc="http://purl.org/dc/elements/1.1/"
   xmlns:cc="http://creativecommons.org/ns#"
   xmlns:rdf="http://www.w3.org/1999/02/22-rdf-syntax-ns#"
   xmlns:svg="http://www.w3.org/2000/svg"
   xmlns="http://www.w3.org/2000/svg"
   xmlns:xlink="http://www.w3.org/1999/xlink"
   xmlns:sodipodi="http://sodipodi.sourceforge.net/DTD/sodipodi-0.dtd"
   xmlns:inkscape="http://www.inkscape.org/namespaces/inkscape"
   id="svg2"
   version="1.1"
   inkscape:version="0.92.2 5c3e80d, 2017-08-06"
   width="2481"
   height="3503"
   sodipodi:docname="E24P05.svg">
  <metadata
     id="metadata8">
    <rdf:RDF>
      <cc:Work
         rdf:about="">
        <dc:format>image/svg+xml</dc:format>
        <dc:type
           rdf:resource="http://purl.org/dc/dcmitype/StillImage" />
        <dc:title />
      </cc:Work>
    </rdf:RDF>
  </metadata>
  <defs
     id="defs6">
    <filter
       style="color-interpolation-filters:sRGB"
       id="filter4375-4-1-1-1-9-5-8-0-9"
       inkscape:label="Drop Shadow">
      <feFlood
         id="feFlood4377-7-9-0-8-1-7-3-9-2"
         flood-opacity="1"
         flood-color="rgb(200,55,55)"
         result="flood" />
      <feComposite
         id="feComposite4379-3-8-8-2-77-4-1-3-2"
         in2="SourceGraphic"
         in="flood"
         operator="in"
         result="composite1" />
      <feMorphology
         id="feMorphology4393-1-0-49-8-9-3-0-6-8"
         operator="dilate"
         radius="6.2000000000000002"
         result="result3" />
      <feComposite
         id="feComposite4385-9-5-7-0-8-8-7-0-9"
         in2="result3"
         in="SourceGraphic"
         operator="over"
         result="fbSourceGraphic" />
      <feColorMatrix
         result="fbSourceGraphicAlpha"
         in="fbSourceGraphic"
         values="0 0 0 -1 0 0 0 0 -1 0 0 0 0 -1 0 0 0 0 1 0"
         id="feColorMatrix4544-6-7" />
      <feTurbulence
         id="feTurbulence4546-2-3"
         type="fractalNoise"
         numOctaves="3"
         seed="37"
         baseFrequency="0.129 0.0050000000000000001"
         result="turbulence" />
      <feDisplacementMap
         id="feDisplacementMap4548-6-6"
         in2="turbulence"
         in="fbSourceGraphic"
         scale="6.6"
         yChannelSelector="G"
         xChannelSelector="R"
         result="fbSourceGraphic" />
      <feColorMatrix
         result="fbSourceGraphicAlpha"
         in="fbSourceGraphic"
         values="0 0 0 -1 0 0 0 0 -1 0 0 0 0 -1 0 0 0 0 1 0"
         id="feColorMatrix4670-1-1" />
      <feFlood
         id="feFlood4672-8-2"
         flood-opacity="1"
         flood-color="rgb(80,22,22)"
         result="flood"
         in="fbSourceGraphic" />
      <feComposite
         id="feComposite4674-7-9"
         in2="fbSourceGraphic"
         in="flood"
         operator="in"
         result="composite1" />
      <feGaussianBlur
         id="feGaussianBlur4676-9-3"
         in="composite1"
         stdDeviation="0"
         result="blur" />
      <feOffset
         id="feOffset4678-2-1"
         dx="6"
         dy="6"
         result="offset" />
      <feComposite
         id="feComposite4680-0-9"
         in2="offset"
         in="fbSourceGraphic"
         operator="over"
         result="composite2" />
    </filter>
    <filter
       style="color-interpolation-filters:sRGB"
       id="filter4375-4-1-1-1-9-5-8"
       inkscape:label="Drop Shadow">
      <feFlood
         id="feFlood4377-7-9-0-8-1-7-3"
         flood-opacity="1"
         flood-color="rgb(200,55,55)"
         result="flood" />
      <feComposite
         id="feComposite4379-3-8-8-2-77-4-1"
         in2="SourceGraphic"
         in="flood"
         operator="in"
         result="composite1" />
      <feMorphology
         id="feMorphology4393-1-0-49-8-9-3-0"
         operator="dilate"
         radius="6.2000000000000002"
         result="result3" />
      <feComposite
         id="feComposite4385-9-5-7-0-8-8-7"
         in2="result3"
         in="SourceGraphic"
         operator="over"
         result="fbSourceGraphic" />
      <feColorMatrix
         result="fbSourceGraphicAlpha"
         in="fbSourceGraphic"
         values="0 0 0 -1 0 0 0 0 -1 0 0 0 0 -1 0 0 0 0 1 0"
         id="feColorMatrix4544" />
      <feTurbulence
         id="feTurbulence4546"
         type="fractalNoise"
         numOctaves="3"
         seed="37"
         baseFrequency="0.129 0.0050000000000000001"
         result="turbulence" />
      <feDisplacementMap
         id="feDisplacementMap4548"
         in2="turbulence"
         in="fbSourceGraphic"
         scale="6.6"
         yChannelSelector="G"
         xChannelSelector="R"
         result="fbSourceGraphic" />
      <feColorMatrix
         result="fbSourceGraphicAlpha"
         in="fbSourceGraphic"
         values="0 0 0 -1 0 0 0 0 -1 0 0 0 0 -1 0 0 0 0 1 0"
         id="feColorMatrix4670" />
      <feFlood
         id="feFlood4672"
         flood-opacity="1"
         flood-color="rgb(80,22,22)"
         result="flood"
         in="fbSourceGraphic" />
      <feComposite
         id="feComposite4674"
         in2="fbSourceGraphic"
         in="flood"
         operator="in"
         result="composite1" />
      <feGaussianBlur
         id="feGaussianBlur4676"
         in="composite1"
         stdDeviation="0"
         result="blur" />
      <feOffset
         id="feOffset4678"
         dx="6"
         dy="6"
         result="offset" />
      <feComposite
         id="feComposite4680"
         in2="offset"
         in="fbSourceGraphic"
         operator="over"
         result="composite2" />
    </filter>
    <filter
       inkscape:collect="always"
       style="color-interpolation-filters:sRGB"
       id="filter4210"
       x="-0.0015578248"
       width="1.0031157"
       y="-0.0045528179"
       height="1.0091056">
      <feGaussianBlur
         inkscape:collect="always"
         stdDeviation="0.2079876"
         id="feGaussianBlur4212" />
    </filter>
  </defs>
  <sodipodi:namedview
     pagecolor="#ffffff"
     bordercolor="#666666"
     borderopacity="1"
     objecttolerance="10"
     gridtolerance="10"
     guidetolerance="10"
     inkscape:pageopacity="0"
     inkscape:pageshadow="2"
     inkscape:window-width="1680"
     inkscape:window-height="1001"
     id="namedview4"
     showgrid="false"
     inkscape:zoom="0.44990009"
     inkscape:cx="1377.0108"
     inkscape:cy="2931.5704"
     inkscape:window-x="20"
     inkscape:window-y="0"
     inkscape:window-maximized="0"
     inkscape:current-layer="layer1"
     inkscape:snap-global="false" />
  <g
     inkscape:groupmode="layer"
     id="layer2"
     inkscape:label="artwork"
     sodipodi:insensitive="true">
    <image
       sodipodi:absref="/Users/gand/Downloads/lang/it/../gfx_Pepper-and-Carrot_by-David-Revoy_E24P05.png"
       xlink:href="../gfx_Pepper-and-Carrot_by-David-Revoy_E24P05.png"
       y="0"
       x="0"
       id="image10"
       height="3503"
       width="2481" />
  </g>
  <g
     inkscape:groupmode="layer"
     id="layer3"
     inkscape:label="speechbubbles"
     style="display:inline">
    <path
       style="color:#000000;display:inline;overflow:visible;visibility:visible;fill:#ffffff;fill-opacity:1;fill-rule:nonzero;stroke:none;stroke-width:0.99999994px;marker:none;enable-background:accumulate"
       d="m 978.20827,203.32288 c 9.6337,-59.75433 90.43723,-101.42305 293.83003,-84.4803 108.9481,9.07539 232.816,16.48394 219.9711,104.05507 -12.8451,87.57103 -191.0698,80.35935 -227.9992,81.38959 -36.9295,1.03035 -228.1926,-13.50397 -260.1118,-44.30074 -19.98065,-19.27795 -27.29574,-38.11909 -25.69013,-56.66362 z"
       id="path4546-6"
       inkscape:connector-curvature="0"
       sodipodi:nodetypes="cssssc" />
    <path
       style="color:#000000;display:inline;overflow:visible;visibility:visible;fill:#ffffff;fill-opacity:1;fill-rule:nonzero;stroke:none;stroke-width:1.41510594px;marker:none;enable-background:accumulate"
       d="m 963.18121,417.94868 c 10.08114,-98.3507 94.63869,-166.934 307.48119,-139.04764 114.0098,14.93735 243.6325,27.13123 230.1909,171.26612 -13.4418,144.13474 -199.9467,118.92862 -238.5918,120.62431 -38.6455,1.69588 -238.7946,-8.89012 -272.19671,-59.57908 -20.90888,-31.72995 -28.56379,-62.74091 -26.88358,-93.26371 z"
       id="path4546-6-5"
       inkscape:connector-curvature="0"
       sodipodi:nodetypes="cssssc" />
    <path
       style="fill:#ffffff;stroke:none;stroke-width:0.90898257"
       d="m 147.80337,2315.6161 c -0.65196,-19.01 20.38842,-71.6026 110.56798,-65.5517 90.17958,6.0509 118.00871,27.7052 119.97804,61.5178 3.11542,53.4904 -44.65127,66.4513 -112.90881,68.5338 -70.36614,2.1469 -113.78896,-16.4175 -117.63721,-64.4999 z"
       id="path3280"
       inkscape:connector-curvature="0"
       sodipodi:nodetypes="csssc" />
    <path
       style="fill:#ffffff;stroke:none;stroke-width:1"
       d="m 75.199175,2571.601 c -1.252222,-68.3104 39.160235,-257.2967 212.368975,-235.5534 173.20875,21.7433 228.06392,99.5221 230.44293,221.058 3.71913,189.9983 4.8256,272.0007 -275.74703,263.9838 C 106.93881,2817.2228 82.590544,2744.3802 75.199175,2571.601 Z"
       id="path3280-5"
       inkscape:connector-curvature="0"
       sodipodi:nodetypes="csssc" />
    <path
       style="fill:#ffffff;stroke:none;stroke-width:1.01522911"
       d="m 100.15331,2914.1242 c -0.897384,-43.9041 28.06306,-165.368 152.18817,-151.3933 124.12512,13.9747 173.43774,63.9642 175.14259,142.0769 2.66521,122.1145 -6.54409,174.8185 -207.60848,169.6658 -96.97697,-2.4851 -114.42547,-49.3019 -119.72228,-160.3494 z"
       id="path3280-5-9"
       inkscape:connector-curvature="0"
       sodipodi:nodetypes="csssc" />
    <path
       style="color:#000000;display:inline;overflow:visible;visibility:visible;fill:#ffffff;fill-opacity:1;fill-rule:nonzero;stroke:none;stroke-width:1px;marker:none;enable-background:accumulate"
       d="m 495.82252,2817.5587 c -14.75738,52.3452 -33.97784,59.8163 -47.29721,66.911 -2.99609,-4.2927 -9.494,-10.7643 -9.494,-10.7643 0,0 -25.03044,16.8093 -36.39159,19.4555 -11.36113,2.6461 -15.10988,-13.4489 -15.10988,-13.4489 0,0 47.94685,-34.1242 56.37661,-45.0707 7.82099,12.1521 12.93111,16.9506 14.25419,22.6311 8.74137,-1.0378 31.94301,-21.4136 37.66188,-39.7137 z"
       id="path4456"
       inkscape:connector-curvature="0" />
    <path
       style="fill:#ffffff;stroke:none;stroke-width:1"
       d="m 1437.3638,2410.8677 c -1.7687,-28.1089 29.945,-98.4765 184.6433,-93.1836 154.6984,5.2928 203.1165,36.2115 207.6499,86.175 7.1714,79.0407 -74.2152,100.1631 -191.0791,106.0176 -120.4739,6.0354 -203.0838,-48.2208 -201.2141,-99.009 z"
       id="path3280-8"
       inkscape:connector-curvature="0"
       sodipodi:nodetypes="csssc" />
    <path
       style="fill:#ffffff;stroke:none;stroke-width:1.02860546"
       d="m 1494.4935,2599.1509 c -2.5717,-44.6152 43.5398,-156.3044 268.4711,-147.9033 224.9311,8.4008 295.331,57.4758 301.9224,136.779 10.4273,125.4554 -107.9087,158.9813 -277.8285,168.2738 -175.1689,9.5795 -295.2836,-76.5372 -292.565,-157.1495 z"
       id="path3280-8-2"
       inkscape:connector-curvature="0"
       sodipodi:nodetypes="csssc" />
    <path
       style="color:#000000;display:inline;overflow:visible;visibility:visible;fill:#ffffff;fill-opacity:1;fill-rule:nonzero;stroke:none;stroke-width:1px;marker:none;enable-background:accumulate"
       d="m 1737.0918,2693.1341 c 14.3116,13.119 20.5898,27.3224 21.7824,31.4966 1.1926,4.1742 -2.1039,30.5204 2.0703,35.291 4.1742,4.7705 19.6785,5.3668 21.4675,8.9448 1.7889,3.5779 -3.5779,22.0637 0,25.6416 3.5779,3.5779 28.6232,13.119 29.8159,16.1006 1.1926,2.9816 7.7521,19.0822 19.6784,31.6048 -11.33,-31.6048 -7.7521,-38.1643 -11.9263,-42.9348 -4.1742,-4.7706 -15.9274,-10.1807 -18.3127,-15.5476 -2.3853,-5.3668 6.711,-25.7283 0.086,-28.0269 -4.7705,-4.7705 -19.8083,-10.2673 -19.8083,-10.2673 4.1743,-4.7706 18.356,-27.8538 -1.3225,-55.8807 -19.6785,-28.027 -43.5312,3.5779 -43.5312,3.5779 z"
       id="path5050"
       inkscape:connector-curvature="0"
       sodipodi:nodetypes="csccscccccccc" />
    <path
       style="color:#000000;display:inline;overflow:visible;visibility:visible;fill:#ffffff;fill-opacity:1;fill-rule:nonzero;stroke:none;stroke-width:0.87982273px;marker:none;enable-background:accumulate"
       d="m 1420.7064,3190.3611 c -6.3444,-32.8217 10.574,-120.0045 140.6352,-112.8248 130.0609,7.1798 151.2091,48.2069 154.3813,60.5151 3.1722,12.3082 30.6648,82.0544 -70.8463,100.5166 -101.511,18.4623 -192.448,-1.0257 -224.1702,-48.2069 z"
       id="path3525"
       inkscape:connector-curvature="0" />
    <path
       style="color:#000000;display:inline;overflow:visible;visibility:visible;fill:#ffffff;fill-opacity:1;fill-rule:nonzero;stroke:none;stroke-width:1px;marker:none;enable-background:accumulate"
       d="m 1518.4603,3003.92 c 24.221,32.6718 31.0089,45.6583 8.1243,87.1458 -22.8847,41.4875 -7.3195,49.5776 -7.3195,49.5776 l 28.2503,-15.3766 c 0,0 42.659,-91.8473 -29.0551,-121.3468 z"
       id="path3072"
       inkscape:connector-curvature="0" />
    <path
       style="color:#000000;display:inline;overflow:visible;visibility:visible;fill:#ffffff;fill-opacity:1;fill-rule:nonzero;stroke:none;stroke-width:1.52984893px;marker:none;enable-background:accumulate"
       d="m 1703.1409,426.80957 c 12.0823,-89.34901 111.4645,-167.75216 366.5565,-142.41815 136.6413,13.57019 303.7551,35.37936 287.6454,166.32209 -16.1102,130.94258 -249.4374,111.21634 -295.7536,112.75682 -46.3167,1.54068 -286.1957,-5.88359 -326.2283,-51.93318 -25.0593,-28.8258 -34.2337,-56.99843 -32.22,-84.72758 z"
       id="path4546-6-5-3"
       inkscape:connector-curvature="0"
       sodipodi:nodetypes="cssssc" />
    <path
       style="display:inline;fill:#ffffff;stroke:none;stroke-width:0.99999994"
       d="m 1920.8273,663.55898 c 51.4934,-25.05742 101.3335,-84.50569 87.939,-140.05224 -8.1157,-33.6558 -17.2505,-51.47851 -17.2505,-51.47851 l 37.7708,-2.39424 11.5884,36.59761 c 0,0 3.2849,108.24957 -120.0477,157.32738 z"
       id="path3063-1-6"
       inkscape:connector-curvature="0"
       sodipodi:nodetypes="cscccc" />
    <path
       style="display:inline;fill:#ffffff;stroke:none;stroke-width:0.99999994"
       d="m 1251.2541,685.09232 c -48.6175,-23.27518 -83.2149,-109.49172 -49.7683,-157.70546 19.7334,-28.44595 29.6777,-45.4626 29.6777,-45.4626 l -35.9455,-11.84422 c -83.024,107.75331 -0.6527,193.21215 56.0361,215.01228 z"
       id="path3063-1"
       inkscape:connector-curvature="0"
       sodipodi:nodetypes="csccc" />
  </g>
  <g
     inkscape:groupmode="layer"
     id="layer1"
     inkscape:label="txt"
     style="display:inline">
    <text
       xml:space="preserve"
       style="font-style:normal;font-variant:normal;font-weight:normal;font-stretch:normal;line-height:0%;font-family:Lavi;-inkscape-font-specification:Lavi;letter-spacing:0px;word-spacing:0px;fill:#ffffff;fill-opacity:1;stroke:#c83737;stroke-width:0.99236238;stroke-miterlimit:4;stroke-dasharray:none;stroke-opacity:1;filter:url(#filter4375-4-1-1-1-9-5-8-0-9)"
       x="787.65729"
       y="1584.5073"
       id="text4580-6-0-2-4"
       transform="matrix(0.83434398,-0.14790328,-0.40858731,0.88612324,531.23181,-1091.7696)"><tspan
         sodipodi:role="line"
         id="tspan4582-1-1-3-7"
         x="787.65729"
         y="1584.5073"
         style="font-size:70px;line-height:1.25;fill:#ffffff;fill-opacity:1;stroke:#c83737;stroke-opacity:1"><tspan
           style="font-size:93.14950562px;fill:#ffffff;fill-opacity:1;stroke:#c83737;stroke-opacity:1"
           id="tspan4315-8-7-8">Zoooom!</tspan><tspan
           style="font-size:114.73223114px;fill:#ffffff;fill-opacity:1;stroke:#c83737;stroke-opacity:1"
           id="tspan4313-2-5-4">!</tspan></tspan></text>
    <text
       xml:space="preserve"
       style="font-style:normal;font-variant:normal;font-weight:normal;font-stretch:normal;line-height:0%;font-family:Lavi;-inkscape-font-specification:Lavi;text-align:center;letter-spacing:0px;word-spacing:0px;text-anchor:middle;fill:#000000;fill-opacity:1;stroke:none"
       x="1233.6572"
       y="353.46378"
       id="text4246"><tspan
         sodipodi:role="line"
         style="font-size:45px;line-height:1.25"
         x="1233.6572"
         y="353.46378"
         id="tspan843">Non vedo nessun</tspan><tspan
         sodipodi:role="line"
         style="font-size:45px;line-height:1.25"
         x="1233.6572"
         y="409.71378"
         id="tspan850">problema nel portare</tspan><tspan
         sodipodi:role="line"
         style="font-size:45px;line-height:1.25"
         x="1233.6572"
         y="465.96378"
         id="tspan91">quest'albero fuori dalla</tspan><tspan
         sodipodi:role="line"
         style="font-size:45px;line-height:1.25"
         x="1233.6572"
         y="522.21375"
         id="tspan107">micro-dimensione.</tspan></text>
    <text
       xml:space="preserve"
       style="font-style:normal;font-variant:normal;font-weight:normal;font-stretch:normal;line-height:0%;font-family:Lavi;-inkscape-font-specification:Lavi;text-align:center;letter-spacing:0px;word-spacing:0px;text-anchor:middle;fill:#000000;fill-opacity:1;stroke:none"
       x="1234.7124"
       y="194.35571"
       id="text4246-7"><tspan
         sodipodi:role="line"
         style="font-size:45px;line-height:1.25"
         x="1234.7124"
         y="194.35571"
         id="tspan881-3">Ecco fatto! A posto.</tspan><tspan
         sodipodi:role="line"
         style="font-size:45px;line-height:1.25"
         x="1234.7124"
         y="250.60571"
         id="tspan906">Adesso è perfetto!</tspan></text>
    <text
       xml:space="preserve"
       style="font-style:normal;font-variant:normal;font-weight:normal;font-stretch:normal;line-height:0%;font-family:Lavi;-inkscape-font-specification:Lavi;text-align:center;letter-spacing:0px;word-spacing:0px;text-anchor:middle;fill:#000000;fill-opacity:1;stroke:none"
       x="263.42697"
       y="2326.1411"
       id="text4246-7-6"><tspan
         sodipodi:role="line"
         style="font-size:45px;line-height:1.25"
         x="263.42697"
         y="2326.1411"
         id="tspan906-9">Bene,</tspan></text>
    <text
       xml:space="preserve"
       style="font-style:normal;font-variant:normal;font-weight:normal;font-stretch:normal;line-height:0%;font-family:Lavi;-inkscape-font-specification:Lavi;text-align:center;letter-spacing:0px;word-spacing:0px;text-anchor:middle;fill:#000000;fill-opacity:1;stroke:none"
       x="296.66428"
       y="2424.4778"
       id="text4246-7-6-1"><tspan
         sodipodi:role="line"
         style="font-size:45px;line-height:1.25"
         x="296.66428"
         y="2424.4778"
         id="tspan980">è tempo</tspan><tspan
         sodipodi:role="line"
         style="font-size:45px;line-height:1.25"
         x="296.66428"
         y="2480.7278"
         id="tspan984">di portare questa</tspan><tspan
         sodipodi:role="line"
         style="font-size:45px;line-height:1.25"
         x="296.66428"
         y="2536.9778"
         id="tspan986">micro-dimensione</tspan><tspan
         sodipodi:role="line"
         style="font-size:45px;line-height:1.25"
         x="304.57443"
         y="2593.2278"
         id="tspan988">nella realtà e </tspan><tspan
         sodipodi:role="line"
         style="font-size:45px;line-height:1.25"
         x="296.66428"
         y="2649.4778"
         id="tspan1196">mostrare quanto</tspan><tspan
         sodipodi:role="line"
         style="font-size:45px;line-height:1.25"
         x="296.66428"
         y="2705.7278"
         id="tspan905">creativa possa</tspan><tspan
         sodipodi:role="line"
         style="font-size:45px;line-height:1.25"
         x="296.66428"
         y="2761.9778"
         id="tspan1198">essere Chaos!</tspan></text>
    <text
       xml:space="preserve"
       style="font-style:normal;font-variant:normal;font-weight:normal;font-stretch:normal;line-height:0%;font-family:Lavi;-inkscape-font-specification:Lavi;letter-spacing:0px;word-spacing:0px;fill:#ffffff;fill-opacity:1;stroke:#c83737;stroke-width:0.99236238;stroke-miterlimit:4;stroke-dasharray:none;stroke-opacity:1;filter:url(#filter4375-4-1-1-1-9-5-8)"
       x="787.65729"
       y="1584.5073"
       id="text4580-6-0"
       transform="matrix(0.84200562,-0.09503576,-0.46361166,0.85861645,1426.8384,990.64508)"><tspan
         sodipodi:role="line"
         id="tspan4582-1-1"
         x="787.65729"
         y="1584.5073"
         style="font-size:70px;line-height:1.25;fill:#ffffff;fill-opacity:1;stroke:#c83737;stroke-opacity:1"><tspan
           style="font-size:93.14950562px;fill:#ffffff;fill-opacity:1;stroke:#c83737;stroke-opacity:1"
           id="tspan4315-8">DOooong!</tspan><tspan
           style="font-size:114.73223114px;fill:#ffffff;fill-opacity:1;stroke:#c83737;stroke-opacity:1"
           id="tspan4313-2">!</tspan></tspan></text>
    <text
       xml:space="preserve"
       style="font-style:normal;font-variant:normal;font-weight:normal;font-stretch:normal;line-height:0%;font-family:Lavi;-inkscape-font-specification:Lavi;text-align:center;letter-spacing:0px;word-spacing:0px;text-anchor:middle;fill:#000000;fill-opacity:1;stroke:none"
       x="1637.5579"
       y="2400.8755"
       id="text4246-7-6-1-7"><tspan
         sodipodi:role="line"
         style="font-size:45px;line-height:1.25"
         x="1637.5579"
         y="2400.8755"
         id="tspan1076">Mmm... Pepper</tspan><tspan
         sodipodi:role="line"
         style="font-size:45px;line-height:1.25"
         x="1637.5579"
         y="2457.1255"
         id="tspan1080">sta tornando.</tspan></text>
    <text
       xml:space="preserve"
       style="font-style:normal;font-variant:normal;font-weight:normal;font-stretch:normal;line-height:0%;font-family:Lavi;-inkscape-font-specification:Lavi;text-align:center;letter-spacing:0px;word-spacing:0px;text-anchor:middle;fill:#000000;fill-opacity:1;stroke:none"
       x="1783.5588"
       y="2538.9451"
       id="text4246-7-6-1-7-6"><tspan
         sodipodi:role="line"
         style="font-size:45px;line-height:1.25"
         x="1783.5588"
         y="2538.9451"
         id="tspan1080-6">Brava, Cayenne. I</tspan><tspan
         sodipodi:role="line"
         style="font-size:45px;line-height:1.25"
         x="1783.5588"
         y="2595.1951"
         id="tspan1109">tuoi metodi educativi</tspan><tspan
         sodipodi:role="line"
         style="font-size:45px;line-height:1.25"
         x="1783.5588"
         y="2651.4451"
         id="tspan1111">stanno dando finalmente</tspan><tspan
         sodipodi:role="line"
         style="font-size:45px;line-height:1.25"
         x="1783.5588"
         y="2707.6951"
         id="tspan921">i loro frutti.</tspan></text>
    <text
       xml:space="preserve"
       style="font-style:normal;font-variant:normal;font-weight:normal;font-stretch:normal;line-height:0%;font-family:Lavi;-inkscape-font-specification:Lavi;text-align:center;letter-spacing:0px;word-spacing:0px;text-anchor:middle;fill:#000000;fill-opacity:1;stroke:none"
       x="1569.8807"
       y="3143.0315"
       id="text4246-7-6-1-7-1"><tspan
         sodipodi:role="line"
         style="font-size:45px;line-height:1.25"
         x="1569.8807"
         y="3143.0315"
         id="tspan1080-7">Grazie,</tspan><tspan
         sodipodi:role="line"
         style="font-size:45px;line-height:1.25"
         x="1569.8807"
         y="3199.2815"
         id="tspan89">direttrice.</tspan><tspan
         sodipodi:role="line"
         style="font-size:45px;line-height:1.25"
         x="1569.8807"
         y="3217.8149"
         id="tspan1136" /></text>
    <text
       xml:space="preserve"
       style="font-style:normal;font-variant:normal;font-weight:normal;font-stretch:normal;line-height:0%;font-family:Lavi;-inkscape-font-specification:Lavi;text-align:center;letter-spacing:0px;word-spacing:0px;text-anchor:middle;fill:#000000;fill-opacity:1;stroke:none"
       x="257.43497"
       y="2866.2312"
       id="text4246-7-6-1-9"><tspan
         sodipodi:role="line"
         style="font-size:45px;line-height:1.25"
         x="257.43497"
         y="2866.2312"
         id="tspan990-7">Non vedo</tspan><tspan
         sodipodi:role="line"
         style="font-size:45px;line-height:1.25"
         x="257.43497"
         y="2922.4812"
         id="tspan1184">l'ora di vedere</tspan><tspan
         sodipodi:role="line"
         style="font-size:45px;line-height:1.25"
         x="257.43497"
         y="2978.7312"
         id="tspan919">le facce che</tspan><tspan
         sodipodi:role="line"
         style="font-size:45px;line-height:1.25"
         x="257.43497"
         y="3034.9812"
         id="tspan123">faranno!</tspan></text>
    <text
       xml:space="preserve"
       style="font-style:normal;font-variant:normal;font-weight:normal;font-stretch:normal;line-height:0%;font-family:Lavi;-inkscape-font-specification:Lavi;text-align:center;letter-spacing:0px;word-spacing:0px;text-anchor:middle;display:inline;opacity:0.35800003;fill:#000000;fill-opacity:1;stroke:none;stroke-width:1.38229895;filter:url(#filter4210)"
       x="1174.0292"
       y="1085.962"
       id="text4246-5"
       transform="matrix(0.55372808,-0.07646402,0.03444769,0.53283335,529.44693,2564.6899)"><tspan
         sodipodi:role="line"
         style="font-style:normal;font-variant:normal;font-weight:normal;font-stretch:normal;font-size:45.00812149px;line-height:1.25;font-family:Fondamento;-inkscape-font-specification:Fondamento;stroke:#000000;stroke-width:4.69086981;stroke-miterlimit:4;stroke-dasharray:none;stroke-opacity:1"
         x="1174.0292"
         y="1085.962"
         id="tspan4217">La Gazza di Komona</tspan><tspan
         sodipodi:role="line"
         style="font-style:normal;font-variant:normal;font-weight:normal;font-stretch:normal;font-size:45.00812149px;line-height:1.25;font-family:Fondamento;-inkscape-font-specification:Fondamento;stroke:#000000;stroke-width:4.69086981;stroke-miterlimit:4;stroke-dasharray:none;stroke-opacity:1"
         x="1179.5233"
         y="1142.2222"
         id="tspan4207"> </tspan><tspan
         sodipodi:role="line"
         style="font-style:normal;font-variant:normal;font-weight:normal;font-stretch:normal;font-size:45.00812149px;line-height:1.25;font-family:Fondamento;-inkscape-font-specification:Fondamento;stroke:#000000;stroke-width:4.69086981;stroke-miterlimit:4;stroke-dasharray:none;stroke-opacity:1"
         x="1179.5233"
         y="1198.4823"
         id="tspan4209"> </tspan></text>
    <text
       xml:space="preserve"
       style="font-style:normal;font-variant:normal;font-weight:normal;font-stretch:normal;line-height:0%;font-family:Lavi;-inkscape-font-specification:Lavi;text-align:center;letter-spacing:0px;word-spacing:0px;text-anchor:middle;fill:#000000;fill-opacity:1;stroke:none"
       x="2027.5846"
       y="387.4834"
       id="text4246-75"><tspan
         sodipodi:role="line"
         style="font-size:45px;line-height:1.25"
         x="2027.5846"
         y="387.4834"
         id="tspan909">È solo un Albero dell'Unità;</tspan><tspan
         sodipodi:role="line"
         style="font-size:45px;line-height:1.25"
         x="2027.5846"
         y="443.7334"
         id="tspan164">non è come se fosse un</tspan><tspan
         sodipodi:role="line"
         style="font-size:45px;line-height:1.25"
         x="2027.5846"
         y="499.9834"
         id="tspan158">“Incantesimo di Distruzione”.</tspan></text>
  </g>
</svg>
