<?xml version="1.0" encoding="UTF-8" standalone="no"?>
<svg
   xmlns:dc="http://purl.org/dc/elements/1.1/"
   xmlns:cc="http://creativecommons.org/ns#"
   xmlns:rdf="http://www.w3.org/1999/02/22-rdf-syntax-ns#"
   xmlns:svg="http://www.w3.org/2000/svg"
   xmlns="http://www.w3.org/2000/svg"
   xmlns:xlink="http://www.w3.org/1999/xlink"
   xmlns:sodipodi="http://sodipodi.sourceforge.net/DTD/sodipodi-0.dtd"
   xmlns:inkscape="http://www.inkscape.org/namespaces/inkscape"
   sodipodi:docname="E25P10.svg"
   height="5000"
   width="2481"
   inkscape:version="1.0 (4035a4fb49, 2020-05-01)"
   version="1.1"
   id="svg2">
  <metadata
     id="metadata8">
    <rdf:RDF>
      <cc:Work
         rdf:about="">
        <dc:format>image/svg+xml</dc:format>
        <dc:type
           rdf:resource="http://purl.org/dc/dcmitype/StillImage" />
        <dc:title />
      </cc:Work>
    </rdf:RDF>
  </metadata>
  <defs
     id="defs6">
    <filter
       id="filter5546"
       inkscape:label="Drop Shadow"
       color-interpolation-filters="sRGB">
      <feFlood
         id="feFlood5548"
         result="flood"
         flood-color="rgb(0,0,0)"
         flood-opacity="1" />
      <feComposite
         id="feComposite5550"
         result="composite1"
         operator="in"
         in2="SourceGraphic"
         in="flood" />
      <feGaussianBlur
         id="feGaussianBlur5552"
         result="blur"
         stdDeviation="1"
         in="composite1" />
      <feOffset
         id="feOffset5554"
         result="offset"
         dy="2.5"
         dx="2.5" />
      <feComposite
         id="feComposite5556"
         result="composite2"
         operator="over"
         in2="offset"
         in="SourceGraphic" />
    </filter>
  </defs>
  <sodipodi:namedview
     inkscape:document-rotation="0"
     inkscape:guide-bbox="true"
     showguides="true"
     inkscape:object-nodes="true"
     inkscape:current-layer="layer2"
     inkscape:window-maximized="0"
     inkscape:window-y="44"
     inkscape:window-x="0"
     inkscape:cy="561.55183"
     inkscape:cx="1232.6617"
     inkscape:zoom="0.62137707"
     showgrid="false"
     id="namedview4"
     inkscape:window-height="1003"
     inkscape:window-width="1014"
     inkscape:pageshadow="2"
     inkscape:pageopacity="0"
     guidetolerance="10"
     gridtolerance="10"
     objecttolerance="10"
     borderopacity="1"
     bordercolor="#666666"
     pagecolor="#ffffff">
    <sodipodi:guide
       inkscape:locked="false"
       id="guide4214"
       orientation="0,1"
       position="1425.8203,4914.3274" />
  </sodipodi:namedview>
  <g
     sodipodi:insensitive="true"
     transform="translate(0,1024)"
     style="display:inline"
     inkscape:label="artwork"
     id="layer1"
     inkscape:groupmode="layer">
    <image
       sodipodi:absref="/home/cherry/peppercarrot/webcomics/ep25_There-are-no-Shortcuts/lang/gfx_Pepper-and-Carrot_by-David-Revoy_E25P10.png"
       xlink:href="../gfx_Pepper-and-Carrot_by-David-Revoy_E25P10.png"
       y="-1023.3771"
       x="0.54707891"
       id="image4223"
       style="image-rendering:optimizeQuality"
       preserveAspectRatio="none"
       height="5000"
       width="2481" />
  </g>
  <g
     transform="translate(0,1024)"
     style="display:inline"
     inkscape:label="speechbubbles"
     id="layer3"
     inkscape:groupmode="layer" />
  <g
     transform="translate(0,1024)"
     style="display:inline;opacity:0.85500004"
     inkscape:label="text"
     id="layer2"
     inkscape:groupmode="layer">
    <text
       xml:space="preserve"
       style="font-style:normal;font-variant:normal;font-weight:normal;font-stretch:normal;font-size:16.2327px;line-height:0%;font-family:'Nanum Pen Script OTF';-inkscape-font-specification:'Nanum Pen Script OTF';text-align:center;letter-spacing:0px;word-spacing:0px;text-anchor:middle;display:inline;opacity:0.855;fill:#241c1c;fill-opacity:1;stroke:none;stroke-width:1.35273"
       x="1230.2827"
       y="-741.92212"
       id="text3814"><tspan
         sodipodi:role="line"
         style="font-style:normal;font-variant:normal;font-weight:normal;font-stretch:normal;font-size:49.6921px;line-height:1.25;font-family:'Nanum Pen Script OTF';-inkscape-font-specification:'Nanum Pen Script OTF';fill:#241c1c;stroke:none;stroke-width:1.35273"
         x="1230.2827"
         y="-741.92212"
         id="tspan3812">2018년 5월 - www.peppercarrot.com - 그림 및 이야기: David Revoy - 한글 번역: Jihoon Kim</tspan></text>
    <text
       xml:space="preserve"
       style="font-style:normal;font-variant:normal;font-weight:normal;font-stretch:normal;font-size:16.6223px;line-height:0%;font-family:'Nanum Pen Script OTF';-inkscape-font-specification:'Nanum Pen Script OTF';text-align:center;letter-spacing:0px;word-spacing:0px;text-anchor:middle;display:inline;opacity:0.855;fill:#483e37;fill-opacity:1;stroke:none;stroke-width:1.38519;filter:url(#filter4155)"
       x="1239.7917"
       y="3847.2642"
       id="text3802"><tspan
         sodipodi:role="line"
         id="tspan3800"
         x="1239.7917"
         y="3847.2642"
         style="font-style:normal;font-variant:normal;font-weight:normal;font-stretch:normal;font-size:55.4077px;line-height:1.25;font-family:'Nanum Pen Script OTF';-inkscape-font-specification:'Nanum Pen Script OTF';fill:#483e37;stroke-width:1.38519">여러분도 www.patreon.com/davidrevoy에서 후추와 당근의 다음 화의 후원자가 될 수 있습니다</tspan></text>
    <text
       xml:space="preserve"
       style="font-style:normal;font-variant:normal;font-weight:normal;font-stretch:normal;font-size:15.6329px;line-height:1;font-family:'Nanum Pen Script OTF';-inkscape-font-specification:'Nanum Pen Script OTF';text-align:center;letter-spacing:0px;word-spacing:0px;text-anchor:middle;display:inline;opacity:0.855;fill:#483e37;fill-opacity:1;stroke:none;stroke-width:1.30274;filter:url(#filter4155)"
       x="1243.6953"
       y="-424.13101"
       id="text3810"><tspan
         id="tspan3852"
         sodipodi:role="line"
         x="1243.6953"
         y="-424.13101"
         style="font-style:normal;font-variant:normal;font-weight:normal;font-stretch:normal;font-size:52.1097px;line-height:1;font-family:'Nanum Pen Script OTF';-inkscape-font-specification:'Nanum Pen Script OTF';fill:#483e37;stroke-width:1.30274"></tspan><tspan
         id="tspan47"
         sodipodi:role="line"
         x="1243.6953"
         y="-372.0213"
         style="font-style:normal;font-variant:normal;font-weight:normal;font-stretch:normal;font-size:52.1097px;line-height:1;font-family:'Nanum Pen Script OTF';-inkscape-font-specification:'Nanum Pen Script OTF';fill:#483e37;stroke-width:1.30274">후추와 당근은 완전히 자유 오픈소스이고</tspan><tspan
         id="tspan43"
         sodipodi:role="line"
         x="1243.6953"
         y="-319.91162"
         style="font-style:normal;font-variant:normal;font-weight:normal;font-stretch:normal;font-size:52.1097px;line-height:1;font-family:'Nanum Pen Script OTF';-inkscape-font-specification:'Nanum Pen Script OTF';fill:#483e37;stroke-width:1.30274">독자들의 후원을 받아 운영하고 있습니다.</tspan><tspan
         id="tspan45"
         sodipodi:role="line"
         x="1243.6953"
         y="-267.80191"
         style="font-style:normal;font-variant:normal;font-weight:normal;font-stretch:normal;font-size:52.1097px;line-height:1;font-family:'Nanum Pen Script OTF';-inkscape-font-specification:'Nanum Pen Script OTF';fill:#483e37;stroke-width:1.30274">이번 화에 도움을 주신 909명의 후원자분께 감사드립니다:</tspan></text>
    <text
       xml:space="preserve"
       style="color:#000000;font-style:normal;font-variant:normal;font-weight:normal;font-stretch:normal;font-size:15.7758px;line-height:0%;font-family:'Nanum Pen Script OTF';-inkscape-font-specification:'Nanum Pen Script OTF';text-indent:0;text-align:center;text-decoration:none;text-decoration-line:none;letter-spacing:0px;word-spacing:0px;text-transform:none;writing-mode:lr-tb;direction:ltr;baseline-shift:baseline;text-anchor:middle;display:inline;overflow:visible;visibility:visible;opacity:0.855;fill:#241c1c;fill-opacity:1;fill-rule:nonzero;stroke:none;stroke-width:1.31465;enable-background:accumulate"
       x="1240.9771"
       y="-604.40747"
       id="text3818"><tspan
         sodipodi:role="line"
         style="color:#000000;font-style:normal;font-variant:normal;font-weight:normal;font-stretch:normal;font-size:39.4395px;line-height:125%;font-family:'Nanum Pen Script OTF';-inkscape-font-specification:'Nanum Pen Script OTF';text-indent:0;text-align:center;text-decoration:none;text-decoration-line:none;letter-spacing:0px;word-spacing:0px;text-transform:none;writing-mode:lr-tb;direction:ltr;baseline-shift:baseline;text-anchor:middle;display:inline;overflow:visible;visibility:visible;fill:#241c1c;fill-opacity:1;fill-rule:nonzero;stroke:none;stroke-width:1.31465;enable-background:accumulate"
         x="1240.9771"
         y="-604.40747"
         id="tspan3816">David Revoy님이 Craig Maloney님의 도움으로 제작한 헤레바 세계관을 기반으로 함. 수정: Craig Maloney, Willem Sonke, Moini, Hali, CGand, Alex Gryson.</tspan></text>
    <text
       xml:space="preserve"
       style="font-style:normal;font-variant:normal;font-weight:normal;font-stretch:normal;font-size:16.8396px;line-height:0%;font-family:'Nanum Pen Script OTF';-inkscape-font-specification:'Nanum Pen Script OTF';text-align:center;letter-spacing:0px;word-spacing:0px;text-anchor:middle;display:inline;opacity:0.855;fill:#241c1c;fill-opacity:1;stroke:none;stroke-width:1.4033"
       x="1239.1021"
       y="-562.43677"
       id="text3822"><tspan
         sodipodi:role="line"
         x="1239.1021"
         y="-562.43677"
         style="font-style:normal;font-variant:normal;font-weight:normal;font-stretch:normal;font-size:42.0989px;line-height:1.25;font-family:'Nanum Pen Script OTF';-inkscape-font-specification:'Nanum Pen Script OTF';fill:#241c1c;stroke:none;stroke-width:1.4033"
         id="tspan3820">소프트웨어: 쿠분투 17.10에서 크리타 4.0.0, 잉크스케이프 0.92.3 사용</tspan></text>
    <text
       id="text3826"
       y="-518.3432"
       x="1239.3474"
       style="font-style:normal;font-variant:normal;font-weight:normal;font-stretch:normal;font-size:15.4378px;line-height:0%;font-family:'Nanum Pen Script OTF';-inkscape-font-specification:'Nanum Pen Script OTF';text-align:center;letter-spacing:0px;word-spacing:0px;text-anchor:middle;display:inline;opacity:0.855;fill:#241c1c;fill-opacity:1;stroke:none;stroke-width:1.28649"
       xml:space="preserve"><tspan
         id="tspan3824"
         style="font-style:normal;font-variant:normal;font-weight:normal;font-stretch:normal;font-size:45.027px;line-height:1.25;font-family:'Nanum Pen Script OTF';-inkscape-font-specification:'Nanum Pen Script OTF';fill:#241c1c;stroke:none;stroke-width:1.28649"
         y="-518.3432"
         x="1239.3474"
         sodipodi:role="line">라이선스: 크리에이티브 커먼즈 저작자표시 4.0</tspan></text>
    <text
       xml:space="preserve"
       style="color:#000000;font-style:normal;font-variant:normal;font-weight:normal;font-stretch:normal;font-size:16.1733px;line-height:0%;font-family:'Nanum Pen Script OTF';-inkscape-font-specification:'Nanum Pen Script OTF';text-indent:0;text-align:center;text-decoration:none;text-decoration-line:none;letter-spacing:0px;word-spacing:0px;text-transform:none;writing-mode:lr-tb;direction:ltr;baseline-shift:baseline;text-anchor:middle;display:inline;overflow:visible;visibility:visible;opacity:0.855;fill:#241c1c;fill-opacity:1;fill-rule:nonzero;stroke:none;stroke-width:1.34778;enable-background:accumulate"
       x="1227.0869"
       y="-694.32959"
       id="text3830"><tspan
         sodipodi:role="line"
         style="color:#000000;font-style:normal;font-variant:normal;font-weight:normal;font-stretch:normal;font-size:40.4333px;line-height:125%;font-family:'Nanum Pen Script OTF';-inkscape-font-specification:'Nanum Pen Script OTF';text-indent:0;text-align:center;text-decoration:none;text-decoration-line:none;letter-spacing:0px;word-spacing:0px;text-transform:none;writing-mode:lr-tb;direction:ltr;baseline-shift:baseline;text-anchor:middle;display:inline;overflow:visible;visibility:visible;fill:#241c1c;fill-opacity:1;fill-rule:nonzero;stroke:none;stroke-width:1.34778;enable-background:accumulate"
         x="1232.7334"
         y="-694.32959"
         id="tspan3828">베타 의견: Nicolas Artance, Imsesaok, Craig Maloney, Midgard, Valvin, XHire, Zveryok. </tspan></text>
  </g>
</svg>
